{
    "customComponent": {
        "i18nSupported": true,
        "id": "cwbfbd2ef4374d48f8bcb461fbf317d5ef",
        "isOverride": false,
        "konyWrapperFiles": [
            "resources/thirdpartywidgets/widgetwrapper/tp-uuxIcon-wrapper.js"
        ],
        "libraryFiles": [
            "resources/thirdpartywidgets/libtoimport/base.css",
            "resources/thirdpartywidgets/libtoimport/unified-ux-web.min.js"
        ],
        "libraryName": "libtoimport",
        "marginSupported": true,
        "name": "uuxIcon",
        "paddingSupported": true,
        "platformID": "0",
        "property": [
            {
                "categoryType": "Custom",
                "defaultValue": "",
                "exclude": false,
                "name": "color",
                "propertySelection": false,
                "type": "String",
                "uniqueID": "cwpf2320c54aad34c50b00601a09d92a853",
                "value": ""
            },
            {
                "categoryType": "Custom",
                "defaultValue": "",
                "exclude": false,
                "name": "size",
                "propertySelection": false,
                "type": "String",
                "uniqueID": "cwpa1efa91f787149968f3892ea055114da",
                "value": ""
            },
            {
                "categoryType": "Custom",
                "defaultValue": "",
                "exclude": false,
                "name": "iconName",
                "propertySelection": false,
                "type": "String",
                "uniqueID": "cwpg1f82cd915e845aa80b7178cdfcf33e8",
                "value": ""
            }
        ]
    }
}