{
    "@class": "com.kony.gen.viz.model.component.KVizCustom",
    "DNDConfig": null,
    "_height_": {
        "type": "string",
        "value": "55dp"
    },
    "_left_": {
        "type": "string",
        "value": "322dp"
    },
    "_margin_": [
        0,
        0,
        0,
        0
    ],
    "_padding_": [
        0,
        0,
        0,
        0
    ],
    "_top_": {
        "type": "string",
        "value": "88dp"
    },
    "_width_": {
        "type": "string",
        "value": "200dp"
    },
    "android": {
        "render": false
    },
    "androidwearos": {
        "render": false
    },
    "canUpdateUI": true,
    "containerweight": 0,
    "customProperties": {
        "dense": true,
        "disabled": false,
        "disabledDates": "",
        "disabledDays": "",
        "displayFormat": "dd MMM yyyy",
        "firstDayOfWeek": 0,
        "hideHeader": false,
        "iconButtonTrailingAriaLabel": "Open date calendar",
        "labelText": "Disbursement Date",
        "max": "",
        "min": "1900-01-01",
        "onDone": "",
        "showWeekNumber": true,
        "value": "",
        "weekLabel": "Wk"
    },
    "cwEvents": [
        "valueChanged",
        "onDone"
    ],
    "cwid": "cwfec5353029634671b5a44b7a745ad774",
    "id": "custDisbursementDate",
    "info": null,
    "ipad": {
        "render": false
    },
    "iphone": {
        "render": false
    },
    "iscustomlayout": false,
    "isvisible": true,
    "kiosk": {
        "render": false
    },
    "kuid": "i9a01d6e2a5a4d54986d28671d8a956e",
    "name": "uuxDatePicker-kony.ui",
    "nameSpaceIndex": 0,
    "parent": "flxNewDisbursement",
    "pf": "frmDisburse",
    "platformKey": "spa",
    "retaincontentalignment": false,
    "retainflexpositionproperties": false,
    "tabrcandroid": {
        "render": false
    },
    "wType": "TPW",
    "watchos": {
        "render": false
    },
    "widgetIndex": 6,
    "windows10": {
        "render": false
    },
    "windows8": {
        "render": false
    },
    "winphone10": {
        "render": false
    },
    "winphone8": {
        "render": false
    },
    "zindex": 2
}