{
    "DNDConfig": null,
    "_bottom_": {
        "type": "string",
        "value": "40dp"
    },
    "_height_": {
        "type": "ref",
        "value": "preferred"
    },
    "_left_": {
        "type": "string",
        "value": "0dp"
    },
    "_margin_": [
        0,
        0,
        0,
        0
    ],
    "_orientation_": 6,
    "_padding_": [
        0,
        0,
        0,
        0
    ],
    "_percent_": true,
    "_skin_": "sfb2db86ea214b7e91817ed27e11eb3a",
    "_top_": {
        "type": "string",
        "value": "2dp"
    },
    "_width_": {
        "type": "string",
        "value": "880px"
    },
    "allboxes": [],
    "autogrowmode": 1,
    "canUpdateUI": true,
    "centerx": {
        "type": "string",
        "value": "47%"
    },
    "children": [
        "custTotalLoanAmount1",
        "custAviableCommit1",
        "lblNewDisburse",
        "lblSelectMode",
        "custAccountNumber",
        "custAvaliableCommitment",
        "tbxPayOutAccount",
        "flxpayOutSearch1",
        "custDisburseAmount1",
        "lblErrorMsg",
        "custSelectMode",
        "flxPayoutComp",
        "custTotalLoanAmount",
        "custAviableCommit",
        "floatCreditAccount",
        "custDisburseAmount",
        "custDisbursementDate",
        "custButtonCancel",
        "custButtonConfirm",
        "flxpayOutSearch"
    ],
    "clipbounds": false,
    "containerweight": 100,
    "enablescrolling": true,
    "id": "flxNewDisbursement",
    "info": null,
    "iscustomlayout": false,
    "isvisible": true,
    "kuid": "db2a01b090b34816bbb38fa12c0340a0",
    "layouttype": 2,
    "name": "kony.ui.FlexContainer",
    "parent": "flxDisburse",
    "pf": "frmDisburse",
    "retaincontentalignment": false,
    "retainflexpositionproperties": false,
    "retainflowhorizontalalignment": false,
    "snapgridsize": 10,
    "snaptogrid": true,
    "wType": "FlexContainer",
    "widgetalignment": 1,
    "zindex": 4
}