{
    "DNDConfig": null,
    "_height_": {
        "type": "string",
        "value": "800dp"
    },
    "_left_": {
        "type": "number",
        "value": "0"
    },
    "_margin_": [
        0,
        0,
        0,
        0
    ],
    "_orientation_": 6,
    "_padding_": [
        0,
        0,
        0,
        0
    ],
    "_percent_": true,
    "_right_": {
        "type": "number",
        "value": "24"
    },
    "_skin_": "s931a1fef9724785bdb616b0fc27bd9d",
    "_top_": {
        "type": "string",
        "value": "0dp"
    },
    "_width_": {
        "type": "string",
        "value": "100%"
    },
    "allboxes": [],
    "autogrowmode": 0,
    "canUpdateUI": true,
    "children": [
        "flxPayout"
    ],
    "clipbounds": true,
    "containerweight": 100,
    "enablescrolling": true,
    "id": "flxpayInOutPOP",
    "info": null,
    "iscustomlayout": false,
    "isvisible": false,
    "kuid": "d2910aef63fb49119ddde8294dca2c53",
    "layouttype": 2,
    "name": "kony.ui.FlexContainer",
    "parent": "frmDisburse",
    "pf": "frmDisburse",
    "retaincontentalignment": false,
    "retainflexpositionproperties": false,
    "retainflowhorizontalalignment": false,
    "snapgridsize": 10,
    "snaptogrid": true,
    "wType": "FlexContainer",
    "widgetalignment": 1,
    "zindex": 1
}