{
    "@class": "com.kony.gen.viz.model.component.KVizUserWidget",
    "DNDConfig": null,
    "_children_": [],
    "_height_": {
        "type": "string",
        "value": "100%"
    },
    "_left_": {
        "type": "string",
        "value": "0dp"
    },
    "_margin_": [
        0,
        0,
        0,
        0
    ],
    "_orientation_": 1,
    "_padding_": [
        0,
        0,
        0,
        0
    ],
    "_percent_": true,
    "_skin_": "s66b71299e1344d1aa5c47a23adcbde4",
    "_top_": {
        "type": "string",
        "value": "0dp"
    },
    "_width_": {
        "type": "string",
        "value": "100%"
    },
    "android": {},
    "androidwearos": {},
    "areflexpropsreferenced": false,
    "autogrowmode": 0,
    "canUpdateUI": true,
    "clipbounds": true,
    "containerweight": 0,
    "dataDiffs": {
        "FlexContainer0a2679d5179ca43": {
            "__events__": {},
            "__info__": {
                "kuid": "f298c3ae2b6842c4b141875ee0774af0",
                "srcKUID": "bd3b38ed98434f3997c228e394898640",
                "wType": "FlexContainer"
            }
        },
        "FlexContainer0d49b88e8783340": {
            "__events__": {},
            "__info__": {
                "kuid": "c2c75252ebfe4711a388428a3b40c937",
                "srcKUID": "c15f73fdd5f74a098e58eb16a6fb75b8",
                "wType": "FlexContainer"
            }
        },
        "FlexContainer0d563d2dda18c41": {
            "__events__": {},
            "__info__": {
                "kuid": "a6b46034ce344d13b5a60132739d3bc9",
                "srcKUID": "f01659c3c8ea4a8085a198dea0b3861f",
                "wType": "FlexContainer"
            }
        },
        "FlexContainer0e3c37c0e40204d": {
            "__events__": {},
            "__info__": {
                "kuid": "eb709e32e09848d2982b2bfccebc58d0",
                "srcKUID": "h733b1376f384d4692f0a952102fc862",
                "wType": "FlexContainer"
            }
        },
        "FlexContainer0h7f6ad36bea740": {
            "__events__": {},
            "__info__": {
                "kuid": "e4ee6802a1004659ac17d682716fe47c",
                "srcKUID": "d3c54e8ba8b5444da49dcc189f07031f",
                "wType": "FlexContainer"
            }
        },
        "flxInnerSearch": {
            "__events__": {},
            "__info__": {
                "kuid": "d41c696ea1914d5dba50e7e05b787aea",
                "srcKUID": "c6daa685750e4d40ab257f5fa39059c6",
                "wType": "FlexContainer"
            }
        },
        "flxPopUpClose": {
            "__events__": {},
            "__info__": {
                "kuid": "f2fa7163f0c84c5d9fdad9287572d265",
                "srcKUID": "f405407e34b54c68b0e1cf25d2d5d438",
                "wType": "FlexContainer"
            }
        },
        "flxsegheaderPayout": {
            "__events__": {},
            "__info__": {
                "kuid": "i4d95ebce3d8485ba8bf37d6a16b38a0",
                "srcKUID": "f8bc034663eb422db1aa92a05960f450",
                "wType": "FlexContainer"
            }
        },
        "imgClose": {
            "__events__": {},
            "__info__": {
                "kuid": "a2104481051a4710b99b09d470f31163",
                "srcKUID": "d150180124964aa685e3fe653fb1af87",
                "wType": "Button"
            }
        },
        "imgClose1": {
            "__events__": {
                "ide_onTouchEnd": "AS_Image_ae9428a3f7d54919b7720ac15c9c7941"
            },
            "__info__": {
                "kuid": "bc5520d7e7df4c4aabd5eea73f11dbc5",
                "srcKUID": "b30d3b0783df4183930b2c30044f5eff",
                "wType": "Image"
            },
            "src": "ico_close.png"
        },
        "imgSrc": {
            "__events__": {},
            "__info__": {
                "kuid": "h3bef0ec716f4d46b2268fc1460a057c",
                "srcKUID": "fa1a1fea84a047c5b522f4ede0e20955",
                "wType": "Button"
            }
        },
        "imgSrc1": {
            "__events__": {},
            "__info__": {
                "kuid": "fcd98845cc254b7486e976a993fd4f5d",
                "srcKUID": "a8b50cffb9a74b33851f99529d0b9c3f",
                "wType": "Image"
            },
            "src": "search.png"
        },
        "lblAccountIdhead": {
            "__events__": {},
            "__info__": {
                "kuid": "e2f1312112dc4dd98a9f16810611cd42",
                "srcKUID": "f310807741e64590921161fe1b9d29f1",
                "wType": "Label"
            }
        },
        "lblBalance": {
            "__events__": {},
            "__info__": {
                "kuid": "c99c8611abe44bd2934565846cdb3b58",
                "srcKUID": "a4afd6c8f33144219c809c2ae9b3e908",
                "wType": "Label"
            }
        },
        "lblCurreny": {
            "__events__": {},
            "__info__": {
                "kuid": "cf8040778b054a03b1fd245548dd4338",
                "srcKUID": "j88f0ce969de49069aea9b9ed19d88a8",
                "wType": "Label"
            }
        },
        "lblCustomerIdhead": {
            "__events__": {},
            "__info__": {
                "kuid": "e70b20d284b7424ca2976b85c8656d27",
                "srcKUID": "a8f404018e284dba8074e8592ebf376f",
                "wType": "Label"
            }
        },
        "lblProductName": {
            "__events__": {},
            "__info__": {
                "kuid": "b808843e39e4484286bc563d496d22cc",
                "srcKUID": "e462fb0f7c4d4ae1bf4bb0e1468c931b",
                "wType": "Label"
            }
        },
        "lblsearchHeading": {
            "__events__": {},
            "__info__": {
                "kuid": "ba094b1ee90e4549a747f95bf0405b19",
                "srcKUID": "f0138f2619184dfab821d640197e1a54",
                "wType": "Label"
            }
        },
        "popupPayinPayout": {
            "__events__": {},
            "__info__": {
                "isRoot": true,
                "kuid": "b3a278398f09483d91d3e5cc2b9f217f",
                "srcKUID": "acc696de6aa54aec83fc92e420ee2973",
                "wType": "FlexContainer"
            },
            "autogrowMode": {
                "Default": 0
            },
            "centerX": {
                "Default": {
                    "type": "string",
                    "value": "50%"
                }
            },
            "centerY": {
                "Default": {
                    "type": "string",
                    "value": "50%"
                }
            },
            "height": {
                "Default": {
                    "type": "string",
                    "value": "100%"
                }
            },
            "left": {
                "Default": {
                    "type": "string",
                    "value": "0dp"
                }
            },
            "responsiveData": {},
            "width": {
                "Default": {
                    "type": "string",
                    "value": "100%"
                }
            }
        },
        "segPayinPayout": {
            "__events__": {
                "ide_onRowClick": "AS_Segment_cd66c81de52e4de29e68381495b002db"
            },
            "__info__": {
                "kuid": "a5b4a80dfb8349079f0ae029405327a0",
                "srcKUID": "j4e6cf8c614c4b378a9f8a478c4d12a6",
                "wType": "Segment"
            }
        },
        "txtSearchBox": {
            "__events__": {},
            "__info__": {
                "kuid": "dd585f4874724263bb693943048b61e0",
                "srcKUID": "c44da17b1ac74b4ab6a57b290abec4d3",
                "wType": "TextField"
            }
        }
    },
    "desktopweb": {},
    "enablescrolling": true,
    "id": "popupPayinPayout2",
    "info": null,
    "ipad": {},
    "iphone": {},
    "iscustomlayout": false,
    "isdatareferenced": false,
    "issegmentchild": false,
    "isvisible": true,
    "kiosk": {},
    "kuid": "b3a278398f09483d91d3e5cc2b9f217f",
    "layouttype": 4,
    "masterType": 0,
    "name": "kony.ui.UserWidgetInstance",
    "parent": "flxPayout",
    "pf": "frmDisburse",
    "responsiveData": {},
    "retaincontentalignment": false,
    "retainflexpositionproperties": false,
    "retainflowhorizontalalignment": false,
    "snapgridsize": 10,
    "snaptogrid": true,
    "sourceUserWidget": "acc696de6aa54aec83fc92e420ee2973",
    "spa": {},
    "spaan": {},
    "spaandroidtablet": {},
    "spabb": {},
    "spaip": {},
    "spaipad": {},
    "spamobile": {},
    "spatablet": {},
    "spawindowstablet": {},
    "spawinphone8": {},
    "tabrcandroid": {},
    "vizProps": {
        "hidewidgethierarchy": false
    },
    "wType": "UserWidgetInstance",
    "windows10": {},
    "windows8": {},
    "winphone10": {},
    "winphone8": {}
}