{
    "@class": "com.kony.gen.viz.model.component.KVizUserWidget",
    "DNDConfig": null,
    "_children_": [],
    "_height_": {
        "type": "string",
        "value": "968dp"
    },
    "_left_": {
        "type": "string",
        "value": "0dp"
    },
    "_margin_": [
        0,
        0,
        0,
        0
    ],
    "_orientation_": 1,
    "_padding_": [
        0,
        0,
        0,
        0
    ],
    "_percent_": true,
    "_skin_": "sf77f521dbc14d00b8925cd197f74352",
    "_top_": {
        "type": "string",
        "value": "0dp"
    },
    "_width_": {
        "type": "string",
        "value": "100%"
    },
    "android": {},
    "androidwearos": {},
    "areflexpropsreferenced": false,
    "autogrowmode": 0,
    "canUpdateUI": true,
    "clipbounds": true,
    "containerweight": 0,
    "dataDiffs": {
        "SegmentPopup": {
            "__events__": {},
            "__info__": {
                "isRoot": true,
                "kuid": "f48a5b074b914566853427675196d7f1",
                "srcKUID": "eb5542d4860349a4b1b3eb34a2c29d69",
                "wType": "FlexContainer"
            },
            "isVisible": false,
            "responsiveData": {},
            "right": {
                "Default": {
                    "type": "string",
                    "value": ""
                }
            },
            "width": {
                "Default": {
                    "type": "string",
                    "value": "100%"
                }
            }
        },
        "btnCancel": {
            "__events__": {},
            "__info__": {
                "kuid": "a025e94de2cc45478c2185360ceb59a1",
                "srcKUID": "j3364e8b9ed747ab8d3d09eeb8cf42b2",
                "wType": "Button"
            }
        },
        "btnProceed": {
            "__events__": {},
            "__info__": {
                "kuid": "ca17f3ad208048feaf9bb3a6ae4e0049",
                "srcKUID": "fa7ef604a33040d9ae2498b049d99e77",
                "wType": "Button"
            }
        },
        "flxFooter": {
            "__events__": {},
            "__info__": {
                "kuid": "cc5e40da94b2443ea8b28ebd1d3d1f12",
                "srcKUID": "c96349bcaa6d4b85bb8a30f632cf5b05",
                "wType": "FlexContainer"
            }
        },
        "flxPopup": {
            "__events__": {},
            "__info__": {
                "kuid": "g523150920444e9aab702a7df36b10bd",
                "srcKUID": "gf79454354cf45e5983f5c19be951e1e",
                "wType": "FlexContainer"
            }
        },
        "flxPopupHeader": {
            "__events__": {},
            "__info__": {
                "kuid": "efd874ef361749929e5983c76cfe250e",
                "srcKUID": "eb333858bf814117bf4b0bc634ca4ffb",
                "wType": "FlexContainer"
            }
        },
        "flxPopupMessage": {
            "__events__": {},
            "__info__": {
                "kuid": "hdb5920a198a48c888f8f4e44c3437fe",
                "srcKUID": "efc11098121046dabeceef21e8bf585d",
                "wType": "FlexContainer"
            }
        },
        "imgClose": {
            "__events__": {},
            "__info__": {
                "kuid": "a54af3a803904bf39ce7584c2f09af4f",
                "srcKUID": "e04f19662a874fabb18c3d7092f29cc4",
                "wType": "Image"
            },
            "src": "ico_close.png"
        },
        "lblPaymentInfo": {
            "__events__": {},
            "__info__": {
                "kuid": "f9e356cfc7624c21ac1a95a77379e0c0",
                "srcKUID": "jfe2e47f228e4984abf0cd755e907b08",
                "wType": "Label"
            }
        },
        "segOverride": {
            "__events__": {},
            "__info__": {
                "kuid": "d4cb36a6579540a2a12e7c08c6779728",
                "srcKUID": "d9af6985e2124b3c922a644898d291a6",
                "wType": "Segment"
            },
            "isVisible": true,
            "responsiveData": {}
        }
    },
    "desktopweb": {},
    "enablescrolling": true,
    "id": "SegmentPopup",
    "info": null,
    "ipad": {},
    "iphone": {},
    "iscustomlayout": false,
    "isdatareferenced": false,
    "issegmentchild": false,
    "isvisible": false,
    "kiosk": {},
    "kuid": "f48a5b074b914566853427675196d7f1",
    "layouttype": 2,
    "masterType": 0,
    "name": "kony.ui.UserWidgetInstance",
    "parent": "frmDisburse",
    "pf": "frmDisburse",
    "responsiveData": {},
    "retaincontentalignment": false,
    "retainflexpositionproperties": false,
    "retainflowhorizontalalignment": false,
    "snapgridsize": 10,
    "snaptogrid": true,
    "sourceUserWidget": "eb5542d4860349a4b1b3eb34a2c29d69",
    "spa": {},
    "spaan": {},
    "spaandroidtablet": {},
    "spabb": {},
    "spaip": {},
    "spaipad": {},
    "spamobile": {},
    "spatablet": {},
    "spawindowstablet": {},
    "spawinphone8": {},
    "tabrcandroid": {},
    "vizProps": {
        "hidewidgethierarchy": false
    },
    "wType": "UserWidgetInstance",
    "windows10": {},
    "windows8": {},
    "winphone10": {},
    "winphone8": {}
}