{
    "@class": "com.kony.gen.viz.model.component.KVizTextBox2",
    "DNDConfig": null,
    "_height_": {
        "type": "string",
        "value": "56dp"
    },
    "_left_": {
        "type": "string",
        "value": "634dp"
    },
    "_margin_": [
        0,
        0,
        0,
        0
    ],
    "_padding_": [
        1,
        0,
        0,
        0
    ],
    "_placeholder_": "Credit Account No. *",
    "_skin_": "s3bdf26e328243d7b268faf5fbab807b",
    "_text_": "",
    "_top_": {
        "type": "string",
        "value": "120dp"
    },
    "_width_": {
        "type": "string",
        "value": "200dp"
    },
    "autocapitalize": "none",
    "autocomplete": false,
    "autocorrect": false,
    "autofilter": false,
    "canUpdateUI": true,
    "containerheight": "",
    "containerheightmode": 1,
    "containerweight": 100,
    "contentalignment": 4,
    "focusskin": "scc016aaa0ba4fa09efe65775d4e659c",
    "id": "tbxPayOutAccount",
    "ide_onTouchStart": "AS_TextField_j4b048bc619c4ce1b26bba5669ca874f",
    "info": null,
    "iscustomlayout": false,
    "isvisible": false,
    "keyboardtype": "A",
    "kuid": "i897141bf8694a2cbbaa123dbfe6c814",
    "mode": "A",
    "name": "kony.ui.TextBox2",
    "paddinginpixel": false,
    "parent": "flxNewDisbursement",
    "pf": "frmDisburse",
    "placeholderskin": "s10546fc77e34e4aaffa4e4ca91568c1",
    "retaincontentalignment": false,
    "retainflexpositionproperties": false,
    "securetextentry": false,
    "textinputmode": "A",
    "tooltip": "",
    "viewtype": "default",
    "wType": "TextField",
    "zindex": 1
}