{
    "DNDConfig": null,
    "_height_": {
        "type": "string",
        "value": "157dp"
    },
    "_left_": {
        "type": "string",
        "value": "18dp"
    },
    "_margin_": [
        0,
        0,
        0,
        0
    ],
    "_orientation_": 6,
    "_padding_": [
        0,
        0,
        0,
        0
    ],
    "_percent_": true,
    "_right_": {
        "type": "string",
        "value": "32dp"
    },
    "_skin_": "sf1404af063a4230acb042eabfae7706",
    "_top_": {
        "type": "string",
        "value": "72dp"
    },
    "allboxes": [],
    "autogrowmode": 0,
    "canUpdateUI": true,
    "children": [
        "imgCustomerProfilePic",
        "lblCustomerName",
        "lblCustomerNumberResponse",
        "lblRelationInfo",
        "lblDOBInfo",
        "lblEmailInfo",
        "lblPhoneInfo",
        "lblLocationInfo",
        "lblProfileInfo",
        "lblAccountOfficerInfo",
        "lblMobileBankingInfo",
        "lblInternetBankingInfo",
        "lblRelationResponse",
        "lblDOBResponse",
        "lblEmailResponse",
        "lblPhoneResponse",
        "lblLocationResponse",
        "lblProfileResponse",
        "lblAccountOfficerResponse",
        "lblMobileBankingResponse",
        "lblInternetBankingResponse"
    ],
    "clipbounds": true,
    "containerweight": 100,
    "enablescrolling": true,
    "id": "customerDetails",
    "info": null,
    "iscustomlayout": false,
    "isvisible": true,
    "kuid": "j155f8cb11984bdfb1548b50072a712f",
    "layouttype": 2,
    "name": "kony.ui.FlexContainer",
    "parent": "userwidgetmodel",
    "pf": "userwidgetmodel",
    "retaincontentalignment": false,
    "retainflexpositionproperties": false,
    "retainflowhorizontalalignment": false,
    "snapgridsize": 10,
    "snaptogrid": true,
    "vizProps": {
        "hidewidgethierarchy": false
    },
    "wType": "FlexContainer",
    "widgetalignment": 1,
    "zindex": 1
}