{
    "@class": "com.kony.gen.viz.model.component.KVizTextBox2",
    "DNDConfig": null,
    "_height_": {
        "type": "string",
        "value": "40dp"
    },
    "_left_": {
        "type": "string",
        "value": "1158dp"
    },
    "_margin_": [
        0,
        0,
        0,
        0
    ],
    "_padding_": [
        3,
        0,
        0,
        0
    ],
    "_placeholder_": "Placeholder",
    "_skin_": "s7efb033301249fdbe3ab5bab13c0b88",
    "_text_": "",
    "_top_": {
        "type": "string",
        "value": "15dp"
    },
    "_width_": {
        "type": "string",
        "value": "300dp"
    },
    "autocapitalize": "none",
    "autocomplete": false,
    "autocorrect": false,
    "autofilter": false,
    "canUpdateUI": true,
    "containerheight": "",
    "containerheightmode": 1,
    "containerweight": 100,
    "contentalignment": 4,
    "desktopweb": {
        "ide_onBeginEditing": "AS_TextField_d18b94dc699844039f721d844eb4c87b",
        "ide_onKeyUp": "AS_TextField_e136b0b1c7a747068786f4820e45b8cf"
    },
    "disabledSkins": {},
    "focusskin": "scc016aaa0ba4fa09efe65775d4e659c",
    "id": "txtSearch",
    "info": null,
    "iscustomlayout": false,
    "isvisible": false,
    "keyboardtype": "A",
    "kuid": "a4c5c71e9a7945e4aabbe17429270bce",
    "mode": "A",
    "name": "kony.ui.TextBox2",
    "paddinginpixel": false,
    "parent": "search",
    "pf": "userwidgetmodel",
    "placeholderskin": "s10546fc77e34e4aaffa4e4ca91568c1",
    "responsiveData": {
        "b4": {
            "desktopweb": {
                "placeholderSkin": "s5f42f8fe17a4565a67e683e619c7f42"
            },
            "disabledSkins": {},
            "focusSkin": "s5f42f8fe17a4565a67e683e619c7f42",
            "padding": [
                1,
                0,
                0,
                0
            ],
            "placeholderSkin": "s10546fc77e34e4aaffa4e4ca91568c1",
            "skin": "s5f42f8fe17a4565a67e683e619c7f42"
        }
    },
    "retaincontentalignment": false,
    "retainflexpositionproperties": false,
    "securetextentry": false,
    "textinputmode": "A",
    "tooltip": "",
    "viewtype": "default",
    "wType": "TextField",
    "zindex": 1
}