{
    "customComponent": {
        "i18nSupported": true,
        "id": "cwd832c22a5e16422ea581d8121ce8b746",
        "isOverride": false,
        "konyWrapperFiles": [
            "resources/thirdpartywidgets/widgetwrapper/tp-barGraph1-wrapper.js"
        ],
        "libraryFiles": [
            "resources/thirdpartywidgets/chartjs/Chart.bundle.min.js",
            "resources/thirdpartywidgets/chartjs/Chart.min.css",
            "resources/thirdpartywidgets/chartjs/Chart.min.js"
        ],
        "libraryName": "chartjs",
        "marginSupported": true,
        "name": "barGraph1",
        "paddingSupported": true,
        "platformID": "0",
        "property": [
            {
                "categoryType": "Custom",
                "defaultValue": "",
                "exclude": false,
                "name": "canvasWidth",
                "propertySelection": false,
                "type": "String",
                "uniqueID": "cwpd61d3ce0b6bd46e687ebdad4d9c61db3",
                "value": ""
            },
            {
                "categoryType": "Custom",
                "defaultValue": "",
                "exclude": false,
                "name": "canvasHeight",
                "propertySelection": false,
                "type": "String",
                "uniqueID": "cwpff40ab405e4a4433878857d72a81a4b4",
                "value": ""
            },
            {
                "categoryType": "Custom",
                "defaultValue": false,
                "exclude": false,
                "name": "updateBars",
                "propertySelection": false,
                "type": "Boolean",
                "uniqueID": "cwpgb86b6fa587144e095fc17490e6cd62a",
                "value": false
            },
            {
                "categoryType": "Custom",
                "defaultValue": "[\"a\", \"b\", \"c\"]",
                "exclude": false,
                "name": "xlabelsArray",
                "propertySelection": false,
                "type": "String",
                "uniqueID": "cwpc2d12f95ded34485b51815e9e57cf709",
                "value": "[\"a\", \"b\", \"c\"]"
            },
            {
                "categoryType": "Custom",
                "defaultValue": "[ {label:\"lbl1\", backgroundColor: \"#FF9800\", data:[10, 11, 9]}, {label:\"lbl2\", backgroundColor: \"#2C8631\", data:[8, 4, 5]]} ]",
                "exclude": false,
                "name": "datasetsArray",
                "propertySelection": false,
                "type": "String",
                "uniqueID": "cwpg1f99cd922e6447189255a76168dc8f1",
                "value": "[ {label:\"lbl1\", backgroundColor: \"#FF9800\", data:[10, 11, 9]}, {label:\"lbl2\", backgroundColor: \"#2C8631\", data:[8, 4, 5]]} ]"
            },
            {
                "categoryType": "Event",
                "defaultValue": "",
                "exclude": false,
                "name": "chartObj",
                "propertySelection": false,
                "type": "Event",
                "uniqueID": "cwpf5028ef563aa4addb7c5d52dd2c5d63e",
                "value": ""
            },
            {
                "categoryType": "Custom",
                "defaultValue": false,
                "exclude": false,
                "name": "lineAreaFill",
                "propertySelection": false,
                "type": "Boolean",
                "uniqueID": "cwpb616fe89f74d48dca3231a0c88945ce6",
                "value": false
            },
            {
                "categoryType": "Custom",
                "defaultValue": true,
                "exclude": false,
                "name": "yBeginsAtZero",
                "propertySelection": false,
                "type": "Boolean",
                "uniqueID": "cwpg865909f4cc241d98d94dd3ba0021d3b",
                "value": true
            },
            {
                "categoryType": "Custom",
                "defaultValue": "",
                "exclude": false,
                "name": "typevalue",
                "propertySelection": false,
                "type": "String",
                "uniqueID": "cwpd2146a677a984af1bb663df4ee37f210",
                "value": ""
            },
            {
                "categoryType": "Custom",
                "defaultValue": "",
                "exclude": false,
                "name": "xlabelString",
                "propertySelection": false,
                "type": "String",
                "uniqueID": "cwpfb40b5e8a381486aa059754585675bca",
                "value": ""
            },
            {
                "categoryType": "Custom",
                "defaultValue": "",
                "exclude": false,
                "name": "ylabelString",
                "propertySelection": false,
                "type": "String",
                "uniqueID": "cwpi0970cd3f0cd44a2978ae60b1dc72c13",
                "value": ""
            }
        ]
    }
}