{
    "@class": "com.kony.gen.viz.model.component.KVizListBox",
    "DNDConfig": null,
    "_height_": {
        "type": "string",
        "value": "60%"
    },
    "_left_": {
        "type": "string",
        "value": "0dp"
    },
    "_margin_": [
        0,
        0,
        0,
        0
    ],
    "_padding_": [
        3,
        0,
        0,
        0
    ],
    "_placeholder_": "Please Select",
    "_skin_": "sddf77c1bb3e451292e5032bb17de594",
    "_top_": {
        "type": "string",
        "value": "0dp"
    },
    "_width_": {
        "type": "string",
        "value": "14.20%"
    },
    "canUpdateUI": true,
    "centery": {
        "type": "string",
        "value": "50.00%"
    },
    "containerId": true,
    "containerweight": 100,
    "contentalignment": 4,
    "disabledSkins": {
        "focusSkin": "s6459b4e1e854d2ebfa3bf2b0a69365f"
    },
    "groupcells": false,
    "id": "lblServices",
    "ide_onSelection": "AS_ListBox_b67175ffaba04b1a86f3696d1f7a2aea",
    "info": null,
    "iscustomlayout": false,
    "isvisible": true,
    "kuid": "a5eec81adf684f1790237dcd6c3b36aa",
    "masterdata": [
        [
            "lb1",
            "Please Select"
        ],
        [
            "lb2",
            "Apply Payment Holiday"
        ],
        [
            "lb3",
            "Change Interest"
        ],
        [
            "Key2950001110",
            "Disburse"
        ],
        [
            "Key3050783614",
            "Increase Principal"
        ],
        [
            "Key1274168900",
            "Payoff"
        ],
        [
            "Key3762415307",
            "Repay"
        ]
    ],
    "name": "kony.ui.ListBox",
    "paddinginpixel": false,
    "parent": "CopyflxTemp0d4943827dcd74a",
    "pf": "tempForLoansSegment",
    "retaincontentalignment": false,
    "retainflexpositionproperties": false,
    "selectedkey": "lb1",
    "selectedkeys": null,
    "selectedkeyvalue": [
        "lb1",
        "Please Select"
    ],
    "selectedkeyvalues": null,
    "size": 18,
    "viewconfig": {
        "toggleViewConfig": {
            "viewStyle": 0
        }
    },
    "viewtype": 0,
    "wType": "ListBox",
    "zindex": 1
}