{
    "DNDConfig": null,
    "_height_": {
        "type": "string",
        "value": "40dp"
    },
    "_left_": {
        "type": "string",
        "value": "0dp"
    },
    "_margin_": [
        0,
        0,
        0,
        0
    ],
    "_orientation_": 6,
    "_padding_": [
        0,
        0,
        0,
        0
    ],
    "_percent_": true,
    "_skin_": "s6827eda317a422fa2fbea8c5771b24a",
    "_top_": {
        "type": "string",
        "value": "5%"
    },
    "_width_": {
        "type": "string",
        "value": "31dp"
    },
    "allboxes": [],
    "autogrowmode": 0,
    "canUpdateUI": true,
    "children": [
        "CopyfloatReadOnlylText0b9b56db2d81b41",
        "CopyfloatLabelText0e10ae83ab13a42",
        "CopydownArrowLbl0gd341900508245"
    ],
    "clipbounds": true,
    "containerweight": 100,
    "desktopweb": {
        "zIndex": "auto"
    },
    "enablescrolling": true,
    "id": "flxPassImage",
    "info": null,
    "iscustomlayout": false,
    "isvisible": true,
    "kuid": "jb624d36306f416dab22a0928988a366",
    "layouttype": 2,
    "name": "kony.ui.FlexContainer",
    "parent": "flxCustPass",
    "pf": "frmLogin",
    "retaincontentalignment": false,
    "retainflexpositionproperties": false,
    "retainflowhorizontalalignment": false,
    "snapgridsize": 10,
    "snaptogrid": true,
    "wType": "FlexContainer",
    "widgetalignment": 1,
    "zindex": 1
}