{
    "@class": "com.kony.gen.viz.model.component.KVizListBox",
    "DNDConfig": null,
    "_height_": {
        "type": "string",
        "value": "40dp"
    },
    "_left_": {
        "type": "string",
        "value": "0dp"
    },
    "_margin_": [
        0,
        0,
        0,
        0
    ],
    "_padding_": [
        1,
        0,
        0,
        0
    ],
    "_placeholder_": "Please Select",
    "_skin_": "sca67064c0fe41b7b239a573846eb16e",
    "_top_": {
        "type": "string",
        "value": "5dp"
    },
    "_width_": {
        "type": "string",
        "value": "210dp"
    },
    "canUpdateUI": true,
    "containerId": true,
    "containerweight": 100,
    "contentalignment": 4,
    "disabledSkins": {
        "focusSkin": "s6459b4e1e854d2ebfa3bf2b0a69365f"
    },
    "dropdownimage": "listboxarw.png",
    "groupcells": false,
    "id": "lstFloatingrate",
    "info": null,
    "iscustomlayout": false,
    "isvisible": true,
    "kiosk": {
        "psp": {
            "placeholder": ""
        }
    },
    "kuid": "ja8f23912edb4f71b8eb67e4d9a842d0",
    "masterdata": [
        [
            "lb1",
            "Floating1"
        ],
        [
            "lb2",
            "Floating2"
        ],
        [
            "lb3",
            "Floating3"
        ]
    ],
    "name": "kony.ui.ListBox",
    "paddinginpixel": false,
    "parent": "flxSegLoanFloating",
    "pf": "TempSegLoanFloating",
    "retaincontentalignment": false,
    "retainflexpositionproperties": false,
    "selectedkey": "lb1",
    "selectedkeys": null,
    "selectedkeyvalue": [
        "lb1",
        "Floating1"
    ],
    "selectedkeyvalues": null,
    "size": 18,
    "viewconfig": {
        "toggleViewConfig": {
            "viewStyle": 0
        }
    },
    "viewtype": 0,
    "wType": "ListBox",
    "zindex": 1
}