{
    "@class": "com.kony.gen.viz.model.component.KVizCustom",
    "DNDConfig": null,
    "_height_": {
        "type": "string",
        "value": "60dp"
    },
    "_left_": {
        "type": "string",
        "value": "45dp"
    },
    "_margin_": [
        0,
        0,
        0,
        0
    ],
    "_padding_": [
        0,
        0,
        0,
        0
    ],
    "_top_": {
        "type": "string",
        "value": "20dp"
    },
    "_width_": {
        "type": "string",
        "value": "313dp"
    },
    "android": {
        "render": false
    },
    "androidwearos": {
        "render": false
    },
    "canUpdateUI": true,
    "clipbounds": false,
    "containerweight": 0,
    "customProperties": {
        "dense": true,
        "disabled": false,
        "disabledDates": "",
        "disabledDays": "",
        "displayFormat": "",
        "firstDayOfWeek": 0,
        "hideHeader": false,
        "iconButtonTrailingAriaLabel": "Open date calendar",
        "labelText": "Effective Date",
        "max": "",
        "min": "1900-01-01",
        "onDone": "",
        "showWeekNumber": false,
        "validateRequired": "required",
        "value": "",
        "weekLabel": "Wk"
    },
    "cwEvents": [
        "onDone"
    ],
    "cwid": "cwfec5353029634671b5a44b7a745ad774",
    "id": "cusEffectiveDateResponse",
    "info": null,
    "ipad": {
        "render": false
    },
    "iphone": {
        "render": false
    },
    "iscustomlayout": false,
    "isvisible": true,
    "kiosk": {
        "render": false
    },
    "kuid": "jbe9cb49488548a191b6e3929467329f",
    "name": "uuxDatePicker-kony.ui",
    "nameSpaceIndex": 0,
    "parent": "flxCustomFields",
    "pf": "frmCustomerLoanInterestChange",
    "platformKey": "spa",
    "retaincontentalignment": false,
    "retainflexpositionproperties": false,
    "tabrcandroid": {
        "render": false
    },
    "wType": "TPW",
    "watchos": {
        "render": false
    },
    "widgetIndex": 5,
    "windows10": {
        "render": false
    },
    "windows8": {
        "render": false
    },
    "winphone10": {
        "render": false
    },
    "winphone8": {
        "render": false
    },
    "zindex": 5
}