{
    "@class": "com.kony.gen.viz.model.component.KVizCustom",
    "DNDConfig": null,
    "_height_": {
        "type": "string",
        "value": "50dp"
    },
    "_left_": {
        "type": "string",
        "value": "703dp"
    },
    "_margin_": [
        0,
        0,
        0,
        0
    ],
    "_padding_": [
        0,
        0,
        0,
        0
    ],
    "_top_": {
        "type": "string",
        "value": "1dp"
    },
    "_width_": {
        "type": "string",
        "value": "153dp"
    },
    "android": {
        "render": false
    },
    "androidwearos": {
        "render": false
    },
    "canUpdateUI": true,
    "containerweight": 0,
    "customProperties": {
        "dense": false,
        "disabled": false,
        "fieldType": {
            "optionsList": [
                "text",
                "search",
                "tel",
                "url",
                "email",
                "password",
                "date",
                "month",
                "week",
                "time",
                "datetime-local",
                "number"
            ],
            "selectedValue": "text"
        },
        "iconButtonIcon": "",
        "labelText": "Label",
        "onKeyDown": "",
        "onKeyUp": "",
        "placeholder": "",
        "showIconButtonTrailing": false,
        "showIconButtonTrailingWithValue": false,
        "validateRequired": "",
        "validationMessage": "",
        "value": ""
    },
    "cwEvents": [
        "valueChanged",
        "isValid",
        "onKeyDown",
        "onKeyUp"
    ],
    "cwid": "cwa42be51691834e0eba953697bbf896b3",
    "id": "cusEffectiveRateResponse",
    "info": null,
    "ipad": {
        "render": false
    },
    "iphone": {
        "render": false
    },
    "iscustomlayout": false,
    "isvisible": false,
    "kiosk": {
        "render": false
    },
    "kuid": "eafa3d5915f740138b91bbd60a50fba3",
    "name": "uuxTextField-kony.ui",
    "nameSpaceIndex": 0,
    "parent": "flxFixedModeWrapper",
    "pf": "frmCustomerLoanInterestChange",
    "platformKey": "spa",
    "retaincontentalignment": false,
    "retainflexpositionproperties": false,
    "tabrcandroid": {
        "render": false
    },
    "wType": "TPW",
    "watchos": {
        "render": false
    },
    "widgetIndex": 19,
    "windows10": {
        "render": false
    },
    "windows8": {
        "render": false
    },
    "winphone10": {
        "render": false
    },
    "winphone8": {
        "render": false
    },
    "zindex": 1
}