{
    "@class": "com.kony.gen.viz.model.component.KVizUserWidget",
    "DNDConfig": null,
    "_children_": [],
    "_height_": {
        "type": "string",
        "value": "64dp"
    },
    "_left_": {
        "type": "string",
        "value": "0dp"
    },
    "_margin_": [
        0,
        0,
        0,
        0
    ],
    "_orientation_": 1,
    "_padding_": [
        0,
        0,
        0,
        0
    ],
    "_percent_": true,
    "_skin_": "s326344e94f3406b86de51e19fc61057",
    "_top_": {
        "type": "string",
        "value": "227dp"
    },
    "_width_": {
        "type": "string",
        "value": "98%"
    },
    "android": {},
    "androidwearos": {},
    "areflexpropsreferenced": false,
    "autogrowmode": 0,
    "canUpdateUI": true,
    "clipbounds": true,
    "containerweight": 0,
    "dataDiffs": {
        "MainTabs": {
            "__events__": {},
            "__info__": {
                "isRoot": true,
                "kuid": "h12de463230b4026b58f30828944595f",
                "srcKUID": "gfa2cf89659d4a20bcd9887a4293aceb",
                "wType": "FlexContainer"
            },
            "left": {
                "Default": {
                    "type": "string",
                    "value": "0dp"
                }
            },
            "responsiveData": {},
            "top": {
                "Default": {
                    "type": "string",
                    "value": "227dp"
                }
            },
            "width": {
                "Default": {
                    "type": "string",
                    "value": "98%"
                }
            }
        },
        "btnAccounts1": {
            "__events__": {},
            "__info__": {
                "kuid": "b7d344e158cb4021a009a380c56fcaf0",
                "srcKUID": "d907392e82444815861b42c16a52e990",
                "wType": "Button"
            },
            "left": {
                "Default": {
                    "type": "number",
                    "value": "40"
                }
            },
            "responsiveData": {}
        },
        "btnAccounts2": {
            "__events__": {},
            "__info__": {
                "kuid": "g98a9418d9ed4afe9d5d428715724028",
                "srcKUID": "b164258465c04156b0bfe728a8ba9edc",
                "wType": "Button"
            }
        },
        "btnAccounts3": {
            "__events__": {},
            "__info__": {
                "kuid": "b95a85ca68c24dda8f8e221171d7b557",
                "srcKUID": "f92522096e564e2e8c7ebcdc48881b6e",
                "wType": "Button"
            }
        },
        "flxButtons": {
            "__events__": {},
            "__info__": {
                "kuid": "ce0e0ca75dc949c296e58fdbad1bac3f",
                "srcKUID": "g5e41e55e19f4d73a0c0f80586ee0af5",
                "wType": "FlexContainer"
            }
        },
        "flxContainerAccount": {
            "__events__": {},
            "__info__": {
                "kuid": "icfdf86ff4e24b84b701bd0276c7a32b",
                "srcKUID": "f02fd497ec2440efaf459ea4a1e30d76",
                "wType": "FlexContainer"
            },
            "left": {
                "Default": {
                    "type": "string",
                    "value": "27dp"
                }
            },
            "responsiveData": {}
        },
        "flxContainerdeposits": {
            "__events__": {},
            "__info__": {
                "kuid": "e89756cb02f64a50871e5b3209063ffc",
                "srcKUID": "de5db572dc7d40da9a34209bd8d48cbc",
                "wType": "FlexContainer"
            }
        },
        "flxSelectedLine": {
            "__events__": {},
            "__info__": {
                "kuid": "d20894e9bbe84facb1d6eb511d19ef31",
                "srcKUID": "ebb68235498b423c978053017e5a2b76",
                "wType": "FlexContainer"
            }
        },
        "flxSeparatorLine1": {
            "__events__": {},
            "__info__": {
                "kuid": "b3966d044a814597966bd0dbed99a160",
                "srcKUID": "g7af0e5532294f0b822b96c67e9a5da5",
                "wType": "FlexContainer"
            }
        },
        "flxontainerLoans": {
            "__events__": {},
            "__info__": {
                "kuid": "ga1171adbf344a9e8896e6eb9282f20c",
                "srcKUID": "acdd8666dd3b4d4d9d1fee68579444f5",
                "wType": "FlexContainer"
            },
            "left": {
                "Default": {
                    "type": "string",
                    "value": "245dp"
                }
            },
            "responsiveData": {}
        }
    },
    "desktopweb": {},
    "enablescrolling": true,
    "id": "MainTabs",
    "info": null,
    "ipad": {},
    "iphone": {},
    "iscustomlayout": false,
    "isdatareferenced": false,
    "issegmentchild": false,
    "isvisible": true,
    "kiosk": {},
    "kuid": "h12de463230b4026b58f30828944595f",
    "layouttype": 2,
    "masterType": 0,
    "name": "kony.ui.UserWidgetInstance",
    "parent": "flxMainContainer",
    "pf": "frmCustomerLoanInterestChange",
    "responsiveData": {},
    "retaincontentalignment": false,
    "retainflexpositionproperties": false,
    "retainflowhorizontalalignment": false,
    "snapgridsize": 10,
    "snaptogrid": true,
    "sourceUserWidget": "gfa2cf89659d4a20bcd9887a4293aceb",
    "spa": {},
    "spaan": {},
    "spaandroidtablet": {},
    "spabb": {},
    "spaip": {},
    "spaipad": {},
    "spamobile": {},
    "spatablet": {},
    "spawindowstablet": {},
    "spawinphone8": {},
    "tabrcandroid": {},
    "vizProps": {
        "hidewidgethierarchy": false
    },
    "wType": "UserWidgetInstance",
    "windows10": {},
    "windows8": {},
    "winphone10": {},
    "winphone8": {},
    "zindex": 1
}