{
    "@class": "com.kony.gen.viz.model.component.KVizUserWidget",
    "DNDConfig": null,
    "_children_": [],
    "_height_": {
        "type": "string",
        "value": "100%"
    },
    "_left_": {
        "type": "string",
        "value": "0dp"
    },
    "_margin_": [
        0,
        0,
        0,
        0
    ],
    "_orientation_": 1,
    "_padding_": [
        0,
        0,
        0,
        0
    ],
    "_percent_": true,
    "_skin_": "sf77f521dbc14d00b8925cd197f74352",
    "_top_": {
        "type": "string",
        "value": "0dp"
    },
    "_width_": {
        "type": "string",
        "value": "100%"
    },
    "areflexpropsreferenced": false,
    "autogrowmode": 0,
    "canUpdateUI": true,
    "clipbounds": true,
    "containerweight": 0,
    "dataDiffs": {
        "SegmentPopup": {
            "__events__": {},
            "__info__": {
                "isRoot": true,
                "kuid": "ib57d7e5f6b74eec82f454ef76bd348e",
                "srcKUID": "eb5542d4860349a4b1b3eb34a2c29d69",
                "wType": "FlexContainer"
            },
            "autogrowMode": {
                "Default": 0
            },
            "height": {
                "Default": {
                    "type": "string",
                    "value": "100%"
                }
            },
            "responsiveData": {}
        },
        "btnCancel": {
            "__events__": {},
            "__info__": {
                "kuid": "d7a74f603cd543b8a9139b3a100d96cb",
                "srcKUID": "j3364e8b9ed747ab8d3d09eeb8cf42b2",
                "wType": "Button"
            }
        },
        "btnProceed": {
            "__events__": {},
            "__info__": {
                "kuid": "ie309276fc74494696960da3d6b85f9e",
                "srcKUID": "fa7ef604a33040d9ae2498b049d99e77",
                "wType": "Button"
            }
        },
        "flxFooter": {
            "__events__": {},
            "__info__": {
                "kuid": "a81f00fb6fe04677af0ee0c5aeab45a2",
                "srcKUID": "c96349bcaa6d4b85bb8a30f632cf5b05",
                "wType": "FlexContainer"
            }
        },
        "flxPopup": {
            "__events__": {},
            "__info__": {
                "kuid": "e78b3df3efb9456086cc3ffa50cdbc0a",
                "srcKUID": "gf79454354cf45e5983f5c19be951e1e",
                "wType": "FlexContainer"
            }
        },
        "flxPopupHeader": {
            "__events__": {},
            "__info__": {
                "kuid": "g2374b29cb0b411eb1c72449369a71c5",
                "srcKUID": "eb333858bf814117bf4b0bc634ca4ffb",
                "wType": "FlexContainer"
            }
        },
        "flxPopupMessage": {
            "__events__": {},
            "__info__": {
                "kuid": "b0c45273265e48bdb2f3f4567b26d6c8",
                "srcKUID": "efc11098121046dabeceef21e8bf585d",
                "wType": "FlexContainer"
            }
        },
        "imgClose": {
            "__events__": {},
            "__info__": {
                "kuid": "d30041c09ba34430b7ec193873a26649",
                "srcKUID": "e04f19662a874fabb18c3d7092f29cc4",
                "wType": "Image"
            }
        },
        "lblPaymentInfo": {
            "__events__": {},
            "__info__": {
                "kuid": "j56c620e9ed3430c801c2909b9a63ad9",
                "srcKUID": "jfe2e47f228e4984abf0cd755e907b08",
                "wType": "Label"
            }
        },
        "segOverride": {
            "__events__": {},
            "__info__": {
                "kuid": "aed44caac57b47eaaaf1b90b1e5a39e1",
                "srcKUID": "d9af6985e2124b3c922a644898d291a6",
                "wType": "Segment"
            }
        }
    },
    "enablescrolling": true,
    "id": "SegmentPopup",
    "info": null,
    "iscustomlayout": false,
    "isdatareferenced": false,
    "isvisible": true,
    "kuid": "ib57d7e5f6b74eec82f454ef76bd348e",
    "layouttype": 2,
    "masterType": 0,
    "name": "kony.ui.UserWidgetInstance",
    "parent": "frmCustomerLoanInterestChange",
    "pf": "frmCustomerLoanInterestChange",
    "retaincontentalignment": false,
    "retainflexpositionproperties": false,
    "retainflowhorizontalalignment": false,
    "snapgridsize": 10,
    "snaptogrid": true,
    "sourceUserWidget": "eb5542d4860349a4b1b3eb34a2c29d69",
    "wType": "UserWidgetInstance"
}