{
    "@class": "com.kony.gen.viz.model.component.KVizUserWidget",
    "DNDConfig": null,
    "_children_": [],
    "_height_": {
        "type": "string",
        "value": "100%"
    },
    "_left_": {
        "type": "string",
        "value": "0dp"
    },
    "_margin_": [
        0,
        0,
        0,
        0
    ],
    "_orientation_": 1,
    "_padding_": [
        0,
        0,
        0,
        0
    ],
    "_percent_": true,
    "_skin_": "se31956b9efb4cdeb803f81ffb1335e2",
    "_top_": {
        "type": "string",
        "value": "0dp"
    },
    "_width_": {
        "type": "string",
        "value": "64dp"
    },
    "canUpdateUI": true,
    "containerweight": 0,
    "data": {
        "ide_onClickBtnExplorer": "AS_UWI_b6da1c9231af46438a5fb2acd9dacea7",
        "ide_onClickBtnHelp": "AS_UWI_bbd783e212c6498b83b01a8438674b10",
        "skin1": "sfe23d5d902e4ee8982acd7e1c0ae996",
        "skin2": "sa7f91c19eba4fa4b976d6d0d5506876"
    },
    "id": "uuxNavigationRail",
    "info": null,
    "iscustomlayout": false,
    "isvisible": true,
    "kuid": "fe6a85af4a1e4cbfbd0c8fa5a1702bd8",
    "masterType": 1,
    "name": "kony.ui.UserWidgetInstance",
    "parent": "frmCustomerLoanInterestChange",
    "pf": "frmCustomerLoanInterestChange",
    "retaincontentalignment": false,
    "retainflexpositionproperties": false,
    "retainflowhorizontalalignment": false,
    "sourceUserWidget": "b8e247740c794c7d840fd6c9028c42c1",
    "wType": "UserWidgetInstance"
}