{
    "@class": "com.kony.gen.viz.model.component.KVizImage2",
    "DNDConfig": null,
    "_base64_": null,
    "_height_": {
        "type": "string",
        "value": "10dp"
    },
    "_margin_": [
        0,
        0,
        0,
        0
    ],
    "_padding_": [
        0,
        0,
        0,
        0
    ],
    "_right_": {
        "type": "string",
        "value": "9dp"
    },
    "_skin_": "sab6c978ce2245129f1386a9483eec1a",
    "_src_": "cross_1_4.png",
    "_top_": {
        "type": "string",
        "value": "9dp"
    },
    "_width_": {
        "type": "string",
        "value": "10dp"
    },
    "android": {
        "top": {
            "type": "string",
            "value": "10dp"
        }
    },
    "canUpdateUI": true,
    "containerweight": 100,
    "desktopweb": {
        "top": {
            "type": "string",
            "value": "10dp"
        }
    },
    "id": "ImageClose",
    "ide_onTouchStart": "AS_Image_aef243a1ac1b4348b174203156b5d486",
    "imagescalemode": 1,
    "info": null,
    "iphone": {
        "top": {
            "type": "string",
            "value": "10dp"
        }
    },
    "iscustomlayout": false,
    "isvisible": true,
    "kuid": "f30f9fb0e5eb48649a7513bbbe63d97e",
    "name": "kony.ui.Image2",
    "parent": "FlexContainerPopUp",
    "pf": "userwidgetmodel",
    "retaincontentalignment": false,
    "retainflexpositionproperties": false,
    "spaan": {
        "top": {
            "type": "string",
            "value": "10dp"
        }
    },
    "spaip": {
        "top": {
            "type": "string",
            "value": "10dp"
        }
    },
    "srcType": 1,
    "wType": "Image",
    "widgetalignment": 5,
    "zindex": 1
}