{
    "@class": "com.kony.gen.viz.model.component.KVizImage2",
    "DNDConfig": null,
    "_base64_": null,
    "_height_": {
        "type": "ref",
        "value": "preferred"
    },
    "_left_": {
        "type": "string",
        "value": "43dp"
    },
    "_margin_": [
        0,
        0,
        0,
        0
    ],
    "_padding_": [
        0,
        0,
        0,
        0
    ],
    "_right_": {
        "type": "string",
        "value": "37dp"
    },
    "_skin_": "sb7b1a6633ef4aa796f4c546993840a1",
    "_src_": "progress_indicator.gif",
    "_top_": {
        "type": "string",
        "value": "70dp"
    },
    "_width_": {
        "type": "ref",
        "value": "preferred"
    },
    "android": {
        "centerX": {
            "type": "string",
            "value": "50%"
        },
        "width": {
            "type": "string",
            "value": "350dp"
        }
    },
    "canUpdateUI": true,
    "centerx": {
        "type": "string",
        "value": ""
    },
    "containerweight": 100,
    "desktopweb": {
        "centerX": {
            "type": "string",
            "value": "50%"
        },
        "width": {
            "type": "string",
            "value": "400dp"
        }
    },
    "id": "ImgProgressIndicator",
    "imagescalemode": 0,
    "info": null,
    "iphone": {
        "width": {
            "type": "string",
            "value": "300dp"
        }
    },
    "iscustomlayout": false,
    "isvisible": true,
    "kuid": "acd60de37c7d4c588eafb1c52db56d8f",
    "name": "kony.ui.Image2",
    "parent": "FlexContainerPopUp",
    "pf": "userwidgetmodel",
    "retaincontentalignment": false,
    "retainflexpositionproperties": false,
    "spaan": {
        "centerX": {
            "type": "string",
            "value": "50%"
        },
        "width": {
            "type": "string",
            "value": "350dp"
        }
    },
    "spaip": {
        "width": {
            "type": "string",
            "value": "300dp"
        }
    },
    "srcType": 1,
    "wType": "Image",
    "widgetalignment": 5,
    "zindex": 1
}