{
    "customComponent": {
        "i18nSupported": true,
        "id": "cwfd2f4a9e4fc546a4af3e8d9801f94fe4",
        "isOverride": false,
        "konyWrapperFiles": [
            "resources/thirdpartywidgets/widgetwrapper/tp-uuxNavigationRail-wrapper.js"
        ],
        "libraryFiles": [
            "resources/thirdpartywidgets/libtoimport/base.css",
            "resources/thirdpartywidgets/libtoimport/unified-ux-web.min.js"
        ],
        "libraryName": "libtoimport",
        "marginSupported": true,
        "name": "uuxNavigationRail",
        "paddingSupported": true,
        "platformID": "0",
        "property": [
            {
                "categoryType": "Custom",
                "defaultValue": "",
                "exclude": false,
                "name": "bottomBtnIcon",
                "propertySelection": false,
                "type": "String",
                "uniqueID": "cwpb4793695234943159fa99933b22fd401",
                "value": ""
            },
            {
                "categoryType": "Custom",
                "defaultValue": "",
                "exclude": false,
                "name": "bottomBtnItems",
                "propertySelection": false,
                "type": "String",
                "uniqueID": "cwpg973ce05e8ab4b01b61719c2d2e1cdfb",
                "value": ""
            },
            {
                "categoryType": "Custom",
                "defaultValue": false,
                "exclude": false,
                "name": "hideBottomBtn",
                "propertySelection": false,
                "type": "Boolean",
                "uniqueID": "cwpd7ee46956c894bec8c91a615a954e108",
                "value": false
            },
            {
                "categoryType": "Custom",
                "defaultValue": "Temenos logo",
                "exclude": false,
                "name": "logoAlt",
                "propertySelection": false,
                "type": "String",
                "uniqueID": "cwpg2f5d3dfb6734a02a69f7343ce0f8567",
                "value": "Temenos logo"
            },
            {
                "categoryType": "Custom",
                "defaultValue": "",
                "exclude": false,
                "name": "menuItems",
                "propertySelection": false,
                "type": "String",
                "uniqueID": "cwpg5ef44a5eec04906b72efb47fe984a2a",
                "value": ""
            },
            {
                "categoryType": "Custom",
                "defaultValue": "left",
                "exclude": false,
                "name": "positionValue",
                "optionsList": [
                    "left",
                    "right"
                ],
                "propertySelection": false,
                "type": "List",
                "uniqueID": "cwphf4f0ec531624a73bf517b891af80f8b",
                "value": "left"
            },
            {
                "categoryType": "Custom",
                "defaultValue": "",
                "exclude": false,
                "name": "activeIndex",
                "propertySelection": false,
                "type": "Number",
                "uniqueID": "cwpee6de685283b43f39771ca5433e59e11",
                "value": ""
            }
        ]
    }
}