{
    "assetPlatform": "Visualizer",
    "assetVersion": "1.0.0",
    "createdBy": "mb@temenos.com",
    "createdMFVersion": "9.1.0.1_GA",
    "createdVizVersion": "9.1.14",
    "currentMFVersion": "9.1.0.1_GA",
    "currentVizVersion": "9.1.14",
    "itemCategory": "app",
    "itemGuid": "g274fd4277194721b6b0036a189cf053",
    "itemName": "PCLoans",
    "libraryVersion": "libver4",
    "modifiedBy": "aathavanbalaji@temenos.com"
}