{
    "@class": "com.kony.gen.viz.model.component.KVizUserWidget",
    "DNDConfig": null,
    "_children_": [],
    "_height_": {
        "type": "string",
        "value": "42dp"
    },
    "_margin_": [
        0,
        0,
        0,
        0
    ],
    "_orientation_": 1,
    "_padding_": [
        0,
        0,
        0,
        0
    ],
    "_percent_": true,
    "_right_": {
        "type": "string",
        "value": "30dp"
    },
    "_skin_": "se31956b9efb4cdeb803f81ffb1335e2",
    "_top_": {
        "type": "string",
        "value": "5dp"
    },
    "_width_": {
        "type": "string",
        "value": "179dp"
    },
    "canUpdateUI": true,
    "containerweight": 0,
    "data": {
        "compact": false,
        "labelText": "Confirm",
        "size": {
            "optionsList": [
                "small",
                "medium",
                "large",
                "X-large"
            ],
            "selectedValue": "large"
        },
        "typeButton": {
            "optionsList": [
                "button",
                "submit",
                "reset"
            ],
            "selectedValue": "submit"
        }
    },
    "id": "flxSkipConfirm",
    "info": null,
    "iscustomlayout": false,
    "isvisible": true,
    "kuid": "c9b41c166cc84867910cf4b3992854a8",
    "masterType": 1,
    "name": "kony.ui.UserWidgetInstance",
    "parent": "flxSkipPaymentButtonGroup",
    "pf": "frmHolidayPayment",
    "retaincontentalignment": false,
    "retainflexpositionproperties": false,
    "retainflowhorizontalalignment": false,
    "sourceUserWidget": "efe92689441e4b4cbac4ffe15ef6eeda",
    "wType": "UserWidgetInstance",
    "zindex": 5
}