{
    "DNDConfig": null,
    "_height_": {
        "type": "string",
        "value": "42dp"
    },
    "_margin_": [
        0,
        0,
        0,
        0
    ],
    "_orientation_": 6,
    "_padding_": [
        0,
        0,
        0,
        0
    ],
    "_percent_": true,
    "_right_": {
        "type": "string",
        "value": "233dp"
    },
    "_skin_": "se31956b9efb4cdeb803f81ffb1335e2",
    "_top_": {
        "type": "string",
        "value": "5dp"
    },
    "_width_": {
        "type": "string",
        "value": "179dp"
    },
    "allboxes": [],
    "autogrowmode": 0,
    "canUpdateUI": true,
    "children": [
        "cusButtonSkipCancel"
    ],
    "clipbounds": true,
    "containerweight": 100,
    "enablescrolling": true,
    "id": "flxSkipCancel",
    "info": null,
    "iscustomlayout": false,
    "isvisible": true,
    "kuid": "a2deac32207549e5b148e2964ef3d2db",
    "layouttype": 2,
    "name": "kony.ui.FlexContainer",
    "parent": "flxSkipPaymentButtonGroup",
    "pf": "frmHolidayPayment",
    "retaincontentalignment": false,
    "retainflexpositionproperties": false,
    "retainflowhorizontalalignment": false,
    "snapgridsize": 10,
    "snaptogrid": true,
    "wType": "FlexContainer",
    "widgetalignment": 1,
    "zindex": 6
}