{
    "@class": "com.kony.gen.viz.model.component.KVizUserWidget",
    "DNDConfig": null,
    "_children_": [],
    "_height_": {
        "type": "string",
        "value": "100%"
    },
    "_left_": {
        "type": "string",
        "value": "0dp"
    },
    "_margin_": [
        0,
        0,
        0,
        0
    ],
    "_orientation_": 1,
    "_padding_": [
        0,
        0,
        0,
        0
    ],
    "_percent_": true,
    "_skin_": "se31956b9efb4cdeb803f81ffb1335e2",
    "_top_": {
        "type": "string",
        "value": "0dp"
    },
    "_width_": {
        "type": "string",
        "value": "100%"
    },
    "canUpdateUI": true,
    "containerweight": 0,
    "data": {
        "enableStaticPreview": false
    },
    "id": "multiline",
    "info": null,
    "isvisible": false,
    "kuid": "f1e2ba2f7ef84aa8b9c24e7068ba7cf0",
    "masterType": 1,
    "name": "kony.ui.UserWidgetInstance",
    "parent": "flxGraph",
    "pf": "frmHolidayPayment",
    "sourceUserWidget": "e2d4ae3a0b924c618c599ab1635e578c",
    "wType": "UserWidgetInstance"
}