{
    "@class": "com.kony.gen.viz.model.component.KVizUserWidget",
    "DNDConfig": null,
    "_children_": [],
    "_height_": {
        "type": "string",
        "value": "100%"
    },
    "_margin_": [
        0,
        0,
        0,
        0
    ],
    "_orientation_": 1,
    "_padding_": [
        0,
        0,
        0,
        0
    ],
    "_percent_": true,
    "_skin_": "sf77f521dbc14d00b8925cd197f74352",
    "_top_": {
        "type": "string",
        "value": "0dp"
    },
    "_width_": {
        "type": "string",
        "value": "100%"
    },
    "areflexpropsreferenced": false,
    "autogrowmode": 0,
    "canUpdateUI": true,
    "centerx": {
        "type": "string",
        "value": "50%"
    },
    "centery": {
        "type": "string",
        "value": "50%"
    },
    "clipbounds": true,
    "containerweight": 0,
    "dataDiffs": {
        "RevisedPaymentSchedule": {
            "__events__": {},
            "__info__": {
                "isRoot": true,
                "kuid": "dd1bdcb324b54e1fb5027836659135f9",
                "srcKUID": "d910d6ca6839460492184cb3a5f678f9",
                "wType": "FlexContainer"
            },
            "isVisible": false,
            "responsiveData": {}
        },
        "btnNext": {
            "__events__": {},
            "__info__": {
                "kuid": "bef61bb966db43c3a754537156c2c3ea",
                "srcKUID": "hc7a7112c04049858ec32411c40edfde",
                "wType": "Button"
            }
        },
        "btnPrev": {
            "__events__": {},
            "__info__": {
                "kuid": "dc75ef5f0de9433c817dfe5490c91708",
                "srcKUID": "ad41c6301f9348c7bbb325b4a3b3c279",
                "wType": "Button"
            }
        },
        "flxPagination": {
            "__events__": {},
            "__info__": {
                "kuid": "e2a1ab6844364ae5b6f0ba8a4248b1ce",
                "srcKUID": "de4e1c898a1e4cc39bb0e6079edf34a0",
                "wType": "FlexContainer"
            }
        },
        "flxRevisedPayment": {
            "__events__": {},
            "__info__": {
                "kuid": "e84392f2e44843749d08079910471f30",
                "srcKUID": "g6a8d18a6828449d8acc49424abdc555",
                "wType": "FlexContainer"
            }
        },
        "flxRevisedPaymentDetails": {
            "__events__": {},
            "__info__": {
                "kuid": "d800a67526fa43bdb5b5ca4a5db8f0a7",
                "srcKUID": "e00eb8b6e90d4d969ee99d2381642ac1",
                "wType": "FlexContainer"
            }
        },
        "flxRevisedPaymentSchedule": {
            "__events__": {},
            "__info__": {
                "kuid": "c805f67955ab46e89fb1d12df02c0165",
                "srcKUID": "f712bbf003c2411e93a3471218bca306",
                "wType": "FlexContainer"
            }
        },
        "flxRevisedPmtHeader": {
            "__events__": {},
            "__info__": {
                "kuid": "j095791ba54d48bd8ef395893f9ea292",
                "srcKUID": "b0b64719ce4843b185aa6a3a19bd0b35",
                "wType": "FlexContainer"
            }
        },
        "imgClose": {
            "__events__": {},
            "__info__": {
                "kuid": "d9948531dbe94f2ab2ccac2d2efcbc21",
                "srcKUID": "f9c6226efb51489682a794e1a2d3c553",
                "wType": "Button"
            }
        },
        "imgClose1": {
            "__events__": {},
            "__info__": {
                "kuid": "h0d91fee9e554d8ea5c82ed32734633c",
                "srcKUID": "baf49339fde540f8884580e0bdfbf37c",
                "wType": "Image"
            },
            "src": "ico_close.png"
        },
        "imgPrint": {
            "__events__": {},
            "__info__": {
                "kuid": "e8762929f6f442be9b3a37c085028c9a",
                "srcKUID": "d83daefe75d047328f42be36671dba6c",
                "wType": "Image"
            },
            "src": "ico_print.png"
        },
        "lblAmount": {
            "__events__": {},
            "__info__": {
                "kuid": "d8fc3861137f464e9ef09ce2a7ebb4f3",
                "srcKUID": "ff3d84ffacab4d62b91531f59e134e13",
                "wType": "Label"
            }
        },
        "lblInterest": {
            "__events__": {},
            "__info__": {
                "kuid": "g972e791eea14bd2b4db939549b50a6d",
                "srcKUID": "g7275c737d9f4210beb882255949b508",
                "wType": "Label"
            }
        },
        "lblPaymentDate": {
            "__events__": {},
            "__info__": {
                "kuid": "a886390bd80142c1bac81deaf98e1556",
                "srcKUID": "a2b1ff0a83794411a4d3cec5137e6e84",
                "wType": "Label"
            }
        },
        "lblPrincipal": {
            "__events__": {},
            "__info__": {
                "kuid": "h5115ff90a2841aca4a6fe013260b0af",
                "srcKUID": "df559625a22c47ca9370676393d0eb73",
                "wType": "Label"
            }
        },
        "lblRevisedPayment": {
            "__events__": {},
            "__info__": {
                "kuid": "f6402b6b46084cfe8f1ff3a76264e9b2",
                "srcKUID": "i992aabeb7a744118c5469548edca99b",
                "wType": "Label"
            }
        },
        "lblRowPerPageNumber": {
            "__events__": {},
            "__info__": {
                "kuid": "de7a3edf85fb4095a4fc8860f47f5d0a",
                "srcKUID": "c62b7bdae881480abf8d1541fc41ed79",
                "wType": "Label"
            }
        },
        "lblSearchPage": {
            "__events__": {},
            "__info__": {
                "kuid": "f04f6c461b434eb989db8133b5a5ef6e",
                "srcKUID": "e056a4d2dea448f6bb5401974999874c",
                "wType": "Label"
            }
        },
        "lblTax": {
            "__events__": {},
            "__info__": {
                "kuid": "c8439fc24cc84f4ca3ab80771bfe7e1e",
                "srcKUID": "j4499cecb27c4c17932aecd68809a4d3",
                "wType": "Label"
            }
        },
        "lblTotoutstanding": {
            "__events__": {},
            "__info__": {
                "kuid": "h9c545c64eea49d3a4603104fa7df8a8",
                "srcKUID": "j280551d4db245a6945d839450efa42a",
                "wType": "Label"
            }
        },
        "segRevised": {
            "__events__": {},
            "__info__": {
                "kuid": "e23e1321738c45ffafe0acb71e31a209",
                "srcKUID": "i30d8089a6904102ba3fa6f7106b2c3f",
                "wType": "Segment"
            }
        }
    },
    "enablescrolling": true,
    "id": "RevisedPaymentSchedule",
    "info": null,
    "iscustomlayout": false,
    "isdatareferenced": false,
    "issegmentchild": false,
    "isvisible": false,
    "kuid": "dd1bdcb324b54e1fb5027836659135f9",
    "layouttype": 2,
    "masterType": 0,
    "name": "kony.ui.UserWidgetInstance",
    "parent": "frmHolidayPayment",
    "pf": "frmHolidayPayment",
    "retaincontentalignment": false,
    "retainflexpositionproperties": false,
    "retainflowhorizontalalignment": false,
    "snapgridsize": 10,
    "snaptogrid": true,
    "sourceUserWidget": "d910d6ca6839460492184cb3a5f678f9",
    "wType": "UserWidgetInstance",
    "zindex": 1
}