{
    "@class": "com.kony.gen.viz.model.component.KVizSlider",
    "DNDConfig": null,
    "_height_": {
        "type": "string",
        "value": "4dp"
    },
    "_left_": {
        "type": "string",
        "value": "0dp"
    },
    "_margin_": [
        0,
        0,
        0,
        0
    ],
    "_max_": 100,
    "_min_": 0,
    "_padding_": [
        0,
        0,
        0,
        0
    ],
    "_render_": true,
    "_step_": 1,
    "_thickness_": 4,
    "_top_": {
        "type": "string",
        "value": "116dp"
    },
    "_width_": {
        "type": "string",
        "value": "280dp"
    },
    "android": {
        "thumbImage": "slider_android.png"
    },
    "androidwearos": {
        "thumbImage": "slider_android.png"
    },
    "canUpdateUI": true,
    "containerweight": 100,
    "desktopweb": {
        "psp": {
            "orientation": "horizontal",
            "viewType": "progress"
        },
        "render": true
    },
    "id": "sldRevisedPayment",
    "imgwt": 20,
    "info": null,
    "ipad": {
        "psp": {
            "enableThumbTintColor": true,
            "thumbTintColor": "ffffff00"
        },
        "thumbImage": "slider_ios7.png"
    },
    "iphone": {
        "psp": {
            "enableThumbTintColor": true,
            "thumbTintColor": "ffffff00"
        },
        "thumbImage": "slider_ios7.png"
    },
    "iscustomlayout": false,
    "isvisible": true,
    "kiosk": {
        "render": false
    },
    "kuid": "i7acd7c106494be7b186ed27a314709c",
    "leftskin": "sd735cc590ad436f84c779057fe41344",
    "name": "kony.ui.Slider",
    "noofsteps": 100,
    "osPlatform": "desktopweb",
    "osVersion": "iOS7",
    "parent": "flxRevisedPaymentWrapper",
    "pf": "frmHolidayPayment",
    "retaincontentalignment": false,
    "retainflexpositionproperties": false,
    "rightskin": "s183d417c69a4479a73cfc982926a8ee",
    "selectedvalue": 20,
    "stepwidth": 2.6,
    "tabrcandroid": {
        "thumbImage": "slider_android.png"
    },
    "thumbimage": "slider.png",
    "wType": "Slider",
    "widgetalignment": 5,
    "zindex": 1
}