{
    "@class": "com.kony.gen.viz.model.component.KVizBrowser",
    "DNDConfig": null,
    "_height_": {
        "type": "string",
        "value": "100%"
    },
    "_left_": {
        "type": "string",
        "value": "0dp"
    },
    "_margin_": [
        0,
        0,
        0,
        0
    ],
    "_padding_": [
        0,
        0,
        0,
        0
    ],
    "_top_": {
        "type": "string",
        "value": "0dp"
    },
    "_type_": 3,
    "_width_": {
        "type": "string",
        "value": "100%"
    },
    "androidwearos": {
        "render": false
    },
    "canUpdateUI": true,
    "centerx": {
        "type": "string",
        "value": "50%"
    },
    "centery": {
        "type": "string",
        "value": "50%"
    },
    "containerweight": 69,
    "detecttelnumber": true,
    "htmlstring": "<div style=\"position: relative; padding-bottom: 56.25%; height: 0; overflow: hidden;\">\n<iframe src=\"https://player.stornaway.io/embed/4c4499ba\" frameborder=\"0\" allowfullscreen style=\"width: 100%; height: 100%; position: absolute; top: 0; left: 0;\"></iframe>\n</div>",
    "id": "brw",
    "info": null,
    "iscustomlayout": false,
    "isvisible": true,
    "kuid": "a71f40f28f42470baf7df31c0de8224f",
    "margininpixel": false,
    "method": "get",
    "name": "kony.ui.Browser",
    "paddinginpixel": false,
    "parent": "flxBrw",
    "pf": "userwidgetmodel",
    "requesturlconfig": {
        "URL": "",
        "requestMethod": "get"
    },
    "retaincontentalignment": false,
    "retainflexpositionproperties": false,
    "screenlevelwidget": false,
    "url": "",
    "wType": "Browser",
    "zindex": 1
}