{
    "@class": "com.kony.gen.viz.model.component.KVizButton",
    "DNDConfig": null,
    "_height_": {
        "type": "string",
        "value": "100%"
    },
    "_left_": {
        "type": "string",
        "value": "0dp"
    },
    "_margin_": [
        6,
        6,
        6,
        6
    ],
    "_padding_": [
        8,
        0,
        0,
        0
    ],
    "_skin_": "s44f7871e81b4ff9abb4c3fabefe9289",
    "_text_": "Repayment",
    "_top_": {
        "type": "string",
        "value": "0dp"
    },
    "_width_": {
        "type": "string",
        "value": "100%"
    },
    "canUpdateUI": true,
    "containerweight": 100,
    "contentalignment": 4,
    "displaytext": true,
    "focusskin": "s44f7871e81b4ff9abb4c3fabefe9289",
    "id": "btn4",
    "ide_onClick": "AS_Button_af8b0070cab044c2a847ff5bf8a5ffbc",
    "info": null,
    "iscustomlayout": false,
    "isvisible": true,
    "kuid": "j7114c0fedba464eba63b5f0df2121e9",
    "name": "kony.ui.Button",
    "parent": "flx4",
    "pf": "userwidgetmodel",
    "retaincontentalignment": false,
    "retainflexpositionproperties": false,
    "wType": "Button",
    "zindex": 1
}