{
    "@class": "com.kony.gen.viz.model.component.KVizButton",
    "DNDConfig": null,
    "_height_": {
        "type": "string",
        "value": "100%"
    },
    "_left_": {
        "type": "string",
        "value": "0dp"
    },
    "_margin_": [
        6,
        6,
        6,
        6
    ],
    "_padding_": [
        0,
        0,
        0,
        0
    ],
    "_skin_": "s81454a5b57845dfa4b65e0db885f669",
    "_text_": "",
    "_top_": {
        "type": "string",
        "value": "0dp"
    },
    "_width_": {
        "type": "string",
        "value": "100%"
    },
    "canUpdateUI": true,
    "containerweight": 100,
    "contentalignment": 5,
    "displaytext": false,
    "focusskin": "s81454a5b57845dfa4b65e0db885f669",
    "id": "btnBackShowMore",
    "ide_onClick": "AS_Button_d59462caa3844de598357c8c69b3cb69",
    "info": null,
    "iscustomlayout": false,
    "isvisible": true,
    "kuid": "c7e165ebb99642dca78371e584d3cf69",
    "name": "kony.ui.Button",
    "parent": "flxBck",
    "pf": "userwidgetmodel",
    "retaincontentalignment": false,
    "retainflexpositionproperties": false,
    "wType": "Button",
    "zindex": 1
}