{
    "@class": "com.kony.gen.viz.model.component.KVizButton",
    "DNDConfig": null,
    "_height_": {
        "type": "string",
        "value": "100%"
    },
    "_left_": {
        "type": "string",
        "value": "0dp"
    },
    "_margin_": [
        6,
        6,
        6,
        6
    ],
    "_padding_": [
        0,
        0,
        0,
        0
    ],
    "_skin_": "s54614e65b3749e8b9cbd9ae876c5c9e",
    "_text_": "",
    "_top_": {
        "type": "string",
        "value": "0dp"
    },
    "_width_": {
        "type": "string",
        "value": "100%"
    },
    "canUpdateUI": true,
    "containerweight": 100,
    "contentalignment": 5,
    "displaytext": true,
    "focusskin": "s54614e65b3749e8b9cbd9ae876c5c9e",
    "id": "btnBckType",
    "ide_onClick": "AS_Button_hb78e04627a942f8b3cf4aabac4b8772",
    "info": null,
    "iscustomlayout": false,
    "isvisible": true,
    "kuid": "fb7c1bdb2c1a4921a9eba28b2d339160",
    "name": "kony.ui.Button",
    "parent": "flxBckType",
    "pf": "userwidgetmodel",
    "retaincontentalignment": false,
    "retainflexpositionproperties": false,
    "wType": "Button",
    "zindex": 1
}