{
    "@class": "com.kony.gen.viz.model.component.KVizButton",
    "DNDConfig": null,
    "_height_": {
        "type": "string",
        "value": "100%"
    },
    "_left_": {
        "type": "string",
        "value": "0dp"
    },
    "_margin_": [
        6,
        6,
        6,
        6
    ],
    "_padding_": [
        0,
        0,
        0,
        0
    ],
    "_skin_": "se96d5dd11f44c608980a85507864895",
    "_text_": "",
    "_top_": {
        "type": "string",
        "value": "0dp"
    },
    "_width_": {
        "type": "string",
        "value": "100%"
    },
    "canUpdateUI": true,
    "containerweight": 100,
    "contentalignment": 5,
    "displaytext": true,
    "focusskin": "se96d5dd11f44c608980a85507864895",
    "id": "btnCloseVideo",
    "ide_onClick": "AS_Button_fe5de1f853c64277a5b6644bcff72b14",
    "info": null,
    "iscustomlayout": false,
    "isvisible": true,
    "kuid": "ccb1e540ebd942d29b2f8b3e8b63c15a",
    "name": "kony.ui.Button",
    "parent": "flxClose",
    "pf": "userwidgetmodel",
    "retaincontentalignment": false,
    "retainflexpositionproperties": false,
    "wType": "Button",
    "zindex": 1
}