{
    "@class": "com.kony.gen.viz.model.component.KVizButton",
    "DNDConfig": null,
    "_height_": {
        "type": "string",
        "value": "100%"
    },
    "_left_": {
        "type": "string",
        "value": "0dp"
    },
    "_margin_": [
        6,
        6,
        6,
        6
    ],
    "_padding_": [
        0,
        0,
        0,
        0
    ],
    "_skin_": "s3c4c14fd9804622ba0a15b6f14318cc",
    "_text_": "",
    "_top_": {
        "type": "string",
        "value": "0dp"
    },
    "_width_": {
        "type": "string",
        "value": "100%"
    },
    "canUpdateUI": true,
    "containerweight": 100,
    "contentalignment": 5,
    "displaytext": false,
    "focusskin": "s3c4c14fd9804622ba0a15b6f14318cc",
    "id": "btnDeposit",
    "ide_onClick": "AS_Button_d7b96f0d523e4992a759010fb2db87ba",
    "info": null,
    "iscustomlayout": false,
    "isvisible": true,
    "kuid": "b98862c630a14eed8baef0a86ec78c7d",
    "name": "kony.ui.Button",
    "parent": "flxDeposits",
    "pf": "userwidgetmodel",
    "retaincontentalignment": false,
    "retainflexpositionproperties": false,
    "wType": "Button",
    "zindex": 1
}