{
    "@class": "com.kony.gen.viz.model.component.KVizButton",
    "DNDConfig": null,
    "_height_": {
        "type": "string",
        "value": "100%"
    },
    "_margin_": [
        6,
        6,
        6,
        6
    ],
    "_padding_": [
        0,
        0,
        0,
        0
    ],
    "_right_": {
        "type": "string",
        "value": "0dp"
    },
    "_skin_": "sd6c7f4afc1f4e989df38c4c69b5897e",
    "_text_": "",
    "_width_": {
        "type": "string",
        "value": "100%"
    },
    "canUpdateUI": true,
    "centery": {
        "type": "string",
        "value": "50%"
    },
    "containerweight": 100,
    "contentalignment": 5,
    "displaytext": true,
    "focusskin": "sd6c7f4afc1f4e989df38c4c69b5897e",
    "id": "btnPlus1",
    "ide_onClick": "AS_Button_gd593ce330574612903e381494a26fe8",
    "info": null,
    "iscustomlayout": false,
    "isvisible": true,
    "kuid": "ade01b4e13f84d9ba2a388af7d79a8a3",
    "name": "kony.ui.Button",
    "parent": "flxDescType1",
    "pf": "userwidgetmodel",
    "retaincontentalignment": false,
    "retainflexpositionproperties": false,
    "wType": "Button",
    "zindex": 1
}