{
    "@class": "com.kony.gen.viz.model.component.KVizButton",
    "DNDConfig": null,
    "_height_": {
        "type": "string",
        "value": "100%"
    },
    "_left_": {
        "type": "string",
        "value": "0dp"
    },
    "_margin_": [
        6,
        6,
        6,
        6
    ],
    "_padding_": [
        0,
        0,
        0,
        0
    ],
    "_skin_": "se6e9f8cf5ca4769a20d42ae4d0823d3",
    "_text_": "",
    "_top_": {
        "type": "string",
        "value": "0dp"
    },
    "_width_": {
        "type": "string",
        "value": "100%"
    },
    "canUpdateUI": true,
    "containerweight": 100,
    "contentalignment": 5,
    "displaytext": true,
    "focusskin": "se6e9f8cf5ca4769a20d42ae4d0823d3",
    "id": "btnVideo",
    "ide_onClick": "AS_Button_b5a11f28e4e94e3f87e7addb97961710",
    "info": null,
    "iscustomlayout": false,
    "isvisible": true,
    "kuid": "a5778429f0b1450da48aa6dd90e5f891",
    "name": "kony.ui.Button",
    "parent": "flxThumbnail",
    "pf": "userwidgetmodel",
    "retaincontentalignment": false,
    "retainflexpositionproperties": false,
    "wType": "Button",
    "zindex": 1
}