{
    "DNDConfig": null,
    "_height_": {
        "type": "string",
        "value": "26%"
    },
    "_left_": {
        "type": "string",
        "value": "2%"
    },
    "_margin_": [
        0,
        0,
        0,
        0
    ],
    "_orientation_": 6,
    "_padding_": [
        0,
        0,
        0,
        0
    ],
    "_percent_": true,
    "_skin_": "s9f91de9d88f40b3bab55ca14d7297eb",
    "_top_": {
        "type": "string",
        "value": "9%"
    },
    "_width_": {
        "type": "string",
        "value": "96%"
    },
    "allboxes": [],
    "autogrowmode": 0,
    "canUpdateUI": true,
    "children": [
        "lblDesc1",
        "flxThumbnail"
    ],
    "clipbounds": false,
    "containerweight": 100,
    "enablescrolling": true,
    "id": "flxDesc1",
    "info": null,
    "iscustomlayout": false,
    "isvisible": true,
    "kuid": "de55147eb8284035b234ce7a36eab198",
    "layouttype": 2,
    "name": "kony.ui.FlexContainer",
    "parent": "flxDesc",
    "pf": "userwidgetmodel",
    "retaincontentalignment": false,
    "retainflexpositionproperties": false,
    "retainflowhorizontalalignment": false,
    "snapgridsize": 10,
    "snaptogrid": true,
    "wType": "FlexContainer",
    "widgetalignment": 1,
    "zindex": 1
}