{
    "DNDConfig": null,
    "_bottom_": {
        "type": "string",
        "value": "22%"
    },
    "_height_": {
        "type": "string",
        "value": "26%"
    },
    "_margin_": [
        0,
        0,
        0,
        0
    ],
    "_orientation_": 6,
    "_padding_": [
        0,
        0,
        0,
        0
    ],
    "_percent_": true,
    "_right_": {
        "type": "string",
        "value": "5%"
    },
    "_skin_": "sac3ffb68f074640bc516a6191e45a64",
    "_width_": {
        "type": "string",
        "value": "42%"
    },
    "allboxes": [],
    "autogrowmode": 0,
    "canUpdateUI": true,
    "children": [
        "lstCategories",
        "txtPartialText",
        "lblSearchIcon",
        "flxSeparator",
        "clearSearch",
        "clearTxtBxSearch",
        "imgClearSearch",
        "btnClearTxt"
    ],
    "clipbounds": true,
    "containerweight": 100,
    "enablescrolling": true,
    "id": "flxSearch",
    "info": null,
    "iscustomlayout": false,
    "isvisible": true,
    "kuid": "a4ad2b5851c140798c699f30d83e5922",
    "layouttype": 2,
    "name": "kony.ui.FlexContainer",
    "parent": "flxTop",
    "pf": "userwidgetmodel",
    "retaincontentalignment": false,
    "retainflexpositionproperties": false,
    "retainflowhorizontalalignment": false,
    "snapgridsize": 10,
    "snaptogrid": true,
    "wType": "FlexContainer",
    "widgetalignment": 1
}