{
    "@class": "com.kony.gen.viz.model.container.KVizSegment2",
    "DNDConfig": null,
    "_data_": [
        [
            {
                "imgLocation": {
                    "@class": "com.viz.ide.model.segment.ImageSegmentData",
                    "src": "icons_map_2.png"
                },
                "lblShelves": {
                    "@class": "com.viz.ide.model.segment.SimpleTextSegmentData",
                    "text": "Kony "
                }
            },
            [
                {
                    "lblAddress": {
                        "@class": "com.viz.ide.model.segment.SimpleTextSegmentData",
                        "text": "RichText"
                    },
                    "lblAddress1": {
                        "@class": "com.viz.ide.model.segment.SimpleTextSegmentData",
                        "text": "19909 120TH AVE NE"
                    },
                    "lblLine": {
                        "@class": "com.viz.ide.model.segment.SimpleTextSegmentData",
                        "text": "Label"
                    }
                },
                {
                    "lblAddress": {
                        "@class": "com.viz.ide.model.segment.SimpleTextSegmentData",
                        "text": "RichText"
                    },
                    "lblAddress1": {
                        "@class": "com.viz.ide.model.segment.SimpleTextSegmentData",
                        "text": "19909 120TH AVE NE"
                    },
                    "lblLine": {
                        "@class": "com.viz.ide.model.segment.SimpleTextSegmentData",
                        "text": "Label"
                    }
                }
            ]
        ],
        [
            {
                "imgLocation": {
                    "@class": "com.viz.ide.model.segment.ImageSegmentData",
                    "src": "icons_map_2.png"
                },
                "lblShelves": {
                    "@class": "com.viz.ide.model.segment.SimpleTextSegmentData",
                    "text": "Kony "
                }
            },
            [
                {
                    "lblAddress": {
                        "@class": "com.viz.ide.model.segment.SimpleTextSegmentData",
                        "text": "RichText"
                    },
                    "lblAddress1": {
                        "@class": "com.viz.ide.model.segment.SimpleTextSegmentData",
                        "text": "19909 120TH AVE NE"
                    },
                    "lblLine": {
                        "@class": "com.viz.ide.model.segment.SimpleTextSegmentData",
                        "text": "Label"
                    }
                },
                {
                    "lblAddress": {
                        "@class": "com.viz.ide.model.segment.SimpleTextSegmentData",
                        "text": "RichText"
                    },
                    "lblAddress1": {
                        "@class": "com.viz.ide.model.segment.SimpleTextSegmentData",
                        "text": "19909 120TH AVE NE"
                    },
                    "lblLine": {
                        "@class": "com.viz.ide.model.segment.SimpleTextSegmentData",
                        "text": "Label"
                    }
                }
            ]
        ]
    ],
    "_height_": {
        "type": "string",
        "value": "100%"
    },
    "_indicator_": "none",
    "_left_": {
        "type": "string",
        "value": "0dp"
    },
    "_margin_": [
        0,
        0,
        0,
        0
    ],
    "_orientation_": 2,
    "_padding_": [
        0,
        0,
        0,
        0
    ],
    "_top_": {
        "type": "string",
        "value": "0dp"
    },
    "_width_": {
        "type": "string",
        "value": "100%"
    },
    "canUpdateUI": true,
    "containerweight": 100,
    "counter": "11",
    "desktop": {
        "_data_": [
            [
                {
                    "imgLocation": {
                        "@class": "com.viz.ide.model.segment.ImageSegmentData",
                        "src": "icons_map_2.png"
                    },
                    "lblDown": {
                        "@class": "com.viz.ide.model.segment.SimpleTextSegmentData",
                        "text": "M"
                    },
                    "lblShelves": {
                        "@class": "com.viz.ide.model.segment.SimpleTextSegmentData",
                        "text": "Kony "
                    }
                },
                [
                    {
                        "lblAddress": {
                            "@class": "com.viz.ide.model.segment.SimpleTextSegmentData",
                            "text": "RichText"
                        },
                        "lblAddress1": {
                            "@class": "com.viz.ide.model.segment.SimpleTextSegmentData",
                            "text": "19909 120TH AVE NE"
                        },
                        "lblLine": {
                            "@class": "com.viz.ide.model.segment.SimpleTextSegmentData",
                            "text": "Label"
                        }
                    },
                    {
                        "lblAddress": {
                            "@class": "com.viz.ide.model.segment.SimpleTextSegmentData",
                            "text": "RichText"
                        },
                        "lblAddress1": {
                            "@class": "com.viz.ide.model.segment.SimpleTextSegmentData",
                            "text": "19909 120TH AVE NE"
                        },
                        "lblLine": {
                            "@class": "com.viz.ide.model.segment.SimpleTextSegmentData",
                            "text": "Label"
                        }
                    }
                ]
            ],
            [
                {
                    "imgLocation": {
                        "@class": "com.viz.ide.model.segment.ImageSegmentData",
                        "src": "icons_map_2.png"
                    },
                    "lblDown": {
                        "@class": "com.viz.ide.model.segment.SimpleTextSegmentData",
                        "text": "M"
                    },
                    "lblShelves": {
                        "@class": "com.viz.ide.model.segment.SimpleTextSegmentData",
                        "text": "Kony "
                    }
                },
                [
                    {
                        "lblAddress": {
                            "@class": "com.viz.ide.model.segment.SimpleTextSegmentData",
                            "text": "RichText"
                        },
                        "lblAddress1": {
                            "@class": "com.viz.ide.model.segment.SimpleTextSegmentData",
                            "text": "19909 120TH AVE NE"
                        },
                        "lblLine": {
                            "@class": "com.viz.ide.model.segment.SimpleTextSegmentData",
                            "text": "Label"
                        }
                    },
                    {
                        "lblAddress": {
                            "@class": "com.viz.ide.model.segment.SimpleTextSegmentData",
                            "text": "RichText"
                        },
                        "lblAddress1": {
                            "@class": "com.viz.ide.model.segment.SimpleTextSegmentData",
                            "text": "19909 120TH AVE NE"
                        },
                        "lblLine": {
                            "@class": "com.viz.ide.model.segment.SimpleTextSegmentData",
                            "text": "Label"
                        }
                    }
                ]
            ]
        ],
        "rowTemplateId": "b563c6ef46fa4610bd1e47c6af5d1e96",
        "rowtemplate": "CopyflxParent",
        "sectionHeaderTemplateId": "d33254f61a11495babd12bb5543a188f",
        "sectionheadertemplate": "CopyflxDown",
        "widgetdatamap": {
            "CopyflxDown": "CopyflxDown",
            "CopyflxParent": "CopyflxParent",
            "FlexContainer0c2ca7dc5c88140": "FlexContainer0c2ca7dc5c88140",
            "FlexGroup0d7f2ca3295ba45": "FlexGroup0d7f2ca3295ba45",
            "btnUpArrow": "btnUpArrow",
            "flxLine": "flxLine",
            "flxRow": "flxRow",
            "imgLocation": "imgLocation",
            "lblAddress": "lblAddress",
            "lblAddress1": "lblAddress1",
            "lblDown": "lblDown",
            "lblLine": "lblLine",
            "lblShelves": "lblShelves",
            "lblTitle": "lblTitle"
        }
    },
    "focusedindex": null,
    "focuseditem": null,
    "groupcells": false,
    "hasSections": true,
    "id": "seg1",
    "info": null,
    "ipad": {
        "psp": {
            "indicator": "rowselect"
        }
    },
    "iphone": {
        "psp": {
            "indicator": "rowselect"
        }
    },
    "iscustomlayout": false,
    "isvisible": true,
    "kuid": "a5f67ffc497242809217564a4dfaff76",
    "masterdata": {},
    "name": "kony.ui.SegmentedUI2",
    "needpageindicator": true,
    "pageoffdotimage": "pageoffdot.png",
    "pageondotimage": "pageondot.png",
    "paginationconfig": {
        "position": "bottom"
    },
    "parent": "segSearch",
    "pf": "userwidgetmodel",
    "responsiveData": {
        "b3": {
            "height": {
                "type": "string",
                "value": "100%"
            },
            "top": {
                "type": "string",
                "value": "0dp"
            }
        }
    },
    "retaincontentalignment": false,
    "retainflexpositionproperties": false,
    "retainselection": false,
    "rowcounter": 1,
    "rowfocusskin": "s3f353c057a14ca8a8d6fa6caf39f59a",
    "rowskin": "s8a71afab4dc497d8f40ea955cb59b41",
    "screenlevelwidget": false,
    "seccounter": 1,
    "sectionheaderskin": "s3d3e0ccbca245d6b18d99c2f4af3f81",
    "selectedRows": null,
    "selectedState": false,
    "selectedindex": null,
    "selectedindices": null,
    "selecteditems": null,
    "selectedsectionindex": 0,
    "selectionbehavior": "default",
    "separatorrequired": false,
    "showscrollbars": true,
    "viewtype": "tableview",
    "vizProps": {},
    "wType": "Segment",
    "widgetalignment": 5,
    "widgetdatamap": {
        "CopyflxDown": "CopyflxDown",
        "CopyflxParent": "CopyflxParent",
        "FlexGroup0d7f2ca3295ba45": "FlexGroup0d7f2ca3295ba45",
        "flxLine": "flxLine",
        "flxRow": "flxRow",
        "imgLocation": "imgLocation",
        "lblAddress": "lblAddress",
        "lblAddress1": "lblAddress1",
        "lblLine": "lblLine",
        "lblShelves": "lblShelves"
    },
    "zindex": 1
}