{
    "DNDConfig": null,
    "_height_": {
        "type": "string",
        "value": "220dp"
    },
    "_left_": {
        "type": "string",
        "value": "125dp"
    },
    "_margin_": [
        0,
        0,
        0,
        0
    ],
    "_orientation_": 6,
    "_padding_": [
        0,
        0,
        0,
        0
    ],
    "_percent_": true,
    "_skin_": "se31956b9efb4cdeb803f81ffb1335e2",
    "_top_": {
        "type": "string",
        "value": "370dp"
    },
    "_width_": {
        "type": "string",
        "value": "100%"
    },
    "allboxes": [],
    "canUpdateUI": true,
    "children": [
        "tbxID",
        "tbxLogin2",
        "lbl1",
        "lbl2",
        "lstBox",
        "imgSrc"
    ],
    "clipbounds": true,
    "containerweight": 100,
    "enablescrolling": true,
    "id": "flxLogin2",
    "info": null,
    "iscustomlayout": false,
    "isvisible": true,
    "kuid": "b7e4daedeb0c4f7cbff975ebeac11a92",
    "layouttype": 2,
    "name": "kony.ui.FlexContainer",
    "parent": "flxRightPaneForLogin",
    "pf": "frmLoginforCastle",
    "responsiveData": {
        "b1": {
            "height": {
                "type": "string",
                "value": "192dp"
            },
            "width": {
                "type": "string",
                "value": "71.01%"
            }
        }
    },
    "retaincontentalignment": false,
    "retainflexpositionproperties": false,
    "retainflowhorizontalalignment": false,
    "snapgridsize": 10,
    "snaptogrid": true,
    "wType": "FlexContainer",
    "widgetalignment": 1,
    "zindex": 1
}