{
    "@class": "com.kony.gen.viz.model.component.KVizImage2",
    "DNDConfig": null,
    "_base64_": null,
    "_height_": {
        "type": "string",
        "value": "150dp"
    },
    "_left_": {
        "type": "string",
        "value": "128dp"
    },
    "_margin_": [
        0,
        0,
        0,
        0
    ],
    "_padding_": [
        0,
        0,
        0,
        0
    ],
    "_skin_": "sab6c978ce2245129f1386a9483eec1a",
    "_src_": "imagedrag.png",
    "_top_": {
        "type": "string",
        "value": "238dp"
    },
    "_width_": {
        "type": "string",
        "value": "150dp"
    },
    "canUpdateUI": true,
    "containerweight": 100,
    "id": "imgNew",
    "imagescalemode": 0,
    "info": null,
    "invokedProperty": "src",
    "iscustomlayout": false,
    "isvisible": true,
    "kuid": "je5c70ec454b463d8d2d71bd147478c6",
    "name": "kony.ui.Image2",
    "parent": "flxLeftPaneForLogin",
    "pf": "frmLoginforCastle",
    "responsiveData": {
        "b1": {
            "height": {
                "type": "string",
                "value": "16.67%"
            },
            "isVisible": false,
            "left": {
                "type": "string",
                "value": "120dp"
            },
            "src": "pficon_1.png",
            "top": {
                "type": "string",
                "value": "220dp"
            },
            "width": {
                "type": "string",
                "value": "20%"
            }
        }
    },
    "retaincontentalignment": false,
    "retainflexpositionproperties": false,
    "srcType": 1,
    "wType": "Image",
    "widgetalignment": 5,
    "zindex": 1
}