{
    "@class": "com.kony.gen.viz.model.component.KVizImage2",
    "DNDConfig": null,
    "_base64_": null,
    "_bottom_": {
        "type": "number",
        "value": ""
    },
    "_height_": {
        "type": "string",
        "value": "150dp"
    },
    "_left_": {
        "type": "string",
        "value": "100dp"
    },
    "_margin_": [
        0,
        0,
        0,
        0
    ],
    "_padding_": [
        0,
        0,
        0,
        0
    ],
    "_skin_": "sab6c978ce2245129f1386a9483eec1a",
    "_src_": "imagedrag.png",
    "_top_": {
        "type": "string",
        "value": "805dp"
    },
    "_width_": {
        "type": "string",
        "value": "150dp"
    },
    "canUpdateUI": true,
    "containerweight": 100,
    "id": "imgSrc1",
    "imagescalemode": 1,
    "info": null,
    "invokedProperty": "src",
    "iscustomlayout": false,
    "isvisible": true,
    "kuid": "ea12d89aadc34bec939afaa8eadcd2c2",
    "name": "kony.ui.Image2",
    "parent": "flxCntnr3",
    "pf": "frmLoginforCastle",
    "responsiveData": {
        "b1": {
            "bottom": {
                "type": "string",
                "value": "0dp"
            },
            "height": {
                "type": "string",
                "value": "20px"
            },
            "left": {
                "type": "string",
                "value": "0px"
            },
            "src": "temtem.png",
            "top": {
                "type": "string",
                "value": ""
            },
            "width": {
                "type": "string",
                "value": "86px"
            }
        }
    },
    "retaincontentalignment": false,
    "retainflexpositionproperties": false,
    "srcType": 1,
    "wType": "Image",
    "widgetalignment": 5,
    "zindex": 1
}