{
    "@class": "com.kony.gen.viz.model.component.KVizLabel",
    "DNDConfig": null,
    "_bottom_": {
        "type": "number",
        "value": ""
    },
    "_height_": {
        "type": "ref",
        "value": "preferred"
    },
    "_left_": {
        "type": "string",
        "value": "130dp"
    },
    "_margin_": [
        1,
        1,
        1,
        1
    ],
    "_padding_": [
        0,
        0,
        0,
        0
    ],
    "_skin_": "sf6546ee71c8496b99fe1ea9da6760d3",
    "_text_": "Label",
    "_top_": {
        "type": "string",
        "value": "745dp"
    },
    "_width_": {
        "type": "ref",
        "value": "preferred"
    },
    "_wrapping_": 2,
    "android": {
        "textStyle": {
            "letterSpacing": 0,
            "strikeThrough": false
        }
    },
    "canUpdateUI": true,
    "containerweight": 100,
    "contentalignment": 4,
    "id": "lblCpy",
    "info": null,
    "ipad": {
        "psp": {
            "wrapping": 2
        }
    },
    "iphone": {
        "psp": {
            "wrapping": 2
        }
    },
    "iscustomlayout": false,
    "isvisible": true,
    "kuid": "a700591efde0411c809edb59f5895a82",
    "name": "kony.ui.Label",
    "parent": "flxCntnr3",
    "pf": "frmLoginforCastle",
    "responsiveData": {
        "b1": {
            "bottom": {
                "type": "string",
                "value": "0dp"
            },
            "left": {
                "type": "string",
                "value": "121dp"
            },
            "skin": "s32d7df054124adfb0d196c59303a678",
            "text": "copyright @2020 Temenos HeadQuarters SA",
            "top": {
                "type": "string",
                "value": ""
            }
        }
    },
    "retaincontentalignment": false,
    "retainflexpositionproperties": false,
    "tooltip": "",
    "wType": "Label",
    "zindex": 1
}