{
    "@class": "com.kony.gen.viz.model.component.KVizLabel",
    "DNDConfig": null,
    "_bottom_": {
        "type": "number",
        "value": ""
    },
    "_height_": {
        "type": "ref",
        "value": "preferred"
    },
    "_left_": {
        "type": "string",
        "value": "110dp"
    },
    "_margin_": [
        1,
        1,
        1,
        1
    ],
    "_padding_": [
        0,
        0,
        0,
        0
    ],
    "_skin_": "sf6546ee71c8496b99fe1ea9da6760d3",
    "_text_": "Label",
    "_top_": {
        "type": "string",
        "value": "323dp"
    },
    "_width_": {
        "type": "ref",
        "value": "preferred"
    },
    "_wrapping_": 2,
    "android": {
        "textStyle": {
            "letterSpacing": 0,
            "strikeThrough": false
        }
    },
    "canUpdateUI": true,
    "containerweight": 100,
    "contentalignment": 4,
    "id": "lblJoin",
    "info": null,
    "ipad": {
        "psp": {
            "wrapping": 2
        }
    },
    "iphone": {
        "psp": {
            "wrapping": 2
        }
    },
    "iscustomlayout": false,
    "isvisible": true,
    "kuid": "g08f00b329224472839b91c120063e2f",
    "name": "kony.ui.Label",
    "parent": "flxRightPaneForLogin",
    "pf": "frmLoginforCastle",
    "responsiveData": {
        "b1": {
            "bottom": {
                "type": "string",
                "value": ""
            },
            "height": {
                "type": "string",
                "value": "120px"
            },
            "left": {
                "type": "string",
                "value": "137px"
            },
            "skin": "s152d4c62c374787be7e404506d96c09",
            "text": "Join our banking community to accelerate innovation and productivity",
            "top": {
                "type": "string",
                "value": "252px"
            },
            "width": {
                "type": "string",
                "value": "406px"
            }
        }
    },
    "retaincontentalignment": false,
    "retainflexpositionproperties": false,
    "tooltip": "",
    "wType": "Label",
    "zindex": 1
}