{
    "@class": "com.kony.gen.viz.model.component.KVizListBox",
    "DNDConfig": null,
    "_height_": {
        "type": "string",
        "value": "40dp"
    },
    "_left_": {
        "type": "string",
        "value": "20dp"
    },
    "_margin_": [
        0,
        0,
        0,
        0
    ],
    "_padding_": [
        3,
        0,
        0,
        0
    ],
    "_placeholder_": "Please Select",
    "_skin_": "s83124a4df144b2dac326dd569e32298",
    "_top_": {
        "type": "string",
        "value": "75dp"
    },
    "_width_": {
        "type": "string",
        "value": "300dp"
    },
    "canUpdateUI": true,
    "containerweight": 100,
    "contentalignment": 4,
    "dropdownimage": "listboxarw.png",
    "focusskin": "s6459b4e1e854d2ebfa3bf2b0a69365f",
    "groupcells": false,
    "id": "lstBox",
    "info": null,
    "iscustomlayout": false,
    "isvisible": true,
    "kuid": "g4f6b05c28874692a1343e941fa8ba7b",
    "masterdata": [
        [
            "lb1",
            "Lending Relationship Manager "
        ],
        [
            "lb2",
            "Credit Manager "
        ],
        [
            "lb3",
            "Back office Manager "
        ],
        [
            "lb4",
            "Collections officer."
        ]
    ],
    "name": "kony.ui.ListBox",
    "parent": "flxLogin2",
    "pf": "frmLoginforCastle",
    "responsiveData": {
        "b1": {
            "skin": "sc336b4be47a4a53b1f94dcf489dfe01",
            "width": {
                "type": "string",
                "value": "436dp"
            }
        }
    },
    "retaincontentalignment": false,
    "retainflexpositionproperties": false,
    "selectedkeys": null,
    "selectedkeyvalue": null,
    "selectedkeyvalues": null,
    "size": 18,
    "viewconfig": {
        "toggleViewConfig": {
            "viewStyle": 0
        }
    },
    "viewtype": 0,
    "wType": "ListBox",
    "zindex": 1
}