{
    "@class": "com.kony.gen.viz.model.component.KVizTextBox2",
    "DNDConfig": null,
    "_height_": {
        "type": "string",
        "value": "40dp"
    },
    "_left_": {
        "type": "string",
        "value": "150dp"
    },
    "_margin_": [
        0,
        0,
        0,
        0
    ],
    "_padding_": [
        3,
        0,
        0,
        0
    ],
    "_placeholder_": "Placeholder",
    "_skin_": "sf77e1ec18464fb4b4624fa63f8a069b",
    "_text_": "",
    "_top_": {
        "type": "string",
        "value": "633dp"
    },
    "_width_": {
        "type": "string",
        "value": "300dp"
    },
    "autocapitalize": "none",
    "autocomplete": false,
    "autocorrect": false,
    "autofilter": false,
    "canUpdateUI": true,
    "containerheight": "",
    "containerheightmode": 1,
    "containerweight": 100,
    "contentalignment": 4,
    "focusskin": "scc016aaa0ba4fa09efe65775d4e659c",
    "id": "tbxFiled2",
    "info": null,
    "iscustomlayout": false,
    "isvisible": true,
    "keyboardtype": "A",
    "kuid": "b4890145b0bf4516969228b32aa90cf7",
    "mode": "A",
    "name": "kony.ui.TextBox2",
    "parent": "flxRightPaneForLogin",
    "pf": "frmLoginforCastle",
    "placeholderskin": "s10546fc77e34e4aaffa4e4ca91568c1",
    "responsiveData": {
        "b1": {
            "isVisible": false
        }
    },
    "retaincontentalignment": false,
    "retainflexpositionproperties": false,
    "securetextentry": false,
    "textinputmode": "A",
    "tooltip": "",
    "viewtype": "default",
    "wType": "TextField",
    "zindex": 1
}