{
    "@class": "com.kony.gen.viz.model.container.KVizSegment2",
    "DNDConfig": null,
    "__parentReadjusting__": false,
    "_data_": [
        {},
        {},
        {},
        {},
        {},
        {},
        {},
        {},
        {},
        {}
    ],
    "_height_": {
        "type": "ref",
        "value": "preferred"
    },
    "_indicator_": "none",
    "_left_": {
        "type": "string",
        "value": "0dp"
    },
    "_margin_": [
        0,
        0,
        0,
        0
    ],
    "_orientation_": 2,
    "_padding_": [
        0,
        0,
        0,
        0
    ],
    "_top_": {
        "type": "string",
        "value": "0dp"
    },
    "_width_": {
        "type": "string",
        "value": "100%"
    },
    "autogrowmode": 1,
    "canUpdateUI": true,
    "containerweight": 100,
    "counter": "039",
    "desktop": {
        "_data_": [
            {
                "imgDownload": {
                    "@class": "com.viz.ide.model.segment.ImageSegmentData",
                    "src": "download_2.png"
                },
                "lblName": {
                    "@class": "com.viz.ide.model.segment.SimpleTextSegmentData",
                    "text": "Name"
                },
                "recievedDate": {
                    "@class": "com.viz.ide.model.segment.SimpleTextSegmentData",
                    "text": "Received"
                },
                "updatedDate": {
                    "@class": "com.viz.ide.model.segment.SimpleTextSegmentData",
                    "text": "Updated"
                }
            },
            {
                "imgDownload": {
                    "@class": "com.viz.ide.model.segment.ImageSegmentData",
                    "src": "download_2.png"
                },
                "lblName": {
                    "@class": "com.viz.ide.model.segment.SimpleTextSegmentData",
                    "text": "Name"
                },
                "recievedDate": {
                    "@class": "com.viz.ide.model.segment.SimpleTextSegmentData",
                    "text": "Received"
                },
                "updatedDate": {
                    "@class": "com.viz.ide.model.segment.SimpleTextSegmentData",
                    "text": "Updated"
                }
            },
            {
                "imgDownload": {
                    "@class": "com.viz.ide.model.segment.ImageSegmentData",
                    "src": "download_2.png"
                },
                "lblName": {
                    "@class": "com.viz.ide.model.segment.SimpleTextSegmentData",
                    "text": "Name"
                },
                "recievedDate": {
                    "@class": "com.viz.ide.model.segment.SimpleTextSegmentData",
                    "text": "Received"
                },
                "updatedDate": {
                    "@class": "com.viz.ide.model.segment.SimpleTextSegmentData",
                    "text": "Updated"
                }
            },
            {
                "imgDownload": {
                    "@class": "com.viz.ide.model.segment.ImageSegmentData",
                    "src": "download_2.png"
                },
                "lblName": {
                    "@class": "com.viz.ide.model.segment.SimpleTextSegmentData",
                    "text": "Name"
                },
                "recievedDate": {
                    "@class": "com.viz.ide.model.segment.SimpleTextSegmentData",
                    "text": "Received"
                },
                "updatedDate": {
                    "@class": "com.viz.ide.model.segment.SimpleTextSegmentData",
                    "text": "Updated"
                }
            },
            {
                "imgDownload": {
                    "@class": "com.viz.ide.model.segment.ImageSegmentData",
                    "src": "download_2.png"
                },
                "lblName": {
                    "@class": "com.viz.ide.model.segment.SimpleTextSegmentData",
                    "text": "Name"
                },
                "recievedDate": {
                    "@class": "com.viz.ide.model.segment.SimpleTextSegmentData",
                    "text": "Received"
                },
                "updatedDate": {
                    "@class": "com.viz.ide.model.segment.SimpleTextSegmentData",
                    "text": "Updated"
                }
            },
            {
                "imgDownload": {
                    "@class": "com.viz.ide.model.segment.ImageSegmentData",
                    "src": "download_2.png"
                },
                "lblName": {
                    "@class": "com.viz.ide.model.segment.SimpleTextSegmentData",
                    "text": "Name"
                },
                "recievedDate": {
                    "@class": "com.viz.ide.model.segment.SimpleTextSegmentData",
                    "text": "Received"
                },
                "updatedDate": {
                    "@class": "com.viz.ide.model.segment.SimpleTextSegmentData",
                    "text": "Updated"
                }
            },
            {
                "imgDownload": {
                    "@class": "com.viz.ide.model.segment.ImageSegmentData",
                    "src": "download_2.png"
                },
                "lblName": {
                    "@class": "com.viz.ide.model.segment.SimpleTextSegmentData",
                    "text": "Name"
                },
                "recievedDate": {
                    "@class": "com.viz.ide.model.segment.SimpleTextSegmentData",
                    "text": "Received"
                },
                "updatedDate": {
                    "@class": "com.viz.ide.model.segment.SimpleTextSegmentData",
                    "text": "Updated"
                }
            },
            {
                "imgDownload": {
                    "@class": "com.viz.ide.model.segment.ImageSegmentData",
                    "src": "download_2.png"
                },
                "lblName": {
                    "@class": "com.viz.ide.model.segment.SimpleTextSegmentData",
                    "text": "Name"
                },
                "recievedDate": {
                    "@class": "com.viz.ide.model.segment.SimpleTextSegmentData",
                    "text": "Received"
                },
                "updatedDate": {
                    "@class": "com.viz.ide.model.segment.SimpleTextSegmentData",
                    "text": "Updated"
                }
            },
            {
                "imgDownload": {
                    "@class": "com.viz.ide.model.segment.ImageSegmentData",
                    "src": "download_2.png"
                },
                "lblName": {
                    "@class": "com.viz.ide.model.segment.SimpleTextSegmentData",
                    "text": "Name"
                },
                "recievedDate": {
                    "@class": "com.viz.ide.model.segment.SimpleTextSegmentData",
                    "text": "Received"
                },
                "updatedDate": {
                    "@class": "com.viz.ide.model.segment.SimpleTextSegmentData",
                    "text": "Updated"
                }
            },
            {
                "imgDownload": {
                    "@class": "com.viz.ide.model.segment.ImageSegmentData",
                    "src": "download_2.png"
                },
                "lblName": {
                    "@class": "com.viz.ide.model.segment.SimpleTextSegmentData",
                    "text": "Name"
                },
                "recievedDate": {
                    "@class": "com.viz.ide.model.segment.SimpleTextSegmentData",
                    "text": "Received"
                },
                "updatedDate": {
                    "@class": "com.viz.ide.model.segment.SimpleTextSegmentData",
                    "text": "Updated"
                }
            },
            {
                "imgDownload": {
                    "@class": "com.viz.ide.model.segment.ImageSegmentData",
                    "src": "download_2.png"
                },
                "lblName": {
                    "@class": "com.viz.ide.model.segment.SimpleTextSegmentData",
                    "text": "Name"
                },
                "recievedDate": {
                    "@class": "com.viz.ide.model.segment.SimpleTextSegmentData",
                    "text": "Received"
                },
                "updatedDate": {
                    "@class": "com.viz.ide.model.segment.SimpleTextSegmentData",
                    "text": "Updated"
                }
            },
            {
                "imgDownload": {
                    "@class": "com.viz.ide.model.segment.ImageSegmentData",
                    "src": "download_2.png"
                },
                "lblName": {
                    "@class": "com.viz.ide.model.segment.SimpleTextSegmentData",
                    "text": "Name"
                },
                "recievedDate": {
                    "@class": "com.viz.ide.model.segment.SimpleTextSegmentData",
                    "text": "Received"
                },
                "updatedDate": {
                    "@class": "com.viz.ide.model.segment.SimpleTextSegmentData",
                    "text": "Updated"
                }
            },
            {
                "imgDownload": {
                    "@class": "com.viz.ide.model.segment.ImageSegmentData",
                    "src": "download_2.png"
                },
                "lblName": {
                    "@class": "com.viz.ide.model.segment.SimpleTextSegmentData",
                    "text": "Name"
                },
                "recievedDate": {
                    "@class": "com.viz.ide.model.segment.SimpleTextSegmentData",
                    "text": "Received"
                },
                "updatedDate": {
                    "@class": "com.viz.ide.model.segment.SimpleTextSegmentData",
                    "text": "Updated"
                }
            },
            {
                "imgDownload": {
                    "@class": "com.viz.ide.model.segment.ImageSegmentData",
                    "src": "download_2.png"
                },
                "lblName": {
                    "@class": "com.viz.ide.model.segment.SimpleTextSegmentData",
                    "text": "Name"
                },
                "recievedDate": {
                    "@class": "com.viz.ide.model.segment.SimpleTextSegmentData",
                    "text": "Received"
                },
                "updatedDate": {
                    "@class": "com.viz.ide.model.segment.SimpleTextSegmentData",
                    "text": "Updated"
                }
            },
            {
                "imgDownload": {
                    "@class": "com.viz.ide.model.segment.ImageSegmentData",
                    "src": "download_2.png"
                },
                "lblName": {
                    "@class": "com.viz.ide.model.segment.SimpleTextSegmentData",
                    "text": "Name"
                },
                "recievedDate": {
                    "@class": "com.viz.ide.model.segment.SimpleTextSegmentData",
                    "text": "Received"
                },
                "updatedDate": {
                    "@class": "com.viz.ide.model.segment.SimpleTextSegmentData",
                    "text": "Updated"
                }
            },
            {
                "imgDownload": {
                    "@class": "com.viz.ide.model.segment.ImageSegmentData",
                    "src": "download_2.png"
                },
                "lblName": {
                    "@class": "com.viz.ide.model.segment.SimpleTextSegmentData",
                    "text": "Name"
                },
                "recievedDate": {
                    "@class": "com.viz.ide.model.segment.SimpleTextSegmentData",
                    "text": "Received"
                },
                "updatedDate": {
                    "@class": "com.viz.ide.model.segment.SimpleTextSegmentData",
                    "text": "Updated"
                }
            },
            {
                "imgDownload": {
                    "@class": "com.viz.ide.model.segment.ImageSegmentData",
                    "src": "download_2.png"
                },
                "lblName": {
                    "@class": "com.viz.ide.model.segment.SimpleTextSegmentData",
                    "text": "Name"
                },
                "recievedDate": {
                    "@class": "com.viz.ide.model.segment.SimpleTextSegmentData",
                    "text": "Received"
                },
                "updatedDate": {
                    "@class": "com.viz.ide.model.segment.SimpleTextSegmentData",
                    "text": "Updated"
                }
            },
            {
                "imgDownload": {
                    "@class": "com.viz.ide.model.segment.ImageSegmentData",
                    "src": "download_2.png"
                },
                "lblName": {
                    "@class": "com.viz.ide.model.segment.SimpleTextSegmentData",
                    "text": "Name"
                },
                "recievedDate": {
                    "@class": "com.viz.ide.model.segment.SimpleTextSegmentData",
                    "text": "Received"
                },
                "updatedDate": {
                    "@class": "com.viz.ide.model.segment.SimpleTextSegmentData",
                    "text": "Updated"
                }
            },
            {
                "imgDownload": {
                    "@class": "com.viz.ide.model.segment.ImageSegmentData",
                    "src": "download_2.png"
                },
                "lblName": {
                    "@class": "com.viz.ide.model.segment.SimpleTextSegmentData",
                    "text": "Name"
                },
                "recievedDate": {
                    "@class": "com.viz.ide.model.segment.SimpleTextSegmentData",
                    "text": "Received"
                },
                "updatedDate": {
                    "@class": "com.viz.ide.model.segment.SimpleTextSegmentData",
                    "text": "Updated"
                }
            },
            {
                "imgDownload": {
                    "@class": "com.viz.ide.model.segment.ImageSegmentData",
                    "src": "download_2.png"
                },
                "lblName": {
                    "@class": "com.viz.ide.model.segment.SimpleTextSegmentData",
                    "text": "Name"
                },
                "recievedDate": {
                    "@class": "com.viz.ide.model.segment.SimpleTextSegmentData",
                    "text": "Received"
                },
                "updatedDate": {
                    "@class": "com.viz.ide.model.segment.SimpleTextSegmentData",
                    "text": "Updated"
                }
            },
            {
                "imgDownload": {
                    "@class": "com.viz.ide.model.segment.ImageSegmentData",
                    "src": "download_2.png"
                },
                "lblName": {
                    "@class": "com.viz.ide.model.segment.SimpleTextSegmentData",
                    "text": "Name"
                },
                "recievedDate": {
                    "@class": "com.viz.ide.model.segment.SimpleTextSegmentData",
                    "text": "Received"
                },
                "updatedDate": {
                    "@class": "com.viz.ide.model.segment.SimpleTextSegmentData",
                    "text": "Updated"
                }
            },
            {
                "imgDownload": {
                    "@class": "com.viz.ide.model.segment.ImageSegmentData",
                    "src": "download_2.png"
                },
                "lblName": {
                    "@class": "com.viz.ide.model.segment.SimpleTextSegmentData",
                    "text": "Name"
                },
                "recievedDate": {
                    "@class": "com.viz.ide.model.segment.SimpleTextSegmentData",
                    "text": "Received"
                },
                "updatedDate": {
                    "@class": "com.viz.ide.model.segment.SimpleTextSegmentData",
                    "text": "Updated"
                }
            },
            {
                "imgDownload": {
                    "@class": "com.viz.ide.model.segment.ImageSegmentData",
                    "src": "download_2.png"
                },
                "lblName": {
                    "@class": "com.viz.ide.model.segment.SimpleTextSegmentData",
                    "text": "Name"
                },
                "recievedDate": {
                    "@class": "com.viz.ide.model.segment.SimpleTextSegmentData",
                    "text": "Received"
                },
                "updatedDate": {
                    "@class": "com.viz.ide.model.segment.SimpleTextSegmentData",
                    "text": "Updated"
                }
            },
            {
                "imgDownload": {
                    "@class": "com.viz.ide.model.segment.ImageSegmentData",
                    "src": "download_2.png"
                },
                "lblName": {
                    "@class": "com.viz.ide.model.segment.SimpleTextSegmentData",
                    "text": "Name"
                },
                "recievedDate": {
                    "@class": "com.viz.ide.model.segment.SimpleTextSegmentData",
                    "text": "Received"
                },
                "updatedDate": {
                    "@class": "com.viz.ide.model.segment.SimpleTextSegmentData",
                    "text": "Updated"
                }
            },
            {
                "imgDownload": {
                    "@class": "com.viz.ide.model.segment.ImageSegmentData",
                    "src": "download_2.png"
                },
                "lblName": {
                    "@class": "com.viz.ide.model.segment.SimpleTextSegmentData",
                    "text": "Name"
                },
                "recievedDate": {
                    "@class": "com.viz.ide.model.segment.SimpleTextSegmentData",
                    "text": "Received"
                },
                "updatedDate": {
                    "@class": "com.viz.ide.model.segment.SimpleTextSegmentData",
                    "text": "Updated"
                }
            },
            {
                "imgDownload": {
                    "@class": "com.viz.ide.model.segment.ImageSegmentData",
                    "src": "download_2.png"
                },
                "lblName": {
                    "@class": "com.viz.ide.model.segment.SimpleTextSegmentData",
                    "text": "Name"
                },
                "recievedDate": {
                    "@class": "com.viz.ide.model.segment.SimpleTextSegmentData",
                    "text": "Received"
                },
                "updatedDate": {
                    "@class": "com.viz.ide.model.segment.SimpleTextSegmentData",
                    "text": "Updated"
                }
            },
            {
                "imgDownload": {
                    "@class": "com.viz.ide.model.segment.ImageSegmentData",
                    "src": "download_2.png"
                },
                "lblName": {
                    "@class": "com.viz.ide.model.segment.SimpleTextSegmentData",
                    "text": "Name"
                },
                "recievedDate": {
                    "@class": "com.viz.ide.model.segment.SimpleTextSegmentData",
                    "text": "Received"
                },
                "updatedDate": {
                    "@class": "com.viz.ide.model.segment.SimpleTextSegmentData",
                    "text": "Updated"
                }
            },
            {
                "imgDownload": {
                    "@class": "com.viz.ide.model.segment.ImageSegmentData",
                    "src": "download_2.png"
                },
                "lblName": {
                    "@class": "com.viz.ide.model.segment.SimpleTextSegmentData",
                    "text": "Name"
                },
                "recievedDate": {
                    "@class": "com.viz.ide.model.segment.SimpleTextSegmentData",
                    "text": "Received"
                },
                "updatedDate": {
                    "@class": "com.viz.ide.model.segment.SimpleTextSegmentData",
                    "text": "Updated"
                }
            },
            {
                "imgDownload": {
                    "@class": "com.viz.ide.model.segment.ImageSegmentData",
                    "src": "download_2.png"
                },
                "lblName": {
                    "@class": "com.viz.ide.model.segment.SimpleTextSegmentData",
                    "text": "Name"
                },
                "recievedDate": {
                    "@class": "com.viz.ide.model.segment.SimpleTextSegmentData",
                    "text": "Received"
                },
                "updatedDate": {
                    "@class": "com.viz.ide.model.segment.SimpleTextSegmentData",
                    "text": "Updated"
                }
            },
            {
                "imgDownload": {
                    "@class": "com.viz.ide.model.segment.ImageSegmentData",
                    "src": "download_2.png"
                },
                "lblName": {
                    "@class": "com.viz.ide.model.segment.SimpleTextSegmentData",
                    "text": "Name"
                },
                "recievedDate": {
                    "@class": "com.viz.ide.model.segment.SimpleTextSegmentData",
                    "text": "Received"
                },
                "updatedDate": {
                    "@class": "com.viz.ide.model.segment.SimpleTextSegmentData",
                    "text": "Updated"
                }
            },
            {
                "imgDownload": {
                    "@class": "com.viz.ide.model.segment.ImageSegmentData",
                    "src": "download_2.png"
                },
                "lblName": {
                    "@class": "com.viz.ide.model.segment.SimpleTextSegmentData",
                    "text": "Name"
                },
                "recievedDate": {
                    "@class": "com.viz.ide.model.segment.SimpleTextSegmentData",
                    "text": "Received"
                },
                "updatedDate": {
                    "@class": "com.viz.ide.model.segment.SimpleTextSegmentData",
                    "text": "Updated"
                }
            },
            {
                "imgDownload": {
                    "@class": "com.viz.ide.model.segment.ImageSegmentData",
                    "src": "download_2.png"
                },
                "lblName": {
                    "@class": "com.viz.ide.model.segment.SimpleTextSegmentData",
                    "text": "Name"
                },
                "recievedDate": {
                    "@class": "com.viz.ide.model.segment.SimpleTextSegmentData",
                    "text": "Received"
                },
                "updatedDate": {
                    "@class": "com.viz.ide.model.segment.SimpleTextSegmentData",
                    "text": "Updated"
                }
            },
            {
                "imgDownload": {
                    "@class": "com.viz.ide.model.segment.ImageSegmentData",
                    "src": "download_2.png"
                },
                "lblName": {
                    "@class": "com.viz.ide.model.segment.SimpleTextSegmentData",
                    "text": "Name"
                },
                "recievedDate": {
                    "@class": "com.viz.ide.model.segment.SimpleTextSegmentData",
                    "text": "Received"
                },
                "updatedDate": {
                    "@class": "com.viz.ide.model.segment.SimpleTextSegmentData",
                    "text": "Updated"
                }
            },
            {
                "imgDownload": {
                    "@class": "com.viz.ide.model.segment.ImageSegmentData",
                    "src": "download_2.png"
                },
                "lblName": {
                    "@class": "com.viz.ide.model.segment.SimpleTextSegmentData",
                    "text": "Name"
                },
                "recievedDate": {
                    "@class": "com.viz.ide.model.segment.SimpleTextSegmentData",
                    "text": "Received"
                },
                "updatedDate": {
                    "@class": "com.viz.ide.model.segment.SimpleTextSegmentData",
                    "text": "Updated"
                }
            },
            {
                "imgDownload": {
                    "@class": "com.viz.ide.model.segment.ImageSegmentData",
                    "src": "download_2.png"
                },
                "lblName": {
                    "@class": "com.viz.ide.model.segment.SimpleTextSegmentData",
                    "text": "Name"
                },
                "recievedDate": {
                    "@class": "com.viz.ide.model.segment.SimpleTextSegmentData",
                    "text": "Received"
                },
                "updatedDate": {
                    "@class": "com.viz.ide.model.segment.SimpleTextSegmentData",
                    "text": "Updated"
                }
            },
            {
                "imgDownload": {
                    "@class": "com.viz.ide.model.segment.ImageSegmentData",
                    "src": "download_2.png"
                },
                "lblName": {
                    "@class": "com.viz.ide.model.segment.SimpleTextSegmentData",
                    "text": "Name"
                },
                "recievedDate": {
                    "@class": "com.viz.ide.model.segment.SimpleTextSegmentData",
                    "text": "Received"
                },
                "updatedDate": {
                    "@class": "com.viz.ide.model.segment.SimpleTextSegmentData",
                    "text": "Updated"
                }
            },
            {
                "imgDownload": {
                    "@class": "com.viz.ide.model.segment.ImageSegmentData",
                    "src": "download_2.png"
                },
                "lblName": {
                    "@class": "com.viz.ide.model.segment.SimpleTextSegmentData",
                    "text": "Name"
                },
                "recievedDate": {
                    "@class": "com.viz.ide.model.segment.SimpleTextSegmentData",
                    "text": "Received"
                },
                "updatedDate": {
                    "@class": "com.viz.ide.model.segment.SimpleTextSegmentData",
                    "text": "Updated"
                }
            },
            {
                "imgDownload": {
                    "@class": "com.viz.ide.model.segment.ImageSegmentData",
                    "src": "download_2.png"
                },
                "lblName": {
                    "@class": "com.viz.ide.model.segment.SimpleTextSegmentData",
                    "text": "Name"
                },
                "recievedDate": {
                    "@class": "com.viz.ide.model.segment.SimpleTextSegmentData",
                    "text": "Received"
                },
                "updatedDate": {
                    "@class": "com.viz.ide.model.segment.SimpleTextSegmentData",
                    "text": "Updated"
                }
            },
            {
                "imgDownload": {
                    "@class": "com.viz.ide.model.segment.ImageSegmentData",
                    "src": "download_2.png"
                },
                "lblName": {
                    "@class": "com.viz.ide.model.segment.SimpleTextSegmentData",
                    "text": "Name"
                },
                "recievedDate": {
                    "@class": "com.viz.ide.model.segment.SimpleTextSegmentData",
                    "text": "Received"
                },
                "updatedDate": {
                    "@class": "com.viz.ide.model.segment.SimpleTextSegmentData",
                    "text": "Updated"
                }
            },
            {
                "imgDownload": {
                    "@class": "com.viz.ide.model.segment.ImageSegmentData",
                    "src": "download_2.png"
                },
                "lblName": {
                    "@class": "com.viz.ide.model.segment.SimpleTextSegmentData",
                    "text": "Name"
                },
                "recievedDate": {
                    "@class": "com.viz.ide.model.segment.SimpleTextSegmentData",
                    "text": "Received"
                },
                "updatedDate": {
                    "@class": "com.viz.ide.model.segment.SimpleTextSegmentData",
                    "text": "Updated"
                }
            }
        ],
        "rowTemplateId": "eb90d0ba975846d890f3df431fe7aace",
        "rowtemplate": "docImgFlx",
        "sectionHeaderTemplateId": null,
        "widgetdatamap": {
            "docImgFlx": "docImgFlx",
            "flxDate": "flxDate",
            "flxHover": "flxHover",
            "flxName": "flxName",
            "flxTmpInner": "flxTmpInner",
            "imgDownload": "imgDownload",
            "lblName": "lblName",
            "recievedDate": "recievedDate",
            "updatedDate": "updatedDate"
        }
    },
    "focusedindex": null,
    "focuseditem": null,
    "groupcells": false,
    "hasSections": false,
    "id": "segDoc",
    "info": null,
    "ipad": {
        "psp": {
            "indicator": "rowselect"
        }
    },
    "iphone": {
        "psp": {
            "indicator": "rowselect"
        }
    },
    "iscustomlayout": false,
    "isvisible": true,
    "kuid": "da8de8609a4e4d518d6e14f4f8a31ae3",
    "masterdata": {},
    "name": "kony.ui.SegmentedUI2",
    "needpageindicator": true,
    "pageoffdotimage": "pageoffdot.png",
    "pageondotimage": "pageondot.png",
    "paginationconfig": {
        "position": "bottom"
    },
    "parent": "doc",
    "pf": "userwidgetmodel",
    "retaincontentalignment": false,
    "retainflexpositionproperties": false,
    "retainselection": false,
    "rowcounter": 39,
    "rowfocusskin": "s3f353c057a14ca8a8d6fa6caf39f59a",
    "rowskin": "s3483198066b465ab0c37daa4ea673f6",
    "rowtemplate": "docImgFlx",
    "screenlevelwidget": false,
    "seccounter": 0,
    "sectionheaderskin": "s67dfc97c181442ebeb45ecca8ba0dc8",
    "sectionheadertemplate": "flxHeader",
    "selectedRows": null,
    "selectedState": false,
    "selectedindex": null,
    "selectedindices": null,
    "selecteditems": null,
    "selectedsectionindex": 0,
    "selectionbehavior": "default",
    "separatorcolor": "aaaaaa64",
    "separatorrequired": true,
    "separatorthickness": 10,
    "showscrollbars": false,
    "viewtype": "tableview",
    "vizProps": {},
    "wType": "Segment",
    "widgetalignment": 5,
    "widgetdatamap": {
        "docImgFlx": "docImgFlx",
        "flxDate": "flxDate",
        "flxHover": "flxHover",
        "flxName": "flxName",
        "flxTmpInner": "flxTmpInner",
        "imgDownload": "imgDownload",
        "lblName": "lblName",
        "recievedDate": "recievedDate",
        "updatedDate": "updatedDate"
    },
    "zindex": 1
}