{
    "classname": "uuxNavigationRail",
    "definitions": {
        "apis": {
            "custom": [],
            "passthrough": []
        },
        "events": {
            "custom": [],
            "passthrough": [
                {
                    "access": "Enable",
                    "group": "General",
                    "kuid": "c96d53e1bbbe44898c9b627c5a20e970",
                    "originalPropertyKey": "onClick",
                    "propertyIndex": 1,
                    "propertyKey": "onClickExplorer",
                    "pw": {
                        "access": "readwrite",
                        "category": "action",
                        "displayName": "onClickExplorer",
                        "srcWidget": "flxExplorer",
                        "type": "action",
                        "uiRepresentation": "Label-Label-Button-Button",
                        "wType": "FlexContainer"
                    },
                    "srcWgtKUID": "j4782f367b454137acc061034476f68e",
                    "translateAtInstance": false
                },
                {
                    "access": "Enable",
                    "group": "General",
                    "kuid": "bffc009df591464caab0a56787714938",
                    "originalPropertyKey": "onClick",
                    "propertyIndex": 2,
                    "propertyKey": "onClickHelp",
                    "pw": {
                        "access": "readwrite",
                        "category": "action",
                        "displayName": "onClickHelp",
                        "srcWidget": "flxHelp",
                        "type": "action",
                        "uiRepresentation": "Label-Label-Button-Button",
                        "wType": "FlexContainer"
                    },
                    "srcWgtKUID": "e8a008cc71a04cb1b2a7356256e45b60",
                    "translateAtInstance": false
                },
                {
                    "access": "Enable",
                    "group": "General",
                    "kuid": "j0900b66ca434412bf6156707c2c0d3c",
                    "originalPropertyKey": "onClick",
                    "propertyIndex": 3,
                    "propertyKey": "onClickBtnExplorer",
                    "pw": {
                        "access": "readwrite",
                        "category": "action",
                        "displayName": "onClickBtnExplorer",
                        "srcWidget": "btnExplorer",
                        "type": "action",
                        "uiRepresentation": "Label-Label-Button-Button",
                        "wType": "Button"
                    },
                    "srcWgtKUID": "ie224d39a5354ab4b4aa1a2990e66fde",
                    "translateAtInstance": false
                },
                {
                    "access": "Enable",
                    "group": "General",
                    "kuid": "c5797d9403d24d2d823cb87a17dc314a",
                    "originalPropertyKey": "onClick",
                    "propertyIndex": 4,
                    "propertyKey": "onClickBtnHelp",
                    "pw": {
                        "access": "readwrite",
                        "category": "action",
                        "displayName": "onClickBtnHelp",
                        "srcWidget": "btnHelp",
                        "type": "action",
                        "uiRepresentation": "Label-Label-Button-Button",
                        "wType": "Button"
                    },
                    "srcWgtKUID": "b3c0ba7e1e86462a8ceedab4de9fa748",
                    "translateAtInstance": false
                }
            ]
        },
        "groups": {
            "apis": [],
            "events": [],
            "properties": [],
            "widgets": []
        },
        "properties": {
            "custom": [],
            "passthrough": [
                {
                    "access": "Enable",
                    "group": "General",
                    "kuid": "j0659160f5bc4d6e98dd2f09fd219238",
                    "originalPropertyKey": "bottomBtnIcon",
                    "propertyIndex": 0,
                    "propertyKey": "bottomBtnIcon",
                    "pw": {
                        "access": "readwrite",
                        "category": "widget",
                        "displayName": "bottomBtnIcon",
                        "supportedPlatforms": {
                            "desktop": [
                                "desktopweb"
                            ],
                            "mobile": [
                                "spa"
                            ],
                            "tablet": [
                                "spa"
                            ]
                        },
                        "type": "string",
                        "uiRepresentation": "Label-Textbox",
                        "wType": "TPW"
                    },
                    "srcWgtKUID": "eb4e7d130b6f4222836570f96f419baa"
                },
                {
                    "access": "Enable",
                    "group": "General",
                    "kuid": "c346d0fa9d444c31973b5bbea7df4180",
                    "originalPropertyKey": "bottomBtnItems",
                    "propertyIndex": 1,
                    "propertyKey": "bottomBtnItems",
                    "pw": {
                        "access": "readwrite",
                        "category": "widget",
                        "displayName": "bottomBtnItems",
                        "supportedPlatforms": {
                            "desktop": [
                                "desktopweb"
                            ],
                            "mobile": [
                                "spa"
                            ],
                            "tablet": [
                                "spa"
                            ]
                        },
                        "type": "string",
                        "uiRepresentation": "Label-Textbox",
                        "wType": "TPW"
                    },
                    "srcWgtKUID": "eb4e7d130b6f4222836570f96f419baa"
                },
                {
                    "access": "Enable",
                    "group": "General",
                    "kuid": "bfc0f3930c7c4061a0c557193a5155cb",
                    "originalPropertyKey": "hideBottomBtn",
                    "propertyIndex": 2,
                    "propertyKey": "hideBottomBtn",
                    "pw": {
                        "access": "readwrite",
                        "category": "widget",
                        "displayName": "hideBottomBtn",
                        "supportedPlatforms": {
                            "desktop": [
                                "desktopweb"
                            ],
                            "mobile": [
                                "spa"
                            ],
                            "tablet": [
                                "spa"
                            ]
                        },
                        "type": "boolean",
                        "uiRepresentation": "Label-Radiobuttongroup",
                        "wType": "TPW"
                    },
                    "srcWgtKUID": "eb4e7d130b6f4222836570f96f419baa"
                },
                {
                    "access": "Enable",
                    "group": "General",
                    "kuid": "fce43d6749ba4b2097324962f09476c0",
                    "originalPropertyKey": "logo",
                    "propertyIndex": 3,
                    "propertyKey": "logo",
                    "pw": {
                        "access": "readwrite",
                        "category": "widget",
                        "displayName": "logo",
                        "supportedPlatforms": {
                            "desktop": [
                                "desktopweb"
                            ],
                            "mobile": [
                                "spa"
                            ],
                            "tablet": [
                                "spa"
                            ]
                        },
                        "type": "string",
                        "uiRepresentation": "Label-Textbox",
                        "wType": "TPW"
                    },
                    "srcWgtKUID": "eb4e7d130b6f4222836570f96f419baa"
                },
                {
                    "access": "Enable",
                    "group": "General",
                    "kuid": "cab1399108e942a4b1f2b962021814f9",
                    "originalPropertyKey": "logoAlt",
                    "propertyIndex": 4,
                    "propertyKey": "logoAlt",
                    "pw": {
                        "access": "readwrite",
                        "category": "widget",
                        "displayName": "logoAlt",
                        "supportedPlatforms": {
                            "desktop": [
                                "desktopweb"
                            ],
                            "mobile": [
                                "spa"
                            ],
                            "tablet": [
                                "spa"
                            ]
                        },
                        "type": "string",
                        "uiRepresentation": "Label-Textbox",
                        "wType": "TPW"
                    },
                    "srcWgtKUID": "eb4e7d130b6f4222836570f96f419baa"
                },
                {
                    "access": "Enable",
                    "group": "General",
                    "kuid": "c5b9e41e246a4c35848fec60ce93afbe",
                    "originalPropertyKey": "menuItems",
                    "propertyIndex": 5,
                    "propertyKey": "menuItems",
                    "pw": {
                        "access": "readwrite",
                        "category": "widget",
                        "displayName": "menuItems",
                        "supportedPlatforms": {
                            "desktop": [
                                "desktopweb"
                            ],
                            "mobile": [
                                "spa"
                            ],
                            "tablet": [
                                "spa"
                            ]
                        },
                        "type": "string",
                        "uiRepresentation": "Label-Textbox",
                        "wType": "TPW"
                    },
                    "srcWgtKUID": "eb4e7d130b6f4222836570f96f419baa"
                },
                {
                    "access": "Enable",
                    "group": "General",
                    "kuid": "de32205453314625b808a2e614bd4a19",
                    "originalPropertyKey": "positionDescription",
                    "propertyIndex": 6,
                    "propertyKey": "positionDescription",
                    "pw": {
                        "access": "readwrite",
                        "category": "widget",
                        "displayName": "positionDescription",
                        "supportedPlatforms": {
                            "desktop": [
                                "desktopweb"
                            ],
                            "mobile": [
                                "spa"
                            ],
                            "tablet": [
                                "spa"
                            ]
                        },
                        "type": "enum",
                        "uiRepresentation": "Label-Combobox",
                        "wType": "TPW"
                    },
                    "srcWgtKUID": "eb4e7d130b6f4222836570f96f419baa"
                },
                {
                    "access": "Enable",
                    "group": "General",
                    "originalPropertyKey": "skin",
                    "propertyIndex": 7,
                    "propertyKey": "skin1",
                    "pw": {
                        "access": "readwrite",
                        "category": "skin",
                        "displayName": "Normal",
                        "wType": "Button"
                    },
                    "srcWgtKUID": "ie224d39a5354ab4b4aa1a2990e66fde"
                },
                {
                    "access": "Enable",
                    "group": "General",
                    "originalPropertyKey": "skin",
                    "propertyIndex": 8,
                    "propertyKey": "skin2",
                    "pw": {
                        "access": "readwrite",
                        "category": "skin",
                        "displayName": "Normal",
                        "wType": "Button"
                    },
                    "srcWgtKUID": "b3c0ba7e1e86462a8ceedab4de9fa748"
                }
            ]
        },
        "widgets": {
            "expose": [
                {
                    "kuid": "c63fd1d7a0ea48f1adb0f5c70b47ac3d",
                    "propertyKey": "flxExplorer",
                    "srcWgtKUID": "j4782f367b454137acc061034476f68e"
                },
                {
                    "kuid": "d6458d8a14e7462298a2b3dc829519a3",
                    "propertyKey": "flxHelp",
                    "srcWgtKUID": "e8a008cc71a04cb1b2a7356256e45b60"
                },
                {
                    "kuid": "d5efb6e887f04dafa226b9089fae9027",
                    "propertyKey": "btnHelp",
                    "srcWgtKUID": "b3c0ba7e1e86462a8ceedab4de9fa748"
                },
                {
                    "kuid": "d0c21a3ee0cc4279998e5660cf9e1720",
                    "propertyKey": "btnExplorer",
                    "srcWgtKUID": "ie224d39a5354ab4b4aa1a2990e66fde"
                }
            ],
            "passthrough": []
        }
    },
    "namespace": "uuxNavigationRailComponent",
    "version": "1.0.0"
}