{
    "DNDConfig": null,
    "_height_": {
        "type": "string",
        "value": "106dp"
    },
    "_left_": {
        "type": "string",
        "value": "0dp"
    },
    "_margin_": [
        0,
        0,
        0,
        0
    ],
    "_orientation_": 6,
    "_padding_": [
        0,
        0,
        0,
        0
    ],
    "_percent_": true,
    "_skin_": "se31956b9efb4cdeb803f81ffb1335e2",
    "_top_": {
        "type": "string",
        "value": "1dp"
    },
    "_width_": {
        "type": "string",
        "value": "100%"
    },
    "allboxes": [],
    "autogrowmode": 0,
    "canUpdateUI": true,
    "children": [
        "cusTextAreaDescriptionResponse",
        "cusTextAreaAdditionalResponse",
        "lblAppointmentResponse",
        "lblContractChannelResponse",
        "lblContractDateResponse",
        "cusDropDownStatus",
        "btnSubmit"
    ],
    "clipbounds": false,
    "containerweight": 100,
    "desktopweb": {
        "bottom": "",
        "centerX": "",
        "centerY": "",
        "left": "0dp",
        "maxHeight": "",
        "maxWidth": "",
        "minHeight": "",
        "minWidth": "",
        "right": "",
        "width": "100%",
        "zIndex": "auto"
    },
    "enablescrolling": true,
    "id": "flxResponseWrapper",
    "info": null,
    "iscustomlayout": false,
    "isvisible": true,
    "kuid": "g5ca55e19d41431aab8f7d15e2b7f566",
    "layouttype": 3,
    "name": "kony.ui.FlexContainer",
    "parent": "flxInnerCollapseWrapper",
    "pf": "userwidgetmodel",
    "responsiveData": {
        "b1": {
            "desktopweb": {
                "zIndex": 1
            },
            "zIndex": 1
        }
    },
    "retaincontentalignment": false,
    "retainflexpositionproperties": false,
    "retainflowhorizontalalignment": false,
    "snapgridsize": 10,
    "snaptogrid": true,
    "wType": "FlexContainer",
    "widgetalignment": 1,
    "zindex": 1
}