{
  "operationConfig" : {
    "name" : "getAcLockEventType1643",
    "type" : "MappedToBackend",
    "cachable" : false,
    "smsEnabled" : false,
    "security" : "authorized_app_user",
    "responseEncoding" : "UTF-8",
    "httpMethod" : "GET",
    "decodeResponseBody" : false,
    "odata" : [ {
      "id" : "$select",
      "dataType" : "string",
      "encode" : true,
      "accessType" : "readonly"
    }, {
      "id" : "$filter",
      "dataType" : "string",
      "encode" : true,
      "accessType" : "readonly"
    }, {
      "id" : "$orderby",
      "dataType" : "string",
      "encode" : true,
      "accessType" : "readonly"
    }, {
      "id" : "$top",
      "dataType" : "string",
      "encode" : true,
      "accessType" : "readonly"
    }, {
      "id" : "$skip",
      "dataType" : "string",
      "encode" : true,
      "accessType" : "readonly"
    }, {
      "id" : "$expand",
      "dataType" : "string",
      "encode" : true,
      "accessType" : "readonly"
    }, {
      "id" : "$batchsize",
      "dataType" : "string",
      "encode" : true,
      "accessType" : "readonly"
    }, {
      "id" : "$batchid",
      "dataType" : "string",
      "encode" : true,
      "accessType" : "readonly"
    } ],
    "oMapping" : "<?xml version=\"1.0\" encoding=\"UTF-8\" standalone=\"yes\"?>\n<mapper xmlns=\"http://www.kony.com/ns/mapper\">\n    <map inputpath=\"response_in\" outputpath=\"response_out\">\n        <map inputpath=\"header\" outputpath=\"getLockEventObj\">\n            <set-param inputpath=\"status\" outputpath=\"status\"/>\n            <set-param inputpath=\"../body/description\" outputpath=\"description\"/>\n            <set-param inputpath=\"../body/lockTypeId\" outputpath=\"lockTypeId\"/>\n            <set-param inputpath=\"../body/accountLink\" outputpath=\"accountLink\"/>\n            <set-param inputpath=\"../error/code\" outputpath=\"code\"/>\n            <set-param inputpath=\"../error/message\" outputpath=\"message\"/>\n            <set-param inputpath=\"../error/type\" outputpath=\"type\"/>\n        </map>\n    </map>\n</mapper>\n",
    "oVisualMappingData" : "{\"nodeDataArray\":[{\"isGroup\":true,\"key\":\"response_out\",\"text\":\"getLockEventObj\",\"xy\":\"622 396\"},{\"isGroup\":true,\"key\":\"response_in\",\"text\":\"BlockUnblock (1.0).getAcLockEventType\",\"xy\":\"150 100\"}],\"linkDataArray\":[{\"category\":\"Mapping\",\"visible\":true,\"from\":\"source:body:accountLink:\",\"to\":\"target:getLockEventObj:accountLink:\",\"fromPort\":\"source:body:accountLink:\",\"toPort\":\"target:getLockEventObj:accountLink:\"},{\"category\":\"Mapping\",\"visible\":true,\"from\":\"source:body:description:\",\"to\":\"target:getLockEventObj:description:\",\"fromPort\":\"source:body:description:\",\"toPort\":\"target:getLockEventObj:description:\"},{\"category\":\"Mapping\",\"visible\":true,\"from\":\"source:body:lockTypeId:\",\"to\":\"target:getLockEventObj:lockTypeId:\",\"fromPort\":\"source:body:lockTypeId:\",\"toPort\":\"target:getLockEventObj:lockTypeId:\"},{\"category\":\"Mapping\",\"visible\":true,\"from\":\"source:header:status:\",\"to\":\"target:getLockEventObj:status:\",\"fromPort\":\"source:header:status:\",\"toPort\":\"target:getLockEventObj:status:\"},{\"category\":\"Mapping\",\"visible\":true,\"from\":\"source:error:code:\",\"to\":\"target:getLockEventObj:code:\",\"fromPort\":\"source:error:code:\",\"toPort\":\"target:getLockEventObj:code:\"},{\"category\":\"Mapping\",\"visible\":true,\"from\":\"source:error:message:\",\"to\":\"target:getLockEventObj:message:\",\"fromPort\":\"source:error:message:\",\"toPort\":\"target:getLockEventObj:message:\"},{\"category\":\"Mapping\",\"visible\":true,\"from\":\"source:error:type:\",\"to\":\"target:getLockEventObj:type:\",\"fromPort\":\"source:error:type:\",\"toPort\":\"target:getLockEventObj:type:\"}],\"blockCount\":{\"variableCount\":0},\"variableMap\":{},\"xmlMappingOverride\":false}",
    "applyCommonMapping" : false,
    "applyRequestCommonMapping" : true,
    "applyResponseCommonMapping" : false,
    "backendMeta" : {
      "serviceName" : "BlockUnblock",
      "serviceVersion" : "1.0",
      "operationName" : "getAcLockEventType"
    },
    "relationshipHierarchyMapping" : {
      "children" : [ ],
      "name" : "getLockEventObj",
      "actions" : {
        "get" : true
      },
      "selected" : true
    },
    "requestXmlMappingOverride" : false,
    "responseXmlMappingOverride" : false
  }
}