{
    "classname": "barGraph1",
    "definitions": {
        "apis": {
            "custom": [
                {
                    "group": "General",
                    "kuid": "ba0eb57b22d1423da94631d875e95a41",
                    "paramList": [],
                    "propertyKey": "updateGraph",
                    "pw": {
                        "displayName": "updateGraph",
                        "uiRepresentation": "Label-Label-Button-Button"
                    },
                    "srcWgtKUID": "j7c0acf137b8479ca74853dd93216c43",
                    "type": "event"
                }
            ],
            "passthrough": []
        },
        "events": {
            "custom": [],
            "passthrough": []
        },
        "groups": {
            "apis": [
                "General"
            ],
            "events": [],
            "properties": [],
            "widgets": []
        },
        "properties": {
            "custom": [],
            "passthrough": [
                {
                    "access": "Enable",
                    "group": "General",
                    "kuid": "a9e639f22841435694292a6358e3ec35",
                    "originalPropertyKey": "canvasWidth",
                    "propertyIndex": 1,
                    "propertyKey": "canvasWidth",
                    "pw": {
                        "access": "readwrite",
                        "category": "widget",
                        "dependencyConditions": {},
                        "dependentKeysKUIDs": null,
                        "displayName": "canvasWidth",
                        "isHiddenInTool": false,
                        "srcWidget": "TPWbargraph1",
                        "supportedPlatforms": {
                            "desktop": [
                                "desktopweb"
                            ],
                            "mobile": [
                                "spa"
                            ],
                            "tablet": [
                                "spa"
                            ]
                        },
                        "type": "string",
                        "uiRepresentation": "Label-Textbox",
                        "wType": "TPW"
                    },
                    "srcWgtKUID": "hd66f9a5d57841078240708f966f310e"
                },
                {
                    "access": "Enable",
                    "group": "General",
                    "kuid": "bc008cd2f56a4131a7adab1e29af51d9",
                    "originalPropertyKey": "canvasHeight",
                    "propertyIndex": 2,
                    "propertyKey": "canvasHeight",
                    "pw": {
                        "access": "readwrite",
                        "category": "widget",
                        "dependencyConditions": {},
                        "dependentKeysKUIDs": null,
                        "displayName": "canvasHeight",
                        "isHiddenInTool": false,
                        "srcWidget": "TPWbargraph1",
                        "supportedPlatforms": {
                            "desktop": [
                                "desktopweb"
                            ],
                            "mobile": [
                                "spa"
                            ],
                            "tablet": [
                                "spa"
                            ]
                        },
                        "type": "string",
                        "uiRepresentation": "Label-Textbox",
                        "wType": "TPW"
                    },
                    "srcWgtKUID": "hd66f9a5d57841078240708f966f310e"
                },
                {
                    "access": "Enable",
                    "group": "General",
                    "kuid": "ibfeb75049e74091aa2fee95a3c3a49a",
                    "originalPropertyKey": "datasetsArray",
                    "propertyIndex": 3,
                    "propertyKey": "datasetsArray",
                    "pw": {
                        "access": "readwrite",
                        "category": "widget",
                        "dependencyConditions": {},
                        "dependentKeysKUIDs": null,
                        "displayName": "datasetsArray",
                        "isHiddenInTool": false,
                        "srcWidget": "TPWbargraph1",
                        "supportedPlatforms": {
                            "desktop": [
                                "desktopweb"
                            ],
                            "mobile": [
                                "spa"
                            ],
                            "tablet": [
                                "spa"
                            ]
                        },
                        "type": "string",
                        "uiRepresentation": "Label-Textbox",
                        "wType": "TPW"
                    },
                    "srcWgtKUID": "hd66f9a5d57841078240708f966f310e"
                },
                {
                    "access": "Enable",
                    "group": "General",
                    "kuid": "cf4df0fbbeb44bdba5fc5bf3082c9d00",
                    "originalPropertyKey": "xlabelsArray",
                    "propertyIndex": 4,
                    "propertyKey": "xlabelsArray",
                    "pw": {
                        "access": "readwrite",
                        "category": "widget",
                        "dependencyConditions": {},
                        "dependentKeysKUIDs": null,
                        "displayName": "xlabelsArray",
                        "isHiddenInTool": false,
                        "srcWidget": "TPWbargraph1",
                        "supportedPlatforms": {
                            "desktop": [
                                "desktopweb"
                            ],
                            "mobile": [
                                "spa"
                            ],
                            "tablet": [
                                "spa"
                            ]
                        },
                        "type": "string",
                        "uiRepresentation": "Label-Textbox",
                        "wType": "TPW"
                    },
                    "srcWgtKUID": "hd66f9a5d57841078240708f966f310e"
                },
                {
                    "access": "Enable",
                    "group": "General",
                    "kuid": "caef85b56e7d49769958ed7e06ace8d0",
                    "originalPropertyKey": "lineAreaFill",
                    "propertyIndex": 5,
                    "propertyKey": "lineAreaFill",
                    "pw": {
                        "access": "readwrite",
                        "category": "widget",
                        "dependencyConditions": {},
                        "dependentKeysKUIDs": null,
                        "displayName": "lineAreaFill",
                        "isHiddenInTool": false,
                        "srcWidget": "TPWbargraph1",
                        "supportedPlatforms": {
                            "desktop": [
                                "desktopweb"
                            ],
                            "mobile": [
                                "spa"
                            ],
                            "tablet": [
                                "spa"
                            ]
                        },
                        "type": "boolean",
                        "uiRepresentation": "Label-Radiobuttongroup",
                        "wType": "TPW"
                    },
                    "srcWgtKUID": "hd66f9a5d57841078240708f966f310e"
                },
                {
                    "access": "Enable",
                    "group": "General",
                    "kuid": "b88ce23f75544213b6e2d1f95e75a07c",
                    "originalPropertyKey": "yBeginsAtZero",
                    "propertyIndex": 6,
                    "propertyKey": "yBeginsAtZero",
                    "pw": {
                        "access": "readwrite",
                        "category": "widget",
                        "dependencyConditions": {},
                        "dependentKeysKUIDs": null,
                        "displayName": "yBeginsAtZero",
                        "isHiddenInTool": false,
                        "srcWidget": "TPWbargraph1",
                        "supportedPlatforms": {
                            "desktop": [
                                "desktopweb"
                            ],
                            "mobile": [
                                "spa"
                            ],
                            "tablet": [
                                "spa"
                            ]
                        },
                        "type": "boolean",
                        "uiRepresentation": "Label-Radiobuttongroup",
                        "wType": "TPW"
                    },
                    "srcWgtKUID": "hd66f9a5d57841078240708f966f310e"
                },
                {
                    "access": "Enable",
                    "group": "General",
                    "kuid": "c028942535184164a9e5656feeb44a6d",
                    "originalPropertyKey": "xlabelString",
                    "propertyIndex": 7,
                    "propertyKey": "xlabelString",
                    "pw": {
                        "access": "readwrite",
                        "category": "widget",
                        "dependencyConditions": {},
                        "dependentKeysKUIDs": null,
                        "displayName": "xlabelString",
                        "isHiddenInTool": false,
                        "srcWidget": "TPWbargraph1",
                        "supportedPlatforms": {
                            "desktop": [
                                "desktopweb"
                            ],
                            "mobile": [
                                "spa"
                            ],
                            "tablet": [
                                "spa"
                            ]
                        },
                        "type": "string",
                        "uiRepresentation": "Label-Textbox",
                        "wType": "TPW"
                    },
                    "srcWgtKUID": "hd66f9a5d57841078240708f966f310e"
                },
                {
                    "access": "Enable",
                    "group": "General",
                    "kuid": "f4e66e62da3745aaba52f75a6003498c",
                    "originalPropertyKey": "ylabelString",
                    "propertyIndex": 8,
                    "propertyKey": "ylabelString",
                    "pw": {
                        "access": "readwrite",
                        "category": "widget",
                        "dependencyConditions": {},
                        "dependentKeysKUIDs": null,
                        "displayName": "ylabelString",
                        "isHiddenInTool": false,
                        "srcWidget": "TPWbargraph1",
                        "supportedPlatforms": {
                            "desktop": [
                                "desktopweb"
                            ],
                            "mobile": [
                                "spa"
                            ],
                            "tablet": [
                                "spa"
                            ]
                        },
                        "type": "string",
                        "uiRepresentation": "Label-Textbox",
                        "wType": "TPW"
                    },
                    "srcWgtKUID": "hd66f9a5d57841078240708f966f310e"
                }
            ]
        },
        "widgets": {
            "expose": [],
            "passthrough": []
        }
    },
    "namespace": "com.temenos.chartjslib",
    "version": "1.0.0"
}