{
    "customComponent": {
        "i18nSupported": true,
        "id": "cwef090595818645cbbf00120f34df800c",
        "isOverride": false,
        "konyWrapperFiles": [
            "resources/thirdpartywidgets/widgetwrapper/tp-UUXPeriodPicker-wrapper.js"
        ],
        "libraryFiles": [
            "resources/thirdpartywidgets/libtoimport/base.css",
            "resources/thirdpartywidgets/libtoimport/unified-ux-web.min.js"
        ],
        "libraryName": "libtoimport",
        "marginSupported": true,
        "name": "UUXPeriodPicker",
        "paddingSupported": true,
        "platformID": "0",
        "property": [
            {
                "categoryType": "Custom",
                "defaultValue": "\"\"",
                "exclude": false,
                "name": "labelText",
                "propertySelection": false,
                "type": "String",
                "uniqueID": "cwpbbaee3b866034b16bdc3ace9e2c224a5",
                "value": "\"\""
            },
            {
                "categoryType": "Custom",
                "defaultValue": "14",
                "exclude": false,
                "name": "periodMaxLength",
                "propertySelection": false,
                "type": "String",
                "uniqueID": "cwpaad912f332ee4892975f4216d3435938",
                "value": "14"
            },
            {
                "categoryType": "Custom",
                "defaultValue": "\"cooling\"",
                "exclude": false,
                "name": "periodType",
                "propertySelection": false,
                "type": "String",
                "uniqueID": "cwpcb5b64b4a3f34253a22e54bb3bce1b60",
                "value": "\"cooling\""
            },
            {
                "categoryType": "Custom",
                "defaultValue": "\"\"",
                "exclude": false,
                "name": "value",
                "propertySelection": false,
                "type": "String",
                "uniqueID": "cwpa2c2da145c934ca292846d143fec5eac",
                "value": "\"\""
            }
        ]
    }
}