{
    "DNDConfig": null,
    "_height_": {
        "type": "string",
        "value": "500dp"
    },
    "_left_": {
        "type": "string",
        "value": "18dp"
    },
    "_margin_": [
        0,
        0,
        0,
        0
    ],
    "_orientation_": 6,
    "_padding_": [
        0,
        0,
        0,
        0
    ],
    "_percent_": true,
    "_right_": {
        "type": "string",
        "value": "32dp"
    },
    "_skin_": "sc2aa6db3e6e4c6180cb485020c304a2",
    "_top_": {
        "type": "string",
        "value": "425dp"
    },
    "allboxes": [],
    "autogrowmode": 0,
    "canUpdateUI": true,
    "children": [
        "lblChangeInterest",
        "lblSelectModeInfo",
        "cusRadioButtonSelectionModeValue",
        "cusDropDownTierListResponse",
        "cusEffectiveDateResponse",
        "flxFixedModeWrapper",
        "flxFloatingModeWrapper",
        "cusButtonCancel",
        "cusButtonConfirm"
    ],
    "clipbounds": true,
    "containerweight": 100,
    "enablescrolling": true,
    "id": "flxLoanInterestChange",
    "info": null,
    "iscustomlayout": false,
    "isvisible": true,
    "kuid": "bd7c0532a9d34b2e9e27534c2d285ce4",
    "layouttype": 2,
    "name": "kony.ui.FlexContainer",
    "parent": "flxMainContainer",
    "pf": "frmCustomerLoanInterestChange",
    "retaincontentalignment": false,
    "retainflexpositionproperties": false,
    "retainflowhorizontalalignment": false,
    "snapgridsize": 10,
    "snaptogrid": true,
    "wType": "FlexContainer",
    "widgetalignment": 1,
    "zindex": 1
}