{
    "@class": "com.kony.gen.viz.model.container.KVizSegment2",
    "DNDConfig": null,
    "_data_": [
        {
            "imgDelete": {
                "@class": "com.viz.ide.model.segment.ImageSegmentData",
                "src": "minus.png"
            },
            "lblDelete": {
                "@class": "com.viz.ide.model.segment.SimpleTextSegmentData",
                "text": "Delete"
            },
            "lblEffectiveRate": {
                "@class": "com.viz.ide.model.segment.SimpleTextSegmentData",
                "text": "Label"
            },
            "lblFixedRate": {
                "@class": "com.viz.ide.model.segment.SimpleTextSegmentData",
                "text": "Label"
            },
            "lblMargin": {
                "@class": "com.viz.ide.model.segment.SimpleTextSegmentData",
                "text": "Label"
            },
            "lblUptoAmount": {
                "@class": "com.viz.ide.model.segment.SimpleTextSegmentData",
                "text": "Label"
            },
            "lstOperand": {
                "@class": "com.viz.ide.model.segment.CheckableSegmentData",
                "masterData": [
                    [
                        "lb1",
                        "Add"
                    ],
                    [
                        "lb2",
                        "SUB"
                    ],
                    [
                        "lb3",
                        "MUL"
                    ]
                ],
                "selectedKey": "lb1",
                "selectedKeys": null
            }
        },
        {
            "imgDelete": {
                "@class": "com.viz.ide.model.segment.ImageSegmentData",
                "src": "minus.png"
            },
            "lblDelete": {
                "@class": "com.viz.ide.model.segment.SimpleTextSegmentData",
                "text": "Delete"
            },
            "lblEffectiveRate": {
                "@class": "com.viz.ide.model.segment.SimpleTextSegmentData",
                "text": "Label"
            },
            "lblFixedRate": {
                "@class": "com.viz.ide.model.segment.SimpleTextSegmentData",
                "text": "Label"
            },
            "lblMargin": {
                "@class": "com.viz.ide.model.segment.SimpleTextSegmentData",
                "text": "Label"
            },
            "lblUptoAmount": {
                "@class": "com.viz.ide.model.segment.SimpleTextSegmentData",
                "text": "Label"
            },
            "lstOperand": {
                "@class": "com.viz.ide.model.segment.CheckableSegmentData",
                "masterData": [
                    [
                        "lb1",
                        "Add"
                    ],
                    [
                        "lb2",
                        "SUB"
                    ],
                    [
                        "lb3",
                        "MUL"
                    ]
                ],
                "selectedKey": "lb1",
                "selectedKeys": null
            }
        },
        {
            "imgDelete": {
                "@class": "com.viz.ide.model.segment.ImageSegmentData",
                "src": "minus.png"
            },
            "lblDelete": {
                "@class": "com.viz.ide.model.segment.SimpleTextSegmentData",
                "text": "Delete"
            },
            "lblEffectiveRate": {
                "@class": "com.viz.ide.model.segment.SimpleTextSegmentData",
                "text": "Label"
            },
            "lblFixedRate": {
                "@class": "com.viz.ide.model.segment.SimpleTextSegmentData",
                "text": "Label"
            },
            "lblMargin": {
                "@class": "com.viz.ide.model.segment.SimpleTextSegmentData",
                "text": "Label"
            },
            "lblUptoAmount": {
                "@class": "com.viz.ide.model.segment.SimpleTextSegmentData",
                "text": "Label"
            },
            "lstOperand": {
                "@class": "com.viz.ide.model.segment.CheckableSegmentData",
                "masterData": [
                    [
                        "lb1",
                        "Add"
                    ],
                    [
                        "lb2",
                        "SUB"
                    ],
                    [
                        "lb3",
                        "MUL"
                    ]
                ],
                "selectedKey": "lb1",
                "selectedKeys": null
            }
        }
    ],
    "_height_": {
        "type": "string",
        "value": "200dp"
    },
    "_indicator_": "none",
    "_left_": {
        "type": "string",
        "value": "120dp"
    },
    "_margin_": [
        0,
        0,
        0,
        0
    ],
    "_orientation_": 2,
    "_padding_": [
        0,
        0,
        0,
        0
    ],
    "_top_": {
        "type": "string",
        "value": "45dp"
    },
    "_width_": {
        "type": "string",
        "value": "1080dp"
    },
    "autogrowmode": 0,
    "canUpdateUI": true,
    "containerweight": 100,
    "counter": "02",
    "disabledSkins": {
        "rowFocusSkin": "s3f353c057a14ca8a8d6fa6caf39f59a"
    },
    "focusedindex": null,
    "focuseditem": null,
    "groupcells": false,
    "hasSections": false,
    "id": "segFixed",
    "info": null,
    "ipad": {
        "psp": {
            "indicator": "rowselect"
        }
    },
    "iphone": {
        "psp": {
            "indicator": "rowselect"
        }
    },
    "iscustomlayout": false,
    "isvisible": true,
    "kuid": "g01b2a7eeec148ce908fa27ce862a3fe",
    "masterdata": {},
    "name": "kony.ui.SegmentedUI2",
    "needpageindicator": true,
    "pageoffdotimage": "pageoffdot.png",
    "pageondotimage": "pageondot.png",
    "paginationconfig": {
        "position": "bottom"
    },
    "parent": "flxFixedModeWrapper",
    "pf": "frmCustomerLoanInterestChange",
    "retaincontentalignment": false,
    "retainflexpositionproperties": false,
    "retainselection": false,
    "rowTemplateId": "ieae2bf0c0b54a8488f3e7daaea27e03",
    "rowcounter": 2,
    "rowskin": "s3341f23019543fcaf6627bf916c7ee0",
    "rowtemplate": "flxSegLoanFixed",
    "screenlevelwidget": false,
    "seccounter": 0,
    "sectionheaderskin": "s67dfc97c181442ebeb45ecca8ba0dc8",
    "selectedRows": null,
    "selectedState": false,
    "selectedindex": null,
    "selectedindices": null,
    "selecteditems": null,
    "selectedsectionindex": 0,
    "selectionbehavior": "default",
    "separatorcolor": "64646464",
    "separatorrequired": true,
    "separatorthickness": 20,
    "showscrollbars": false,
    "viewtype": "tableview",
    "vizProps": {},
    "wType": "Segment",
    "widgetalignment": 5,
    "widgetdatamap": {
        "flxDeleteButton": "flxDeleteButton",
        "flxSegLoanFixed": "flxSegLoanFixed",
        "imgDelete": "imgDelete",
        "lblDelete": "lblDelete",
        "lblEffectiveRate": "lblEffectiveRate",
        "lblFixedRate": "lblFixedRate",
        "lblMargin": "lblMargin",
        "lblUptoAmount": "lblUptoAmount",
        "lstOperand": "lstOperand"
    },
    "zindex": 1
}