{
    "@class": "com.kony.gen.viz.model.component.KVizUserWidget",
    "DNDConfig": null,
    "_children_": [],
    "_height_": {
        "type": "string",
        "value": "85%"
    },
    "_left_": {
        "type": "string",
        "value": "3%"
    },
    "_margin_": [
        0,
        0,
        0,
        0
    ],
    "_orientation_": 1,
    "_padding_": [
        0,
        0,
        0,
        0
    ],
    "_percent_": true,
    "_skin_": "se31956b9efb4cdeb803f81ffb1335e2",
    "_top_": {
        "type": "string",
        "value": "10%"
    },
    "_width_": {
        "type": "string",
        "value": "97%"
    },
    "canUpdateUI": true,
    "containerweight": 0,
    "data": {
        "canvasHeight": "",
        "canvasWidth": "",
        "datasetsArray": "[]",
        "xlabelsArray": "[]",
        "yBeginsAtZero": false,
        "ySuggestedMin": 0
    },
    "id": "barGraph2",
    "info": null,
    "iscustomlayout": false,
    "isvisible": true,
    "kuid": "fde7610f5a8643a5bc975c2d57501325",
    "masterType": 1,
    "name": "kony.ui.UserWidgetInstance",
    "parent": "flxPayoffGraph",
    "pf": "frmLoanPayOff",
    "retaincontentalignment": false,
    "retainflexpositionproperties": false,
    "retainflowhorizontalalignment": false,
    "sourceUserWidget": "i769cba10a4447378257add7a32c17e7",
    "wType": "UserWidgetInstance",
    "zindex": 1
}