{
    "@class": "com.kony.gen.viz.model.component.KVizCustom",
    "DNDConfig": null,
    "_height_": {
        "type": "string",
        "value": "56dp"
    },
    "_left_": {
        "type": "string",
        "value": "302dp"
    },
    "_margin_": [
        0,
        0,
        0,
        0
    ],
    "_padding_": [
        0,
        0,
        0,
        0
    ],
    "_top_": {
        "type": "number",
        "value": "245"
    },
    "_width_": {
        "type": "string",
        "value": "200dp"
    },
    "android": {
        "render": false
    },
    "androidwearos": {
        "render": false
    },
    "canUpdateUI": true,
    "clipbounds": false,
    "containerweight": 0,
    "customProperties": {
        "currencyCode": "",
        "decimals": 2,
        "dense": true,
        "disabled": false,
        "endAligned": false,
        "labelDescription": "Interest",
        "locale": "en-US",
        "placeholder": "",
        "prefix": "",
        "readonly": true,
        "suffix": "",
        "validateRequired": "",
        "value": ""
    },
    "cwEvents": [
        "onChangeEvent"
    ],
    "cwid": "cwc78708e3b36b4a869b0ef21472b48b16",
    "id": "custInterestpayoff",
    "info": null,
    "ipad": {
        "render": false
    },
    "iphone": {
        "render": false
    },
    "iscustomlayout": false,
    "isvisible": false,
    "kiosk": {
        "render": false
    },
    "kuid": "g4418c302cea4a338f3703eaa80b53dd",
    "name": "uuxAmountComponent-kony.ui",
    "nameSpaceIndex": 0,
    "parent": "flxOverallGraphPart",
    "pf": "frmLoanPayOff",
    "platformKey": "spa",
    "retaincontentalignment": false,
    "retainflexpositionproperties": false,
    "tabrcandroid": {
        "render": false
    },
    "wType": "TPW",
    "watchos": {
        "render": false
    },
    "widgetIndex": 1,
    "windows10": {
        "render": false
    },
    "windows8": {
        "render": false
    },
    "winphone10": {
        "render": false
    },
    "winphone8": {
        "render": false
    }
}