{
    "@class": "com.kony.gen.viz.model.component.KVizCustom",
    "DNDConfig": null,
    "_height_": {
        "type": "string",
        "value": "56px"
    },
    "_left_": {
        "type": "string",
        "value": "20dp"
    },
    "_margin_": [
        0,
        0,
        0,
        0
    ],
    "_padding_": [
        0,
        0,
        0,
        0
    ],
    "_top_": {
        "type": "string",
        "value": "245dp"
    },
    "_width_": {
        "type": "string",
        "value": "208dp"
    },
    "android": {
        "render": false
    },
    "androidwearos": {
        "render": false
    },
    "canUpdateUI": true,
    "containerweight": 0,
    "customProperties": {
        "clicked": "",
        "dense": "dense",
        "disabled": false,
        "labelText": "Select Date",
        "options": "",
        "readonly": false,
        "value": ""
    },
    "cwEvents": [
        "valueChanged",
        "clicked"
    ],
    "cwid": "cwd0a630f070364623a54eee2878c290cc",
    "id": "custDateSelectpayoff",
    "info": null,
    "ipad": {
        "render": false
    },
    "iphone": {
        "render": false
    },
    "iscustomlayout": false,
    "isvisible": false,
    "kiosk": {
        "render": false
    },
    "kuid": "fdd3e88dc30e474e9c15b380265a8a64",
    "name": "uuxDropdown-kony.ui",
    "nameSpaceIndex": 0,
    "parent": "flxOverallGraphPart",
    "pf": "frmLoanPayOff",
    "platformKey": "spa",
    "retaincontentalignment": false,
    "retainflexpositionproperties": false,
    "tabrcandroid": {
        "render": false
    },
    "wType": "TPW",
    "watchos": {
        "render": false
    },
    "widgetIndex": 7,
    "windows10": {
        "render": false
    },
    "windows8": {
        "render": false
    },
    "winphone10": {
        "render": false
    },
    "winphone8": {
        "render": false
    },
    "zindex": 9
}