{
    "@class": "com.kony.gen.viz.model.component.KVizUserWidget",
    "DNDConfig": null,
    "_children_": [],
    "_height_": {
        "type": "string",
        "value": "157dp"
    },
    "_left_": {
        "type": "string",
        "value": "0dp"
    },
    "_margin_": [
        0,
        0,
        0,
        0
    ],
    "_orientation_": 1,
    "_padding_": [
        0,
        0,
        0,
        0
    ],
    "_percent_": true,
    "_skin_": "sf1404af063a4230acb042eabfae7706",
    "_top_": {
        "type": "string",
        "value": "0dp"
    },
    "_width_": {
        "type": "ref",
        "value": "preferred"
    },
    "canUpdateUI": true,
    "containerweight": 0,
    "data": {},
    "id": "custInfo",
    "info": null,
    "iscustomlayout": false,
    "isvisible": true,
    "kuid": "afe0f098047e4f61b14931c82ea0ac22",
    "masterType": 1,
    "name": "kony.ui.UserWidgetInstance",
    "parent": "FlexContainer0e48343e0b1f644",
    "pf": "frmLoanPayOff",
    "retaincontentalignment": false,
    "retainflexpositionproperties": false,
    "retainflowhorizontalalignment": false,
    "sourceUserWidget": "e1336cf437b247319870998f322de839",
    "wType": "UserWidgetInstance",
    "zindex": 1
}