{
    "@class": "com.kony.gen.viz.model.component.KVizCustom",
    "DNDConfig": null,
    "_height_": {
        "type": "string",
        "value": "40dp"
    },
    "_margin_": [
        0,
        0,
        0,
        0
    ],
    "_padding_": [
        0,
        0,
        0,
        0
    ],
    "_right_": {
        "type": "string",
        "value": "150dp"
    },
    "_top_": {
        "type": "string",
        "value": "16dp"
    },
    "_width_": {
        "type": "string",
        "value": "170dp"
    },
    "android": {
        "render": false
    },
    "androidwearos": {
        "render": false
    },
    "canUpdateUI": true,
    "containerweight": 0,
    "customProperties": {
        "compact": false,
        "contained": true,
        "cta": false,
        "disabled": false,
        "icon": "text_snippet",
        "labelText": "View Documents",
        "outlined": true,
        "size": {
            "optionsList": [
                "small",
                "medium",
                "large",
                "X-large"
            ],
            "selectedValue": "large"
        },
        "trailingIcon": true,
        "typeButton": {
            "optionsList": [
                "button",
                "submit",
                "reset"
            ],
            "selectedValue": "button"
        }
    },
    "cwEvents": [
        "onclickEvent"
    ],
    "cwid": "cwhc92309f9d5b4240b8ec249442967df9",
    "id": "cusViewDocumentButton",
    "info": null,
    "ipad": {
        "render": false
    },
    "iphone": {
        "render": false
    },
    "iscustomlayout": false,
    "isvisible": false,
    "kiosk": {
        "render": false
    },
    "kuid": "e8413906ad294ddb8a188d518a1aa92b",
    "name": "uuxButton-kony.ui",
    "nameSpaceIndex": 0,
    "parent": "flxHeaderMenu",
    "pf": "frmLoanPayOff",
    "platformKey": "spa",
    "retaincontentalignment": false,
    "retainflexpositionproperties": false,
    "tabrcandroid": {
        "render": false
    },
    "wType": "TPW",
    "watchos": {
        "render": false
    },
    "widgetIndex": 1,
    "windows10": {
        "render": false
    },
    "windows8": {
        "render": false
    },
    "winphone10": {
        "render": false
    },
    "winphone8": {
        "render": false
    },
    "zindex": 1
}