{
    "DNDConfig": null,
    "_height_": {
        "type": "string",
        "value": "4px"
    },
    "_left_": {
        "type": "string",
        "value": "0"
    },
    "_margin_": [
        0,
        0,
        0,
        0
    ],
    "_orientation_": 6,
    "_padding_": [
        0,
        0,
        0,
        0
    ],
    "_percent_": true,
    "_skin_": "s102e75000c0405ba34a0b6dcc4b2622",
    "_top_": {
        "type": "string",
        "value": "0"
    },
    "_width_": {
        "type": "string",
        "value": "0%"
    },
    "allboxes": [],
    "autogrowmode": 0,
    "canUpdateUI": true,
    "children": [],
    "clipbounds": true,
    "containerweight": 100,
    "enablescrolling": true,
    "id": "flxActiveBar",
    "info": null,
    "iscustomlayout": false,
    "isvisible": true,
    "kuid": "f3110008da004c03831ee78402b14ed2",
    "layouttype": 2,
    "name": "kony.ui.FlexContainer",
    "parent": "flxLoaders",
    "pf": "frmLoanPayOff",
    "retaincontentalignment": false,
    "retainflexpositionproperties": false,
    "retainflowhorizontalalignment": false,
    "snapgridsize": 10,
    "snaptogrid": true,
    "wType": "FlexContainer",
    "widgetalignment": 1
}