{
    "DNDConfig": null,
    "_height_": {
        "type": "string",
        "value": "4px"
    },
    "_left_": {
        "type": "string",
        "value": "0"
    },
    "_margin_": [
        0,
        0,
        0,
        0
    ],
    "_orientation_": 6,
    "_padding_": [
        0,
        0,
        0,
        0
    ],
    "_percent_": true,
    "_skin_": "sb3f255145b74b9daa562ff9837e281c",
    "_top_": {
        "type": "number",
        "value": "0"
    },
    "_width_": {
        "type": "string",
        "value": "100%"
    },
    "allboxes": [],
    "autogrowmode": 0,
    "canUpdateUI": true,
    "children": [],
    "clipbounds": true,
    "containerweight": 100,
    "enablescrolling": true,
    "id": "flxUnactiveBar",
    "info": null,
    "iscustomlayout": false,
    "isvisible": true,
    "kuid": "e44f3c2321e04125877a3a9991b7d734",
    "layouttype": 2,
    "name": "kony.ui.FlexContainer",
    "parent": "flxLoaders",
    "pf": "frmLoanPayOff",
    "retaincontentalignment": false,
    "retainflexpositionproperties": false,
    "retainflowhorizontalalignment": false,
    "snapgridsize": 10,
    "snaptogrid": true,
    "wType": "FlexContainer",
    "widgetalignment": 1
}