{
    "@class": "com.kony.gen.viz.model.component.KVizUserWidget",
    "DNDConfig": null,
    "_children_": [],
    "_height_": {
        "type": "string",
        "value": "100%"
    },
    "_left_": {
        "type": "string",
        "value": "0dp"
    },
    "_margin_": [
        0,
        0,
        0,
        0
    ],
    "_orientation_": 1,
    "_padding_": [
        0,
        0,
        0,
        0
    ],
    "_percent_": true,
    "_skin_": "s66b71299e1344d1aa5c47a23adcbde4",
    "_top_": {
        "type": "string",
        "value": "0dp"
    },
    "_width_": {
        "type": "string",
        "value": "100%"
    },
    "android": {},
    "androidwearos": {},
    "areflexpropsreferenced": false,
    "autogrowmode": 0,
    "canUpdateUI": true,
    "clipbounds": true,
    "containerweight": 0,
    "dataDiffs": {
        "FlexContainer0a2679d5179ca43": {
            "__events__": {},
            "__info__": {
                "kuid": "de91ebeadc2142abbf8e987b87d6557c",
                "srcKUID": "bd3b38ed98434f3997c228e394898640",
                "wType": "FlexContainer"
            }
        },
        "FlexContainer0d49b88e8783340": {
            "__events__": {},
            "__info__": {
                "kuid": "ad373d7ad16947418a4ebdac7b39aee8",
                "srcKUID": "c15f73fdd5f74a098e58eb16a6fb75b8",
                "wType": "FlexContainer"
            }
        },
        "FlexContainer0d563d2dda18c41": {
            "__events__": {},
            "__info__": {
                "kuid": "e544b83b19d644959a08fbaa43dca66e",
                "srcKUID": "f01659c3c8ea4a8085a198dea0b3861f",
                "wType": "FlexContainer"
            }
        },
        "FlexContainer0e3c37c0e40204d": {
            "__events__": {},
            "__info__": {
                "kuid": "fc8a58f95661430eba4bd02f5da91f1c",
                "srcKUID": "h733b1376f384d4692f0a952102fc862",
                "wType": "FlexContainer"
            }
        },
        "FlexContainer0h7f6ad36bea740": {
            "__events__": {},
            "__info__": {
                "kuid": "d7cb182e9c4a48709f8303f67a000160",
                "srcKUID": "d3c54e8ba8b5444da49dcc189f07031f",
                "wType": "FlexContainer"
            }
        },
        "flxInnerSearch": {
            "__events__": {},
            "__info__": {
                "kuid": "adda978df15a4d5c86e350b51f5fb6bb",
                "srcKUID": "c6daa685750e4d40ab257f5fa39059c6",
                "wType": "FlexContainer"
            },
            "autogrowMode": {
                "Default": 0
            },
            "height": {
                "Default": {
                    "type": "string",
                    "value": "400dp"
                }
            },
            "responsiveData": {}
        },
        "flxPopUpClose": {
            "__events__": {},
            "__info__": {
                "kuid": "j42de6c929ff4ae1947e102cdfd9ada8",
                "srcKUID": "f405407e34b54c68b0e1cf25d2d5d438",
                "wType": "FlexContainer"
            }
        },
        "flxsegheaderPayout": {
            "__events__": {},
            "__info__": {
                "kuid": "f9751ea5cd374f3981a81d8554bcb108",
                "srcKUID": "f8bc034663eb422db1aa92a05960f450",
                "wType": "FlexContainer"
            }
        },
        "imgClose": {
            "__events__": {},
            "__info__": {
                "kuid": "e8d92addb11840be9bf50f2e7a0fbd09",
                "srcKUID": "d150180124964aa685e3fe653fb1af87",
                "wType": "Button"
            }
        },
        "imgClose1": {
            "__events__": {},
            "__info__": {
                "kuid": "c998dafef8c94986b6bf2267c6427fff",
                "srcKUID": "b30d3b0783df4183930b2c30044f5eff",
                "wType": "Image"
            },
            "src": "ico_close.png"
        },
        "imgSrc": {
            "__events__": {},
            "__info__": {
                "kuid": "d6c2bbb784464bcf89407f4a589d3ea2",
                "srcKUID": "fa1a1fea84a047c5b522f4ede0e20955",
                "wType": "Button"
            }
        },
        "imgSrc1": {
            "__events__": {},
            "__info__": {
                "kuid": "a25b7fe2ca8b457ea9f1e25c27cdf010",
                "srcKUID": "a8b50cffb9a74b33851f99529d0b9c3f",
                "wType": "Image"
            },
            "src": "search.png"
        },
        "lblAccountIdhead": {
            "__events__": {},
            "__info__": {
                "kuid": "aafeec05cfe34489863ad81bdccaaec5",
                "srcKUID": "f310807741e64590921161fe1b9d29f1",
                "wType": "Label"
            }
        },
        "lblBalance": {
            "__events__": {},
            "__info__": {
                "kuid": "b827d3d419bc43a09315a416e3f0a0f0",
                "srcKUID": "a4afd6c8f33144219c809c2ae9b3e908",
                "wType": "Label"
            }
        },
        "lblCurreny": {
            "__events__": {},
            "__info__": {
                "kuid": "ic4aa7c86cf64bc5bcdfa67892c1bea7",
                "srcKUID": "j88f0ce969de49069aea9b9ed19d88a8",
                "wType": "Label"
            }
        },
        "lblCustomerIdhead": {
            "__events__": {},
            "__info__": {
                "kuid": "d12f99013e854f56b3ea003d1ac4d965",
                "srcKUID": "a8f404018e284dba8074e8592ebf376f",
                "wType": "Label"
            }
        },
        "lblProductName": {
            "__events__": {},
            "__info__": {
                "kuid": "hcb2f4e0177b403aa8f2e079a7eaa1bf",
                "srcKUID": "e462fb0f7c4d4ae1bf4bb0e1468c931b",
                "wType": "Label"
            }
        },
        "lblsearchHeading": {
            "__events__": {},
            "__info__": {
                "kuid": "b6a0d0407f464e77a8d2a2a7f47994e0",
                "srcKUID": "f0138f2619184dfab821d640197e1a54",
                "wType": "Label"
            }
        },
        "popupPayinPayout": {
            "__events__": {},
            "__info__": {
                "isRoot": true,
                "kuid": "f6b808ad2185468c93b6e76be0e43d28",
                "srcKUID": "acc696de6aa54aec83fc92e420ee2973",
                "wType": "FlexContainer"
            },
            "autogrowMode": {
                "Default": 0
            },
            "centerX": {
                "Default": {
                    "type": "string",
                    "value": "50%"
                }
            },
            "centerY": {
                "Default": {
                    "type": "string",
                    "value": "50%"
                }
            },
            "height": {
                "Default": {
                    "type": "string",
                    "value": "100%"
                }
            },
            "left": {
                "Default": {
                    "type": "string",
                    "value": "0dp"
                }
            },
            "responsiveData": {},
            "width": {
                "Default": {
                    "type": "string",
                    "value": "100%"
                }
            }
        },
        "segPayinPayout": {
            "__events__": {},
            "__info__": {
                "kuid": "b340325073d84dc6addd6cf6cd1b1718",
                "srcKUID": "j4e6cf8c614c4b378a9f8a478c4d12a6",
                "wType": "Segment"
            }
        },
        "txtSearchBox": {
            "__events__": {},
            "__info__": {
                "kuid": "j3cd4e93771b452dbee9ba8b33062f02",
                "srcKUID": "c44da17b1ac74b4ab6a57b290abec4d3",
                "wType": "TextField"
            }
        }
    },
    "desktopweb": {},
    "enablescrolling": true,
    "id": "popupPayinPayout",
    "info": null,
    "ipad": {},
    "iphone": {},
    "iscustomlayout": false,
    "isdatareferenced": false,
    "issegmentchild": false,
    "isvisible": true,
    "kiosk": {},
    "kuid": "f6b808ad2185468c93b6e76be0e43d28",
    "layouttype": 4,
    "masterType": 0,
    "name": "kony.ui.UserWidgetInstance",
    "parent": "FlexContainer0c8da61cffdb244",
    "pf": "frmLoanPayOff",
    "responsiveData": {},
    "retaincontentalignment": false,
    "retainflexpositionproperties": false,
    "retainflowhorizontalalignment": false,
    "snapgridsize": 10,
    "snaptogrid": true,
    "sourceUserWidget": "acc696de6aa54aec83fc92e420ee2973",
    "spa": {},
    "spaan": {},
    "spaandroidtablet": {},
    "spabb": {},
    "spaip": {},
    "spaipad": {},
    "spamobile": {},
    "spatablet": {},
    "spawindowstablet": {},
    "spawinphone8": {},
    "tabrcandroid": {},
    "vizProps": {
        "hidewidgethierarchy": false
    },
    "wType": "UserWidgetInstance",
    "windows10": {},
    "windows8": {},
    "winphone10": {},
    "winphone8": {}
}