{
    "@class": "com.kony.gen.viz.model.container.KVizSegment2",
    "DNDConfig": null,
    "_data_": [
        {
            "lblPrincipalPayAmount": {
                "@class": "com.viz.ide.model.segment.SimpleTextSegmentData",
                "text": "EUR"
            },
            "lblPrincipalPayCurrency": {
                "@class": "com.viz.ide.model.segment.SimpleTextSegmentData",
                "text": "EUR"
            },
            "lblPrincipalPayTitle": {
                "@class": "com.viz.ide.model.segment.SimpleTextSegmentData",
                "text": "Label"
            }
        },
        {
            "lblPrincipalPayAmount": {
                "@class": "com.viz.ide.model.segment.SimpleTextSegmentData",
                "text": "EUR"
            },
            "lblPrincipalPayCurrency": {
                "@class": "com.viz.ide.model.segment.SimpleTextSegmentData",
                "text": "EUR"
            },
            "lblPrincipalPayTitle": {
                "@class": "com.viz.ide.model.segment.SimpleTextSegmentData",
                "text": "Label"
            }
        },
        {
            "lblPrincipalPayAmount": {
                "@class": "com.viz.ide.model.segment.SimpleTextSegmentData",
                "text": "EUR"
            },
            "lblPrincipalPayCurrency": {
                "@class": "com.viz.ide.model.segment.SimpleTextSegmentData",
                "text": "EUR"
            },
            "lblPrincipalPayTitle": {
                "@class": "com.viz.ide.model.segment.SimpleTextSegmentData",
                "text": "Label"
            }
        },
        {
            "lblPrincipalPayAmount": {
                "@class": "com.viz.ide.model.segment.SimpleTextSegmentData",
                "text": "EUR"
            },
            "lblPrincipalPayCurrency": {
                "@class": "com.viz.ide.model.segment.SimpleTextSegmentData",
                "text": "EUR"
            },
            "lblPrincipalPayTitle": {
                "@class": "com.viz.ide.model.segment.SimpleTextSegmentData",
                "text": "Label"
            }
        }
    ],
    "_height_": {
        "type": "ref",
        "value": "preferred"
    },
    "_indicator_": "none",
    "_left_": {
        "type": "string",
        "value": "0"
    },
    "_margin_": [
        0,
        0,
        0,
        0
    ],
    "_orientation_": 2,
    "_padding_": [
        0,
        0,
        0,
        0
    ],
    "_top_": {
        "type": "string",
        "value": "0"
    },
    "_width_": {
        "type": "string",
        "value": "100%"
    },
    "autogrowmode": 1,
    "canUpdateUI": true,
    "centerx": {
        "type": "string",
        "value": "50%"
    },
    "containerweight": 100,
    "counter": "03",
    "focusedindex": null,
    "focuseditem": null,
    "groupcells": false,
    "hasSections": false,
    "id": "segSettlement",
    "info": null,
    "ipad": {
        "psp": {
            "indicator": "rowselect"
        }
    },
    "iphone": {
        "psp": {
            "indicator": "rowselect"
        }
    },
    "iscustomlayout": false,
    "isvisible": true,
    "kuid": "b645e90be35d43ce9e6e853826eb735b",
    "masterdata": {},
    "maxheight": {
        "type": "number",
        "value": "250"
    },
    "name": "kony.ui.SegmentedUI2",
    "needpageindicator": true,
    "pageoffdotimage": "pageoffdot.png",
    "pageondotimage": "pageondot.png",
    "paginationconfig": {
        "position": "bottom"
    },
    "parent": "flxStatementFields",
    "pf": "frmLoanPayOff",
    "retaincontentalignment": false,
    "retainflexpositionproperties": false,
    "retainselection": false,
    "rowTemplateId": "af4a9ee2003d4eb599639205adcdfb6a",
    "rowcounter": 3,
    "rowfocusskin": "s3f353c057a14ca8a8d6fa6caf39f59a",
    "rowskin": "s64b0835656c4361a07d7aa797144014",
    "rowtemplate": "flxSegment",
    "screenlevelwidget": false,
    "seccounter": 0,
    "sectionheaderskin": "s67dfc97c181442ebeb45ecca8ba0dc8",
    "selectedRows": null,
    "selectedState": false,
    "selectedindex": null,
    "selectedindices": null,
    "selecteditems": null,
    "selectedsectionindex": 0,
    "selectionbehavior": "default",
    "separatorcolor": "aaaaaa00",
    "separatorrequired": true,
    "separatorthickness": 0,
    "showscrollbars": false,
    "viewtype": "tableview",
    "vizProps": {},
    "wType": "Segment",
    "widgetalignment": 5,
    "widgetdatamap": {
        "flxSegment": "flxSegment",
        "flxStatementRows": "flxStatementRows",
        "lblPrincipalPayAmount": "lblPrincipalPayAmount",
        "lblPrincipalPayCurrency": "lblPrincipalPayCurrency",
        "lblPrincipalPayTitle": "lblPrincipalPayTitle"
    }
}