{
    "@class": "com.kony.gen.viz.model.component.KVizRichText",
    "DNDConfig": null,
    "_height_": {
        "type": "ref",
        "value": "preferred"
    },
    "_left_": {
        "type": "string",
        "value": "0dp"
    },
    "_margin_": [
        0,
        0,
        0,
        0
    ],
    "_padding_": [
        5,
        1,
        0,
        0
    ],
    "_right_": {
        "type": "string",
        "value": "2dp"
    },
    "_skin_": "s3a899e7c6514ea2a2f70707af5ad192",
    "_text_": "<sup><red>*</red></sup>",
    "_width_": {
        "type": "ref",
        "value": "preferred"
    },
    "_wrapping_": 2,
    "canUpdateUI": true,
    "centery": {
        "type": "string",
        "value": "50%"
    },
    "containerweight": 100,
    "contentalignment": 4,
    "disabledSkins": {},
    "id": "rtAsterix",
    "info": null,
    "iscustomlayout": false,
    "isvisible": true,
    "kiosk": {
        "psp": {
            "superScriptSkin": "sbb2d084e7a44bd1adffe203843a3fb3"
        }
    },
    "kuid": "ub57c3682d2f40898e73e25cefb4ccc9",
    "linkskin": "s9c7eaa917f74b3499b8318fd9ffb5ea",
    "name": "kony.ui.RichText",
    "parent": "flxFloatLableGrp",
    "pf": "userwidgetmodel",
    "retaincontentalignment": false,
    "retainflexpositionproperties": false,
    "wType": "RichText",
    "widgetalignment": 5,
    "zindex": 1
}