{
    "customComponent": {
        "i18nSupported": true,
        "id": "cwebafca842d6d4d03a72ce95137876ed6",
        "isOverride": false,
        "konyWrapperFiles": [
            "resources/thirdpartywidgets/widgetwrapper/tp-uuxFrequencyPicker-wrapper.js"
        ],
        "libraryFiles": [
            "resources/thirdpartywidgets/libtoimport/base.css",
            "resources/thirdpartywidgets/libtoimport/unified-ux-web.min.js"
        ],
        "libraryName": "libtoimport",
        "marginSupported": true,
        "name": "uuxFrequencyPicker",
        "paddingSupported": true,
        "platformID": "0",
        "property": [
            {
                "categoryType": "Custom",
                "defaultValue": "",
                "exclude": false,
                "name": "labelText",
                "propertySelection": false,
                "type": "String",
                "uniqueID": "cwpe5f5c937046d441a8262994aa88915be",
                "value": ""
            },
            {
                "categoryType": "Custom",
                "defaultValue": "",
                "exclude": false,
                "name": "value",
                "propertySelection": false,
                "type": "String",
                "uniqueID": "cwpd6315c74ad24436992411c045f0cc5f6",
                "value": ""
            },
            {
                "categoryType": "Custom",
                "defaultValue": "",
                "exclude": false,
                "name": "formattedValue",
                "propertySelection": false,
                "type": "String",
                "uniqueID": "cwpafd78e2566e1410b98a37f3dbe6a77e3",
                "value": ""
            }
        ]
    }
}