{
    "@class": "com.kony.gen.viz.model.component.KVizButton",
    "DNDConfig": null,
    "_bottom_": {
        "type": "string",
        "value": "20px"
    },
    "_height_": {
        "type": "string",
        "value": "40px"
    },
    "_margin_": [
        6,
        6,
        6,
        6
    ],
    "_padding_": [
        0,
        0,
        0,
        0
    ],
    "_right_": {
        "type": "string",
        "value": "20px"
    },
    "_skin_": "sb69968d4b37424bb69c3e21ab36f009",
    "_text_": "Simulate",
    "_width_": {
        "type": "string",
        "value": "180px"
    },
    "canUpdateUI": true,
    "containerweight": 100,
    "contentalignment": 5,
    "disabledSkins": {
        "focusSkin": "sb47e4be03c74bcc8599b34b76f24950"
    },
    "displaytext": true,
    "id": "btnSimulate",
    "ide_onClick": "AS_Button_d39a9e4aaa1c49358518ff5987634095",
    "info": null,
    "iscustomlayout": false,
    "isvisible": true,
    "kuid": "fc8ecf9d4cfb4eb2b707f3929e896a5f",
    "name": "kony.ui.Button",
    "parent": "flxbuttons",
    "pf": "frmCustomerLoanDetails2",
    "retaincontentalignment": false,
    "retainflexpositionproperties": false,
    "wType": "Button",
    "zindex": 1
}