{
    "@class": "com.kony.gen.viz.model.component.KVizButton",
    "DNDConfig": null,
    "_bottom_": {
        "type": "string",
        "value": "20px"
    },
    "_height_": {
        "type": "string",
        "value": "40px"
    },
    "_margin_": [
        6,
        6,
        6,
        6
    ],
    "_padding_": [
        0,
        0,
        0,
        0
    ],
    "_right_": {
        "type": "string",
        "value": "40px"
    },
    "_skin_": "sb69968d4b37424bb69c3e21ab36f009",
    "_text_": "Explore Now",
    "_width_": {
        "type": "string",
        "value": "200px"
    },
    "canUpdateUI": true,
    "containerweight": 100,
    "contentalignment": 5,
    "disabledSkins": {
        "focusSkin": "sb47e4be03c74bcc8599b34b76f24950"
    },
    "displaytext": true,
    "id": "CopybtnViewDocuments0e4c1c495aef744",
    "ide_onClick": "AS_Button_b52103949bd04f66a41b53813a2b4582",
    "info": null,
    "iscustomlayout": false,
    "isvisible": true,
    "kuid": "ga27fcccc6de4c74975a9de4c28b472b",
    "name": "kony.ui.Button",
    "parent": "flxpop1",
    "pf": "frmCustomerLoanDetails2",
    "retaincontentalignment": false,
    "retainflexpositionproperties": false,
    "wType": "Button",
    "zindex": 1
}