{
    "DNDConfig": null,
    "_height_": {
        "type": "string",
        "value": "80px"
    },
    "_left_": {
        "type": "string",
        "value": "0dp"
    },
    "_margin_": [
        0,
        0,
        0,
        0
    ],
    "_orientation_": 6,
    "_padding_": [
        0,
        0,
        0,
        0
    ],
    "_percent_": true,
    "_skin_": "s9c2c33c226e4de68998e15c1dc138ea",
    "_top_": {
        "type": "string",
        "value": "0dp"
    },
    "_width_": {
        "type": "string",
        "value": "98%"
    },
    "allboxes": [],
    "autogrowmode": 0,
    "canUpdateUI": true,
    "centerx": {
        "type": "string",
        "value": "50%"
    },
    "children": [
        "CopylblAcNum0j47fcfc6791648",
        "CopylblAcType0gdde504fe1da48",
        "CopylblCCY0h09a4de2197342",
        "CopylblClearBal0caaab326f69846",
        "CopylblLockedAc0j8171e57d4a843",
        "CopylblAvlBal0j6039ebdb6bb4f",
        "CopyListBox0e739fa59082f4b"
    ],
    "clipbounds": true,
    "containerweight": 100,
    "enablescrolling": true,
    "id": "CopyflxNow0fdbccdfd9b5c4e",
    "ide_onTouchStart": "AS_FlexContainer_h24dd4fb088346bda1581ad4a17025f7",
    "info": null,
    "isTemplate": true,
    "iscustomlayout": false,
    "isvisible": false,
    "kuid": "d32fbd70de15478ca01b2140769e37d4",
    "layouttype": 3,
    "name": "kony.ui.FlexContainer",
    "parent": "flxMain",
    "pf": "frmCustomerLoanDetails2",
    "retaincontentalignment": false,
    "retainflexpositionproperties": false,
    "retainflowhorizontalalignment": false,
    "snapgridsize": 10,
    "snaptogrid": true,
    "wType": "FlexContainer",
    "widgetalignment": 1,
    "zindex": 4
}