{
    "@class": "com.kony.gen.viz.model.component.KVizButton",
    "DNDConfig": null,
    "_bottom_": {
        "type": "string",
        "value": "20px"
    },
    "_height_": {
        "type": "string",
        "value": "40px"
    },
    "_left_": {
        "type": "string",
        "value": "40px"
    },
    "_margin_": [
        6,
        6,
        6,
        6
    ],
    "_padding_": [
        0,
        0,
        0,
        0
    ],
    "_skin_": "s59f06fd41d94e7da6e2f6b8fd9e8307",
    "_text_": "Later",
    "_width_": {
        "type": "string",
        "value": "200px"
    },
    "canUpdateUI": true,
    "containerweight": 100,
    "contentalignment": 5,
    "disabledSkins": {
        "focusSkin": "sb47e4be03c74bcc8599b34b76f24950"
    },
    "displaytext": true,
    "id": "CopylblFullDetails0i80bfbb7ccfd41",
    "ide_onClick": "AS_Button_a7aabee240a0497984e4831f95d1dfc7",
    "info": null,
    "iscustomlayout": false,
    "isvisible": true,
    "kuid": "b895b09e34534ea49b0614f3d31f572d",
    "name": "kony.ui.Button",
    "parent": "flxpop1",
    "pf": "frmCustomerLoanDetails2",
    "retaincontentalignment": false,
    "retainflexpositionproperties": false,
    "wType": "Button",
    "zindex": 1
}