{
    "@class": "com.kony.gen.viz.model.component.KVizLabel",
    "DNDConfig": null,
    "_height_": {
        "type": "string",
        "value": "20px"
    },
    "_left_": {
        "type": "string",
        "value": "20px"
    },
    "_margin_": [
        1,
        1,
        1,
        1
    ],
    "_padding_": [
        0,
        0,
        0,
        0
    ],
    "_skin_": "sf73e21a7c4044789523e3292c1d02eb",
    "_text_": "19/12/2020",
    "_top_": {
        "type": "string",
        "value": "180px"
    },
    "_width_": {
        "type": "string",
        "value": "148px"
    },
    "_wrapping_": 2,
    "android": {
        "textStyle": {
            "letterSpacing": 0,
            "strikeThrough": false
        }
    },
    "canUpdateUI": true,
    "containerweight": 100,
    "contentalignment": 4,
    "id": "CopylblNext0bc82d8b86a2a4c",
    "info": null,
    "ipad": {
        "psp": {
            "wrapping": 2
        }
    },
    "iphone": {
        "psp": {
            "wrapping": 2
        }
    },
    "iscustomlayout": false,
    "isvisible": true,
    "kuid": "aa36560d2d0944c0acc691694890a85e",
    "name": "kony.ui.Label",
    "parent": "CopyFlexGroup0d10d57fd676d43",
    "pf": "frmCustomerLoanDetails2",
    "retaincontentalignment": false,
    "retainflexpositionproperties": false,
    "tooltip": "",
    "wType": "Label",
    "zindex": 1
}