{
    "DNDConfig": null,
    "_bottom_": {
        "type": "string",
        "value": "10px"
    },
    "_height_": {
        "type": "string",
        "value": "50dp"
    },
    "_margin_": [
        0,
        0,
        0,
        0
    ],
    "_orientation_": 6,
    "_padding_": [
        0,
        0,
        0,
        0
    ],
    "_percent_": true,
    "_right_": {
        "type": "string",
        "value": "70px"
    },
    "_skin_": "saf6a33b52cb4c549e831be65f9b7129",
    "_width_": {
        "type": "string",
        "value": "300px"
    },
    "allboxes": [],
    "autogrowmode": 0,
    "canUpdateUI": true,
    "children": [
        "Image0j2f4166eab5e40",
        "CopylblNext0j707eb028f1646"
    ],
    "clipbounds": true,
    "containerweight": 100,
    "enablescrolling": true,
    "id": "FlexContainer0f808fe282afd45",
    "info": null,
    "iscustomlayout": false,
    "isvisible": true,
    "kuid": "f15de699f1bd46c2a8d13aa76e0189ee",
    "layouttype": 2,
    "name": "kony.ui.FlexContainer",
    "parent": "FlxCurrentPaymentDetailss",
    "pf": "frmCustomerLoanDetails2",
    "retaincontentalignment": false,
    "retainflexpositionproperties": false,
    "retainflowhorizontalalignment": false,
    "snapgridsize": 10,
    "snaptogrid": true,
    "wType": "FlexContainer",
    "widgetalignment": 1,
    "zindex": 3
}