{
    "DNDConfig": null,
    "_height_": {
        "type": "string",
        "value": "0px"
    },
    "_left_": {
        "type": "string",
        "value": "0dp"
    },
    "_margin_": [
        0,
        0,
        0,
        0
    ],
    "_orientation_": 6,
    "_padding_": [
        0,
        0,
        0,
        0
    ],
    "_percent_": true,
    "_skin_": "s33a2e08b7fc4afca3e9707c3d5e1e58",
    "_top_": {
        "type": "string",
        "value": "0px"
    },
    "_width_": {
        "type": "string",
        "value": "0px"
    },
    "allboxes": [],
    "autogrowmode": 0,
    "canUpdateUI": true,
    "children": [
        "lblAcNumOn",
        "lblAcTypeOn",
        "lblCCYOn",
        "lblClearBalOn",
        "lblLockedAcOn",
        "lblAvlBalOn",
        "ListBox0On"
    ],
    "clipbounds": true,
    "containerweight": 100,
    "enablescrolling": true,
    "id": "flxbgBlue",
    "info": null,
    "iscustomlayout": false,
    "isvisible": false,
    "kuid": "g7e822e9178f49e695562f5daaa9d33e",
    "layouttype": 3,
    "name": "kony.ui.FlexContainer",
    "parent": "flxPaymentholidaydetails",
    "pf": "frmCustomerLoanDetails2",
    "retaincontentalignment": false,
    "retainflexpositionproperties": false,
    "retainflowhorizontalalignment": false,
    "snapgridsize": 10,
    "snaptogrid": true,
    "wType": "FlexContainer",
    "widgetalignment": 1,
    "zindex": 1
}