{
    "DNDConfig": null,
    "_height_": {
        "type": "string",
        "value": "100%"
    },
    "_left_": {
        "type": "string",
        "value": "0dp"
    },
    "_margin_": [
        0,
        0,
        0,
        0
    ],
    "_orientation_": 6,
    "_padding_": [
        0,
        0,
        0,
        0
    ],
    "_percent_": true,
    "_skin_": "sc4e887c92ad441e881f79b4f8e8515b",
    "_top_": {
        "type": "string",
        "value": "0dp"
    },
    "_width_": {
        "type": "string",
        "value": "100%"
    },
    "allboxes": [],
    "canUpdateUI": true,
    "children": [
        "flxpop1"
    ],
    "clipbounds": true,
    "containerweight": 100,
    "defaultunit": 1,
    "enablescrolling": true,
    "id": "flxpopUpExploreLendingServciesWrapper",
    "info": null,
    "iscustomlayout": false,
    "isvisible": false,
    "kuid": "a31c8c42d7d94af1bbbfa17d92733bb2",
    "layouttype": 2,
    "name": "kony.ui.FlexContainer",
    "parent": "flxwrapper",
    "pf": "frmCustomerLoanDetails2",
    "retaincontentalignment": false,
    "retainflexpositionproperties": false,
    "retainflowhorizontalalignment": false,
    "snapgridsize": 10,
    "snaptogrid": true,
    "wType": "FlexContainer",
    "widgetalignment": 1
}