{
    "DNDConfig": null,
    "_height_": {
        "type": "string",
        "value": "240px"
    },
    "_margin_": [
        0,
        0,
        0,
        0
    ],
    "_orientation_": 6,
    "_padding_": [
        0,
        0,
        0,
        0
    ],
    "_percent_": true,
    "_skin_": "s9c2c33c226e4de68998e15c1dc138ea",
    "_width_": {
        "type": "string",
        "value": "38%"
    },
    "allboxes": [],
    "autogrowmode": 0,
    "canUpdateUI": true,
    "centerx": {
        "type": "string",
        "value": "50%"
    },
    "centery": {
        "type": "string",
        "value": "50%"
    },
    "children": [
        "btnok",
        "lblsuccesmessage",
        "imgsuccess"
    ],
    "clipbounds": false,
    "containerweight": 100,
    "enablescrolling": true,
    "id": "flxsuccess",
    "info": null,
    "iscustomlayout": false,
    "isvisible": true,
    "kuid": "i447133a85a34b248717199e5fa3cdc2",
    "layouttype": 2,
    "name": "kony.ui.FlexContainer",
    "parent": "flxPaymentHolidaysSuccessfullysWrapper",
    "pf": "frmCustomerLoanDetails2",
    "retaincontentalignment": false,
    "retainflexpositionproperties": false,
    "retainflowhorizontalalignment": false,
    "snapgridsize": 10,
    "snaptogrid": true,
    "wType": "FlexContainer",
    "widgetalignment": 1,
    "zindex": 1
}