{
    "@class": "com.kony.gen.viz.model.container.KVizSegment2",
    "DNDConfig": null,
    "_data_": [
        {
            "lblAmount": {
                "@class": "com.viz.ide.model.segment.SimpleTextSegmentData",
                "text": "0.00"
            },
            "lblInterest": {
                "@class": "com.viz.ide.model.segment.SimpleTextSegmentData",
                "text": "0.00%"
            },
            "lblPaymentDate": {
                "@class": "com.viz.ide.model.segment.SimpleTextSegmentData",
                "text": "19 Dec 2020"
            },
            "lblPrincipal": {
                "@class": "com.viz.ide.model.segment.SimpleTextSegmentData",
                "text": "0.00"
            },
            "lblTax": {
                "@class": "com.viz.ide.model.segment.SimpleTextSegmentData",
                "text": "0.00"
            },
            "lbltotaloutstanding": {
                "@class": "com.viz.ide.model.segment.SimpleTextSegmentData",
                "text": "0.00"
            }
        },
        {
            "lblAmount": {
                "@class": "com.viz.ide.model.segment.SimpleTextSegmentData",
                "text": "0.00"
            },
            "lblInterest": {
                "@class": "com.viz.ide.model.segment.SimpleTextSegmentData",
                "text": "0.00%"
            },
            "lblPaymentDate": {
                "@class": "com.viz.ide.model.segment.SimpleTextSegmentData",
                "text": "19 Dec 2020"
            },
            "lblPrincipal": {
                "@class": "com.viz.ide.model.segment.SimpleTextSegmentData",
                "text": "0.00"
            },
            "lblTax": {
                "@class": "com.viz.ide.model.segment.SimpleTextSegmentData",
                "text": "0.00"
            },
            "lbltotaloutstanding": {
                "@class": "com.viz.ide.model.segment.SimpleTextSegmentData",
                "text": "0.00"
            }
        },
        {
            "lblAmount": {
                "@class": "com.viz.ide.model.segment.SimpleTextSegmentData",
                "text": "0.00"
            },
            "lblInterest": {
                "@class": "com.viz.ide.model.segment.SimpleTextSegmentData",
                "text": "0.00%"
            },
            "lblPaymentDate": {
                "@class": "com.viz.ide.model.segment.SimpleTextSegmentData",
                "text": "19 Dec 2020"
            },
            "lblPrincipal": {
                "@class": "com.viz.ide.model.segment.SimpleTextSegmentData",
                "text": "0.00"
            },
            "lblTax": {
                "@class": "com.viz.ide.model.segment.SimpleTextSegmentData",
                "text": "0.00"
            },
            "lbltotaloutstanding": {
                "@class": "com.viz.ide.model.segment.SimpleTextSegmentData",
                "text": "0.00"
            }
        },
        {
            "lblAmount": {
                "@class": "com.viz.ide.model.segment.SimpleTextSegmentData",
                "text": "0.00"
            },
            "lblInterest": {
                "@class": "com.viz.ide.model.segment.SimpleTextSegmentData",
                "text": "0.00%"
            },
            "lblPaymentDate": {
                "@class": "com.viz.ide.model.segment.SimpleTextSegmentData",
                "text": "19 Dec 2020"
            },
            "lblPrincipal": {
                "@class": "com.viz.ide.model.segment.SimpleTextSegmentData",
                "text": "0.00"
            },
            "lblTax": {
                "@class": "com.viz.ide.model.segment.SimpleTextSegmentData",
                "text": "0.00"
            },
            "lbltotaloutstanding": {
                "@class": "com.viz.ide.model.segment.SimpleTextSegmentData",
                "text": "0.00"
            }
        },
        {
            "lblAmount": {
                "@class": "com.viz.ide.model.segment.SimpleTextSegmentData",
                "text": "0.00"
            },
            "lblInterest": {
                "@class": "com.viz.ide.model.segment.SimpleTextSegmentData",
                "text": "0.00%"
            },
            "lblPaymentDate": {
                "@class": "com.viz.ide.model.segment.SimpleTextSegmentData",
                "text": "19 Dec 2020"
            },
            "lblPrincipal": {
                "@class": "com.viz.ide.model.segment.SimpleTextSegmentData",
                "text": "0.00"
            },
            "lblTax": {
                "@class": "com.viz.ide.model.segment.SimpleTextSegmentData",
                "text": "0.00"
            },
            "lbltotaloutstanding": {
                "@class": "com.viz.ide.model.segment.SimpleTextSegmentData",
                "text": "0.00"
            }
        },
        {
            "lblAmount": {
                "@class": "com.viz.ide.model.segment.SimpleTextSegmentData",
                "text": "0.00"
            },
            "lblInterest": {
                "@class": "com.viz.ide.model.segment.SimpleTextSegmentData",
                "text": "0.00%"
            },
            "lblPaymentDate": {
                "@class": "com.viz.ide.model.segment.SimpleTextSegmentData",
                "text": "19 Dec 2020"
            },
            "lblPrincipal": {
                "@class": "com.viz.ide.model.segment.SimpleTextSegmentData",
                "text": "0.00"
            },
            "lblTax": {
                "@class": "com.viz.ide.model.segment.SimpleTextSegmentData",
                "text": "0.00"
            },
            "lbltotaloutstanding": {
                "@class": "com.viz.ide.model.segment.SimpleTextSegmentData",
                "text": "0.00"
            }
        }
    ],
    "_height_": {
        "type": "ref",
        "value": "preferred"
    },
    "_indicator_": "none",
    "_left_": {
        "type": "string",
        "value": "2%"
    },
    "_margin_": [
        0,
        0,
        0,
        0
    ],
    "_orientation_": 2,
    "_padding_": [
        0,
        0,
        0,
        0
    ],
    "_top_": {
        "type": "string",
        "value": "0dp"
    },
    "_width_": {
        "type": "string",
        "value": "96%"
    },
    "autogrowmode": 1,
    "canUpdateUI": true,
    "containerweight": 100,
    "counter": "05",
    "focusedindex": null,
    "focuseditem": null,
    "groupcells": false,
    "hasSections": false,
    "id": "Segment0c0e1d9bbba4c4c",
    "info": null,
    "ipad": {
        "psp": {
            "indicator": "rowselect"
        }
    },
    "iphone": {
        "psp": {
            "indicator": "rowselect"
        }
    },
    "iscustomlayout": false,
    "isvisible": true,
    "kuid": "c709ffd9c33347f7a0e1fd0c5638c4b3",
    "masterdata": {},
    "name": "kony.ui.SegmentedUI2",
    "needpageindicator": true,
    "pageoffdotimage": "pageoffdot.png",
    "pageondotimage": "pageondot.png",
    "paginationconfig": {
        "position": "bottom"
    },
    "parent": "flxSchedule",
    "pf": "frmCustomerLoanDetails2",
    "retaincontentalignment": false,
    "retainflexpositionproperties": false,
    "retainselection": false,
    "rowTemplateId": "df10e61e388644b3b2f97f8f07350096",
    "rowcounter": 5,
    "rowfocusskin": "s3f353c057a14ca8a8d6fa6caf39f59a",
    "rowskin": "s5344ea37b3f40f7877699e4eafbf3dc",
    "rowtemplate": "Flex0i494021d9e244d",
    "screenlevelwidget": false,
    "seccounter": 0,
    "sectionheaderskin": "s67dfc97c181442ebeb45ecca8ba0dc8",
    "selectedRows": null,
    "selectedState": false,
    "selectedindex": null,
    "selectedindices": null,
    "selecteditems": null,
    "selectedsectionindex": 0,
    "selectionbehavior": "default",
    "separatorcolor": "ffffff00",
    "separatorrequired": true,
    "separatorthickness": 10,
    "showscrollbars": false,
    "viewtype": "tableview",
    "vizProps": {},
    "wType": "Segment",
    "widgetalignment": 5,
    "widgetdatamap": {
        "Flex0i494021d9e244d": "Flex0i494021d9e244d",
        "flxScheduleheader": "flxScheduleheader",
        "lblAmount": "lblAmount",
        "lblInterest": "lblInterest",
        "lblPaymentDate": "lblPaymentDate",
        "lblPrincipal": "lblPrincipal",
        "lblTax": "lblTax",
        "lbltotaloutstanding": "lbltotaloutstanding"
    },
    "zindex": 1
}