{
    "APPLICATION_THEME": "default",
    "appaddrkey": "",
    "appidkey": "test",
    "appnamekey": "testing",
    "apppackagekey": "",
    "appversionkey": "1.0.0",
    "build": "debug",
    "isNewAppWithRespectToAndroidPackageName": "",
    "konyVizVersion": "3.0.0",
    "mwaddrkey": "",
    "mwhttpsportkey": "",
    "mwportkey": "",
    "project.type": "js",
    "project_version": "sprint22",
    "startupformkey": "",
    "vendornamekey": "KonyLabs",
    "winmobileguidkey": "",
    "defaulttheme": "defaultTheme",
    "createdgaversion": "7.0.0",
    "currentgaversion": "7.0.0",
	"createdVizVersion": "3.0.0"
}