{
    "@class": "com.kony.gen.viz.model.component.KVizButton",
    "DNDConfig": null,
    "_height_": {
        "type": "string",
        "value": "40dp"
    },
    "_margin_": [
        6,
        6,
        6,
        6
    ],
    "_padding_": [
        0,
        0,
        0,
        0
    ],
    "_right_": {
        "type": "string",
        "value": "40dp"
    },
    "_skin_": "s481cfbdde3c47a188a94be8d408cb14",
    "_text_": "<",
    "_top_": {
        "type": "string",
        "value": "0dp"
    },
    "_width_": {
        "type": "string",
        "value": "25dp"
    },
    "canUpdateUI": true,
    "containerweight": 100,
    "contentalignment": 5,
    "disabledSkins": {
        "focusSkin": "sb47e4be03c74bcc8599b34b76f24950"
    },
    "displaytext": true,
    "id": "btnPrev1",
    "info": null,
    "iscustomlayout": false,
    "isvisible": false,
    "kuid": "ff0b717d8268496f9a8dda6c4a3ae741",
    "name": "kony.ui.Button",
    "parent": "flxPagination",
    "pf": "frmRepayment",
    "retaincontentalignment": false,
    "retainflexpositionproperties": false,
    "wType": "Button",
    "zindex": 1
}