{
    "@class": "com.kony.gen.viz.model.component.KVizUserWidget",
    "DNDConfig": null,
    "_children_": [],
    "_height_": {
        "type": "string",
        "value": "72dp"
    },
    "_left_": {
        "type": "string",
        "value": "18dp"
    },
    "_margin_": [
        0,
        0,
        0,
        0
    ],
    "_orientation_": 1,
    "_padding_": [
        0,
        0,
        0,
        0
    ],
    "_percent_": true,
    "_right_": {
        "type": "number",
        "value": "32"
    },
    "_skin_": "s67924bcdecb43b69aa7b14971e89709",
    "_top_": {
        "type": "string",
        "value": "0dp"
    },
    "_width_": {
        "type": "string",
        "value": "98%"
    },
    "android": {},
    "androidwearos": {},
    "areflexpropsreferenced": false,
    "autogrowmode": 0,
    "canUpdateUI": true,
    "clipbounds": true,
    "containerweight": 0,
    "dataDiffs": {
        "ErrorAllert": {
            "__events__": {},
            "__info__": {
                "isRoot": true,
                "kuid": "j5a143d84e6b40c5b91d119e94fe5962",
                "srcKUID": "h8cb39ec838349b1afb7dc4d9766919c",
                "wType": "FlexContainer"
            },
            "isVisible": false,
            "responsiveData": {},
            "width": {
                "Default": {
                    "type": "string",
                    "value": "98%"
                }
            }
        },
        "FlexContainer0c96d2d6573ff47": {
            "__events__": {},
            "__info__": {
                "kuid": "i5183a7ff94b4173936d4323161a82a3",
                "srcKUID": "ad572ec02bbc48ebbb4f1dc768804969",
                "wType": "FlexContainer"
            }
        },
        "FlexContainer0dbccc9f9939044": {
            "__events__": {},
            "__info__": {
                "kuid": "f577b265986f4f918132c691dc6db5b7",
                "srcKUID": "f59a8a61ace1455b8914462b3d6bb03b",
                "wType": "FlexContainer"
            }
        },
        "Label0c0024c57dfb34f": {
            "__events__": {},
            "__info__": {
                "kuid": "b4dd03edcac845beae9576421ad020da",
                "srcKUID": "hf6d5793c5024998bc6f943030f92452",
                "wType": "Label"
            }
        },
        "btnImage": {
            "__events__": {},
            "__info__": {
                "kuid": "gcd4edb7711248cab401a3f0413e27f9",
                "srcKUID": "e3042b659f1b42e99d68d9928629a9d5",
                "wType": "Button"
            }
        },
        "flxError": {
            "__events__": {},
            "__info__": {
                "kuid": "ff15611b7b9b418c8726c32bcb68ec1c",
                "srcKUID": "a49166f2d3d14eeaa2feb76e306db101",
                "wType": "FlexContainer"
            }
        },
        "imgClose": {
            "__events__": {},
            "__info__": {
                "kuid": "dc21d1cc25c940f8a43e8ae58e863bca",
                "srcKUID": "e1c097d66c3744f18bfb83c30858a314",
                "wType": "Button"
            }
        },
        "imgClose1": {
            "__events__": {},
            "__info__": {
                "kuid": "a8c8abeccdca4e44b2d7f25b813b44c4",
                "srcKUID": "j9728085e75b4abe9a6359d26438efcc",
                "wType": "Label"
            }
        },
        "imgClose2": {
            "__events__": {},
            "__info__": {
                "kuid": "h4e51b38a433410bb661f9461247127b",
                "srcKUID": "g5b93ccb39f549ac821e8d44292eaffa",
                "wType": "Label"
            }
        },
        "imgCloseBackup": {
            "__events__": {},
            "__info__": {
                "kuid": "a89974fb34654d53ab31e7fd711c4586",
                "srcKUID": "c646f7e0831248d7bc0f7b6f88ab6c22",
                "wType": "Image"
            },
            "left": {
                "Default": {
                    "type": "string",
                    "value": "1230dp"
                }
            },
            "responsiveData": {},
            "src": "ico_close.png"
        },
        "lblError": {
            "__events__": {},
            "__info__": {
                "kuid": "bc8f411e97714fbd8e5d474acf73e669",
                "srcKUID": "i5ab170e82924d7ea954d38f04fd3d44",
                "wType": "Label"
            }
        },
        "lblErrorNotification": {
            "__events__": {},
            "__info__": {
                "kuid": "a655560254ae4d71886dab9a183e8ecb",
                "srcKUID": "f918c824751a41c7a0afc1d2b466bfc7",
                "wType": "Label"
            }
        },
        "lblImag": {
            "__events__": {},
            "__info__": {
                "kuid": "ecd77fcac19d448da7d67384d61906bf",
                "srcKUID": "ddbbe97dbe67439ea4934db8746fa110",
                "wType": "Label"
            }
        },
        "lblMessage": {
            "__events__": {},
            "__info__": {
                "kuid": "c745cf56bdd64c2da3e4eece382aca56",
                "srcKUID": "d530e1757beb4ff9b9c4b003d6a3e47a",
                "wType": "Label"
            }
        }
    },
    "desktopweb": {},
    "enablescrolling": true,
    "id": "ErrorAllert",
    "info": null,
    "ipad": {},
    "iphone": {},
    "iscustomlayout": false,
    "isdatareferenced": false,
    "isvisible": false,
    "kiosk": {},
    "kuid": "j5a143d84e6b40c5b91d119e94fe5962",
    "layouttype": 2,
    "masterType": 0,
    "name": "kony.ui.UserWidgetInstance",
    "parent": "flxMainContainer",
    "pf": "frmRepayment",
    "responsiveData": {},
    "retaincontentalignment": false,
    "retainflexpositionproperties": false,
    "retainflowhorizontalalignment": false,
    "snapgridsize": 10,
    "snaptogrid": true,
    "sourceUserWidget": "h8cb39ec838349b1afb7dc4d9766919c",
    "spa": {},
    "spaan": {},
    "spaandroidtablet": {},
    "spabb": {},
    "spaip": {},
    "spaipad": {},
    "spamobile": {},
    "spatablet": {},
    "spawindowstablet": {},
    "spawinphone8": {},
    "tabrcandroid": {},
    "vizProps": {
        "hidewidgethierarchy": false
    },
    "wType": "UserWidgetInstance",
    "windows10": {},
    "windows8": {},
    "winphone10": {},
    "winphone8": {}
}