{
    "DNDConfig": null,
    "_height_": {
        "type": "string",
        "value": "968dp"
    },
    "_left_": {
        "type": "string",
        "value": "0dp"
    },
    "_margin_": [
        0,
        0,
        0,
        0
    ],
    "_orientation_": 6,
    "_padding_": [
        0,
        0,
        0,
        0
    ],
    "_percent_": true,
    "_skin_": "s36913c125514303a8d7224bc0a6e4b0",
    "_top_": {
        "type": "string",
        "value": "0dp"
    },
    "_width_": {
        "type": "string",
        "value": "100%"
    },
    "allboxes": [],
    "autogrowmode": 0,
    "canUpdateUI": true,
    "children": [
        "flxBillDetailsInnerWrapper"
    ],
    "clipbounds": true,
    "containerweight": 100,
    "enablescrolling": true,
    "id": "flxGenericBillDetailsWrapper",
    "info": null,
    "iscustomlayout": false,
    "isvisible": false,
    "kuid": "j0a13f7be528420ea819d962e3f607c3",
    "layouttype": 2,
    "name": "kony.ui.FlexContainer",
    "parent": "frmRepayment",
    "pf": "frmRepayment",
    "retaincontentalignment": false,
    "retainflexpositionproperties": false,
    "retainflowhorizontalalignment": false,
    "snapgridsize": 10,
    "snaptogrid": true,
    "wType": "FlexContainer",
    "widgetalignment": 1,
    "zindex": 10
}