{
    "DNDConfig": null,
    "_height_": {
        "type": "string",
        "value": "50dp"
    },
    "_left_": {
        "type": "string",
        "value": "0dp"
    },
    "_margin_": [
        0,
        0,
        0,
        0
    ],
    "_orientation_": 6,
    "_padding_": [
        0,
        0,
        0,
        0
    ],
    "_percent_": true,
    "_skin_": "sa0bb9280bb3432c97e314879fe50ff2",
    "_top_": {
        "type": "string",
        "value": "20dp"
    },
    "_width_": {
        "type": "string",
        "value": "100%"
    },
    "allboxes": [],
    "autogrowmode": 0,
    "canUpdateUI": true,
    "children": [
        "lblNetSettlementInfo",
        "cusBillDetailsReciptIcon",
        "lblReceiptionAlternative",
        "lblCurrencyinfo05",
        "lblNetSettlementResponse"
    ],
    "clipbounds": true,
    "containerweight": 100,
    "enablescrolling": true,
    "id": "flxInnerBillDetailsInfoInnerWrapper05",
    "info": null,
    "iscustomlayout": false,
    "isvisible": true,
    "kuid": "d371ed561d41468fa4d46b8098b58773",
    "layouttype": 3,
    "name": "kony.ui.FlexContainer",
    "parent": "flxBillDetailSegment",
    "pf": "frmRepayment",
    "retaincontentalignment": false,
    "retainflexpositionproperties": false,
    "retainflowhorizontalalignment": false,
    "reverselayoutdirection": false,
    "snapgridsize": 10,
    "snaptogrid": true,
    "wType": "FlexContainer",
    "widgetalignment": 1,
    "zindex": 1
}