{
    "@class": "com.kony.gen.viz.model.component.KVizUserWidget",
    "DNDConfig": null,
    "_children_": [],
    "_height_": {
        "type": "string",
        "value": "100%"
    },
    "_left_": {
        "type": "string",
        "value": "0dp"
    },
    "_margin_": [
        0,
        0,
        0,
        0
    ],
    "_orientation_": 1,
    "_padding_": [
        0,
        0,
        0,
        0
    ],
    "_percent_": true,
    "_skin_": "s4e043b98564449d8a4a73daad362f53",
    "_top_": {
        "type": "string",
        "value": "0dp"
    },
    "_width_": {
        "type": "string",
        "value": "100%"
    },
    "areflexpropsreferenced": false,
    "autogrowmode": 0,
    "canUpdateUI": true,
    "clipbounds": true,
    "containerweight": 0,
    "dataDiffs": {
        "CopyflxBck0c8bd2742893248": {
            "__events__": {},
            "__info__": {
                "kuid": "gcc7f24468f945d1b201ec26758994fa",
                "srcKUID": "b16577411ad64ef0b69155d86f981147",
                "wType": "FlexContainer"
            }
        },
        "CopylblBack0j2de3a34459746": {
            "__events__": {},
            "__info__": {
                "kuid": "g89987523d3547389f03bd0df1db4c5c",
                "srcKUID": "hf555ed03dd84c5c8b001d806fabf496",
                "wType": "Label"
            }
        },
        "CopylblBackArrow0a405d8ec3e4d46": {
            "__events__": {},
            "__info__": {
                "kuid": "aecade65755547ba9a97e26e212c1c41",
                "srcKUID": "c2729d6470df4bec9bb2f0566aaffa17",
                "wType": "Label"
            }
        },
        "FlexContainer0da2ffc32184b42": {
            "__events__": {},
            "__info__": {
                "kuid": "ecbbd05017934f989211959842872843",
                "srcKUID": "h903dd1667de48baa27598a189677899",
                "wType": "FlexContainer"
            }
        },
        "FlexGroup0b337f90c7acb4e": {
            "__events__": {},
            "__info__": {
                "kuid": "h26a82121c1d40f4b98131723ef4430e",
                "srcKUID": "fce876425ac54b2789772f60a15ba407",
                "wType": "FlexContainer"
            }
        },
        "Label0e9ea2d0c21b54f": {
            "__events__": {},
            "__info__": {
                "kuid": "eba7c24a595f4a98a0e5b5884254e419",
                "srcKUID": "i1d367cc36854ce6951d66f4288b5992",
                "wType": "Label"
            }
        },
        "PlayCircleDark": {
            "__events__": {},
            "__info__": {
                "kuid": "f3b71577f42e48a1957978862987c979",
                "srcKUID": "hbbef4873ddd4d2c845f4c02d70d9e63",
                "wType": "Label"
            }
        },
        "brw": {
            "__events__": {},
            "__info__": {
                "kuid": "b6de5baea6324e4abaafc9e6b188c6e5",
                "srcKUID": "a71f40f28f42470baf7df31c0de8224f",
                "wType": "Browser"
            }
        },
        "btn1": {
            "__events__": {},
            "__info__": {
                "kuid": "e2734d06bc48417c8751e7f15b4614f4",
                "srcKUID": "gf03b7ec227d4252a8f10adb8fc5a29e",
                "wType": "Button"
            }
        },
        "btn2": {
            "__events__": {},
            "__info__": {
                "kuid": "da44bbb9136749b6a8742bcd76a2e60f",
                "srcKUID": "b93e1896a97e46d994a5dd2137e47642",
                "wType": "Button"
            }
        },
        "btn3": {
            "__events__": {},
            "__info__": {
                "kuid": "ccdb9c1f6a02446da3d0a085948fcdbd",
                "srcKUID": "g19387348c33490eb3a459606ac61572",
                "wType": "Button"
            }
        },
        "btn4": {
            "__events__": {},
            "__info__": {
                "kuid": "baafeb280d3744268b60e44f99256eef",
                "srcKUID": "j7114c0fedba464eba63b5f0df2121e9",
                "wType": "Button"
            }
        },
        "btn5": {
            "__events__": {},
            "__info__": {
                "kuid": "h45bf3a197094b72a71840cd7d28be34",
                "srcKUID": "c1b425151e7c4005be4f6b1b2e6665d1",
                "wType": "Button"
            }
        },
        "btn6": {
            "__events__": {},
            "__info__": {
                "kuid": "f4ad65c760ac4ffbbbb3aa6b7601cdfa",
                "srcKUID": "f7160577513945aaaa8a7da41819af25",
                "wType": "Button"
            }
        },
        "btn7": {
            "__events__": {},
            "__info__": {
                "kuid": "g432ebdec7ea4e40aa70a42efb27faf6",
                "srcKUID": "bef38e3da76f493b994a1907df8a9d20",
                "wType": "Button"
            }
        },
        "btn8": {
            "__events__": {},
            "__info__": {
                "kuid": "d3d5ed11d31d4b9185179bb94e25dcc2",
                "srcKUID": "dc48bac4051f4069a07b2e9515777c97",
                "wType": "Button"
            }
        },
        "btnAccount": {
            "__events__": {},
            "__info__": {
                "kuid": "ib07300b2cd1456cbf43a32a2d533546",
                "srcKUID": "f9e7593e31214141aa727f3de5d9b8fd",
                "wType": "Button"
            }
        },
        "btnBackShowMore": {
            "__events__": {},
            "__info__": {
                "kuid": "e24999f946a7414cb355a67791236a69",
                "srcKUID": "c7e165ebb99642dca78371e584d3cf69",
                "wType": "Button"
            }
        },
        "btnBckType": {
            "__events__": {},
            "__info__": {
                "kuid": "ef5f7ccf61f447f8b0a87504a494a8ac",
                "srcKUID": "fb7c1bdb2c1a4921a9eba28b2d339160",
                "wType": "Button"
            }
        },
        "btnClearTxt": {
            "__events__": {},
            "__info__": {
                "kuid": "f8d5c478aee542a997bc4898aeb0ced1",
                "srcKUID": "c305fdbd3745481b847747a394cb2091",
                "wType": "Button"
            }
        },
        "btnCloseHelp": {
            "__events__": {},
            "__info__": {
                "kuid": "bf7574bf06b544a08bcb7f07fe600080",
                "srcKUID": "i18a7a701189415c9f194aa7e4e8a7fe",
                "wType": "Button"
            }
        },
        "btnCloseVideo": {
            "__events__": {},
            "__info__": {
                "kuid": "ba450dc1aa344653852eb66202dc6634",
                "srcKUID": "ccb1e540ebd942d29b2f8b3e8b63c15a",
                "wType": "Button"
            }
        },
        "btnDeposit": {
            "__events__": {},
            "__info__": {
                "kuid": "d4f7a3a81f104c259c59ed7f8421f900",
                "srcKUID": "b98862c630a14eed8baef0a86ec78c7d",
                "wType": "Button"
            }
        },
        "btnHomeHelp": {
            "__events__": {},
            "__info__": {
                "kuid": "c6eff0b3c89147f1814db1f28b044950",
                "srcKUID": "i6791d96aab54846a3f762c9ddd25a10",
                "wType": "Button"
            }
        },
        "btnLoan": {
            "__events__": {},
            "__info__": {
                "kuid": "dac04f0d23744785ba86df8f3bf3de11",
                "srcKUID": "g96fe633ec7846a78b3e819e622b34d5",
                "wType": "Button"
            }
        },
        "btnMoreQues": {
            "__events__": {},
            "__info__": {
                "kuid": "bf8b1ce91b5045b2a4a197619f971944",
                "srcKUID": "j24494575d2a4c2996b8a11c8e044fcf",
                "wType": "Button"
            }
        },
        "btnPlus1": {
            "__events__": {},
            "__info__": {
                "kuid": "jc9bee346a3745aabb91d96db117d943",
                "srcKUID": "ade01b4e13f84d9ba2a388af7d79a8a3",
                "wType": "Button"
            }
        },
        "btnPlus2": {
            "__events__": {},
            "__info__": {
                "kuid": "a7726da105b54e829dee5ec9e27c77ab",
                "srcKUID": "ide2a591e4074e6eb1d5d4b18e9e904e",
                "wType": "Button"
            }
        },
        "btnPlus3": {
            "__events__": {},
            "__info__": {
                "kuid": "fce683090cf14ae5bcc699140b42e4a7",
                "srcKUID": "ca1ecc271d9f4f2f991827d9705fc50f",
                "wType": "Button"
            }
        },
        "btnPlus4": {
            "__events__": {},
            "__info__": {
                "kuid": "if4d16dacaa04bff832c913a2c15a4bf",
                "srcKUID": "ac1c6f2f035a442e9144c2d076cd2ba7",
                "wType": "Button"
            }
        },
        "btnShowMore": {
            "__events__": {},
            "__info__": {
                "kuid": "ac9ff9ed542743b683181fa5cf0cc677",
                "srcKUID": "f550a677a3764b5bb9f4f3a83930a9f6",
                "wType": "Button"
            }
        },
        "btnVideo": {
            "__events__": {},
            "__info__": {
                "kuid": "be981cc86dcc417ebb1e02c9c5921820",
                "srcKUID": "a5778429f0b1450da48aa6dd90e5f891",
                "wType": "Button"
            }
        },
        "clearSearch": {
            "__events__": {},
            "__info__": {
                "kuid": "c5d2eaff39f04731b9c8bc209d41f384",
                "srcKUID": "d5b67cabc602484093e63b8bc30977f2",
                "wType": "Label"
            }
        },
        "clearTxtBxSearch": {
            "__events__": {},
            "__info__": {
                "kuid": "ha5a186444ba49649c6e8d1c2c4db531",
                "srcKUID": "ec79be511d124c3393d9e3901c6628e8",
                "wType": "Label"
            }
        },
        "cusBackIcon": {
            "__events__": {},
            "__info__": {
                "kuid": "b485ed58a905453b9fe960ab3da24a8d",
                "srcKUID": "bcf684a9b65b471fa13be469d4cd008b",
                "wType": "Label"
            }
        },
        "flx1": {
            "__events__": {},
            "__info__": {
                "kuid": "fdf850f328054ce1a192d59d62f5ae43",
                "srcKUID": "a0bfb497c3984392b4a69540803595ef",
                "wType": "FlexContainer"
            }
        },
        "flx2": {
            "__events__": {},
            "__info__": {
                "kuid": "ce20f7c13584416ca83f3f31a6e80967",
                "srcKUID": "e1bc79ed2e17420c9329ab9862dda505",
                "wType": "FlexContainer"
            }
        },
        "flx3": {
            "__events__": {},
            "__info__": {
                "kuid": "d45c79f790e2492c8df1ebdfb1fc9a0f",
                "srcKUID": "e06f68df0dff47f5aea0915f446763ab",
                "wType": "FlexContainer"
            }
        },
        "flx4": {
            "__events__": {},
            "__info__": {
                "kuid": "ac5bcbebc12941138becac6fac82b539",
                "srcKUID": "i040b70fe33b4686b2adbe96ac59d4f3",
                "wType": "FlexContainer"
            }
        },
        "flx5": {
            "__events__": {},
            "__info__": {
                "kuid": "b1b916a70a0d4fe3a45d96bd893d38cd",
                "srcKUID": "ba4a2bd51d06431db01a951404c33781",
                "wType": "FlexContainer"
            }
        },
        "flx6": {
            "__events__": {},
            "__info__": {
                "kuid": "ac7184934be048f4911bb3b3b8059b6e",
                "srcKUID": "b130bb72adea4f09875a6eda8c55be14",
                "wType": "FlexContainer"
            }
        },
        "flx7": {
            "__events__": {},
            "__info__": {
                "kuid": "c1f01fbb778b4eeca63f0ef9f8b73b08",
                "srcKUID": "b11bad47fb294dc5840f249a1b5f1906",
                "wType": "FlexContainer"
            }
        },
        "flx8": {
            "__events__": {},
            "__info__": {
                "kuid": "e77312d2679149bd996a99a0929ea26e",
                "srcKUID": "bad38a5e97ce4193b687e896aa3944ac",
                "wType": "FlexContainer"
            }
        },
        "flxAccount": {
            "__events__": {},
            "__info__": {
                "kuid": "ac456658363e4c75891c8ba2a30be814",
                "srcKUID": "aaaec0ea0c204ddd861a3161b53b3d83",
                "wType": "FlexContainer"
            }
        },
        "flxAns1": {
            "__events__": {},
            "__info__": {
                "kuid": "e870a4f0e2a64e229b29af67e99d8cb2",
                "srcKUID": "b7e31d8e21af4278a8e59adc5fc6acf1",
                "wType": "FlexContainer"
            }
        },
        "flxAns2": {
            "__events__": {},
            "__info__": {
                "kuid": "fc4e5e04a30b4a8a91cc901d834d0805",
                "srcKUID": "b489098c53ee4c7e9249a8e348c5df26",
                "wType": "FlexContainer"
            }
        },
        "flxBack": {
            "__events__": {},
            "__info__": {
                "kuid": "ad103d53a1a84441a13e311b488aeabe",
                "srcKUID": "g4cea0cac8c54dbd893d0896f90da17a",
                "wType": "FlexContainer"
            }
        },
        "flxBackAns": {
            "__events__": {},
            "__info__": {
                "kuid": "j6bd63231d704c159e76dfd3c7ccf988",
                "srcKUID": "fcd55cc74304478284b321950493c37c",
                "wType": "FlexContainer"
            }
        },
        "flxBck": {
            "__events__": {},
            "__info__": {
                "kuid": "i2a9fc4da5ac4b93b1dab23bd6924be7",
                "srcKUID": "be9f04b77e314f9db3721cd02d646046",
                "wType": "FlexContainer"
            }
        },
        "flxBckArrow": {
            "__events__": {},
            "__info__": {
                "kuid": "dcc81526f3884ded8f7cdd924d8fdd99",
                "srcKUID": "cc449c9de12c4e569037a55673fa6b55",
                "wType": "FlexContainer"
            }
        },
        "flxBckType": {
            "__events__": {},
            "__info__": {
                "kuid": "g1eae9113ff3404cac192f315333887a",
                "srcKUID": "c2ba4182760e4600a31e3670c358dc41",
                "wType": "FlexContainer"
            }
        },
        "flxBottom": {
            "__events__": {},
            "__info__": {
                "kuid": "b0ad6a6b31be470a88e8f856af06052c",
                "srcKUID": "i57540e2b2a142119b5bbd0e4ab73200",
                "wType": "FlexContainer"
            }
        },
        "flxBreadcrum": {
            "__events__": {},
            "__info__": {
                "kuid": "e4e3ec6060434eecbb4a98edd7ffcef4",
                "srcKUID": "f9af58e989cb4baead77a0cdc5598ab9",
                "wType": "FlexContainer"
            }
        },
        "flxBrw": {
            "__events__": {},
            "__info__": {
                "kuid": "d9cf129a313e404bb426c880c54bbf83",
                "srcKUID": "e89130c9e32a430f9bcad3459116eb6e",
                "wType": "FlexContainer"
            }
        },
        "flxClose": {
            "__events__": {},
            "__info__": {
                "kuid": "d8fa42f9a1344da8ac4719c9fb8a0947",
                "srcKUID": "ca321916379940b3bfb45710c7e7a74e",
                "wType": "FlexContainer"
            }
        },
        "flxCloseHelp": {
            "__events__": {},
            "__info__": {
                "kuid": "c2d2b86164c345b5b0147411614b203b",
                "srcKUID": "d9419379d1734dab907a6131c78a2721",
                "wType": "FlexContainer"
            }
        },
        "flxDeposits": {
            "__events__": {},
            "__info__": {
                "kuid": "d4d1684b62124f46ad714f745500a503",
                "srcKUID": "f7025196d4514de3a9f3f09db659b9b4",
                "wType": "FlexContainer"
            }
        },
        "flxDesc": {
            "__events__": {},
            "__info__": {
                "kuid": "fd861092ece240a89f139f24c995a8ca",
                "srcKUID": "a71b80c6c201477a8d232adde99b07c8",
                "wType": "FlexScrollContainer"
            }
        },
        "flxDesc1": {
            "__events__": {},
            "__info__": {
                "kuid": "b7e037407adb43dbb84dcf75753f3cb5",
                "srcKUID": "de55147eb8284035b234ce7a36eab198",
                "wType": "FlexContainer"
            }
        },
        "flxDesc2": {
            "__events__": {},
            "__info__": {
                "kuid": "f8a566205486490289d4f9130d8d55a7",
                "srcKUID": "b364975898c448cdad3f93859c6ea65d",
                "wType": "FlexContainer"
            }
        },
        "flxDesc3": {
            "__events__": {},
            "__info__": {
                "kuid": "f356134ad36b41deb029c60007bad5c5",
                "srcKUID": "e15201dbff194e2e958f620777f04a42",
                "wType": "FlexContainer"
            }
        },
        "flxDescHeader2": {
            "__events__": {},
            "__info__": {
                "kuid": "f958796909df4f09877ce7b61b396de2",
                "srcKUID": "cd19bc8590d843cba0480b9a9c56735a",
                "wType": "FlexContainer"
            }
        },
        "flxDescHeader3": {
            "__events__": {},
            "__info__": {
                "kuid": "a89238dea867427786e523fa40dd3143",
                "srcKUID": "ef2fc08b77384c08a2ad866737bca11a",
                "wType": "FlexContainer"
            }
        },
        "flxDescType1": {
            "__events__": {},
            "__info__": {
                "kuid": "e381021af14146058a65e5fdda400589",
                "srcKUID": "c8dfd7163586439294bd41a9e2a5ff63",
                "wType": "FlexContainer"
            }
        },
        "flxDescType2": {
            "__events__": {},
            "__info__": {
                "kuid": "a356d4b47b744a77a059d84bf0fd54fb",
                "srcKUID": "f859acf1485c4197bbeb281e4482eb02",
                "wType": "FlexContainer"
            }
        },
        "flxDescType3": {
            "__events__": {},
            "__info__": {
                "kuid": "ba7252ae0c734d50be0a7a47403ccac1",
                "srcKUID": "ia544ffc23224366acf72e3716e439a6",
                "wType": "FlexContainer"
            }
        },
        "flxDescType4": {
            "__events__": {},
            "__info__": {
                "kuid": "j3339cfad7c7444aa06d2d22eca4861b",
                "srcKUID": "g6f6f861418f44e6adeac9a9c20e495a",
                "wType": "FlexContainer"
            }
        },
        "flxExpand1": {
            "__events__": {},
            "__info__": {
                "kuid": "i0bbb22f2dfa4f458e8d80a474d4441d",
                "srcKUID": "b36ec4747b694ff7bf9d217313873c75",
                "wType": "FlexContainer"
            }
        },
        "flxExpand2": {
            "__events__": {},
            "__info__": {
                "kuid": "fb3df607849849a7993bd6e70d265d28",
                "srcKUID": "d72c68e704a346648b0dbb5f24bf9e0e",
                "wType": "FlexContainer"
            }
        },
        "flxExpand3": {
            "__events__": {},
            "__info__": {
                "kuid": "a50f4dcdb9b04c5d8ae8716be40be876",
                "srcKUID": "df42118b2dd743258295227000fab538",
                "wType": "FlexContainer"
            }
        },
        "flxExpand4": {
            "__events__": {},
            "__info__": {
                "kuid": "fcf89cf8a0c542119df22af066c0ba6d",
                "srcKUID": "d5f13bf2256b41d3ac9f8501a6499c8a",
                "wType": "FlexContainer"
            }
        },
        "flxFAQ": {
            "__events__": {},
            "__info__": {
                "kuid": "fc7b9f4463d5432191e0dd0e8a38a1cc",
                "srcKUID": "b8d09475252f43d0ae581e3ee22732f7",
                "wType": "FlexContainer"
            }
        },
        "flxHeader": {
            "__events__": {},
            "__info__": {
                "kuid": "ddfec74944fe4b5bb9d75e237a180006",
                "srcKUID": "dda40f5444384e05bd31df5586e09659",
                "wType": "FlexContainer"
            }
        },
        "flxHelpGroup": {
            "__events__": {},
            "__info__": {
                "kuid": "ib88fe4b061e4c1c936dfb88c7909d7f",
                "srcKUID": "b026eb2fdf514268b9c59bc70041b149",
                "wType": "FlexContainer"
            }
        },
        "flxHelpHome": {
            "__events__": {},
            "__info__": {
                "kuid": "a5ecbb8540244532bb05e58a1a9173c9",
                "srcKUID": "f8894ced966e4176ac152c460a16d078",
                "wType": "FlexContainer"
            }
        },
        "flxLeft": {
            "__events__": {},
            "__info__": {
                "kuid": "be77be1053814e00a1c13147ea7b60e8",
                "srcKUID": "aff2d17996804d8190a87030295eb836",
                "wType": "FlexContainer"
            }
        },
        "flxLoan": {
            "__events__": {},
            "__info__": {
                "kuid": "cff244bf1e65434ba78919860229650b",
                "srcKUID": "ed2b8e77161e42749458f58139524002",
                "wType": "FlexContainer"
            }
        },
        "flxLoanHome": {
            "__events__": {},
            "__info__": {
                "kuid": "e6e79df430854f08be6698aaa0bfb6e5",
                "srcKUID": "cf0de250c9fb4f91b573f7aee70ff57a",
                "wType": "FlexContainer"
            }
        },
        "flxMain": {
            "__events__": {},
            "__info__": {
                "kuid": "ica3be3f81ef45a89bdf8adfc1436c4b",
                "srcKUID": "edc31f77fb9b4fa2807e7246f98688f8",
                "wType": "FlexContainer"
            }
        },
        "flxOptions": {
            "__events__": {},
            "__info__": {
                "kuid": "f917c8be4c874374a8d6fad25c4afd31",
                "srcKUID": "ba27426a42a7450daa9c1149b09ba883",
                "wType": "FlexContainer"
            }
        },
        "flxOptions2": {
            "__events__": {},
            "__info__": {
                "kuid": "g2f7849e8f6a46c485307971bf792359",
                "srcKUID": "a6561fc38ef945c696d41c7e94237989",
                "wType": "FlexContainer"
            }
        },
        "flxPlayVideo": {
            "__events__": {},
            "__info__": {
                "kuid": "f4bdb9cfe88e41a699447c7c9fdb12a6",
                "srcKUID": "c8be0376565c46ddb12cfcecea789266",
                "wType": "FlexContainer"
            }
        },
        "flxQues": {
            "__events__": {},
            "__info__": {
                "kuid": "j563c44ca93845fe9040d766f8a13bb9",
                "srcKUID": "b3313ededb8641a8ba2ec9456aa5fce1",
                "wType": "FlexContainer"
            }
        },
        "flxQues1": {
            "__events__": {},
            "__info__": {
                "kuid": "beec3f04168b4a3c9eee6b78ab16acb0",
                "srcKUID": "i16361d2a2c3482fbab82abf34e0105e",
                "wType": "FlexContainer"
            }
        },
        "flxQues2": {
            "__events__": {},
            "__info__": {
                "kuid": "cef315d0973545a0b5111cd8193643cd",
                "srcKUID": "h59f7992372c48fdb4a6e729be05343e",
                "wType": "FlexContainer"
            }
        },
        "flxRight": {
            "__events__": {},
            "__info__": {
                "kuid": "b6f0d3b640654bae91dda0c284268465",
                "srcKUID": "b048fa0e16df45ed98495f445cdc77d9",
                "wType": "FlexContainer"
            }
        },
        "flxSearch": {
            "__events__": {},
            "__info__": {
                "kuid": "jf5d86cfcc344718909332fc28700301",
                "srcKUID": "a4ad2b5851c140798c699f30d83e5922",
                "wType": "FlexContainer"
            }
        },
        "flxSearchResult": {
            "__events__": {},
            "__info__": {
                "kuid": "haebf3f607654b0f8b9385df2bcfe3b3",
                "srcKUID": "fd9bf5e18c5341229d01ca66f9080d78",
                "wType": "FlexContainer"
            }
        },
        "flxSeg": {
            "__events__": {},
            "__info__": {
                "kuid": "f1c665fec50e4fe1b507a08e99ebfce2",
                "srcKUID": "i5df22fbbdc9499da4cea87aa52903e9",
                "wType": "FlexContainer"
            }
        },
        "flxSeparator": {
            "__events__": {},
            "__info__": {
                "kuid": "f291548d39894ceaa27315a1b168b558",
                "srcKUID": "a65262a100b3484a8c59afdf2937b887",
                "wType": "FlexContainer"
            }
        },
        "flxSeparator1": {
            "__events__": {},
            "__info__": {
                "kuid": "c847014d6c6e4d96b808e00ee1c6cf57",
                "srcKUID": "d71721d3e671480b85ac0798048399bc",
                "wType": "FlexContainer"
            }
        },
        "flxSeparator2": {
            "__events__": {},
            "__info__": {
                "kuid": "bc35e55ea1944846bdf3df534f5e25e0",
                "srcKUID": "id6eb87e507c4475b63c7787625ce39b",
                "wType": "FlexContainer"
            }
        },
        "flxSeparator3": {
            "__events__": {},
            "__info__": {
                "kuid": "e54fb5baeb9b42398581baa0b62cab4c",
                "srcKUID": "f7f295b9a2e64e96aab50961fef790e5",
                "wType": "FlexContainer"
            }
        },
        "flxSeparator4": {
            "__events__": {},
            "__info__": {
                "kuid": "ccdd3fc91adb49359beff8e99f601310",
                "srcKUID": "d900e79d05234530868fce776015fbce",
                "wType": "FlexContainer"
            }
        },
        "flxSeparator5": {
            "__events__": {},
            "__info__": {
                "kuid": "d7585d6d8f1c4571ba2983e85f77e278",
                "srcKUID": "ee45b60a6001476793b66433336a2889",
                "wType": "FlexContainer"
            }
        },
        "flxSeparator6": {
            "__events__": {},
            "__info__": {
                "kuid": "h7db17ee33444c099d86d75858bd0dfb",
                "srcKUID": "gec0ca0f8f7e43ec9007fcf1207942fa",
                "wType": "FlexContainer"
            }
        },
        "flxSeparator7": {
            "__events__": {},
            "__info__": {
                "kuid": "ddae7fb6f7f0472190df45e60ba14182",
                "srcKUID": "b5346b7944524e6d8c3dac7c37c54269",
                "wType": "FlexContainer"
            }
        },
        "flxSeparator8": {
            "__events__": {},
            "__info__": {
                "kuid": "cb7537f4632b4ab380e48d9cfd8f1185",
                "srcKUID": "c8906c555203487fad3bb1dc986f3cd8",
                "wType": "FlexContainer"
            }
        },
        "flxSeparator9": {
            "__events__": {},
            "__info__": {
                "kuid": "f472726d409b4ed783388abdc795bf23",
                "srcKUID": "b7f3ccf8eaeb46abb63a872ad1108e65",
                "wType": "FlexContainer"
            }
        },
        "flxServiceType": {
            "__events__": {},
            "__info__": {
                "kuid": "e226a0e0fb0d444495428b9795ce2e75",
                "srcKUID": "b3b28e084d7b41b4b83322526324e6a8",
                "wType": "FlexContainer"
            }
        },
        "flxServices": {
            "__events__": {},
            "__info__": {
                "kuid": "i0db006af871413ca3e64e2f17aa017a",
                "srcKUID": "c016e66338364214b74a7461d9848d2d",
                "wType": "FlexContainer"
            }
        },
        "flxThumbnail": {
            "__events__": {},
            "__info__": {
                "kuid": "cc9f2c914ea24fe094913d51434d3f51",
                "srcKUID": "a3b1803b4d4d4e2785bdef5e6dd2f964",
                "wType": "FlexContainer"
            }
        },
        "flxTop": {
            "__events__": {},
            "__info__": {
                "kuid": "f437556175fd463eaacd5202adcfabc7",
                "srcKUID": "ga3af34ef52f46e5a7a1605b0bf8e376",
                "wType": "FlexContainer"
            }
        },
        "flxTypes": {
            "__events__": {},
            "__info__": {
                "kuid": "de890bd1a2b84211b60c055c914ee0cd",
                "srcKUID": "f35a0eb455c141e1a4d6efc5d43897b0",
                "wType": "FlexContainer"
            }
        },
        "flxVideoHeader": {
            "__events__": {},
            "__info__": {
                "kuid": "f05c09864da04d39aa35dffc71a3126b",
                "srcKUID": "f217a1e1d1af4bd68f0db20b8ab36d62",
                "wType": "FlexContainer"
            }
        },
        "help": {
            "__events__": {},
            "__info__": {
                "isRoot": true,
                "kuid": "b67bc96338ae45ef888883f0b6872a11",
                "srcKUID": "i643b92ec19747a8a19d0206aa4e7dfd",
                "wType": "FlexContainer"
            },
            "isVisible": false,
            "responsiveData": {}
        },
        "imgClearSearch": {
            "__events__": {},
            "__info__": {
                "kuid": "b94d7e1cea054736bfea4c8684feed68",
                "srcKUID": "f4a067ad50494fcf9f5dfc3be078ff02",
                "wType": "Image"
            }
        },
        "imgHelp": {
            "__events__": {},
            "__info__": {
                "kuid": "h4143e51df1c4620899366e3d2652270",
                "srcKUID": "i227efa189b94f3cba993d40a231401a",
                "wType": "Image"
            }
        },
        "lbl1": {
            "__events__": {},
            "__info__": {
                "kuid": "b8021e8dab26475397248218513df2b7",
                "srcKUID": "d3509ce36f9e4898bd95157609d83193",
                "wType": "Label"
            }
        },
        "lbl2": {
            "__events__": {},
            "__info__": {
                "kuid": "aa1f9acd78d048e59efeb1f792f52132",
                "srcKUID": "g035c358ae3a40e2a7a0366a5666b095",
                "wType": "Label"
            }
        },
        "lbl3": {
            "__events__": {},
            "__info__": {
                "kuid": "f851a05ac1284916a0261e9948bbacbc",
                "srcKUID": "ee5313e1acb84d7c98e771e5199ebf16",
                "wType": "Label"
            }
        },
        "lbl4": {
            "__events__": {},
            "__info__": {
                "kuid": "cf5609c2831c4697831c7e5a8e12be1e",
                "srcKUID": "i33f05e82aeb404bae061e09b9a4c032",
                "wType": "Label"
            }
        },
        "lbl5": {
            "__events__": {},
            "__info__": {
                "kuid": "jf75101d930d471da4299370dc8b0d76",
                "srcKUID": "i16ddf3e513248938ccabcb86227dff0",
                "wType": "Label"
            }
        },
        "lbl6": {
            "__events__": {},
            "__info__": {
                "kuid": "b427873688f747c3b5268d5c2dc4fe7a",
                "srcKUID": "c78cae81e7db4c2997465d9b2a316c3c",
                "wType": "Label"
            }
        },
        "lbl7": {
            "__events__": {},
            "__info__": {
                "kuid": "c1d8e69e6f2a46a6b43120e2a81d4332",
                "srcKUID": "fdddfe4f6ae54acd9d2f24cef1480edd",
                "wType": "Label"
            }
        },
        "lblAccount": {
            "__events__": {},
            "__info__": {
                "kuid": "faa232e9bb094d64bc395dc9f8a4af45",
                "srcKUID": "gcb11ef9112f4aaf83dedf081949f218",
                "wType": "Label"
            }
        },
        "lblBack": {
            "__events__": {},
            "__info__": {
                "kuid": "ef90b301ecf54bec86da026a123a64e5",
                "srcKUID": "af42efb5c9734f35a86479e12082d7c9",
                "wType": "Label"
            }
        },
        "lblBackArrow": {
            "__events__": {},
            "__info__": {
                "kuid": "ibedbca4181a48b7b875dea7ceda4f18",
                "srcKUID": "i7e4d3fe76064489897ad754ba1436dc",
                "wType": "Label"
            }
        },
        "lblBreadBoardSplashValue": {
            "__events__": {},
            "__info__": {
                "kuid": "cc3d1505f4db47e98f74b1cf9c4dd3b4",
                "srcKUID": "d9392996140e41dc9047b3de22c0535e",
                "wType": "Label"
            }
        },
        "lblBreadBoardSplashValue1": {
            "__events__": {},
            "__info__": {
                "kuid": "bb832755fe674416a29c1e79389f6c36",
                "srcKUID": "a8753db037664f35a09cb871bc0f296e",
                "wType": "Label"
            }
        },
        "lblCLose": {
            "__events__": {},
            "__info__": {
                "kuid": "ad1fa16631d04a4d85c1498a1f3ee7f7",
                "srcKUID": "a014c0d9739f414d9f9f05c5a1a8bf69",
                "wType": "Label"
            }
        },
        "lblCloseVideo": {
            "__events__": {},
            "__info__": {
                "kuid": "a1d949c4438b41508632e97239072765",
                "srcKUID": "d43553c48af5450ba14840aad780e774",
                "wType": "Label"
            }
        },
        "lblDeposit": {
            "__events__": {},
            "__info__": {
                "kuid": "d174a406ae0443929daeb4026b55bf47",
                "srcKUID": "c3b2ca8b86984ba58226493879af811f",
                "wType": "Label"
            }
        },
        "lblDesc1": {
            "__events__": {},
            "__info__": {
                "kuid": "gb3fe432146b438c9f6abe33626b40fc",
                "srcKUID": "eb41c26584474f49839c8cea12417259",
                "wType": "Label"
            }
        },
        "lblDescHeader2": {
            "__events__": {},
            "__info__": {
                "kuid": "e441cf4d19c44972989827eb453c43ac",
                "srcKUID": "b5baf206b8464b4fba2e02ec2ff69888",
                "wType": "Label"
            }
        },
        "lblDescHeader3": {
            "__events__": {},
            "__info__": {
                "kuid": "g8f8265e69744a1d89439d55a8dce12b",
                "srcKUID": "e91aa104975a4dab9c88374817aadce4",
                "wType": "Label"
            }
        },
        "lblDescType1": {
            "__events__": {},
            "__info__": {
                "kuid": "aab16dcb90834ff5b87f178599234540",
                "srcKUID": "g61a30d608d94984bff052fe7a75d5e2",
                "wType": "Label"
            }
        },
        "lblDescType2": {
            "__events__": {},
            "__info__": {
                "kuid": "bc31860a5f00407bafc4d7e1363a7c3c",
                "srcKUID": "i06779772e5546f287996e47a1156cc7",
                "wType": "Label"
            }
        },
        "lblDescType3": {
            "__events__": {},
            "__info__": {
                "kuid": "db371733615d4524b041527013b9284f",
                "srcKUID": "j6f4c4f9894f44fe84c9162133f9e7eb",
                "wType": "Label"
            }
        },
        "lblDescType4": {
            "__events__": {},
            "__info__": {
                "kuid": "j232c20e1405447795bbd7cf20b6ca21",
                "srcKUID": "e8815ac2be7a4e23911c11e2cc745e50",
                "wType": "Label"
            }
        },
        "lblHelp": {
            "__events__": {},
            "__info__": {
                "kuid": "g7fdad37e6dc47119278378140f3eae7",
                "srcKUID": "c60e7721576e4bce9af8c5a0bf066e28",
                "wType": "Label"
            }
        },
        "lblHelpBig": {
            "__events__": {},
            "__info__": {
                "kuid": "h690a60d3fcb4a69a46d02a5db0e4a26",
                "srcKUID": "hb4e3cec82214761a188a1c8387481a9",
                "wType": "Label"
            }
        },
        "lblHi": {
            "__events__": {},
            "__info__": {
                "kuid": "d7e7f9f38f75434fa545d4b1f5d9050d",
                "srcKUID": "ba14537be17d47fcb5e47c0a0f94be78",
                "wType": "Label"
            }
        },
        "lblLoan": {
            "__events__": {},
            "__info__": {
                "kuid": "j055f332c24145648ed6d8efe5f15778",
                "srcKUID": "jb61888820914473bb0d8b812e54aa98",
                "wType": "Label"
            }
        },
        "lblLoanServices": {
            "__events__": {},
            "__info__": {
                "kuid": "j2eb43f23e9f4c848f37efbeb9e95ab6",
                "srcKUID": "ja7646bccdcc4a42bcfe7c658e46f3ad",
                "wType": "Button"
            }
        },
        "lblNoData": {
            "__events__": {},
            "__info__": {
                "kuid": "a6c3b286cf26442286dad00fa421f679",
                "srcKUID": "cd2176c2df61427cb905124d4c92fab2",
                "wType": "Label"
            }
        },
        "lblPath": {
            "__events__": {},
            "__info__": {
                "kuid": "ac700df67fab4cbd9f846cd8fccc6f21",
                "srcKUID": "a8dfafdc1a4d4acb961014a59df368c9",
                "wType": "Label"
            }
        },
        "lblQues1": {
            "__events__": {},
            "__info__": {
                "kuid": "g1759eaf51bc40da97952de0287c9f13",
                "srcKUID": "cb6f936cf02945fc9e4a428dcb292d88",
                "wType": "Label"
            }
        },
        "lblQues2": {
            "__events__": {},
            "__info__": {
                "kuid": "g37244a55b5540d4ab70b58b22f3a785",
                "srcKUID": "ia9ef851cabb492ba83249268b865363",
                "wType": "Label"
            }
        },
        "lblResult": {
            "__events__": {},
            "__info__": {
                "kuid": "g8f8be826bd04272be56669072b69140",
                "srcKUID": "a2287e54ffac4f9ea760a2dfdb84b834",
                "wType": "Label"
            }
        },
        "lblSearchIcon": {
            "__events__": {},
            "__info__": {
                "kuid": "g70ecbaa55444e61b261b7891b786cb9",
                "srcKUID": "j9598771545e4a9e9b36f2743bc662af",
                "wType": "Label"
            }
        },
        "lblSlash": {
            "__events__": {},
            "__info__": {
                "kuid": "dfefb7e30f6642e5a4fb58ab9b155b0c",
                "srcKUID": "cde106359f19405c818b784bdd9847fe",
                "wType": "Label"
            }
        },
        "lblType": {
            "__events__": {},
            "__info__": {
                "kuid": "b10e970ab4054731af793855205d7c70",
                "srcKUID": "b2a41d31f8224e2ea24fe828c518f342",
                "wType": "Label"
            }
        },
        "lblVideoPath": {
            "__events__": {},
            "__info__": {
                "kuid": "h202f387d5fb4969bd400feab3ec03d4",
                "srcKUID": "i4ecdcd46ac14fd0b3e3f014336565a8",
                "wType": "Label"
            }
        },
        "lstCategories": {
            "__events__": {},
            "__info__": {
                "kuid": "abea1200001a497f884035174d4dcbf8",
                "srcKUID": "fdb0776ac7e6402c987b030b0c2b699b",
                "wType": "ListBox"
            }
        },
        "plus1": {
            "__events__": {},
            "__info__": {
                "kuid": "c03b6e54b10b49bab009dd92beca1e1d",
                "srcKUID": "bbfd7a95280a4bde99a7434f3c488e53",
                "wType": "Label"
            }
        },
        "plus2": {
            "__events__": {},
            "__info__": {
                "kuid": "ab8c0ab6278440fe9a008dd8db63665f",
                "srcKUID": "a1d1685e5635469a8b07f4c0af156710",
                "wType": "Label"
            }
        },
        "plus3": {
            "__events__": {},
            "__info__": {
                "kuid": "ef4b05d74cae42cf9d846a726bebb7b9",
                "srcKUID": "bf69cfac4b28433dab6f5a00758301cb",
                "wType": "Label"
            }
        },
        "plus4": {
            "__events__": {},
            "__info__": {
                "kuid": "de44321111284f76885be104620c6da2",
                "srcKUID": "f08e0fbf4bc14c6cbb569f861ddcca36",
                "wType": "Label"
            }
        },
        "plus5": {
            "__events__": {},
            "__info__": {
                "kuid": "bf330b0b2dd14c52bdf20e06e8756b0a",
                "srcKUID": "c635d227d8544e0c85417f75e148b139",
                "wType": "Label"
            }
        },
        "plus6": {
            "__events__": {},
            "__info__": {
                "kuid": "a8a85af260c84a8a9309a9bd36bc28c1",
                "srcKUID": "f54fb970b6774bd2a49e59c358732426",
                "wType": "Label"
            }
        },
        "rtx1": {
            "__events__": {},
            "__info__": {
                "kuid": "icbb5fc5967a49c894dbf22d79e6529f",
                "srcKUID": "d7748b2e7f544c169d7ab366bab4eefd",
                "wType": "RichText"
            }
        },
        "rtx2": {
            "__events__": {},
            "__info__": {
                "kuid": "a30fc1358afc47b5800491cec90c4a01",
                "srcKUID": "a0af20ffdb8549c7bdcfe8b884cdc696",
                "wType": "RichText"
            }
        },
        "rtx3": {
            "__events__": {},
            "__info__": {
                "kuid": "a269bb6d256a45c9b36a06e0246838be",
                "srcKUID": "f8414a33a79b4607bf06610c3b723de6",
                "wType": "RichText"
            }
        },
        "rtx4": {
            "__events__": {},
            "__info__": {
                "kuid": "had78d6960d44d60bafc5951dec66c09",
                "srcKUID": "debb7ffca0cf468b8692f8b44dbb7ebd",
                "wType": "RichText"
            }
        },
        "rtxAns1": {
            "__events__": {},
            "__info__": {
                "kuid": "gca7b15e2a6e47be9965bc68ec68de26",
                "srcKUID": "f675d12d064140628a8e1c834e7942af",
                "wType": "RichText"
            }
        },
        "rtxAns2": {
            "__events__": {},
            "__info__": {
                "kuid": "be6046d4cd734995b28c723781523047",
                "srcKUID": "caaf177d270c4f4fb452ee87c1ae46df",
                "wType": "RichText"
            }
        },
        "rtxSelected": {
            "__events__": {},
            "__info__": {
                "kuid": "b7a1abf9096141c5824fd2d198c5eace",
                "srcKUID": "e1aefa0a2ea74c4a830633e87c133eb3",
                "wType": "RichText"
            }
        },
        "rtxShow2": {
            "__events__": {},
            "__info__": {
                "kuid": "bafcb77c92e24195bbe874feab0a3950",
                "srcKUID": "b63bf04d14564b7f9fb88149b7fa0dae",
                "wType": "RichText"
            }
        },
        "rtxShow3": {
            "__events__": {},
            "__info__": {
                "kuid": "beb928207e13420381a303c8b8a3c9ae",
                "srcKUID": "g1639a2b25b140199804ab85c752f967",
                "wType": "RichText"
            }
        },
        "rtxType": {
            "__events__": {},
            "__info__": {
                "kuid": "ecb7573d89204a6286b8c408afff9452",
                "srcKUID": "be50cc1d0df54b4a989bdc8881351e07",
                "wType": "RichText"
            }
        },
        "seg1": {
            "__events__": {},
            "__info__": {
                "kuid": "a4564b86a0fc426a89331eb335d8572e",
                "srcKUID": "a5f67ffc497242809217564a4dfaff76",
                "wType": "Segment"
            }
        },
        "segQues": {
            "__events__": {},
            "__info__": {
                "kuid": "e46c8d5de74a40f7bcdb078469525237",
                "srcKUID": "e043e3df04fb49c497ef0db96bed707d",
                "wType": "Segment"
            }
        },
        "segSearch": {
            "__events__": {},
            "__info__": {
                "kuid": "b20da2d7a544468cbcf2ad3293e02f54",
                "srcKUID": "b3b9b207ea3043de85c736dde199c688",
                "wType": "FlexContainer"
            }
        },
        "segServiceTypes": {
            "__events__": {},
            "__info__": {
                "kuid": "d8cadf29024e4a87bdf682ebdecb0023",
                "srcKUID": "db3a15118c504dd7b720c7fb76a49c6f",
                "wType": "Segment"
            }
        },
        "txtPartialText": {
            "__events__": {},
            "__info__": {
                "kuid": "d128ab81f25242179b7b11af3b01b418",
                "srcKUID": "d409d95d749148e89bfc5b9f67de71a0",
                "wType": "TextField"
            }
        }
    },
    "enablescrolling": true,
    "id": "help",
    "info": null,
    "iscustomlayout": false,
    "isdatareferenced": false,
    "isvisible": false,
    "kuid": "b67bc96338ae45ef888883f0b6872a11",
    "layouttype": 2,
    "masterType": 0,
    "name": "kony.ui.UserWidgetInstance",
    "parent": "frmRepayment",
    "pf": "frmRepayment",
    "retaincontentalignment": false,
    "retainflexpositionproperties": false,
    "retainflowhorizontalalignment": false,
    "snapgridsize": 10,
    "snaptogrid": true,
    "sourceUserWidget": "i643b92ec19747a8a19d0206aa4e7dfd",
    "wType": "UserWidgetInstance",
    "zindex": 1
}