{
    "@class": "com.kony.gen.viz.model.component.KVizUserWidget",
    "DNDConfig": null,
    "_children_": [],
    "_height_": {
        "type": "string",
        "value": "64dp"
    },
    "_left_": {
        "type": "string",
        "value": "0dp"
    },
    "_margin_": [
        0,
        0,
        0,
        0
    ],
    "_orientation_": 1,
    "_padding_": [
        0,
        0,
        0,
        0
    ],
    "_percent_": true,
    "_skin_": "s326344e94f3406b86de51e19fc61057",
    "_top_": {
        "type": "string",
        "value": "227dp"
    },
    "_width_": {
        "type": "string",
        "value": "100%"
    },
    "android": {},
    "androidwearos": {},
    "areflexpropsreferenced": false,
    "autogrowmode": 0,
    "canUpdateUI": true,
    "clipbounds": true,
    "containerweight": 0,
    "dataDiffs": {
        "MainTabs": {
            "__events__": {},
            "__info__": {
                "isRoot": true,
                "kuid": "c8239e5b918245c597cbb19fa4a18809",
                "srcKUID": "gfa2cf89659d4a20bcd9887a4293aceb",
                "wType": "FlexContainer"
            },
            "left": {
                "Default": {
                    "type": "string",
                    "value": "0dp"
                }
            },
            "responsiveData": {},
            "top": {
                "Default": {
                    "type": "string",
                    "value": "227dp"
                }
            },
            "width": {
                "Default": {
                    "type": "string",
                    "value": "100%"
                }
            }
        },
        "btnAccounts1": {
            "__events__": {},
            "__info__": {
                "kuid": "fc51240e9a8342d58ba93f94aecc0f74",
                "srcKUID": "d907392e82444815861b42c16a52e990",
                "wType": "Button"
            },
            "left": {
                "Default": {
                    "type": "number",
                    "value": "40"
                }
            },
            "responsiveData": {}
        },
        "btnAccounts2": {
            "__events__": {},
            "__info__": {
                "kuid": "cde312d7fd7549969ddca0ad70a0e014",
                "srcKUID": "b164258465c04156b0bfe728a8ba9edc",
                "wType": "Button"
            }
        },
        "btnAccounts3": {
            "__events__": {},
            "__info__": {
                "kuid": "fa3c42824a8b4cfeb8e2fe5005720c7b",
                "srcKUID": "f92522096e564e2e8c7ebcdc48881b6e",
                "wType": "Button"
            }
        },
        "flxButtons": {
            "__events__": {},
            "__info__": {
                "kuid": "f012051b01d244208b7fc43a5dc40c5e",
                "srcKUID": "g5e41e55e19f4d73a0c0f80586ee0af5",
                "wType": "FlexContainer"
            }
        },
        "flxContainerAccount": {
            "__events__": {},
            "__info__": {
                "kuid": "ff8ccc58d31d4f6d8c85edd2a78e8d82",
                "srcKUID": "f02fd497ec2440efaf459ea4a1e30d76",
                "wType": "FlexContainer"
            },
            "left": {
                "Default": {
                    "type": "string",
                    "value": "27dp"
                }
            },
            "responsiveData": {}
        },
        "flxContainerdeposits": {
            "__events__": {},
            "__info__": {
                "kuid": "a23ba96990124809b355366f56afd3a7",
                "srcKUID": "de5db572dc7d40da9a34209bd8d48cbc",
                "wType": "FlexContainer"
            }
        },
        "flxSelectedLine": {
            "__events__": {},
            "__info__": {
                "kuid": "f77736563b434cb7a0c987dc053faeda",
                "srcKUID": "ebb68235498b423c978053017e5a2b76",
                "wType": "FlexContainer"
            }
        },
        "flxSeparatorLine1": {
            "__events__": {},
            "__info__": {
                "kuid": "a80779e1407d4ed4a4ea20894e624aaa",
                "srcKUID": "g7af0e5532294f0b822b96c67e9a5da5",
                "wType": "FlexContainer"
            }
        },
        "flxontainerLoans": {
            "__events__": {},
            "__info__": {
                "kuid": "c4b88908866842a2baab37ed22ddb745",
                "srcKUID": "acdd8666dd3b4d4d9d1fee68579444f5",
                "wType": "FlexContainer"
            },
            "left": {
                "Default": {
                    "type": "string",
                    "value": "247dp"
                }
            },
            "responsiveData": {}
        }
    },
    "desktopweb": {},
    "enablescrolling": true,
    "id": "MainTabs",
    "info": null,
    "ipad": {},
    "iphone": {},
    "iscustomlayout": false,
    "isdatareferenced": false,
    "issegmentchild": false,
    "isvisible": true,
    "kiosk": {},
    "kuid": "c8239e5b918245c597cbb19fa4a18809",
    "layouttype": 2,
    "masterType": 0,
    "name": "kony.ui.UserWidgetInstance",
    "parent": "flxMainContainer",
    "pf": "frmRepayment",
    "responsiveData": {},
    "retaincontentalignment": false,
    "retainflexpositionproperties": false,
    "retainflowhorizontalalignment": false,
    "snapgridsize": 10,
    "snaptogrid": true,
    "sourceUserWidget": "gfa2cf89659d4a20bcd9887a4293aceb",
    "spa": {},
    "spaan": {},
    "spaandroidtablet": {},
    "spabb": {},
    "spaip": {},
    "spaipad": {},
    "spamobile": {},
    "spatablet": {},
    "spawindowstablet": {},
    "spawinphone8": {},
    "tabrcandroid": {},
    "vizProps": {
        "hidewidgethierarchy": false
    },
    "wType": "UserWidgetInstance",
    "windows10": {},
    "windows8": {},
    "winphone10": {},
    "winphone8": {},
    "zindex": 1
}