{
    "@class": "com.kony.gen.viz.model.component.KVizUserWidget",
    "DNDConfig": null,
    "_children_": [],
    "_height_": {
        "type": "string",
        "value": "968dp"
    },
    "_left_": {
        "type": "string",
        "value": "0dp"
    },
    "_margin_": [
        0,
        0,
        0,
        0
    ],
    "_orientation_": 1,
    "_padding_": [
        0,
        0,
        0,
        0
    ],
    "_percent_": true,
    "_skin_": "sf77f521dbc14d00b8925cd197f74352",
    "_top_": {
        "type": "string",
        "value": "0dp"
    },
    "_width_": {
        "type": "string",
        "value": "100%"
    },
    "areflexpropsreferenced": false,
    "autogrowmode": 0,
    "canUpdateUI": true,
    "clipbounds": true,
    "containerweight": 0,
    "dataDiffs": {
        "SegmentPopup": {
            "__events__": {},
            "__info__": {
                "isRoot": true,
                "kuid": "gf5125504f5541348797cb215c7cae2b",
                "srcKUID": "eb5542d4860349a4b1b3eb34a2c29d69",
                "wType": "FlexContainer"
            },
            "isVisible": false,
            "responsiveData": {}
        },
        "btnCancel": {
            "__events__": {},
            "__info__": {
                "kuid": "cb780fa8909641cdb09c8d6572c5f209",
                "srcKUID": "j3364e8b9ed747ab8d3d09eeb8cf42b2",
                "wType": "Button"
            }
        },
        "btnProceed": {
            "__events__": {},
            "__info__": {
                "kuid": "b81a3952670e497eba44f9666c361fda",
                "srcKUID": "fa7ef604a33040d9ae2498b049d99e77",
                "wType": "Button"
            }
        },
        "flxFooter": {
            "__events__": {},
            "__info__": {
                "kuid": "e1e5c4696931445c991f8a4539bdc455",
                "srcKUID": "c96349bcaa6d4b85bb8a30f632cf5b05",
                "wType": "FlexContainer"
            }
        },
        "flxPopup": {
            "__events__": {},
            "__info__": {
                "kuid": "e9b6f2913cd04b6b95c106f4a3afbf20",
                "srcKUID": "gf79454354cf45e5983f5c19be951e1e",
                "wType": "FlexContainer"
            }
        },
        "flxPopupHeader": {
            "__events__": {},
            "__info__": {
                "kuid": "g50269b950954e358398e12008e33111",
                "srcKUID": "eb333858bf814117bf4b0bc634ca4ffb",
                "wType": "FlexContainer"
            }
        },
        "flxPopupMessage": {
            "__events__": {},
            "__info__": {
                "kuid": "fdcd38e4397d47e7aec488e0e854a434",
                "srcKUID": "efc11098121046dabeceef21e8bf585d",
                "wType": "FlexContainer"
            }
        },
        "imgClose": {
            "__events__": {},
            "__info__": {
                "kuid": "deedf4d62c864828b235a46c1bcade3f",
                "srcKUID": "e04f19662a874fabb18c3d7092f29cc4",
                "wType": "Image"
            },
            "src": "ico_close.png"
        },
        "lblPaymentInfo": {
            "__events__": {},
            "__info__": {
                "kuid": "jf9da9cfcf1e429f94c290a762cf0eda",
                "srcKUID": "jfe2e47f228e4984abf0cd755e907b08",
                "wType": "Label"
            }
        },
        "segOverride": {
            "__events__": {},
            "__info__": {
                "kuid": "j34dde86a53c4adc8007464aa196f234",
                "srcKUID": "d9af6985e2124b3c922a644898d291a6",
                "wType": "Segment"
            }
        }
    },
    "enablescrolling": true,
    "id": "SegmentPopup",
    "info": null,
    "iscustomlayout": false,
    "isdatareferenced": false,
    "isvisible": false,
    "kuid": "gf5125504f5541348797cb215c7cae2b",
    "layouttype": 2,
    "masterType": 0,
    "name": "kony.ui.UserWidgetInstance",
    "parent": "frmRepayment",
    "pf": "frmRepayment",
    "retaincontentalignment": false,
    "retainflexpositionproperties": false,
    "retainflowhorizontalalignment": false,
    "snapgridsize": 10,
    "snaptogrid": true,
    "sourceUserWidget": "eb5542d4860349a4b1b3eb34a2c29d69",
    "wType": "UserWidgetInstance"
}