{
    "@class": "com.kony.gen.viz.model.container.KVizSegment2",
    "DNDConfig": null,
    "_data_": [
        {
            "lblBillIdInfo": {
                "@class": "com.viz.ide.model.segment.SimpleTextSegmentData",
                "text": "Bill ID"
            },
            "lblBilledInfo": {
                "@class": "com.viz.ide.model.segment.SimpleTextSegmentData",
                "text": "Billed"
            },
            "lblDueDateInfo": {
                "@class": "com.viz.ide.model.segment.SimpleTextSegmentData",
                "text": "Due Date"
            },
            "lblOutstandingInfo": {
                "@class": "com.viz.ide.model.segment.SimpleTextSegmentData",
                "text": "Outstanding"
            },
            "lblStatusInfo": {
                "@class": "com.viz.ide.model.segment.SimpleTextSegmentData",
                "text": "Status"
            },
            "lblTypeInfo": {
                "@class": "com.viz.ide.model.segment.SimpleTextSegmentData",
                "text": "Type"
            }
        },
        {
            "lblBillIdInfo": {
                "@class": "com.viz.ide.model.segment.SimpleTextSegmentData",
                "text": "Bill ID"
            },
            "lblBilledInfo": {
                "@class": "com.viz.ide.model.segment.SimpleTextSegmentData",
                "text": "Billed"
            },
            "lblDueDateInfo": {
                "@class": "com.viz.ide.model.segment.SimpleTextSegmentData",
                "text": "Due Date"
            },
            "lblOutstandingInfo": {
                "@class": "com.viz.ide.model.segment.SimpleTextSegmentData",
                "text": "Outstanding"
            },
            "lblStatusInfo": {
                "@class": "com.viz.ide.model.segment.SimpleTextSegmentData",
                "text": "Status"
            },
            "lblTypeInfo": {
                "@class": "com.viz.ide.model.segment.SimpleTextSegmentData",
                "text": "Type"
            }
        },
        {
            "lblBillIdInfo": {
                "@class": "com.viz.ide.model.segment.SimpleTextSegmentData",
                "text": "Bill ID"
            },
            "lblBilledInfo": {
                "@class": "com.viz.ide.model.segment.SimpleTextSegmentData",
                "text": "Billed"
            },
            "lblDueDateInfo": {
                "@class": "com.viz.ide.model.segment.SimpleTextSegmentData",
                "text": "Due Date"
            },
            "lblOutstandingInfo": {
                "@class": "com.viz.ide.model.segment.SimpleTextSegmentData",
                "text": "Outstanding"
            },
            "lblStatusInfo": {
                "@class": "com.viz.ide.model.segment.SimpleTextSegmentData",
                "text": "Status"
            },
            "lblTypeInfo": {
                "@class": "com.viz.ide.model.segment.SimpleTextSegmentData",
                "text": "Type"
            }
        },
        {
            "lblBillIdInfo": {
                "@class": "com.viz.ide.model.segment.SimpleTextSegmentData",
                "text": "Bill ID"
            },
            "lblBilledInfo": {
                "@class": "com.viz.ide.model.segment.SimpleTextSegmentData",
                "text": "Billed"
            },
            "lblDueDateInfo": {
                "@class": "com.viz.ide.model.segment.SimpleTextSegmentData",
                "text": "Due Date"
            },
            "lblOutstandingInfo": {
                "@class": "com.viz.ide.model.segment.SimpleTextSegmentData",
                "text": "Outstanding"
            },
            "lblStatusInfo": {
                "@class": "com.viz.ide.model.segment.SimpleTextSegmentData",
                "text": "Status"
            },
            "lblTypeInfo": {
                "@class": "com.viz.ide.model.segment.SimpleTextSegmentData",
                "text": "Type"
            }
        },
        {
            "lblBillIdInfo": {
                "@class": "com.viz.ide.model.segment.SimpleTextSegmentData",
                "text": "Bill ID"
            },
            "lblBilledInfo": {
                "@class": "com.viz.ide.model.segment.SimpleTextSegmentData",
                "text": "Billed"
            },
            "lblDueDateInfo": {
                "@class": "com.viz.ide.model.segment.SimpleTextSegmentData",
                "text": "Due Date"
            },
            "lblOutstandingInfo": {
                "@class": "com.viz.ide.model.segment.SimpleTextSegmentData",
                "text": "Outstanding"
            },
            "lblStatusInfo": {
                "@class": "com.viz.ide.model.segment.SimpleTextSegmentData",
                "text": "Status"
            },
            "lblTypeInfo": {
                "@class": "com.viz.ide.model.segment.SimpleTextSegmentData",
                "text": "Type"
            }
        }
    ],
    "_height_": {
        "type": "ref",
        "value": "preferred"
    },
    "_indicator_": "none",
    "_left_": {
        "type": "string",
        "value": "0dp"
    },
    "_margin_": [
        0,
        0,
        0,
        0
    ],
    "_orientation_": 2,
    "_padding_": [
        0,
        0,
        0,
        0
    ],
    "_top_": {
        "type": "string",
        "value": "0dp"
    },
    "_width_": {
        "type": "string",
        "value": "100%"
    },
    "autogrowmode": 1,
    "canUpdateUI": true,
    "containerweight": 100,
    "counter": "04",
    "focusedindex": null,
    "focuseditem": null,
    "groupcells": false,
    "hasSections": false,
    "id": "segOutstandingBill",
    "info": null,
    "ipad": {
        "psp": {
            "indicator": "rowselect"
        }
    },
    "iphone": {
        "psp": {
            "indicator": "rowselect"
        }
    },
    "iscustomlayout": false,
    "isvisible": true,
    "kuid": "baddff019d274f35bfde578d431db3bf",
    "masterdata": {},
    "name": "kony.ui.SegmentedUI2",
    "needpageindicator": true,
    "pageoffdotimage": "pageoffdot.png",
    "pageondotimage": "pageondot.png",
    "paginationconfig": {
        "position": "bottom"
    },
    "parent": "flxOutstandingRepaymentSegmentWrapper",
    "pf": "frmRepayment",
    "retaincontentalignment": false,
    "retainflexpositionproperties": false,
    "retainselection": false,
    "rowTemplateId": "ca85d173cc5b4e8ea875b99d256851e1",
    "rowcounter": 4,
    "rowfocusskin": "s3f353c057a14ca8a8d6fa6caf39f59a",
    "rowskin": "s5344ea37b3f40f7877699e4eafbf3dc",
    "rowtemplate": "flxOutstandingBillDetails",
    "screenlevelwidget": false,
    "seccounter": 0,
    "sectionheaderskin": "s67dfc97c181442ebeb45ecca8ba0dc8",
    "selectedRows": null,
    "selectedState": false,
    "selectedindex": null,
    "selectedindices": null,
    "selecteditems": null,
    "selectedsectionindex": 0,
    "selectionbehavior": "default",
    "separatorcolor": "aaaaaa00",
    "separatorrequired": true,
    "separatorthickness": 0,
    "showscrollbars": false,
    "viewtype": "tableview",
    "vizProps": {},
    "wType": "Segment",
    "widgetalignment": 5,
    "widgetdatamap": {
        "flxOutstandingBillDetails": "flxOutstandingBillDetails",
        "lblBillIdInfo": "lblBillIdInfo",
        "lblBilledInfo": "lblBilledInfo",
        "lblDueDateInfo": "lblDueDateInfo",
        "lblOutstandingInfo": "lblOutstandingInfo",
        "lblStatusInfo": "lblStatusInfo",
        "lblTypeInfo": "lblTypeInfo"
    },
    "zindex": 2
}