{
    "@class": "com.kony.gen.viz.model.component.KVizCustom",
    "DNDConfig": null,
    "_height_": {
        "type": "string",
        "value": "55dp"
    },
    "_margin_": [
        0,
        0,
        0,
        0
    ],
    "_padding_": [
        0,
        0,
        0,
        0
    ],
    "_right_": {
        "type": "string",
        "value": "0dp"
    },
    "_top_": {
        "type": "string",
        "value": "0dp"
    },
    "_width_": {
        "type": "string",
        "value": "250dp"
    },
    "android": {
        "render": false
    },
    "androidwearos": {
        "render": false
    },
    "canUpdateUI": true,
    "clipbounds": false,
    "containerweight": 0,
    "customProperties": {
        "compact": "",
        "dense": "dense",
        "disabled": false,
        "labelText": "",
        "options": "",
        "readonly": false,
        "validateRequired": "required",
        "value": ""
    },
    "cwEvents": [
        "valueChanged"
    ],
    "cwid": "cwd0a630f070364623a54eee2878c290cc",
    "desktopweb": {
        "zIndex": "auto"
    },
    "id": "cusDropDownContractStatus",
    "info": null,
    "ipad": {
        "render": false
    },
    "iphone": {
        "render": false
    },
    "iscustomlayout": false,
    "isvisible": true,
    "kiosk": {
        "render": false
    },
    "kuid": "bc9011f7cbfd40b2bb7ba61c1a2ccf22",
    "name": "uuxDropdown-kony.ui",
    "nameSpaceIndex": 0,
    "parent": "flxStaffStatusWrapper",
    "pf": "frmCreateContractLog",
    "platformKey": "spa",
    "retaincontentalignment": false,
    "retainflexpositionproperties": false,
    "tabrcandroid": {
        "render": false
    },
    "wType": "TPW",
    "watchos": {
        "render": false
    },
    "widgetIndex": 7,
    "windows10": {
        "render": false
    },
    "windows8": {
        "render": false
    },
    "winphone10": {
        "render": false
    },
    "winphone8": {
        "render": false
    },
    "zindex": 1
}