{
    "@class": "com.kony.gen.viz.model.component.KVizUserWidget",
    "DNDConfig": null,
    "_children_": [],
    "_height_": {
        "type": "string",
        "value": "100%"
    },
    "_left_": {
        "type": "string",
        "value": "0dp"
    },
    "_margin_": [
        0,
        0,
        0,
        0
    ],
    "_orientation_": 1,
    "_padding_": [
        0,
        0,
        0,
        0
    ],
    "_percent_": true,
    "_skin_": "s1fbee0079be4b289a93edf917d3e8d0",
    "_top_": {
        "type": "string",
        "value": "0dp"
    },
    "_width_": {
        "type": "string",
        "value": "100%"
    },
    "areflexpropsreferenced": false,
    "autogrowmode": 0,
    "canUpdateUI": true,
    "clipbounds": true,
    "containerweight": 0,
    "dataDiffs": {
        "Button0jc4a46cb137845": {
            "__events__": {},
            "__info__": {
                "kuid": "b21a9287d3534b448259a7e6e353aba6",
                "srcKUID": "id83e22cb19b464dbbe246817b1fd13e",
                "wType": "Button"
            }
        },
        "Image0ca71114746d849": {
            "__events__": {},
            "__info__": {
                "kuid": "gfe8edce2fb245a9a2b2842fa7a749aa",
                "srcKUID": "c5b33abae70e4b0abfed5c57c2dd10f1",
                "wType": "Image"
            }
        },
        "brw": {
            "__events__": {},
            "__info__": {
                "kuid": "de4dbf1e0bbb46d0b4f3bdfbaa759785",
                "srcKUID": "c91036e5762e47bbb2d3b83e0fba079d",
                "wType": "Browser"
            }
        },
        "btnExplorer": {
            "__events__": {},
            "__info__": {
                "kuid": "j2a701b24b8946d5acd3ba0bca3dc6a8",
                "srcKUID": "jd3f05b1a56d4d329f08f67062731f3b",
                "wType": "Button"
            }
        },
        "cusBackIcon": {
            "__events__": {},
            "__info__": {
                "kuid": "fbf7a23a97f14cf59d9aee2437b2e426",
                "srcKUID": "a4e351b95bee4aabb64a9e262d58a4a0",
                "wType": "Label"
            }
        },
        "flx1": {
            "__events__": {},
            "__info__": {
                "kuid": "h4db1bf4630a4628b46d75837fbc1494",
                "srcKUID": "a3d178333fbc4d88aad5d75a03269b09",
                "wType": "FlexContainer"
            }
        },
        "flx2": {
            "__events__": {},
            "__info__": {
                "kuid": "h081f16a5b8f469fbda01a9e7e2c0ccc",
                "srcKUID": "c649d1e43ec6432eb71cc7f31acbbcdf",
                "wType": "FlexContainer"
            }
        },
        "flx3": {
            "__events__": {},
            "__info__": {
                "kuid": "bf1c64d0df804358bcae4ba28eca3e0d",
                "srcKUID": "ae5807e3252f40fcac0f2d0775607a20",
                "wType": "FlexContainer"
            }
        },
        "flxBack": {
            "__events__": {},
            "__info__": {
                "kuid": "d78861bad1b8440fa7a1d2a91febe00e",
                "srcKUID": "i1393f4fdfb44d5c99e9fa7c19d3e4a4",
                "wType": "FlexContainer"
            }
        },
        "flxBck": {
            "__events__": {},
            "__info__": {
                "kuid": "b04e85611cc54054a4339324e3ae5b19",
                "srcKUID": "adc399f92cd2468585c9d362a1cf8210",
                "wType": "FlexContainer"
            }
        },
        "flxBreadcrum": {
            "__events__": {},
            "__info__": {
                "kuid": "h099dc0f5ce5426794998aa8c74c63e5",
                "srcKUID": "bb111a40d0614715a20587a0d66e0aaf",
                "wType": "FlexContainer"
            }
        },
        "flxClose": {
            "__events__": {},
            "__info__": {
                "kuid": "fdeee750915747a5ac843a0fe5d243a2",
                "srcKUID": "fdf6dc091a684181bc0a721caadfaced",
                "wType": "FlexContainer"
            }
        },
        "flxMain": {
            "__events__": {},
            "__info__": {
                "kuid": "hf867c5be62c4383ad8f3364fad07d89",
                "srcKUID": "e92c5d911f2f471784e33e7a8b487ecc",
                "wType": "FlexContainer"
            }
        },
        "flxOptions": {
            "__events__": {},
            "__info__": {
                "kuid": "i6f1ceb4ed9944eaa7d0fb0848b10bf7",
                "srcKUID": "daf6903e59874ee4a51347fea69f9e9e",
                "wType": "FlexContainer"
            }
        },
        "flxOptions2": {
            "__events__": {},
            "__info__": {
                "kuid": "a8da2b661b7848b1a2656ed407b98ddb",
                "srcKUID": "eed4fbd758cb4e35a66c45e02cf1cae9",
                "wType": "FlexContainer"
            }
        },
        "flxTop": {
            "__events__": {},
            "__info__": {
                "kuid": "e47c62f0febd4c0db6e317c43ca24bd3",
                "srcKUID": "fc4d572cc32f4b3787673b7aac443a10",
                "wType": "FlexContainer"
            }
        },
        "flxVideo": {
            "__events__": {},
            "__info__": {
                "kuid": "c4d82f701e334e61a9322474557d2c59",
                "srcKUID": "b4cfb6f8414743fbba4ee5f298d08be7",
                "wType": "FlexContainer"
            }
        },
        "helpCenter": {
            "__events__": {},
            "__info__": {
                "isRoot": true,
                "kuid": "e581d460d747458688675acd8d54dd05",
                "srcKUID": "g0daaef3cdc641a99922b74b1a906c2c",
                "wType": "FlexContainer"
            },
            "isVisible": false,
            "responsiveData": {}
        },
        "lbl1": {
            "__events__": {},
            "__info__": {
                "kuid": "c1f58a6d0ab4482698be6894f63688a0",
                "srcKUID": "d63debdfdb1b4d678778a51ea1720608",
                "wType": "Label"
            }
        },
        "lbl2": {
            "__events__": {},
            "__info__": {
                "kuid": "ca64cbb4303f4ed89b6d182d78e7e793",
                "srcKUID": "i5702936db274047b2023cd91e6698cd",
                "wType": "Label"
            }
        },
        "lbl3": {
            "__events__": {},
            "__info__": {
                "kuid": "e4b9993a6d514eb68fc18b9b60c2c7e8",
                "srcKUID": "g22a31a6563247febef25052edfd6b9f",
                "wType": "Label"
            }
        },
        "lbl4": {
            "__events__": {},
            "__info__": {
                "kuid": "fe3394d7d1a84eb194c043b9fd766cdd",
                "srcKUID": "i58596cb19974954b7e77bc91239b932",
                "wType": "Label"
            }
        },
        "lbl5": {
            "__events__": {},
            "__info__": {
                "kuid": "f01286a88df5469eabf162d71982dccd",
                "srcKUID": "de6b8b1abcb54cbd9194a1238e3c2ace",
                "wType": "Label"
            }
        },
        "lbl6": {
            "__events__": {},
            "__info__": {
                "kuid": "d9e1911bd2364dfaa435a05ee10fc73c",
                "srcKUID": "a170062307614da1bdd491f8a266e43d",
                "wType": "Label"
            }
        },
        "lblBreadBoardSplashValue1": {
            "__events__": {},
            "__info__": {
                "kuid": "a9f7aea9213f48378bf740e613643576",
                "srcKUID": "c3b481c2df634f318be3a91c3452db1d",
                "wType": "Label"
            }
        },
        "lblCLose": {
            "__events__": {},
            "__info__": {
                "kuid": "e7150455c8a149699aff5a15f04d4915",
                "srcKUID": "b49d9fb403324888bac8527a22725f26",
                "wType": "Label"
            }
        },
        "lblDesc": {
            "__events__": {},
            "__info__": {
                "kuid": "bbe5aec0149142e9af0af0e517f96a72",
                "srcKUID": "a3efd7834bcc426d86cd45f3af7f0ee4",
                "wType": "Label"
            }
        },
        "lblPath": {
            "__events__": {},
            "__info__": {
                "kuid": "cd3c0699dc8c435f946812a6832f1770",
                "srcKUID": "f86337bc2eaf4754a9ddd1980daf553d",
                "wType": "Label"
            }
        },
        "lblQues": {
            "__events__": {},
            "__info__": {
                "kuid": "ed43d64d4c704931bf33a55cf7dc1f99",
                "srcKUID": "ga5cd4889b3c4834978c8df01ab7c59f",
                "wType": "Label"
            }
        },
        "lblSelected": {
            "__events__": {},
            "__info__": {
                "kuid": "bb3dc8404faf4152b05f74bed7b9c9ce",
                "srcKUID": "hd5d508e2e47404ca56f75b528e9db98",
                "wType": "Label"
            }
        },
        "lblThumbnailDesc": {
            "__events__": {},
            "__info__": {
                "kuid": "a55a842952e44ac18599d9f7c6fca8d8",
                "srcKUID": "b8d6fb6f3a054b398bdcb459aa4948b1",
                "wType": "Label"
            }
        },
        "rtxSelected": {
            "__events__": {},
            "__info__": {
                "kuid": "h5bf732a8bd44ca9ad5b73eb9c2cfcb7",
                "srcKUID": "e0ea81da80be4698b7b68082daaa453a",
                "wType": "RichText"
            }
        }
    },
    "enablescrolling": true,
    "id": "helpCenter",
    "info": null,
    "iscustomlayout": false,
    "isdatareferenced": false,
    "isvisible": false,
    "kuid": "e581d460d747458688675acd8d54dd05",
    "layouttype": 2,
    "masterType": 0,
    "name": "kony.ui.UserWidgetInstance",
    "parent": "frmCreateContractLog",
    "pf": "frmCreateContractLog",
    "retaincontentalignment": false,
    "retainflexpositionproperties": false,
    "retainflowhorizontalalignment": false,
    "snapgridsize": 10,
    "snaptogrid": true,
    "sourceUserWidget": "g0daaef3cdc641a99922b74b1a906c2c",
    "wType": "UserWidgetInstance",
    "zindex": 1
}