{
  "operationConfig" : {
    "name" : "editAccountLock1377",
    "type" : "MappedToBackend",
    "cachable" : false,
    "smsEnabled" : false,
    "security" : "authorized_app_user",
    "responseEncoding" : "UTF-8",
    "httpMethod" : "GET",
    "decodeResponseBody" : false,
    "iMapping" : "<?xml version=\"1.0\" encoding=\"UTF-8\" standalone=\"yes\"?>\n<mapper xmlns=\"http://www.kony.com/ns/mapper\">\n    <map inputpath=\"request_in\" outputpath=\"request_out\">\n        <set-param inputpath=\"accountNumber\" outputpath=\"accountNumber\"/>\n        <set-param inputpath=\"fromDate\" outputpath=\"fromDate\"/>\n        <set-param inputpath=\"lockedAmount\" outputpath=\"lockedAmount\"/>\n        <set-param inputpath=\"fromDate\" outputpath=\"toDate\"/>\n    </map>\n</mapper>\n",
    "oMapping" : "<?xml version=\"1.0\" encoding=\"UTF-8\" standalone=\"yes\"?>\n<mapper xmlns=\"http://www.kony.com/ns/mapper\">\n    <map inputpath=\"response_in\" outputpath=\"response_out\">\n        <map inputpath=\"header\" outputpath=\"EditAccountLockObj\">\n            <set-param inputpath=\"id\" outputpath=\"id\"/>\n            <set-param inputpath=\"status\" outputpath=\"status\"/>\n            <set-param inputpath=\"transactionStatus\" outputpath=\"transactionStatus\"/>\n            <set-param inputpath=\"../body/lockedAmount\" outputpath=\"lockedAmount\"/>\n            <set-param inputpath=\"../body/accountNumber\" outputpath=\"accountNumber\"/>\n            <set-param inputpath=\"../body/fromDate\" outputpath=\"fromDate\"/>\n            <set-param inputpath=\"../body/toDate\" outputpath=\"toDate\"/>\n            <set-param inputpath=\"../error/errorDetails/code\" outputpath=\"code\"/>\n            <set-param inputpath=\"../error/errorDetails/message\" outputpath=\"message\"/>\n            <set-param inputpath=\"../error/type\" outputpath=\"type\"/>\n        </map>\n    </map>\n</mapper>\n",
    "iVisualMappingData" : "{\"nodeDataArray\":[{\"isGroup\":true,\"key\":\"request_in\",\"text\":\"EditAccountLockObj\",\"xy\":\"150 100\"},{\"isGroup\":true,\"key\":\"request_out\",\"text\":\"BlockUnblock (1.0).editAccountLock\",\"xy\":\"770 100\"}],\"linkDataArray\":[{\"category\":\"Mapping\",\"visible\":true,\"from\":\"source:EditAccountLockObj:accountNumber:\",\"to\":\"target:accountNumber:\",\"fromPort\":\"source:EditAccountLockObj:accountNumber:\",\"toPort\":\"target:accountNumber:\"},{\"category\":\"Mapping\",\"visible\":true,\"from\":\"source:EditAccountLockObj:lockedAmount:\",\"to\":\"target:lockedAmount:\",\"fromPort\":\"source:EditAccountLockObj:lockedAmount:\",\"toPort\":\"target:lockedAmount:\"},{\"category\":\"Mapping\",\"visible\":true,\"from\":\"source:EditAccountLockObj:fromDate:\",\"to\":\"target:fromDate:\",\"fromPort\":\"source:EditAccountLockObj:fromDate:\",\"toPort\":\"target:fromDate:\"},{\"category\":\"Mapping\",\"visible\":true,\"from\":\"source:EditAccountLockObj:fromDate:\",\"to\":\"target:toDate:\",\"fromPort\":\"source:EditAccountLockObj:fromDate:\",\"toPort\":\"target:toDate:\"}],\"blockCount\":{\"variableCount\":0},\"variableMap\":{},\"xmlMappingOverride\":false}",
    "oVisualMappingData" : "{\"nodeDataArray\":[{\"isGroup\":true,\"key\":\"response_out\",\"text\":\"EditAccountLockObj\",\"xy\":\"770 405\"},{\"isGroup\":true,\"key\":\"response_in\",\"text\":\"BlockUnblock (1.0).editAccountLock\",\"xy\":\"150 100\"}],\"linkDataArray\":[{\"category\":\"Mapping\",\"visible\":true,\"from\":\"source:header:id:\",\"to\":\"target:EditAccountLockObj:id:\",\"fromPort\":\"source:header:id:\",\"toPort\":\"target:EditAccountLockObj:id:\"},{\"category\":\"Mapping\",\"visible\":true,\"from\":\"source:header:status:\",\"to\":\"target:EditAccountLockObj:status:\",\"fromPort\":\"source:header:status:\",\"toPort\":\"target:EditAccountLockObj:status:\"},{\"category\":\"Mapping\",\"visible\":true,\"from\":\"source:header:transactionStatus:\",\"to\":\"target:EditAccountLockObj:transactionStatus:\",\"fromPort\":\"source:header:transactionStatus:\",\"toPort\":\"target:EditAccountLockObj:transactionStatus:\"},{\"category\":\"Mapping\",\"visible\":true,\"from\":\"source:body:accountNumber:\",\"to\":\"target:EditAccountLockObj:accountNumber:\",\"fromPort\":\"source:body:accountNumber:\",\"toPort\":\"target:EditAccountLockObj:accountNumber:\"},{\"category\":\"Mapping\",\"visible\":true,\"from\":\"source:body:fromDate:\",\"to\":\"target:EditAccountLockObj:fromDate:\",\"fromPort\":\"source:body:fromDate:\",\"toPort\":\"target:EditAccountLockObj:fromDate:\"},{\"category\":\"Mapping\",\"visible\":true,\"from\":\"source:body:toDate:\",\"to\":\"target:EditAccountLockObj:toDate:\",\"fromPort\":\"source:body:toDate:\",\"toPort\":\"target:EditAccountLockObj:toDate:\"},{\"category\":\"Mapping\",\"visible\":true,\"from\":\"source:body:lockedAmount:\",\"to\":\"target:EditAccountLockObj:lockedAmount:\",\"fromPort\":\"source:body:lockedAmount:\",\"toPort\":\"target:EditAccountLockObj:lockedAmount:\"},{\"category\":\"Mapping\",\"visible\":true,\"from\":\"source:error:type:\",\"to\":\"target:EditAccountLockObj:type:\",\"fromPort\":\"source:error:type:\",\"toPort\":\"target:EditAccountLockObj:type:\"},{\"category\":\"Mapping\",\"visible\":true,\"from\":\"source:error:errorDetails:code:\",\"to\":\"target:EditAccountLockObj:code:\",\"fromPort\":\"source:error:errorDetails:code:\",\"toPort\":\"target:EditAccountLockObj:code:\"},{\"category\":\"Mapping\",\"visible\":true,\"from\":\"source:error:errorDetails:message:\",\"to\":\"target:EditAccountLockObj:message:\",\"fromPort\":\"source:error:errorDetails:message:\",\"toPort\":\"target:EditAccountLockObj:message:\"}],\"blockCount\":{\"variableCount\":0},\"variableMap\":{},\"xmlMappingOverride\":false}",
    "applyCommonMapping" : false,
    "applyRequestCommonMapping" : false,
    "applyResponseCommonMapping" : false,
    "backendMeta" : {
      "serviceName" : "BlockUnblock",
      "serviceVersion" : "1.0",
      "operationName" : "updateAccountLock"
    },
    "relationshipHierarchyMapping" : {
      "children" : [ ],
      "name" : "EditAccountLockObj",
      "actions" : {
        "create" : true,
        "update" : true,
        "partialupdate" : true
      },
      "selected" : true
    },
    "requestXmlMappingOverride" : false,
    "responseXmlMappingOverride" : false
  }
}