{
    "customComponent": {
        "i18nSupported": true,
        "id": "cwa3e080a675314193878aa16da502d955",
        "isOverride": false,
        "konyWrapperFiles": [
            "resources/thirdpartywidgets/widgetwrapper/tp-uuxSlider-wrapper.js"
        ],
        "libraryFiles": [
            "resources/thirdpartywidgets/libtoimport/base.css",
            "resources/thirdpartywidgets/libtoimport/unified-ux-web.min.js"
        ],
        "libraryName": "libtoimport",
        "marginSupported": true,
        "name": "uuxSlider",
        "paddingSupported": true,
        "platformID": "0",
        "property": [
            {
                "categoryType": "Custom",
                "defaultValue": "",
                "exclude": false,
                "name": "labelText",
                "propertySelection": false,
                "type": "String",
                "uniqueID": "cwpffd722cef1fe43b7b86499d395a7a07e",
                "value": ""
            },
            {
                "categoryType": "Custom",
                "defaultValue": "",
                "exclude": false,
                "name": "value",
                "propertySelection": false,
                "type": "String",
                "uniqueID": "cwpd5156995bfb34d08a0539f90d5bd4663",
                "value": ""
            },
            {
                "categoryType": "Custom",
                "defaultValue": "",
                "exclude": false,
                "name": "min",
                "propertySelection": false,
                "type": "Number",
                "uniqueID": "cwpf9e76f8c32184f05b18a2d359880e62f",
                "value": ""
            },
            {
                "categoryType": "Custom",
                "defaultValue": "",
                "exclude": false,
                "name": "max",
                "propertySelection": false,
                "type": "Number",
                "uniqueID": "cwpfbc1ca8d3e0a480cac1a85822214ed78",
                "value": ""
            },
            {
                "categoryType": "Custom",
                "defaultValue": "",
                "exclude": false,
                "name": "dataType",
                "propertySelection": false,
                "type": "String",
                "uniqueID": "cwpe5fecdcff0924c57ae6b143de16f9862",
                "value": ""
            },
            {
                "categoryType": "Custom",
                "defaultValue": "",
                "exclude": false,
                "name": "step",
                "propertySelection": false,
                "type": "Number",
                "uniqueID": "cwpfd514a02d42b4bea8b210c0bfabee532",
                "value": ""
            },
            {
                "categoryType": "Custom",
                "defaultValue": "",
                "exclude": false,
                "name": "currencySymbol",
                "propertySelection": false,
                "type": "String",
                "uniqueID": "cwpidcd87103ee540689d3838a4821c8b68",
                "value": ""
            }
        ]
    }
}