{
    "customComponent": {
        "i18nSupported": true,
        "id": "cwf65a630c3d2f44bc9fc6b0e5ba61b443",
        "isOverride": false,
        "konyWrapperFiles": [
            "resources/thirdpartywidgets/widgetwrapper/tp-uuxComboBox-wrapper.js"
        ],
        "libraryFiles": [
            "resources/thirdpartywidgets/libtoimport/base.css",
            "resources/thirdpartywidgets/libtoimport/unified-ux-web.min.js"
        ],
        "libraryName": "libtoimport",
        "marginSupported": true,
        "name": "uuxComboBox",
        "paddingSupported": true,
        "platformID": "0",
        "property": [
            {
                "categoryType": "Custom",
                "defaultValue": "",
                "exclude": false,
                "name": "labelText",
                "propertySelection": false,
                "type": "String",
                "uniqueID": "cwpf68a3abe89614212b114d9942acefed4",
                "value": ""
            },
            {
                "categoryType": "Custom",
                "defaultValue": false,
                "exclude": false,
                "name": "readonly",
                "propertySelection": false,
                "type": "Boolean",
                "uniqueID": "cwpc9203faef2e9480e894b77f7d4d44fc0",
                "value": false
            },
            {
                "categoryType": "Custom",
                "defaultValue": false,
                "exclude": false,
                "name": "disabled",
                "propertySelection": false,
                "type": "Boolean",
                "uniqueID": "cwpgd5b4de1a75147dc8be24688edf89dc3",
                "value": false
            },
            {
                "categoryType": "Custom",
                "defaultValue": true,
                "exclude": false,
                "name": "required",
                "propertySelection": false,
                "type": "Boolean",
                "uniqueID": "cwpdd39d01d14764e35b39a74dab937988a",
                "value": true
            },
            {
                "categoryType": "Custom",
                "defaultValue": "",
                "exclude": false,
                "name": "value",
                "propertySelection": false,
                "type": "String",
                "uniqueID": "cwpa1ceb9012de444959937c282c0cd75a3",
                "value": ""
            },
            {
                "categoryType": "Custom",
                "defaultValue": "",
                "exclude": false,
                "name": "validationMessage",
                "propertySelection": false,
                "type": "String",
                "uniqueID": "cwpd2005ae7e98c42e88db1e89ae0284f51",
                "value": ""
            },
            {
                "categoryType": "Custom",
                "defaultValue": "apple",
                "exclude": false,
                "name": "options",
                "optionsList": [
                    "apple",
                    "orange"
                ],
                "propertySelection": false,
                "type": "List",
                "uniqueID": "cwpe280e7bc44024dccafce511e02400773",
                "value": "apple"
            },
            {
                "categoryType": "Custom",
                "defaultValue": "multiple",
                "exclude": false,
                "name": "mode",
                "propertySelection": false,
                "type": "String",
                "uniqueID": "cwpb6c022fa845c497c96925c78bd91ad87",
                "value": "multiple"
            },
            {
                "categoryType": "Event",
                "defaultValue": "",
                "exclude": false,
                "name": "valueChanged",
                "propertySelection": false,
                "type": "Event",
                "uniqueID": "cwpc8bd25e4cbf34c74b5b1724c433c4ae2",
                "value": ""
            }
        ]
    }
}