{
    "AS_Button_i248e0dd88504708b0c3a2d52bee72c8": {
        "id": "AS_Button_i248e0dd88504708b0c3a2d52bee72c8",
        "type": "ACTION_SEQUENCE",
        "params": [{
            "datatype": "collection",
            "name": "eventobject"
        }],
        "contextObj": {
            "name": "frmCustomerLoanDetails2",
            "type": "forms",
            "platform": "",
            "KUID": "d7361b5b510a4ce8aa4c8f6d9dc0a86e"
        },
        "language": "js",
        "actions": [{
            "id": "ADD_SNIPPET_b98ef3f5524a4d0c88a068b09e07c80d",
            "type": "ADD_SNIPPET",
            "codeSnippet": "this.view.flxUpcomingPaymentWrapper.setVisibility(false);\n",
            "parentId": null
        }]
    }
}