{
    "AS_Button_e526a391e4c34ff3b00f828d723144bb": {
        "id": "AS_Button_e526a391e4c34ff3b00f828d723144bb",
        "type": "ACTION_SEQUENCE",
        "params": [{
            "datatype": "collection",
            "name": "eventobject"
        }],
        "language": "js",
        "actions": [{
            "id": "ADD_SNIPPET_ide_onClick_f97f396969b44c5781cfe2a133d85353",
            "type": "ADD_SNIPPET",
            "codeSnippet": "this.view.flxpopUpExploreLendingServciesWrapper.setVisibility(false);\nthis.view.flxPaymentHolidaysSuccessfullysWrapper.setVisibility(false);"
        }, {
            "id": "NAVIGATE_TO_FORM__eb04cc9601354d818deff609e2fb2fae",
            "type": "NAVIGATE_TO_FORM",
            "formId": "frmDashboard",
            "formKUID": "i0c907a8786849ac96dc928d812a2815",
            "mappings": {},
            "mappingsOrder": [],
            "enableMappingEditor": true,
            "package": "",
            "isCustomInput": false
        }]
    }
}