{
    "AS_Button_e7326365c91d402a9567f075b450a0c1": {
        "id": "AS_Button_e7326365c91d402a9567f075b450a0c1",
        "type": "ACTION_SEQUENCE",
        "params": [{
            "datatype": "collection",
            "name": "eventobject"
        }],
        "language": "js",
        "actions": [{
            "id": "ADD_SNIPPET_ide_onClick_ef9b032f9f484203a987128a8e0d7b00",
            "type": "ADD_SNIPPET",
            "codeSnippet": "this.view.flxUpcomingPaymentWrapper.setVisibility(false);\n"
        }]
    }
}