{
    "AS_Button_ee872918738d4457b5a447e80241a646": {
        "id": "AS_Button_ee872918738d4457b5a447e80241a646",
        "type": "ACTION_SEQUENCE",
        "params": [{
            "datatype": "collection",
            "name": "eventobject"
        }],
        "language": "js",
        "actions": [{
            "id": "INVOKE_FUNCTION__bc0f6e7cefcf44e78309fe0d932d3c2c",
            "type": "INVOKE_FUNCTION",
            "sequenceKUID": "getConfirmLoans",
            "display": "getConfirmLoans",
            "inputparams": [],
            "parentId": null,
            "callbackType": null,
            "disabled": null,
            "source": "controller"
        }]
    }
}