{
    "AS_Button_be0228ab3dad4ba59cd2a521f0b54c05": {
        "id": "AS_Button_be0228ab3dad4ba59cd2a521f0b54c05",
        "type": "ACTION_SEQUENCE",
        "params": [{
            "datatype": "collection",
            "name": "eventobject"
        }],
        "language": "js",
        "actions": [{
            "id": "NAVIGATE_TO_FORM__a91472b5badf40dd944c1a46e2218308",
            "type": "NAVIGATE_TO_FORM",
            "formId": "frmDashboard",
            "formKUID": "i0c907a8786849ac96dc928d812a2815",
            "mappings": {},
            "mappingsOrder": [],
            "enableMappingEditor": true,
            "package": "",
            "isCustomInput": false
        }]
    }
}