{
    "AS_Button_ddb129cab65b402a8426329f0811367b": {
        "id": "AS_Button_ddb129cab65b402a8426329f0811367b",
        "type": "ACTION_SEQUENCE",
        "params": [{
            "datatype": "collection",
            "name": "eventobject"
        }],
        "language": "js",
        "actions": [{
            "id": "ADD_SNIPPET_ide_onClick_d528e964fdb748f3b333c76a7ffd7312",
            "type": "ADD_SNIPPET",
            "codeSnippet": "this.view.flxpopUpExploreLendingServciesWrapper.setVisibility(true);\nthis.view.flxPaymentHolidaysSuccessfullysWrapper.setVisibility(false);"
        }]
    }
}