{
    "AS_FlexContainer_h24dd4fb088346bda1581ad4a17025f7": {
        "id": "AS_FlexContainer_h24dd4fb088346bda1581ad4a17025f7",
        "type": "ACTION_SEQUENCE",
        "params": [{
            "datatype": "collection",
            "name": "eventobject"
        }, {
            "datatype": "string",
            "name": "x"
        }, {
            "datatype": "string",
            "name": "y"
        }],
        "contextObj": {
            "name": "frmCustomerLoanDetails2",
            "type": "forms",
            "platform": "",
            "KUID": "d7361b5b510a4ce8aa4c8f6d9dc0a86e"
        },
        "language": "js",
        "actions": [{
            "id": "ADD_SNIPPET_df03b52c1ad94489b4f9c8847f8d3a34",
            "type": "ADD_SNIPPET",
            "codeSnippet": "this.view.flxPaymentholidaydetails.setVisibility(true);\nthis.view.CopyflxNow0ec67451d2cdf43.setVisibility(false);",
            "parentId": null
        }]
    }
}