{
    "AS_FlexContainer_g2809bbe77944fa0b6d45d67a47e84b4": {
        "id": "AS_FlexContainer_g2809bbe77944fa0b6d45d67a47e84b4",
        "type": "ACTION_SEQUENCE",
        "params": [{
            "datatype": "collection",
            "name": "eventobject"
        }],
        "language": "js",
        "actions": [{
            "id": "ADD_SNIPPET_ide_onClick_i79d66fcae0d473da050e8710d074415",
            "type": "ADD_SNIPPET",
            "codeSnippet": "\nthis.view.flxUpcomingPaymentWrapper.setVisibility(true);\n"
        }]
    }
}