{
    "AS_Form_e7beed71d30141fbb9e094a4952749f8": {
        "id": "AS_Form_e7beed71d30141fbb9e094a4952749f8",
        "type": "ACTION_SEQUENCE",
        "params": [{
            "datatype": "collection",
            "name": "eventobject"
        }],
        "contextObj": {
            "name": "frmDashboard",
            "type": "forms",
            "platform": "",
            "KUID": "i0c907a8786849ac96dc928d812a2815"
        },
        "language": "js",
        "actions": [{
            "id": "INVOKE_FUNCTION__ff8cc51861324dd7ac3c864df89c7475",
            "type": "INVOKE_FUNCTION",
            "sequenceKUID": "onPostShow",
            "display": "onPostShow",
            "inputparams": [],
            "parentId": null,
            "callbackType": null,
            "disabled": null,
            "source": "controller"
        }]
    }
}