{
    "AS_FlexContainer_e08b22bfced64b4ca9b7181df2c463ba": {
        "id": "AS_FlexContainer_e08b22bfced64b4ca9b7181df2c463ba",
        "type": "ACTION_SEQUENCE",
        "params": [{
            "datatype": "collection",
            "name": "eventobject"
        }, {
            "datatype": "string",
            "name": "x"
        }, {
            "datatype": "string",
            "name": "y"
        }],
        "contextObj": {
            "name": "frmCustomerLoanDetails2",
            "type": "forms",
            "platform": "",
            "KUID": "d7361b5b510a4ce8aa4c8f6d9dc0a86e"
        },
        "language": "js",
        "actions": [{
            "id": "ADD_SNIPPET_a3650790837347d9b7b787c3960abedf",
            "type": "ADD_SNIPPET",
            "codeSnippet": "this.view.flxPaymentholidaydetails.setVisibility(true);\nthis.view.CopyflxNow0ec67451d2cdf43.setVisibility(false);",
            "parentId": null
        }]
    }
}