{
    "AS_Form_f2c785dd8b044f52b267903e830d57a6": {
        "id": "AS_Form_f2c785dd8b044f52b267903e830d57a6",
        "type": "ACTION_SEQUENCE",
        "params": [{
            "datatype": "collection",
            "name": "eventobject"
        }],
        "contextObj": {
            "name": "frmCustomerAccountsDetails",
            "type": "forms",
            "platform": "",
            "KUID": "f7755a408d7f4e87ab530630a58057c3"
        },
        "language": "js",
        "actions": [{
            "id": "INVOKE_FUNCTION__c54a415bd0ed49459aeea382b1074826",
            "type": "INVOKE_FUNCTION",
            "sequenceKUID": "onNavigate",
            "display": "onNavigate",
            "inputparams": [{
                "name": "ntpl2"
            }],
            "parentId": null,
            "callbackType": null,
            "disabled": null,
            "source": "controller"
        }]
    }
}