{
    "AS_Form_ebd04822663d466f9bcf1c31123fee43": {
        "id": "AS_Form_ebd04822663d466f9bcf1c31123fee43",
        "type": "ACTION_SEQUENCE",
        "params": [{
            "datatype": "collection",
            "name": "eventobject"
        }],
        "contextObj": {
            "name": "frmCustomerLoanDetails2",
            "type": "forms",
            "platform": "",
            "KUID": "d7361b5b510a4ce8aa4c8f6d9dc0a86e"
        },
        "language": "js",
        "actions": [{
            "id": "INVOKE_FUNCTION__d2e5680409fb40b79fab3eec87ac33a2",
            "type": "INVOKE_FUNCTION",
            "sequenceKUID": "onLoadFunctions",
            "display": "onLoadFunctions",
            "inputparams": [],
            "parentId": null,
            "callbackType": null,
            "disabled": null,
            "source": "controller"
        }]
    }
}