{
    "AS_Form_e38ad2a9a3e24d72911b61e613a2341b": {
        "id": "AS_Form_e38ad2a9a3e24d72911b61e613a2341b",
        "type": "ACTION_SEQUENCE",
        "params": [{
            "datatype": "collection",
            "name": "eventobject"
        }],
        "contextObj": {
            "name": "frmDashboard",
            "type": "forms",
            "platform": "",
            "KUID": "i0c907a8786849ac96dc928d812a2815"
        },
        "language": "js",
        "actions": [{
            "id": "INVOKE_FUNCTION__be4abc01b4164d28b0912c1555632745",
            "type": "INVOKE_FUNCTION",
            "sequenceKUID": "onPostShow",
            "display": "onPostShow",
            "inputparams": [],
            "parentId": null,
            "callbackType": null,
            "disabled": null,
            "source": "controller"
        }]
    }
}