{
    "AS_FlexContainer_ab6d8347e9d34e51be52659b51069f8c": {
        "id": "AS_FlexContainer_ab6d8347e9d34e51be52659b51069f8c",
        "type": "ACTION_SEQUENCE",
        "params": [{
            "datatype": "collection",
            "name": "eventobject"
        }],
        "language": "js",
        "actions": [{
            "id": "ADD_SNIPPET_ide_onClick_de0cbf555c054b7ea5578b95a8570efc",
            "type": "ADD_SNIPPET",
            "codeSnippet": "this.view.flxRevisedPaymentSchedule.setVisibility(true);"
        }]
    }
}