{
    "AS_Segment_c7ec5bfdb6cf45f59d7a1f0e45750440": {
        "id": "AS_Segment_c7ec5bfdb6cf45f59d7a1f0e45750440",
        "type": "ACTION_SEQUENCE",
        "params": [{
            "datatype": "collection",
            "name": "eventobject"
        }, {
            "datatype": "number",
            "name": "sectionNumber"
        }, {
            "datatype": "number",
            "name": "rowNumber"
        }],
        "contextObj": {
            "name": "frmCustomerLoanDetails2",
            "type": "forms",
            "platform": "",
            "KUID": "d7361b5b510a4ce8aa4c8f6d9dc0a86e"
        },
        "language": "js",
        "actions": [{
            "id": "INVOKE_FUNCTION__e547b67f4fca41189528f3ae5f263dd1",
            "type": "INVOKE_FUNCTION",
            "sequenceKUID": "segSkipPayOnRowClick",
            "display": "segSkipPayOnRowClick",
            "inputparams": [],
            "parentId": null,
            "callbackType": null,
            "disabled": null,
            "source": "controller"
        }]
    }
}