{
    "AS_ListBox_a0009fa628a047bf8353752dca4118a5": {
        "id": "AS_ListBox_a0009fa628a047bf8353752dca4118a5",
        "type": "ACTION_SEQUENCE",
        "name": "navTabTo",
        "params": [{
            "datatype": "collection",
            "name": "eventobject"
        }],
        "contextObj": {
            "name": "frmCustomerLoanDetails2",
            "type": "forms",
            "platform": "",
            "KUID": "d7361b5b510a4ce8aa4c8f6d9dc0a86e"
        },
        "language": "js",
        "actions": [{
            "id": "ADD_SNIPPET_e738f59053d443e4baf64bc2dfa4ee16",
            "type": "ADD_SNIPPET",
            "codeSnippet": "this.view.CopyflxNow0ec67451d2cdf43.setVisibility(false);\nthis.view.flxPaymentholidaydetails.setVisibility(true);",
            "parentId": null
        }, {
            "id": "ADD_SNIPPET_eecd6af2190c4596a479a0086564aa67",
            "type": "ADD_SNIPPET",
            "codeSnippet": "",
            "parentId": null
        }]
    }
}