{
    "@class": "com.kony.gen.viz.model.component.KVizCustom",
    "DNDConfig": null,
    "_height_": {
        "type": "string",
        "value": "100%"
    },
    "_left_": {
        "type": "string",
        "value": "0"
    },
    "_margin_": [
        0,
        0,
        0,
        0
    ],
    "_padding_": [
        0,
        0,
        0,
        0
    ],
    "_top_": {
        "type": "string",
        "value": "0"
    },
    "_width_": {
        "type": "string",
        "value": "100%"
    },
    "android": {
        "render": false
    },
    "androidwearos": {
        "render": false
    },
    "canUpdateUI": true,
    "containerweight": 0,
    "customProperties": {
        "compact": false,
        "contained": false,
        "cta": true,
        "disabled": false,
        "icon": "",
        "labelText": "",
        "outlined": false,
        "size": {
            "optionsList": [
                "small",
                "medium",
                "large",
                "X-large"
            ],
            "selectedValue": "large"
        },
        "trailingIcon": false,
        "typeButton": {
            "optionsList": [
                "button",
                "submit",
                "reset"
            ],
            "selectedValue": "button"
        }
    },
    "cwEvents": [
        "onclickEvent"
    ],
    "cwid": "cwhc92309f9d5b4240b8ec249442967df9",
    "id": "UUXButtonWrapper",
    "info": null,
    "ipad": {
        "render": false
    },
    "iphone": {
        "render": false
    },
    "iscustomlayout": false,
    "isvisible": true,
    "kiosk": {
        "render": false
    },
    "kuid": "f6604aa7c2c84700b78149c7a41a54d5",
    "name": "uuxButton-kony.ui",
    "nameSpaceIndex": 0,
    "parent": "uuxButton",
    "pf": "userwidgetmodel",
    "platformKey": "spa",
    "retaincontentalignment": false,
    "retainflexpositionproperties": false,
    "tabrcandroid": {
        "render": false
    },
    "wType": "TPW",
    "watchos": {
        "render": false
    },
    "widgetIndex": 0,
    "windows10": {
        "render": false
    },
    "windows8": {
        "render": false
    },
    "winphone10": {
        "render": false
    },
    "winphone8": {
        "render": false
    }
}