{
    "@class": "com.kony.gen.viz.model.component.KVizCustom",
    "DNDConfig": null,
    "_height_": {
        "type": "string",
        "value": "48dp"
    },
    "_left_": {
        "type": "string",
        "value": "710dp"
    },
    "_margin_": [
        0,
        0,
        0,
        0
    ],
    "_padding_": [
        0,
        0,
        0,
        0
    ],
    "_top_": {
        "type": "string",
        "value": "70dp"
    },
    "_width_": {
        "type": "string",
        "value": "200dp"
    },
    "android": {
        "render": false
    },
    "androidwearos": {
        "render": false
    },
    "canUpdateUI": true,
    "clipbounds": false,
    "containerweight": 0,
    "customProperties": {
        "dense": true,
        "disabled": false,
        "disabledDates": "",
        "disabledDays": "",
        "displayFormat": "",
        "firstDayOfWeek": 0,
        "hideHeader": false,
        "iconButtonTrailingAriaLabel": "Open date calendar",
        "labelText": "Expire Date",
        "max": "",
        "min": "1900-01-01",
        "showWeekNumber": false,
        "validateRequired": "",
        "value": "",
        "weekLabel": "Wk"
    },
    "cwEvents": [],
    "cwid": "cwfec5353029634671b5a44b7a745ad774",
    "desktopweb": {
        "zIndex": "auto"
    },
    "id": "cusCalenderExpireDate2",
    "info": null,
    "ipad": {
        "render": false
    },
    "iphone": {
        "render": false
    },
    "iscustomlayout": false,
    "isvisible": true,
    "kiosk": {
        "render": false
    },
    "kuid": "b5feef8d15a9489ab86874fe615e568d",
    "name": "uuxDatePicker-kony.ui",
    "nameSpaceIndex": 0,
    "parent": "flxListBoxContainer",
    "pf": "frmpostingRestriction",
    "platformKey": "spa",
    "retaincontentalignment": false,
    "retainflexpositionproperties": false,
    "tabrcandroid": {
        "render": false
    },
    "wType": "TPW",
    "watchos": {
        "render": false
    },
    "widgetIndex": 6,
    "windows10": {
        "render": false
    },
    "windows8": {
        "render": false
    },
    "winphone10": {
        "render": false
    },
    "winphone8": {
        "render": false
    },
    "zindex": 5
}