{
    "@class": "com.kony.gen.viz.model.component.KVizCustom",
    "DNDConfig": null,
    "_height_": {
        "type": "string",
        "value": "56dp"
    },
    "_left_": {
        "type": "string",
        "value": "0dp"
    },
    "_margin_": [
        0,
        0,
        0,
        0
    ],
    "_padding_": [
        0,
        0,
        0,
        0
    ],
    "_top_": {
        "type": "number",
        "value": "20"
    },
    "_width_": {
        "type": "string",
        "value": "200dp"
    },
    "android": {
        "render": false
    },
    "androidwearos": {
        "render": false
    },
    "canUpdateUI": true,
    "clipbounds": false,
    "containerweight": 0,
    "customProperties": {
        "compact": "",
        "dense": "dense",
        "disabled": false,
        "labelText": "Restriction Postion",
        "options": "",
        "readonly": true,
        "validateRequired": "required",
        "value": ""
    },
    "cwEvents": [
        "valueChanged",
        "clicked"
    ],
    "cwid": "cwd0a630f070364623a54eee2878c290cc",
    "desktopweb": {
        "bottom": "",
        "centerX": "",
        "centerY": "",
        "height": {
            "type": "string",
            "value": "48dp"
        },
        "maxHeight": "",
        "maxWidth": "",
        "minHeight": "",
        "minWidth": "",
        "right": "",
        "top": {
            "type": "string",
            "value": "130dp"
        },
        "width": "200dp",
        "zIndex": "auto"
    },
    "id": "cusListBoxRestrictPostion3",
    "info": null,
    "ipad": {
        "render": false
    },
    "iphone": {
        "render": false
    },
    "iscustomlayout": false,
    "isvisible": true,
    "kiosk": {
        "render": false
    },
    "kuid": "d10d019ff7b64d598c8b3a7477d99bfc",
    "name": "uuxDropdown-kony.ui",
    "nameSpaceIndex": 0,
    "parent": "flxListBoxContainer",
    "pf": "frmpostingRestriction",
    "platformKey": "spa",
    "retaincontentalignment": false,
    "retainflexpositionproperties": false,
    "tabrcandroid": {
        "render": false
    },
    "wType": "TPW",
    "watchos": {
        "render": false
    },
    "widgetIndex": 7,
    "windows10": {
        "render": false
    },
    "windows8": {
        "render": false
    },
    "winphone10": {
        "render": false
    },
    "winphone8": {
        "render": false
    },
    "zindex": 2
}