{
    "@class": "com.kony.gen.viz.model.component.KVizUserWidget",
    "DNDConfig": null,
    "_children_": [],
    "_height_": {
        "type": "string",
        "value": "128dp"
    },
    "_left_": {
        "type": "string",
        "value": "0dp"
    },
    "_margin_": [
        0,
        0,
        0,
        0
    ],
    "_orientation_": 1,
    "_padding_": [
        0,
        0,
        0,
        0
    ],
    "_percent_": true,
    "_skin_": "se31956b9efb4cdeb803f81ffb1335e2",
    "_top_": {
        "type": "string",
        "value": "1dp"
    },
    "_width_": {
        "type": "string",
        "value": "100%"
    },
    "android": {},
    "androidwearos": {},
    "areflexpropsreferenced": false,
    "autogrowmode": 0,
    "canUpdateUI": true,
    "clipbounds": true,
    "containerweight": 0,
    "dataDiffs": {
        "FlexContainer0ebe191bc1cf946": {
            "__events__": {},
            "__info__": {
                "kuid": "e4ace9d4ece942ee862a2aa6660fd4e7",
                "srcKUID": "b20fde0f680c47a3a7035735e9dc4f26",
                "wType": "FlexContainer"
            },
            "clipBounds": false,
            "responsiveData": {},
            "width": {
                "Default": {
                    "type": "string",
                    "value": "155dp"
                }
            }
        },
        "flxListBoxSelectedValue": {
            "__events__": {},
            "__info__": {
                "kuid": "e63b9bffddff45c882364a32e33f3ad2",
                "srcKUID": "f21b66021d0249a7b91aa69c873702a3",
                "wType": "FlexContainer"
            },
            "clipBounds": false,
            "left": {
                "Default": {
                    "type": "string",
                    "value": "50dp"
                }
            },
            "minWidth": {
                "Default": {
                    "type": "string",
                    "value": ""
                }
            },
            "responsiveData": {},
            "width": {
                "Default": {
                    "type": "string",
                    "value": "12.50%"
                }
            }
        },
        "flxLoanDetailsHeader": {
            "__events__": {},
            "__info__": {
                "kuid": "f5bf720c268f43dc9a6a95c9c42dd5c4",
                "srcKUID": "b480f3b323024db8ae5d9cf583efe348",
                "wType": "FlexContainer"
            },
            "clipBounds": false,
            "responsiveData": {},
            "zIndex": {
                "Default": 1,
                "desktopweb": "auto"
            }
        },
        "flxLoanDetailsvalue": {
            "__events__": {},
            "__info__": {
                "kuid": "da6951c050de4034af84e238b4501796",
                "srcKUID": "e88f2a4c43bc4fe8a64da4e103fdbce8",
                "wType": "FlexContainer"
            },
            "autogrowMode": {
                "Default": 0
            },
            "clipBounds": false,
            "height": {
                "Default": {
                    "type": "string",
                    "value": "63dp"
                }
            },
            "responsiveData": {},
            "zIndex": {
                "Default": 1,
                "desktopweb": "auto"
            }
        },
        "flxseparatorLinedetails": {
            "__events__": {},
            "__info__": {
                "kuid": "a8facacfbdde49f8ab6d77bcbeac30cc",
                "srcKUID": "f619eba3bc4f4730b02bdf85c1901b31",
                "wType": "FlexContainer"
            },
            "clipBounds": false,
            "responsiveData": {},
            "zIndex": {
                "Default": 1,
                "desktopweb": "auto"
            }
        },
        "imgListBoxSelectedDropDown": {
            "__events__": {},
            "__info__": {
                "kuid": "h2bbe81368364fb9af0b5ffbf5c9ae63",
                "srcKUID": "ebb51ce9320845098b7f0baf04d8a088",
                "wType": "Image"
            },
            "isVisible": false,
            "left": {
                "Default": {
                    "type": "string",
                    "value": "58dp"
                }
            },
            "responsiveData": {},
            "src": "drop_down_arrow.png"
        },
        "lblAccountNumberInfo": {
            "__events__": {},
            "__info__": {
                "kuid": "a1090dece1d9456a862e39861ae91654",
                "srcKUID": "d4e52a17834a45b481fa91f9830ad13c",
                "wType": "Label"
            },
            "responsiveData": {},
            "text": "Account Type",
            "width": {
                "Default": {
                    "type": "string",
                    "value": "12.50%"
                }
            }
        },
        "lblAccountNumberResponse": {
            "__events__": {},
            "__info__": {
                "kuid": "h0c7dad4dd2946828dacd7a8bff1605b",
                "srcKUID": "ec6ae7de2eb144ae916751d6287835ff",
                "wType": "Label"
            },
            "centerY": {
                "Default": {
                    "type": "string",
                    "value": "50%"
                }
            },
            "responsiveData": {},
            "text": "Savings Account",
            "width": {
                "Default": {
                    "type": "string",
                    "value": "12.50%"
                }
            }
        },
        "lblAccountServiceInfo": {
            "__events__": {},
            "__info__": {
                "kuid": "ic01c8569a46447784acdb80c5b0f55f",
                "srcKUID": "i101cffaa4f245008f6f0ddfe5fc0468",
                "wType": "Label"
            },
            "left": {
                "Default": {
                    "type": "string",
                    "value": "60dp"
                }
            },
            "responsiveData": {},
            "text": "Account Services",
            "width": {
                "Default": {
                    "type": "string",
                    "value": "12.50%"
                }
            }
        },
        "lblAmountValueInfo": {
            "__events__": {},
            "__info__": {
                "kuid": "a84d9e4d53c141fbae3c924dad03dda6",
                "srcKUID": "gc973bdd67fe452f8d8d201b0f1b6501",
                "wType": "Label"
            },
            "responsiveData": {},
            "text": "Ledger/Clered Balance",
            "width": {
                "Default": {
                    "type": "string",
                    "value": "12.50%"
                }
            }
        },
        "lblAmountValueResponse": {
            "__events__": {},
            "__info__": {
                "kuid": "e22b45f5767d4c0a9b53ccd9ae443e7f",
                "srcKUID": "bdfcce09b9fc4bd5908203b51d350f3d",
                "wType": "Label"
            },
            "centerY": {
                "Default": {
                    "type": "string",
                    "value": "50%"
                }
            },
            "responsiveData": {},
            "text": "327,720.00",
            "width": {
                "Default": {
                    "type": "string",
                    "value": "12.50%"
                }
            }
        },
        "lblCurrencyValueInfo": {
            "__events__": {},
            "__info__": {
                "kuid": "e108c3d4add0461abc9bcbb8b6161313",
                "srcKUID": "a6fb428bf06c41d2925431ef6b84995e",
                "wType": "Label"
            },
            "responsiveData": {},
            "width": {
                "Default": {
                    "type": "string",
                    "value": "12.50%"
                }
            }
        },
        "lblCurrencyValueResponse": {
            "__events__": {},
            "__info__": {
                "kuid": "i26c7a7fa4204043b6c2df3be9683fce",
                "srcKUID": "d70a502e5b734b52966dcfcdc74ab27a",
                "wType": "Label"
            },
            "centerY": {
                "Default": {
                    "type": "string",
                    "value": "50%"
                }
            },
            "responsiveData": {},
            "text": "EUR",
            "width": {
                "Default": {
                    "type": "string",
                    "value": "12.50%"
                }
            }
        },
        "lblListBoxSelectedValue": {
            "__events__": {},
            "__info__": {
                "kuid": "c07043e0830448f3a15eacbbb023992f",
                "srcKUID": "f34806a3c9bb43feaf97322c8e5acab2",
                "wType": "Label"
            },
            "responsiveData": {},
            "text": "Restrict Position"
        },
        "lblLoanTypeInfo": {
            "__events__": {},
            "__info__": {
                "kuid": "j8225b9b94d742839a5c3a2e0175ff10",
                "srcKUID": "c8af9ba028a44153a26feb218c8309e0",
                "wType": "Label"
            },
            "responsiveData": {},
            "text": "Account Number",
            "width": {
                "Default": {
                    "type": "string",
                    "value": "12.50%"
                }
            }
        },
        "lblLoanTypeResponse": {
            "__events__": {},
            "__info__": {
                "kuid": "eacae49e504f4fc5bc60c6195019185b",
                "srcKUID": "be6e2acb2b9945c08124b47281032d4f",
                "wType": "Label"
            },
            "centerY": {
                "Default": {
                    "type": "string",
                    "value": "50%"
                }
            },
            "responsiveData": {},
            "text": "50003014",
            "width": {
                "Default": {
                    "type": "string",
                    "value": "12.50%"
                }
            }
        },
        "lblMaturityDateInfo": {
            "__events__": {},
            "__info__": {
                "kuid": "da9595b8d204431bb771a89b09e63a94",
                "srcKUID": "b522ef0b8cfd46e3a1fb9af4427b309d",
                "wType": "Label"
            },
            "isVisible": false,
            "responsiveData": {},
            "width": {
                "Default": {
                    "type": "string",
                    "value": "12.50%"
                }
            }
        },
        "lblMaturityDateResponse": {
            "__events__": {},
            "__info__": {
                "kuid": "ee78b4a29f394cb888738f8eafa63999",
                "srcKUID": "fe13cccbbf8d46eeb8adaeb6f4154482",
                "wType": "Label"
            },
            "centerY": {
                "Default": {
                    "type": "string",
                    "value": "50%"
                }
            },
            "isVisible": false,
            "responsiveData": {},
            "width": {
                "Default": {
                    "type": "string",
                    "value": "12.50%"
                }
            }
        },
        "lblStartDateInfo": {
            "__events__": {},
            "__info__": {
                "kuid": "he22a9aba97b4b41a6925230aab70fa4",
                "srcKUID": "df74c5ac72b346aabdc9ec3da793795d",
                "wType": "Label"
            },
            "left": {
                "Default": {
                    "type": "string",
                    "value": "120dp"
                }
            },
            "responsiveData": {},
            "text": "Available Limit",
            "width": {
                "Default": {
                    "type": "string",
                    "value": "12.50%"
                }
            }
        },
        "lblStartDateResponse": {
            "__events__": {},
            "__info__": {
                "kuid": "jebf32aab74944789ec0c9d29c86193d",
                "srcKUID": "b4da554698204c29ba092f1e86ce3e9e",
                "wType": "Label"
            },
            "centerY": {
                "Default": {
                    "type": "string",
                    "value": "50%"
                }
            },
            "left": {
                "Default": {
                    "type": "string",
                    "value": "120dp"
                }
            },
            "responsiveData": {},
            "text": "327,720.00",
            "width": {
                "Default": {
                    "type": "string",
                    "value": "12.50%"
                }
            }
        },
        "loanDetails": {
            "__events__": {},
            "__info__": {
                "isRoot": true,
                "kuid": "cc95ca5bfe3a4984b2350ad7540864a9",
                "srcKUID": "h3de19f1260f4ec5bf3088eaddab039d",
                "wType": "FlexContainer"
            },
            "autogrowMode": {
                "Default": 0
            },
            "height": {
                "Default": {
                    "type": "string",
                    "value": "128dp"
                }
            },
            "left": {
                "Default": {
                    "type": "string",
                    "value": "0dp"
                }
            },
            "responsiveData": {},
            "top": {
                "Default": {
                    "type": "string",
                    "value": "1dp"
                }
            },
            "width": {
                "Default": {
                    "type": "string",
                    "value": "100%"
                }
            },
            "zIndex": {
                "Default": 1,
                "desktopweb": "auto"
            }
        }
    },
    "desktopweb": {
        "zIndex": "auto"
    },
    "enablescrolling": true,
    "id": "loanDetails",
    "info": null,
    "ipad": {},
    "iphone": {},
    "iscustomlayout": false,
    "isdatareferenced": false,
    "isvisible": true,
    "kiosk": {},
    "kuid": "cc95ca5bfe3a4984b2350ad7540864a9",
    "layouttype": 2,
    "masterType": 0,
    "name": "kony.ui.UserWidgetInstance",
    "parent": "flxContainerMain",
    "pf": "frmpostingRestriction",
    "responsiveData": {},
    "retaincontentalignment": false,
    "retainflexpositionproperties": false,
    "retainflowhorizontalalignment": false,
    "snapgridsize": 10,
    "snaptogrid": true,
    "sourceUserWidget": "h3de19f1260f4ec5bf3088eaddab039d",
    "spa": {},
    "spaan": {},
    "spaandroidtablet": {},
    "spabb": {},
    "spaip": {},
    "spaipad": {},
    "spamobile": {},
    "spatablet": {},
    "spawindowstablet": {},
    "spawinphone8": {},
    "tabrcandroid": {},
    "vizProps": {
        "hidewidgethierarchy": false
    },
    "wType": "UserWidgetInstance",
    "windows10": {},
    "windows8": {},
    "winphone10": {},
    "winphone8": {},
    "zindex": 1
}