{
    "@class": "com.kony.gen.viz.model.component.KVizUserWidget",
    "DNDConfig": null,
    "_children_": [],
    "_height_": {
        "type": "string",
        "value": "100%"
    },
    "_left_": {
        "type": "string",
        "value": "0dp"
    },
    "_margin_": [
        0,
        0,
        0,
        0
    ],
    "_orientation_": 1,
    "_padding_": [
        0,
        0,
        0,
        0
    ],
    "_percent_": true,
    "_skin_": "se31956b9efb4cdeb803f81ffb1335e2",
    "_top_": {
        "type": "string",
        "value": "0dp"
    },
    "_width_": {
        "type": "string",
        "value": "64dp"
    },
    "canUpdateUI": true,
    "containerweight": 0,
    "data": {},
    "id": "uuxNavigationRail",
    "info": null,
    "iscustomlayout": false,
    "isvisible": true,
    "kuid": "dc89bfd9aa3a4c6e9bee0b8262764d92",
    "masterType": 1,
    "name": "kony.ui.UserWidgetInstance",
    "parent": "frmpostingRestriction",
    "pf": "frmpostingRestriction",
    "retaincontentalignment": false,
    "retainflexpositionproperties": false,
    "retainflowhorizontalalignment": false,
    "sourceUserWidget": "b8e247740c794c7d840fd6c9028c42c1",
    "wType": "UserWidgetInstance"
}