{
    "@class": "com.kony.gen.viz.model.component.KVizButton",
    "DNDConfig": null,
    "_height_": {
        "type": "string",
        "value": "30dp"
    },
    "_margin_": [
        6,
        6,
        6,
        6
    ],
    "_padding_": [
        0,
        0,
        0,
        0
    ],
    "_right_": {
        "type": "string",
        "value": "45dp"
    },
    "_skin_": "s481cfbdde3c47a188a94be8d408cb14",
    "_text_": "O",
    "_top_": {
        "type": "string",
        "value": "10dp"
    },
    "_width_": {
        "type": "number",
        "value": "30"
    },
    "canUpdateUI": true,
    "containerweight": 100,
    "contentalignment": 5,
    "disabledSkins": {
        "focusSkin": "sb47e4be03c74bcc8599b34b76f24950"
    },
    "displaytext": true,
    "id": "btnPrev",
    "info": null,
    "iscustomlayout": false,
    "isvisible": true,
    "kuid": "ha3f9f17bddd495f806115fb34abb5c9",
    "name": "kony.ui.Button",
    "parent": "flxPagination",
    "pf": "frmSearchCustomer",
    "retaincontentalignment": false,
    "retainflexpositionproperties": false,
    "wType": "Button",
    "zindex": 1
}