{
    "@class": "com.kony.gen.viz.model.component.KVizImage2",
    "DNDConfig": null,
    "_base64_": null,
    "_height_": {
        "type": "string",
        "value": "17dp"
    },
    "_margin_": [
        0,
        0,
        0,
        0
    ],
    "_padding_": [
        0,
        0,
        0,
        0
    ],
    "_right_": {
        "type": "string",
        "value": "45dp"
    },
    "_skin_": "sab6c978ce2245129f1386a9483eec1a",
    "_src_": "arrow_back.png",
    "_top_": {
        "type": "string",
        "value": "5dp"
    },
    "_width_": {
        "type": "string",
        "value": "19dp"
    },
    "canUpdateUI": true,
    "centery": {
        "type": "string",
        "value": "50%"
    },
    "containerweight": 100,
    "id": "btnPrev1",
    "imagescalemode": 1,
    "info": null,
    "iscustomlayout": false,
    "isvisible": false,
    "kuid": "b7a90454b3b34cd5b35008b531d87148",
    "name": "kony.ui.Image2",
    "parent": "flxPagination",
    "pf": "frmSearchCustomer",
    "retaincontentalignment": false,
    "retainflexpositionproperties": false,
    "srcType": 1,
    "wType": "Image",
    "widgetalignment": 5,
    "zindex": 1
}