{
    "DNDConfig": null,
    "_height_": {
        "type": "string",
        "value": "50dp"
    },
    "_margin_": [
        0,
        0,
        0,
        0
    ],
    "_orientation_": 6,
    "_padding_": [
        0,
        0,
        0,
        0
    ],
    "_percent_": true,
    "_right_": {
        "type": "number",
        "value": "21"
    },
    "_skin_": "se31956b9efb4cdeb803f81ffb1335e2",
    "_top_": {
        "type": "string",
        "value": "400dp"
    },
    "_width_": {
        "type": "string",
        "value": "47.07%"
    },
    "allboxes": [],
    "autogrowmode": 0,
    "canUpdateUI": true,
    "children": [
        "custCancel1",
        "custProceed1"
    ],
    "clipbounds": true,
    "containerweight": 100,
    "enablescrolling": true,
    "id": "flxCustButtons",
    "info": null,
    "iscustomlayout": false,
    "isvisible": true,
    "kuid": "e83a3ec60b24476dad45fc470a33c1fc",
    "layouttype": 2,
    "name": "kony.ui.FlexContainer",
    "parent": "flxCustomerDetailsSearch",
    "pf": "frmSearchCustomer",
    "retaincontentalignment": false,
    "retainflexpositionproperties": false,
    "retainflowhorizontalalignment": false,
    "snapgridsize": 10,
    "snaptogrid": true,
    "wType": "FlexContainer",
    "widgetalignment": 1,
    "zindex": 1
}