{
    "@class": "com.kony.gen.viz.model.component.KVizCustom",
    "DNDConfig": null,
    "_height_": {
        "type": "string",
        "value": "56px"
    },
    "_left_": {
        "type": "string",
        "value": "508dp"
    },
    "_margin_": [
        0,
        0,
        0,
        0
    ],
    "_padding_": [
        0,
        0,
        0,
        0
    ],
    "_top_": {
        "type": "string",
        "value": "80dp"
    },
    "_width_": {
        "type": "string",
        "value": "200dp"
    },
    "android": {
        "render": false
    },
    "androidwearos": {
        "render": false
    },
    "canUpdateUI": true,
    "containerweight": 0,
    "customProperties": {
        "dense": true,
        "disabled": false,
        "fieldType": {
            "optionsList": [
                "text",
                "search",
                "tel",
                "url",
                "email",
                "password",
                "date",
                "month",
                "week",
                "time",
                "datetime-local",
                "number"
            ],
            "selectedValue": "text"
        },
        "iconButtonIcon": "",
        "labelText": "First Name",
        "onKeyDown": "",
        "onKeyUp": "",
        "placeholder": "",
        "showIconButtonTrailing": true,
        "value": ""
    },
    "cwEvents": [
        "valueChanged",
        "isValid",
        "onKeyDown",
        "onKeyUp"
    ],
    "cwid": "cwa42be51691834e0eba953697bbf896b3",
    "desktopweb": {
        "zIndex": "auto"
    },
    "id": "inputFirstName",
    "info": null,
    "ipad": {
        "render": false
    },
    "iphone": {
        "render": false
    },
    "iscustomlayout": false,
    "isvisible": true,
    "kiosk": {
        "render": false
    },
    "kuid": "c4eecc83fd0c40ad80676058d6889b6b",
    "name": "uuxTextField-kony.ui",
    "nameSpaceIndex": 0,
    "parent": "flxCustomerDetailsSearch",
    "pf": "frmSearchCustomer",
    "platformKey": "spa",
    "retaincontentalignment": false,
    "retainflexpositionproperties": false,
    "tabrcandroid": {
        "render": false
    },
    "wType": "TPW",
    "watchos": {
        "render": false
    },
    "widgetIndex": 22,
    "windows10": {
        "render": false
    },
    "windows8": {
        "render": false
    },
    "winphone10": {
        "render": false
    },
    "winphone8": {
        "render": false
    },
    "zindex": 1
}