{
  "operationConfig" : {
    "name" : "FundingDepositStatus7937",
    "type" : "MappedToBackend",
    "cachable" : false,
    "smsEnabled" : false,
    "security" : "authorized_app_user",
    "responseEncoding" : "UTF-8",
    "httpMethod" : "GET",
    "decodeResponseBody" : false,
    "odata" : [ {
      "id" : "$select",
      "dataType" : "string",
      "encode" : true,
      "accessType" : "readonly"
    }, {
      "id" : "$filter",
      "dataType" : "string",
      "encode" : true,
      "accessType" : "readonly"
    }, {
      "id" : "$orderby",
      "dataType" : "string",
      "encode" : true,
      "accessType" : "readonly"
    }, {
      "id" : "$top",
      "dataType" : "string",
      "encode" : true,
      "accessType" : "readonly"
    }, {
      "id" : "$skip",
      "dataType" : "string",
      "encode" : true,
      "accessType" : "readonly"
    }, {
      "id" : "$expand",
      "dataType" : "string",
      "encode" : true,
      "accessType" : "readonly"
    }, {
      "id" : "$batchsize",
      "dataType" : "string",
      "encode" : true,
      "accessType" : "readonly"
    }, {
      "id" : "$batchid",
      "dataType" : "string",
      "encode" : true,
      "accessType" : "readonly"
    } ],
    "iMapping" : "<?xml version=\"1.0\" encoding=\"UTF-8\" standalone=\"yes\"?>\n<mapper xmlns=\"http://www.kony.com/ns/mapper\">\n    <map inputpath=\"request_in\" outputpath=\"request_out\">\n        <set-param inputpath=\"contract\" outputpath=\"contractId\"/>\n    </map>\n</mapper>\n",
    "oMapping" : "<?xml version=\"1.0\" encoding=\"UTF-8\" standalone=\"yes\"?>\n<mapper xmlns=\"http://www.kony.com/ns/mapper\">\n    <map inputpath=\"response_in\" outputpath=\"response_out\">\n        <map inputpath=\"body\" outputpath=\"FundingDepositStatus\">\n            <set-param inputpath=\"contract\" outputpath=\"contract\"/>\n            <set-param inputpath=\"balanceType\" outputpath=\"balanceType\"/>\n            <set-param inputpath=\"debitMvmt\" outputpath=\"debitMvmt\"/>\n            <set-param inputpath=\"ccy\" outputpath=\"ccy\"/>\n            <set-param inputpath=\"matDate\" outputpath=\"matDate\"/>\n        </map>\n    </map>\n</mapper>\n",
    "iVisualMappingData" : "{\"nodeDataArray\":[{\"isGroup\":true,\"key\":\"request_in\",\"text\":\"FundingDepositStatus\",\"xy\":\"150 100\"},{\"isGroup\":true,\"key\":\"request_out\",\"text\":\"FundsDeposit (1.0).FundingDepositStatus\",\"xy\":\"770 100\"}],\"linkDataArray\":[{\"category\":\"Mapping\",\"visible\":true,\"from\":\"source:FundingDepositStatus:contract:\",\"to\":\"target:contractId:\",\"fromPort\":\"source:FundingDepositStatus:contract:\",\"toPort\":\"target:contractId:\"}],\"blockCount\":{\"variableCount\":0},\"variableMap\":{},\"xmlMappingOverride\":false}",
    "oVisualMappingData" : "{\"nodeDataArray\":[{\"isGroup\":true,\"key\":\"response_out\",\"text\":\"FundingDepositStatus\",\"xy\":\"652 427\"},{\"isGroup\":true,\"key\":\"response_in\",\"text\":\"FundsDeposit (1.0).FundingDepositStatus\",\"xy\":\"150 100\"}],\"linkDataArray\":[{\"category\":\"Mapping\",\"visible\":true,\"from\":\"source:body:balanceType:\",\"to\":\"target:FundingDepositStatus:balanceType:\",\"fromPort\":\"source:body:balanceType:\",\"toPort\":\"target:FundingDepositStatus:balanceType:\"},{\"category\":\"Mapping\",\"visible\":true,\"from\":\"source:body:ccy:\",\"to\":\"target:FundingDepositStatus:ccy:\",\"fromPort\":\"source:body:ccy:\",\"toPort\":\"target:FundingDepositStatus:ccy:\"},{\"category\":\"Mapping\",\"visible\":true,\"from\":\"source:body:matDate:\",\"to\":\"target:FundingDepositStatus:matDate:\",\"fromPort\":\"source:body:matDate:\",\"toPort\":\"target:FundingDepositStatus:matDate:\"},{\"category\":\"Mapping\",\"visible\":true,\"from\":\"source:body:debitMvmt:\",\"to\":\"target:FundingDepositStatus:debitMvmt:\",\"fromPort\":\"source:body:debitMvmt:\",\"toPort\":\"target:FundingDepositStatus:debitMvmt:\"},{\"category\":\"Mapping\",\"visible\":true,\"from\":\"source:body:contract:\",\"to\":\"target:FundingDepositStatus:contract:\",\"fromPort\":\"source:body:contract:\",\"toPort\":\"target:FundingDepositStatus:contract:\"}],\"blockCount\":{\"variableCount\":0},\"variableMap\":{},\"xmlMappingOverride\":false}",
    "applyCommonMapping" : false,
    "applyRequestCommonMapping" : false,
    "applyResponseCommonMapping" : false,
    "backendMeta" : {
      "serviceName" : "FundsDeposit",
      "serviceVersion" : "1.0",
      "operationName" : "FundingDepositStatus"
    },
    "relationshipHierarchyMapping" : {
      "children" : [ ],
      "name" : "FundingDepositStatus",
      "actions" : {
        "get" : true
      },
      "selected" : true
    },
    "requestXmlMappingOverride" : false,
    "responseXmlMappingOverride" : false
  }
}