{
    "@class": "com.kony.gen.viz.model.component.KVizButton",
    "DNDConfig": null,
    "_height_": {
        "type": "string",
        "value": "40px"
    },
    "_margin_": [
        6,
        6,
        6,
        6
    ],
    "_padding_": [
        0,
        0,
        0,
        0
    ],
    "_right_": {
        "type": "string",
        "value": "20px"
    },
    "_skin_": "s88ca0a674884151888448dded25410d",
    "_text_": "Confirm",
    "_top_": {
        "type": "string",
        "value": "20px"
    },
    "_width_": {
        "type": "string",
        "value": "200dp"
    },
    "canUpdateUI": true,
    "containerweight": 100,
    "contentalignment": 5,
    "displaytext": true,
    "focusskin": "s97169b53f1040b7a810778eeee98e68",
    "id": "btnConfirm",
    "info": null,
    "iscustomlayout": false,
    "isvisible": true,
    "kuid": "cdc18acc76fb4f76b2b3b2cb6048124d",
    "name": "kony.ui.Button",
    "parent": "FlxDAteRecalculate",
    "pf": "frmPaymentHoliday",
    "retaincontentalignment": false,
    "retainflexpositionproperties": false,
    "wType": "Button",
    "zindex": 7
}