{
    "@class": "com.kony.gen.viz.model.component.KVizDateField",
    "DNDConfig": null,
    "Image": "calendar.png",
    "__id": "TempAccountsRow_Calendar0hdacae9433e24c",
    "__input": "Calendar0hdacae9433e24c",
    "_data_": null,
    "_date_": "24/11/2020",
    "_height_": {
        "type": "string",
        "value": "100%"
    },
    "_left_": {
        "type": "string",
        "value": "0dp"
    },
    "_margin_": [
        0,
        0,
        0,
        0
    ],
    "_padding_": [
        0,
        0,
        0,
        0
    ],
    "_skin_": "sb064dce23b74e77b1998935649495c7",
    "_top_": {
        "type": "string",
        "value": "0dp"
    },
    "_width_": {
        "type": "string",
        "value": "100%"
    },
    "advview": "default",
    "calendaricon": "calendar.png",
    "canUpdateUI": true,
    "containerweight": 100,
    "contentalignment": 5,
    "datecomponents": [
        24,
        11,
        2020,
        0,
        0,
        0
    ],
    "dateeditable": true,
    "dateformat": "dd/MM/yyyy",
    "datesGroup": [],
    "datesState": 0,
    "day": 24,
    "daytextalignmentincell": 5,
    "displayedMonths": [
        11,
        2020
    ],
    "entereddate": [
        24,
        11,
        2020,
        0,
        0,
        0
    ],
    "format": "dd/MM/yyyy",
    "formatteddate": "24/11/2020",
    "hidedaysheader": false,
    "hidemonthsheader": false,
    "hour": 0,
    "id": "Calendar0hdacae9433e24c",
    "info": null,
    "iscustomlayout": false,
    "isvisible": true,
    "kuid": "gf4724dd877a4a528ed960f81b2da71e",
    "minutes": 0,
    "month": 11,
    "monthsinrow": 3,
    "name": "kony.ui.Calendar",
    "navigatorAlert": "Invalid Selection",
    "noofmonths": 1,
    "pagedate": "/2020",
    "parent": "flxStartDate",
    "pf": "frmPaymentHoliday",
    "popupHeight": "auto",
    "popupWidth": "auto",
    "retaincontentalignment": false,
    "retainflexpositionproperties": false,
    "seconds": 0,
    "selectdate": "//2020",
    "startDay": 0,
    "viewtype": "default",
    "wType": "Calendar",
    "watchos": {
        "render": false
    },
    "widgetalignment": 5,
    "widths": [
        "14.2857%;",
        "14.2857%;",
        "14.2857%;",
        "14.2857%;",
        "14.2857%;",
        "14.2857%;",
        "14.2857%;"
    ],
    "windows10": {
        "render": false
    },
    "winphone10": {
        "render": false
    },
    "year": 2020,
    "zindex": 1
}