{
    "DNDConfig": null,
    "_height_": {
        "type": "string",
        "value": "240px"
    },
    "_left_": {
        "type": "string",
        "value": "0dp"
    },
    "_margin_": [
        0,
        0,
        0,
        0
    ],
    "_orientation_": 6,
    "_padding_": [
        0,
        0,
        0,
        0
    ],
    "_percent_": true,
    "_skin_": "se31956b9efb4cdeb803f81ffb1335e2",
    "_top_": {
        "type": "string",
        "value": "0dp"
    },
    "_width_": {
        "type": "string",
        "value": "100%"
    },
    "allboxes": [],
    "autogrowmode": 0,
    "canUpdateUI": true,
    "children": [
        "lblHdr",
        "lblPayAmount",
        "lblPayAmountOpted",
        "lblEur",
        "CopylblEur0j19f012f82814c",
        "lblNext",
        "CopylblNext0f22d02f0470044",
        "CopylblNext0e3352c17f17645",
        "lblMaturityDate",
        "lblCurrentPayment"
    ],
    "clipbounds": true,
    "containerweight": 100,
    "enablescrolling": true,
    "id": "FlxCurrentPaymentDetailss",
    "info": null,
    "iscustomlayout": false,
    "isvisible": true,
    "kuid": "g942f9edaa3a4254a0ea04b788c72331",
    "layouttype": 2,
    "name": "kony.ui.FlexContainer",
    "parent": "flxDetails",
    "pf": "frmPaymentHoliday",
    "retaincontentalignment": false,
    "retainflexpositionproperties": false,
    "retainflowhorizontalalignment": false,
    "snapgridsize": 10,
    "snaptogrid": true,
    "wType": "FlexContainer",
    "widgetalignment": 1
}