{
    "@class": "com.kony.gen.viz.model.component.KVizListBox",
    "DNDConfig": null,
    "_height_": {
        "type": "string",
        "value": "44dp"
    },
    "_left_": {
        "type": "string",
        "value": "0px"
    },
    "_margin_": [
        0,
        0,
        0,
        0
    ],
    "_padding_": [
        2,
        0,
        1,
        0
    ],
    "_placeholder_": "Please Select",
    "_skin_": "sddf77c1bb3e451292e5032bb17de594",
    "_width_": {
        "type": "string",
        "value": "26%"
    },
    "canUpdateUI": true,
    "centery": {
        "type": "string",
        "value": "50%"
    },
    "containerweight": 100,
    "contentalignment": 4,
    "focusskin": "s6459b4e1e854d2ebfa3bf2b0a69365f",
    "groupcells": false,
    "id": "ListBox0On",
    "info": null,
    "iscustomlayout": false,
    "isvisible": true,
    "kiosk": {
        "psp": {
            "placeholder": "Services"
        }
    },
    "kuid": "dff53e76f74542dcb8780e9a98cc960d",
    "masterdata": [
        [
            "lb1",
            "Services"
        ],
        [
            "lb2",
            "Apply Payment Hiliday"
        ],
        [
            "lb3",
            "Change Interest"
        ],
        [
            "lb4",
            "Disburse"
        ],
        [
            "lb5",
            "Increase Principal"
        ],
        [
            "lb6",
            "Payoff"
        ],
        [
            "lb7",
            "Repay"
        ]
    ],
    "name": "kony.ui.ListBox",
    "paddinginpixel": false,
    "parent": "flxbgBlue",
    "pf": "frmPaymentHoliday",
    "retaincontentalignment": false,
    "retainflexpositionproperties": false,
    "selectedkeys": null,
    "selectedkeyvalue": null,
    "selectedkeyvalues": null,
    "size": 18,
    "viewconfig": {
        "toggleViewConfig": {
            "viewStyle": 0
        }
    },
    "viewtype": 0,
    "wType": "ListBox",
    "zindex": 3
}