{
    "DNDConfig": null,
    "_height_": {
        "type": "string",
        "value": "560px"
    },
    "_left_": {
        "type": "string",
        "value": "-2dp"
    },
    "_margin_": [
        0,
        0,
        0,
        0
    ],
    "_orientation_": 6,
    "_padding_": [
        0,
        0,
        0,
        0
    ],
    "_percent_": true,
    "_skin_": "sa69b2f1c1374bd5a22306d27d404e5e",
    "_top_": {
        "type": "string",
        "value": "80dp"
    },
    "_width_": {
        "type": "string",
        "value": "100%"
    },
    "allboxes": [],
    "autogrowmode": 0,
    "canUpdateUI": true,
    "children": [
        "flxbgBlue",
        "FlxCurrentPaymentDetailss",
        "FlxDAteRecalculate",
        "flxgraph"
    ],
    "clipbounds": false,
    "containerId": true,
    "containerweight": 100,
    "enablescrolling": true,
    "id": "flxDetails",
    "info": null,
    "iscustomlayout": false,
    "isvisible": false,
    "kuid": "i5fed46466304dc68c7d8fb80c65e420",
    "layouttype": 2,
    "name": "kony.ui.FlexContainer",
    "parent": "flxInitial1",
    "pf": "TempAccountsRow",
    "retaincontentalignment": false,
    "retainflexpositionproperties": false,
    "retainflowhorizontalalignment": false,
    "snapgridsize": 10,
    "snaptogrid": true,
    "wType": "FlexContainer",
    "widgetalignment": 1,
    "zindex": 3
}