{
    "@class": "com.kony.gen.viz.model.component.KVizButton",
    "DNDConfig": null,
    "_height_": {
        "type": "string",
        "value": "100%"
    },
    "_left_": {
        "type": "string",
        "value": "0dp"
    },
    "_margin_": [
        6,
        6,
        6,
        6
    ],
    "_padding_": [
        1,
        0,
        0,
        0
    ],
    "_skin_": "sa1a0078fe6d48c6be58ebae3e7a2b22",
    "_text_": "",
    "_top_": {
        "type": "string",
        "value": "0dp"
    },
    "_width_": {
        "type": "ref",
        "value": "preferred"
    },
    "canUpdateUI": true,
    "containerId": true,
    "containerweight": 100,
    "contentalignment": 2,
    "displaytext": true,
    "focusskin": "sb47e4be03c74bcc8599b34b76f24950",
    "id": "btnsort5",
    "info": null,
    "iscustomlayout": false,
    "isvisible": true,
    "kuid": "ad930348c72e4249be36ecd755cd3be7",
    "name": "kony.ui.Button",
    "paddinginpixel": false,
    "parent": "FlexGroup0b883b054ed3940",
    "pf": "TempAccountsHeader",
    "retaincontentalignment": false,
    "retainflexpositionproperties": false,
    "wType": "Button",
    "zindex": 1
}