{
    "DNDConfig": null,
    "_height_": {
        "type": "string",
        "value": "100%"
    },
    "_left_": {
        "type": "string",
        "value": "0dp"
    },
    "_margin_": [
        0,
        0,
        0,
        0
    ],
    "_orientation_": 6,
    "_padding_": [
        0,
        0,
        0,
        0
    ],
    "_percent_": true,
    "_skin_": "se31956b9efb4cdeb803f81ffb1335e2",
    "_top_": {
        "type": "string",
        "value": "0dp"
    },
    "_width_": {
        "type": "string",
        "value": "100%"
    },
    "allboxes": [],
    "autogrowmode": 0,
    "canUpdateUI": true,
    "children": [
        "lblAcNum",
        "btnsort1",
        "lblAcType",
        "btnsort2",
        "lblCCY",
        "btnsort3",
        "lblClearBal",
        "btnsort4",
        "lblLockedAc",
        "btnsort5",
        "lblAvlBal",
        "btnsort6",
        "lblAcServices",
        "btnsort7"
    ],
    "clipbounds": true,
    "containerId": true,
    "containerweight": 100,
    "enablescrolling": true,
    "id": "FlexGroup0b883b054ed3940",
    "info": null,
    "iscustomlayout": false,
    "isvisible": true,
    "kuid": "bc573d63de96427ea36236b6f130d0a3",
    "layouttype": 3,
    "name": "kony.ui.FlexContainer",
    "parent": "flxNow",
    "pf": "TempAccountsHeader",
    "retaincontentalignment": false,
    "retainflexpositionproperties": false,
    "retainflowhorizontalalignment": false,
    "snapgridsize": 10,
    "snaptogrid": true,
    "wType": "FlexContainer",
    "widgetalignment": 1
}