{
    "DNDConfig": null,
    "_bottom_": {
        "type": "string",
        "value": "80px"
    },
    "_height_": {
        "type": "string",
        "value": "250px"
    },
    "_left_": {
        "type": "string",
        "value": "0dp"
    },
    "_margin_": [
        0,
        0,
        0,
        0
    ],
    "_orientation_": 6,
    "_padding_": [
        0,
        0,
        0,
        0
    ],
    "_percent_": true,
    "_skin_": "se31956b9efb4cdeb803f81ffb1335e2",
    "_top_": {
        "type": "number",
        "value": "230"
    },
    "_width_": {
        "type": "string",
        "value": "100%"
    },
    "allboxes": [],
    "autogrowmode": 0,
    "canUpdateUI": true,
    "children": [],
    "clipbounds": true,
    "containerId": true,
    "containerweight": 100,
    "enablescrolling": true,
    "id": "flxgraph",
    "info": null,
    "iscustomlayout": false,
    "isvisible": true,
    "kuid": "f1596039f7154cdfbd285956efe56187",
    "layouttype": 2,
    "name": "kony.ui.FlexContainer",
    "parent": "flxDetails",
    "pf": "TempDepositsRow",
    "retaincontentalignment": false,
    "retainflexpositionproperties": false,
    "retainflowhorizontalalignment": false,
    "snapgridsize": 10,
    "snaptogrid": true,
    "wType": "FlexContainer",
    "widgetalignment": 1,
    "zindex": 1
}