{
  "android": {
    "font_name": "default",
    "font_size": 88,
    "isForked": false
  },
  "androidwearos": {
    "font_name": "default",
    "font_size": 88,
    "isForked": false
  },
  "background_color": "ffffff00",
  "bg_type": "one",
  "border_color": "DAD1FFff",
  "border_style": "plain",
  "border_type": 0,
  "border_width": 0,
  "desktopweb": {
    "font_name": "castle-icons",
    "font_size": 88,
    "isForked": false
  },
  "fontSizeInPx": false,
  "font_color": "d32e2fff",
  "font_name": "iphoneSystem",
  "font_size": 88,
  "font_style": "normal",
  "font_weight": "400",
  "ipad": {
    "font_name": "System",
    "font_size": 88,
    "isForked": false
  },
  "iphone": {
    "font_name": "System",
    "font_size": 88,
    "isForked": false
  },
  "isDefaultSkin": false,
  "kiosk": {
    "font_name": "castle-icons",
    "font_size": 88,
    "isForked": false
  },
  "kuid": "s870d858631e40bb80f977c38b7669cb",
  "spaan": {
    "font_name": "Helvetica",
    "font_size": 88,
    "isForked": false
  },
  "spaandroidtablet": {
    "font_name": "Helvetica",
    "font_size": 88,
    "isForked": false
  },
  "spaip": {
    "font_name": "Helvetica",
    "font_size": 88,
    "isForked": false
  },
  "spaipad": {
    "font_name": "Helvetica",
    "font_size": 88,
    "isForked": false
  },
  "spawindowstablet": {
    "font_name": "Helvetica",
    "font_size": 88,
    "isForked": false
  },
  "spawinphone8": {
    "font_name": "Helvetica",
    "font_size": 88,
    "isForked": false
  },
  "tabrcandroid": {
    "font_name": "default",
    "font_size": 88,
    "isForked": false
  },
  "wType": "Button",
  "watchos": {
    "font_name": "System",
    "font_size": 88,
    "isForked": false
  },
  "windows8": {
    "font_name": "None",
    "font_size": 88,
    "isForked": false
  },
  "winphone8": {
    "font_name": "None",
    "font_size": 88,
    "isForked": false
  }
}