{
    "android": {
        "font_name": "default",
        "font_size": 33,
        "isForked": false
    },
    "androidwearos": {
        "font_name": "default",
        "font_size": 43,
        "isForked": false
    },
    "background_color": "ffffff00",
    "bg_type": "one",
    "border_color": "333333ff",
    "border_style": "plain",
    "border_type": 0,
    "border_width": 0,
    "desktopweb": {
        "font_name": "SourceSansPro-Regular",
        "font_size": 75,
        "isForked": false
    },
    "fontSizeInPx": true,
    "font_color": "3333337f",
    "font_name": "iphoneSystem",
    "font_size": 75,
    "ipad": {
        "font_name": "System",
        "font_size": 43,
        "isForked": false
    },
    "iphone": {
        "font_name": "System",
        "font_size": 41,
        "isForked": false
    },
    "isDefaultSkin": false,
    "kiosk": {
        "font_name": "None",
        "font_size": 75,
        "isForked": false
    },
    "kuid": "s71537121a5f475db18a634c9fc624f7",
    "spaan": {
        "font_name": "Helvetica",
        "font_size": 80,
        "isForked": false
    },
    "spaandroidtablet": {
        "font_name": "Helvetica",
        "font_size": 67,
        "isForked": false
    },
    "spaip": {
        "font_name": "Helvetica",
        "font_size": 77,
        "isForked": false
    },
    "spaipad": {
        "font_name": "Helvetica",
        "font_size": 71,
        "isForked": false
    },
    "spawindowstablet": {
        "font_name": "Helvetica",
        "font_size": 71,
        "isForked": false
    },
    "spawinphone8": {
        "font_name": "Helvetica",
        "font_size": 100,
        "isForked": false
    },
    "tabrcandroid": {
        "font_name": "default",
        "font_size": 71,
        "isForked": false
    },
    "wType": "TextField",
    "watchos": {
        "font_name": "System",
        "font_size": 43,
        "isForked": false
    },
    "windows8": {
        "font_name": "None",
        "font_size": 29,
        "isForked": false
    },
    "winphone8": {
        "font_name": "None",
        "font_size": 40,
        "isForked": false
    }
}