{
  "android": {
    "font_name": "default"
  },
  "androidwearos": {
    "font_name": "default"
  },
  "background_color": "97979707",
  "bg_type": "one",
  "border_color": "ffffffff",
  "border_style": "rc",
  "border_type": 0,
  "border_width": 4,
  "desktopweb": {
    "bottom_left_border_color": "ffffffff",
    "bottom_left_border_radius": 10,
    "bottom_left_border_style": "rc",
    "bottom_left_border_width": 4,
    "bottom_right_border_color": "ffffffff",
    "bottom_right_border_radius": 10,
    "bottom_right_border_style": "rc",
    "bottom_right_border_width": 4,
    "font_name": "Helvetica",
    "isForked": true,
    "shadow": {
      "br": 0,
      "color": "000000",
      "inner": false,
      "nm": 0,
      "x": 0,
      "y": 0
    },
    "top_left_border_color": "ffffffff",
    "top_left_border_radius": 10,
    "top_left_border_style": "rc",
    "top_left_border_width": 4,
    "top_right_border_color": "ffffffff",
    "top_right_border_radius": 10,
    "top_right_border_style": "rc",
    "top_right_border_width": 4
  },
  "ipad": {
    "font_name": "System",
    "isForked": true,
    "shadow": {
      "br": 0,
      "color": "000000",
      "inner": false,
      "nm": 0,
      "x": 0,
      "y": 0
    }
  },
  "iphone": {
    "font_name": "System",
    "isForked": true,
    "shadow": {
      "br": 0,
      "color": "000000",
      "inner": false,
      "nm": 0,
      "x": 0,
      "y": 0
    }
  },
  "isDefaultSkin": false,
  "kiosk": {
    "font_name": "None"
  },
  "kuid": "se369794a9044704afc4ea8cf5d619cc",
  "spaan": {
    "bottom_left_border_color": "ffffffff",
    "bottom_left_border_radius": 10,
    "bottom_left_border_style": "rc",
    "bottom_left_border_width": 4,
    "bottom_right_border_color": "ffffffff",
    "bottom_right_border_radius": 10,
    "bottom_right_border_style": "rc",
    "bottom_right_border_width": 4,
    "font_name": "Helvetica",
    "isForked": true,
    "shadow": {
      "br": 0,
      "color": "000000",
      "inner": false,
      "nm": 0,
      "x": 0,
      "y": 0
    },
    "top_left_border_color": "ffffffff",
    "top_left_border_radius": 10,
    "top_left_border_style": "rc",
    "top_left_border_width": 4,
    "top_right_border_color": "ffffffff",
    "top_right_border_radius": 10,
    "top_right_border_style": "rc",
    "top_right_border_width": 4
  },
  "spaandroidtablet": {
    "bottom_left_border_color": "ffffffff",
    "bottom_left_border_radius": 10,
    "bottom_left_border_style": "rc",
    "bottom_left_border_width": 4,
    "bottom_right_border_color": "ffffffff",
    "bottom_right_border_radius": 10,
    "bottom_right_border_style": "rc",
    "bottom_right_border_width": 4,
    "font_name": "Helvetica",
    "isForked": true,
    "shadow": {
      "br": 0,
      "color": "000000",
      "inner": false,
      "nm": 0,
      "x": 0,
      "y": 0
    },
    "top_left_border_color": "ffffffff",
    "top_left_border_radius": 10,
    "top_left_border_style": "rc",
    "top_left_border_width": 4,
    "top_right_border_color": "ffffffff",
    "top_right_border_radius": 10,
    "top_right_border_style": "rc",
    "top_right_border_width": 4
  },
  "spaip": {
    "bottom_left_border_color": "ffffffff",
    "bottom_left_border_radius": 10,
    "bottom_left_border_style": "rc",
    "bottom_left_border_width": 4,
    "bottom_right_border_color": "ffffffff",
    "bottom_right_border_radius": 10,
    "bottom_right_border_style": "rc",
    "bottom_right_border_width": 4,
    "font_name": "Helvetica",
    "isForked": true,
    "shadow": {
      "br": 0,
      "color": "000000",
      "inner": false,
      "nm": 0,
      "x": 0,
      "y": 0
    },
    "top_left_border_color": "ffffffff",
    "top_left_border_radius": 10,
    "top_left_border_style": "rc",
    "top_left_border_width": 4,
    "top_right_border_color": "ffffffff",
    "top_right_border_radius": 10,
    "top_right_border_style": "rc",
    "top_right_border_width": 4
  },
  "spaipad": {
    "bottom_left_border_color": "ffffffff",
    "bottom_left_border_radius": 10,
    "bottom_left_border_style": "rc",
    "bottom_left_border_width": 4,
    "bottom_right_border_color": "ffffffff",
    "bottom_right_border_radius": 10,
    "bottom_right_border_style": "rc",
    "bottom_right_border_width": 4,
    "font_name": "Helvetica",
    "isForked": true,
    "shadow": {
      "br": 0,
      "color": "000000",
      "inner": false,
      "nm": 0,
      "x": 0,
      "y": 0
    },
    "top_left_border_color": "ffffffff",
    "top_left_border_radius": 10,
    "top_left_border_style": "rc",
    "top_left_border_width": 4,
    "top_right_border_color": "ffffffff",
    "top_right_border_radius": 10,
    "top_right_border_style": "rc",
    "top_right_border_width": 4
  },
  "spawindowstablet": {
    "bottom_left_border_color": "ffffffff",
    "bottom_left_border_radius": 10,
    "bottom_left_border_style": "rc",
    "bottom_left_border_width": 4,
    "bottom_right_border_color": "ffffffff",
    "bottom_right_border_radius": 10,
    "bottom_right_border_style": "rc",
    "bottom_right_border_width": 4,
    "font_name": "Helvetica",
    "isForked": true,
    "shadow": {
      "br": 0,
      "color": "000000",
      "inner": false,
      "nm": 0,
      "x": 0,
      "y": 0
    },
    "top_left_border_color": "ffffffff",
    "top_left_border_radius": 10,
    "top_left_border_style": "rc",
    "top_left_border_width": 4,
    "top_right_border_color": "ffffffff",
    "top_right_border_radius": 10,
    "top_right_border_style": "rc",
    "top_right_border_width": 4
  },
  "spawinphone8": {
    "bottom_left_border_color": "ffffffff",
    "bottom_left_border_radius": 10,
    "bottom_left_border_style": "rc",
    "bottom_left_border_width": 4,
    "bottom_right_border_color": "ffffffff",
    "bottom_right_border_radius": 10,
    "bottom_right_border_style": "rc",
    "bottom_right_border_width": 4,
    "font_name": "Helvetica",
    "isForked": true,
    "shadow": {
      "br": 0,
      "color": "000000",
      "inner": false,
      "nm": 0,
      "x": 0,
      "y": 0
    },
    "top_left_border_color": "ffffffff",
    "top_left_border_radius": 10,
    "top_left_border_style": "rc",
    "top_left_border_width": 4,
    "top_right_border_color": "ffffffff",
    "top_right_border_radius": 10,
    "top_right_border_style": "rc",
    "top_right_border_width": 4
  },
  "tabrcandroid": {
    "font_name": "default"
  },
  "wType": "FlexContainer",
  "watchos": {
    "font_name": "System"
  },
  "windows8": {
    "font_name": "None"
  },
  "winphone8": {
    "font_name": "None"
  }
}