{
  "android": {
    "background_color": "ffffff00",
    "bg_type": "one",
    "font_name": "default",
    "isForked": true
  },
  "androidwearos": {
    "background_color": "ffffff00",
    "bg_type": "one",
    "font_name": "default",
    "isForked": true
  },
  "background_color": "00000000",
  "bg_type": "one",
  "border_color": "000000ff",
  "border_radius": 30,
  "border_style": "custom",
  "border_type": 0,
  "border_width": 1,
  "desktopweb": {
    "background_color": "ffffff00",
    "bg_type": "one",
    "border_type": 0,
    "bottom_left_border_color": "ccccccff",
    "bottom_left_border_style": "plain",
    "bottom_left_border_width": "0",
    "bottom_right_border_color": "ccccccff",
    "bottom_right_border_style": "plain",
    "bottom_right_border_width": "0",
    "font_name": "Helvetica",
    "isForked": true,
    "shadow": {
      "br": 5,
      "color": "ccccccff",
      "inner": false,
      "nm": 0,
      "x": 0,
      "y": 0
    },
    "top_left_border_color": "ccccccff",
    "top_left_border_style": "plain",
    "top_left_border_width": "0",
    "top_right_border_color": "ccccccff",
    "top_right_border_style": "plain",
    "top_right_border_width": "0"
  },
  "ipad": {
    "background_color": "ffffff00",
    "bg_type": "one",
    "font_name": "System",
    "isForked": true,
    "shadow": {
      "br": 5,
      "color": "ccccccff",
      "inner": false,
      "nm": 0,
      "x": 0,
      "y": 0
    }
  },
  "iphone": {
    "background_color": "ffffff00",
    "bg_type": "one",
    "font_name": "System",
    "isForked": true,
    "shadow": {
      "br": 5,
      "color": "ccccccff",
      "inner": false,
      "nm": 0,
      "x": 0,
      "y": 0
    }
  },
  "isDefaultSkin": false,
  "kiosk": {
    "background_color": "ffffff00",
    "bg_type": "one",
    "font_name": "None",
    "isForked": true
  },
  "kuid": "s88bb4b74c244669a1b5389d05ecbfae",
  "spaan": {
    "background_color": "ffffff00",
    "bg_type": "one",
    "border_type": 0,
    "bottom_left_border_color": "ccccccff",
    "bottom_left_border_style": "plain",
    "bottom_left_border_width": "0",
    "bottom_right_border_color": "ccccccff",
    "bottom_right_border_style": "plain",
    "bottom_right_border_width": "0",
    "font_name": "Helvetica",
    "isForked": true,
    "shadow": {
      "br": 5,
      "color": "ccccccff",
      "inner": false,
      "nm": 0,
      "x": 0,
      "y": 0
    },
    "top_left_border_color": "ccccccff",
    "top_left_border_style": "plain",
    "top_left_border_width": "0",
    "top_right_border_color": "ccccccff",
    "top_right_border_style": "plain",
    "top_right_border_width": "0"
  },
  "spaandroidtablet": {
    "background_color": "ffffff00",
    "bg_type": "one",
    "border_type": 0,
    "bottom_left_border_color": "ccccccff",
    "bottom_left_border_style": "plain",
    "bottom_left_border_width": "0",
    "bottom_right_border_color": "ccccccff",
    "bottom_right_border_style": "plain",
    "bottom_right_border_width": "0",
    "font_name": "Helvetica",
    "isForked": true,
    "shadow": {
      "br": 5,
      "color": "ccccccff",
      "inner": false,
      "nm": 0,
      "x": 0,
      "y": 0
    },
    "top_left_border_color": "ccccccff",
    "top_left_border_style": "plain",
    "top_left_border_width": "0",
    "top_right_border_color": "ccccccff",
    "top_right_border_style": "plain",
    "top_right_border_width": "0"
  },
  "spaip": {
    "background_color": "ffffff00",
    "bg_type": "one",
    "border_type": 0,
    "bottom_left_border_color": "ccccccff",
    "bottom_left_border_style": "plain",
    "bottom_left_border_width": "0",
    "bottom_right_border_color": "ccccccff",
    "bottom_right_border_style": "plain",
    "bottom_right_border_width": "0",
    "font_name": "Helvetica",
    "isForked": true,
    "shadow": {
      "br": 5,
      "color": "ccccccff",
      "inner": false,
      "nm": 0,
      "x": 0,
      "y": 0
    },
    "top_left_border_color": "ccccccff",
    "top_left_border_style": "plain",
    "top_left_border_width": "0",
    "top_right_border_color": "ccccccff",
    "top_right_border_style": "plain",
    "top_right_border_width": "0"
  },
  "spaipad": {
    "background_color": "ffffff00",
    "bg_type": "one",
    "border_type": 0,
    "bottom_left_border_color": "ccccccff",
    "bottom_left_border_style": "plain",
    "bottom_left_border_width": "0",
    "bottom_right_border_color": "ccccccff",
    "bottom_right_border_style": "plain",
    "bottom_right_border_width": "0",
    "font_name": "Helvetica",
    "isForked": true,
    "shadow": {
      "br": 5,
      "color": "ccccccff",
      "inner": false,
      "nm": 0,
      "x": 0,
      "y": 0
    },
    "top_left_border_color": "ccccccff",
    "top_left_border_style": "plain",
    "top_left_border_width": "0",
    "top_right_border_color": "ccccccff",
    "top_right_border_style": "plain",
    "top_right_border_width": "0"
  },
  "spawindowstablet": {
    "background_color": "ffffff00",
    "bg_type": "one",
    "border_type": 0,
    "bottom_left_border_color": "ccccccff",
    "bottom_left_border_style": "plain",
    "bottom_left_border_width": "0",
    "bottom_right_border_color": "ccccccff",
    "bottom_right_border_style": "plain",
    "bottom_right_border_width": "0",
    "font_name": "Helvetica",
    "isForked": true,
    "shadow": {
      "br": 5,
      "color": "ccccccff",
      "inner": false,
      "nm": 0,
      "x": 0,
      "y": 0
    },
    "top_left_border_color": "ccccccff",
    "top_left_border_style": "plain",
    "top_left_border_width": "0",
    "top_right_border_color": "ccccccff",
    "top_right_border_style": "plain",
    "top_right_border_width": "0"
  },
  "spawinphone8": {
    "background_color": "ffffff00",
    "bg_type": "one",
    "border_type": 0,
    "bottom_left_border_color": "ccccccff",
    "bottom_left_border_style": "plain",
    "bottom_left_border_width": "0",
    "bottom_right_border_color": "ccccccff",
    "bottom_right_border_style": "plain",
    "bottom_right_border_width": "0",
    "font_name": "Helvetica",
    "isForked": true,
    "shadow": {
      "br": 5,
      "color": "ccccccff",
      "inner": false,
      "nm": 0,
      "x": 0,
      "y": 0
    },
    "top_left_border_color": "ccccccff",
    "top_left_border_style": "plain",
    "top_left_border_width": "0",
    "top_right_border_color": "ccccccff",
    "top_right_border_style": "plain",
    "top_right_border_width": "0"
  },
  "tabrcandroid": {
    "background_color": "ffffff00",
    "bg_type": "one",
    "font_name": "default",
    "isForked": true
  },
  "wType": "FlexContainer",
  "watchos": {
    "font_name": "System"
  },
  "windows8": {
    "background_color": "ffffff00",
    "bg_type": "one",
    "font_name": "None",
    "isForked": true
  },
  "winphone8": {
    "background_color": "ffffff00",
    "bg_type": "one",
    "font_name": "None",
    "isForked": true
  }
}