{
  "android": {
    "font_name": "default"
  },
  "androidwearos": {
    "font_name": "default"
  },
  "background_color": "00000000",
  "bg_type": "one",
  "border_color": "8f8f8fff",
  "border_radius": 10,
  "border_style": "custom",
  "border_type": 0,
  "border_width": 1,
  "desktopweb": {
    "bottom_left_border_color": "8f8f8fff",
    "bottom_left_border_radius": 10,
    "bottom_left_border_style": "rc",
    "bottom_left_border_width": 1,
    "bottom_right_border_color": "8f8f8fff",
    "bottom_right_border_radius": 10,
    "bottom_right_border_style": "rc",
    "bottom_right_border_width": 1,
    "font_name": "Helvetica",
    "isForked": true,
    "shadow": {
      "br": 7,
      "color": "8f8f8f",
      "inner": false,
      "nm": 0,
      "x": 0,
      "y": 0
    },
    "top_left_border_color": "8f8f8fff",
    "top_left_border_radius": 10,
    "top_left_border_style": "rc",
    "top_left_border_width": 1,
    "top_right_border_color": "8f8f8fff",
    "top_right_border_radius": 10,
    "top_right_border_style": "rc",
    "top_right_border_width": 1
  },
  "ipad": {
    "font_name": "System",
    "isForked": true,
    "shadow": {
      "br": 7,
      "color": "8f8f8f",
      "inner": false,
      "nm": 0,
      "x": 0,
      "y": 0
    }
  },
  "iphone": {
    "font_name": "System",
    "isForked": true,
    "shadow": {
      "br": 7,
      "color": "8f8f8f",
      "inner": false,
      "nm": 0,
      "x": 0,
      "y": 0
    }
  },
  "isDefaultSkin": false,
  "kiosk": {
    "font_name": "None"
  },
  "kuid": "s451b72976424416a264018ebbe3cda1",
  "spaan": {
    "bottom_left_border_color": "8f8f8fff",
    "bottom_left_border_radius": 10,
    "bottom_left_border_style": "rc",
    "bottom_left_border_width": 1,
    "bottom_right_border_color": "8f8f8fff",
    "bottom_right_border_radius": 10,
    "bottom_right_border_style": "rc",
    "bottom_right_border_width": 1,
    "font_name": "Helvetica",
    "isForked": true,
    "shadow": {
      "br": 7,
      "color": "8f8f8f",
      "inner": false,
      "nm": 0,
      "x": 0,
      "y": 0
    },
    "top_left_border_color": "8f8f8fff",
    "top_left_border_radius": 10,
    "top_left_border_style": "rc",
    "top_left_border_width": 1,
    "top_right_border_color": "8f8f8fff",
    "top_right_border_radius": 10,
    "top_right_border_style": "rc",
    "top_right_border_width": 1
  },
  "spaandroidtablet": {
    "bottom_left_border_color": "8f8f8fff",
    "bottom_left_border_radius": 10,
    "bottom_left_border_style": "rc",
    "bottom_left_border_width": 1,
    "bottom_right_border_color": "8f8f8fff",
    "bottom_right_border_radius": 10,
    "bottom_right_border_style": "rc",
    "bottom_right_border_width": 1,
    "font_name": "Helvetica",
    "isForked": true,
    "shadow": {
      "br": 7,
      "color": "8f8f8f",
      "inner": false,
      "nm": 0,
      "x": 0,
      "y": 0
    },
    "top_left_border_color": "8f8f8fff",
    "top_left_border_radius": 10,
    "top_left_border_style": "rc",
    "top_left_border_width": 1,
    "top_right_border_color": "8f8f8fff",
    "top_right_border_radius": 10,
    "top_right_border_style": "rc",
    "top_right_border_width": 1
  },
  "spaip": {
    "bottom_left_border_color": "8f8f8fff",
    "bottom_left_border_radius": 10,
    "bottom_left_border_style": "rc",
    "bottom_left_border_width": 1,
    "bottom_right_border_color": "8f8f8fff",
    "bottom_right_border_radius": 10,
    "bottom_right_border_style": "rc",
    "bottom_right_border_width": 1,
    "font_name": "Helvetica",
    "isForked": true,
    "shadow": {
      "br": 7,
      "color": "8f8f8f",
      "inner": false,
      "nm": 0,
      "x": 0,
      "y": 0
    },
    "top_left_border_color": "8f8f8fff",
    "top_left_border_radius": 10,
    "top_left_border_style": "rc",
    "top_left_border_width": 1,
    "top_right_border_color": "8f8f8fff",
    "top_right_border_radius": 10,
    "top_right_border_style": "rc",
    "top_right_border_width": 1
  },
  "spaipad": {
    "bottom_left_border_color": "8f8f8fff",
    "bottom_left_border_radius": 10,
    "bottom_left_border_style": "rc",
    "bottom_left_border_width": 1,
    "bottom_right_border_color": "8f8f8fff",
    "bottom_right_border_radius": 10,
    "bottom_right_border_style": "rc",
    "bottom_right_border_width": 1,
    "font_name": "Helvetica",
    "isForked": true,
    "shadow": {
      "br": 7,
      "color": "8f8f8f",
      "inner": false,
      "nm": 0,
      "x": 0,
      "y": 0
    },
    "top_left_border_color": "8f8f8fff",
    "top_left_border_radius": 10,
    "top_left_border_style": "rc",
    "top_left_border_width": 1,
    "top_right_border_color": "8f8f8fff",
    "top_right_border_radius": 10,
    "top_right_border_style": "rc",
    "top_right_border_width": 1
  },
  "spawindowstablet": {
    "bottom_left_border_color": "8f8f8fff",
    "bottom_left_border_radius": 10,
    "bottom_left_border_style": "rc",
    "bottom_left_border_width": 1,
    "bottom_right_border_color": "8f8f8fff",
    "bottom_right_border_radius": 10,
    "bottom_right_border_style": "rc",
    "bottom_right_border_width": 1,
    "font_name": "Helvetica",
    "isForked": true,
    "shadow": {
      "br": 7,
      "color": "8f8f8f",
      "inner": false,
      "nm": 0,
      "x": 0,
      "y": 0
    },
    "top_left_border_color": "8f8f8fff",
    "top_left_border_radius": 10,
    "top_left_border_style": "rc",
    "top_left_border_width": 1,
    "top_right_border_color": "8f8f8fff",
    "top_right_border_radius": 10,
    "top_right_border_style": "rc",
    "top_right_border_width": 1
  },
  "spawinphone8": {
    "bottom_left_border_color": "8f8f8fff",
    "bottom_left_border_radius": 10,
    "bottom_left_border_style": "rc",
    "bottom_left_border_width": 1,
    "bottom_right_border_color": "8f8f8fff",
    "bottom_right_border_radius": 10,
    "bottom_right_border_style": "rc",
    "bottom_right_border_width": 1,
    "font_name": "Helvetica",
    "isForked": true,
    "shadow": {
      "br": 7,
      "color": "8f8f8f",
      "inner": false,
      "nm": 0,
      "x": 0,
      "y": 0
    },
    "top_left_border_color": "8f8f8fff",
    "top_left_border_radius": 10,
    "top_left_border_style": "rc",
    "top_left_border_width": 1,
    "top_right_border_color": "8f8f8fff",
    "top_right_border_radius": 10,
    "top_right_border_style": "rc",
    "top_right_border_width": 1
  },
  "tabrcandroid": {
    "font_name": "default"
  },
  "wType": "FlexContainer",
  "watchos": {
    "font_name": "System"
  },
  "windows8": {
    "font_name": "None"
  },
  "winphone8": {
    "font_name": "None"
  }
}