{
  "android": {
    "background_color": "f3f3ffff",
    "bg_type": "one",
    "font_name": "default",
    "font_size": 39,
    "isForked": true
  },
  "androidwearos": {
    "background_color": "f3f3ffff",
    "bg_type": "one",
    "font_name": "default",
    "font_size": 50,
    "isForked": true
  },
  "background_color": "ffffff00",
  "bg_type": "one",
  "border_color": "e9edf300",
  "border_style": "plain",
  "border_type": 0,
  "border_width": 2,
  "desktopweb": {
    "background_color": "f3f3ffff",
    "bg_type": "one",
    "bottom_left_border_color": "e9edf300",
    "bottom_left_border_style": "plain",
    "bottom_left_border_width": 2,
    "bottom_right_border_color": "5f50c9ff",
    "bottom_right_border_style": "plain",
    "bottom_right_border_width": "1",
    "font_name": "Roboto-Regular",
    "font_size": 88,
    "isForked": true,
    "top_left_border_color": "e9edf300",
    "top_left_border_style": "plain",
    "top_left_border_width": 2,
    "top_right_border_color": "e9edf300",
    "top_right_border_style": "plain",
    "top_right_border_width": 2
  },
  "font_color": "5f50c9ff",
  "font_name": "iphoneSystem",
  "font_size": 100,
  "font_style": "normal",
  "font_weight": "400",
  "ipad": {
    "background_color": "f3f3ffff",
    "bg_type": "one",
    "font_name": "System",
    "font_size": 50,
    "isForked": true
  },
  "iphone": {
    "background_color": "f3f3ffff",
    "bg_type": "one",
    "font_name": "System",
    "font_size": 48,
    "isForked": true
  },
  "isDefaultSkin": false,
  "kiosk": {
    "background_color": "f3f3ffff",
    "bg_type": "one",
    "font_name": "None",
    "font_size": 88,
    "isForked": true
  },
  "kuid": "scef1e8afa0143e9911d943f0132982e",
  "spaan": {
    "background_color": "f3f3ffff",
    "bg_type": "one",
    "border_type": 0,
    "font_name": "Helvetica",
    "font_size": 93,
    "isForked": true
  },
  "spaandroidtablet": {
    "background_color": "f3f3ffff",
    "bg_type": "one",
    "border_type": 0,
    "font_name": "Helvetica",
    "font_size": 78,
    "isForked": true
  },
  "spaip": {
    "background_color": "f3f3ffff",
    "bg_type": "one",
    "border_type": 0,
    "font_name": "Helvetica",
    "font_size": 90,
    "isForked": true
  },
  "spaipad": {
    "background_color": "f3f3ffff",
    "bg_type": "one",
    "border_type": 0,
    "font_name": "Helvetica",
    "font_size": 82,
    "isForked": true
  },
  "spawindowstablet": {
    "background_color": "f3f3ffff",
    "bg_type": "one",
    "border_type": 0,
    "font_name": "Helvetica",
    "font_size": 82,
    "isForked": true
  },
  "spawinphone8": {
    "background_color": "f3f3ffff",
    "bg_type": "one",
    "border_type": 0,
    "font_name": "Helvetica",
    "font_size": 117,
    "isForked": true
  },
  "tabrcandroid": {
    "background_color": "f3f3ffff",
    "bg_type": "one",
    "font_name": "default",
    "font_size": 83,
    "isForked": true
  },
  "wType": "ListBox",
  "watchos": {
    "font_name": "System",
    "font_size": 57,
    "isForked": false
  },
  "windows8": {
    "background_color": "f3f3ffff",
    "bg_type": "one",
    "font_name": "None",
    "font_size": 34,
    "isForked": true
  },
  "winphone8": {
    "background_color": "f3f3ffff",
    "bg_type": "one",
    "font_name": "None",
    "font_size": 47,
    "isForked": true
  }
}