{
  "android": {
    "background_color": {
      "angle": 90,
      "colors": [
        "1743bdff",
        "1743bdff",
        "ba88b6ff"
      ],
      "cs": [
        0,
        26,
        95
      ],
      "gradientType": "toRight",
      "gt": "linear"
    },
    "background_style": "linear",
    "bg_type": "ms_gradient",
    "font_name": "default",
    "isForked": true
  },
  "androidwearos": {
    "background_color": {
      "angle": 90,
      "colors": [
        "1743bdff",
        "1743bdff",
        "ba88b6ff"
      ],
      "cs": [
        0,
        26,
        95
      ],
      "gradientType": "toRight",
      "gt": "linear"
    },
    "background_style": "linear",
    "bg_type": "ms_gradient",
    "font_name": "default",
    "isForked": true
  },
  "background_color": "c683c0ff",
  "bg_type": "one",
  "border_color": "000000ff",
  "border_style": "plain",
  "border_type": 0,
  "border_width": 0,
  "desktopweb": {
    "background_color": {
      "angle": 90,
      "colors": [
        "1743bdff",
        "1743bdff",
        "ba88b6ff"
      ],
      "cs": [
        0,
        26,
        95
      ],
      "gradientType": "toRight",
      "gt": "linear"
    },
    "background_style": "linear",
    "bg_type": "ms_gradient",
    "border_type": 0,
    "bottom_left_border_color": "00000000",
    "bottom_left_border_style": "plain",
    "bottom_left_border_width": "0",
    "bottom_right_border_color": "00000000",
    "bottom_right_border_style": "plain",
    "bottom_right_border_width": "0",
    "font_name": "Helvetica",
    "isForked": true,
    "top_left_border_color": "00000000",
    "top_left_border_style": "plain",
    "top_left_border_width": "0",
    "top_right_border_color": "00000000",
    "top_right_border_style": "plain",
    "top_right_border_width": "0"
  },
  "ipad": {
    "background_color": {
      "angle": 90,
      "colors": [
        "1743bdff",
        "1743bdff",
        "ba88b6ff"
      ],
      "cs": [
        0,
        26,
        95
      ],
      "gradientType": "toRight",
      "gt": "linear"
    },
    "background_style": "linear",
    "bg_type": "ms_gradient",
    "font_name": "System",
    "isForked": true
  },
  "iphone": {
    "background_color": {
      "angle": 90,
      "colors": [
        "1743bdff",
        "1743bdff",
        "ba88b6ff"
      ],
      "cs": [
        0,
        26,
        95
      ],
      "gradientType": "toRight",
      "gt": "linear"
    },
    "background_style": "linear",
    "bg_type": "ms_gradient",
    "font_name": "System",
    "isForked": true
  },
  "isDefaultSkin": false,
  "kiosk": {
    "background_color": {
      "angle": 90,
      "colors": [
        "1743bdff",
        "1743bdff",
        "ba88b6ff"
      ],
      "cs": [
        0,
        26,
        95
      ],
      "gradientType": "toRight",
      "gt": "linear"
    },
    "background_style": "linear",
    "bg_type": "ms_gradient",
    "font_name": "None",
    "isForked": true
  },
  "kuid": "sa69b2f1c1374bd5a22306d27d404e5e",
  "spaan": {
    "background_color": {
      "angle": 90,
      "colors": [
        "1743bdff",
        "1743bdff",
        "ba88b6ff"
      ],
      "cs": [
        0,
        26,
        95
      ],
      "gradientType": "toRight",
      "gt": "linear"
    },
    "background_style": "linear",
    "bg_type": "ms_gradient",
    "border_type": 0,
    "bottom_left_border_color": "00000000",
    "bottom_left_border_style": "plain",
    "bottom_left_border_width": "0",
    "bottom_right_border_color": "00000000",
    "bottom_right_border_style": "plain",
    "bottom_right_border_width": "0",
    "font_name": "Helvetica",
    "isForked": true,
    "top_left_border_color": "00000000",
    "top_left_border_style": "plain",
    "top_left_border_width": "0",
    "top_right_border_color": "00000000",
    "top_right_border_style": "plain",
    "top_right_border_width": "0"
  },
  "spaandroidtablet": {
    "background_color": {
      "angle": 90,
      "colors": [
        "1743bdff",
        "1743bdff",
        "ba88b6ff"
      ],
      "cs": [
        0,
        26,
        95
      ],
      "gradientType": "toRight",
      "gt": "linear"
    },
    "background_style": "linear",
    "bg_type": "ms_gradient",
    "border_type": 0,
    "bottom_left_border_color": "00000000",
    "bottom_left_border_style": "plain",
    "bottom_left_border_width": "0",
    "bottom_right_border_color": "00000000",
    "bottom_right_border_style": "plain",
    "bottom_right_border_width": "0",
    "font_name": "Helvetica",
    "isForked": true,
    "top_left_border_color": "00000000",
    "top_left_border_style": "plain",
    "top_left_border_width": "0",
    "top_right_border_color": "00000000",
    "top_right_border_style": "plain",
    "top_right_border_width": "0"
  },
  "spaip": {
    "background_color": {
      "angle": 90,
      "colors": [
        "1743bdff",
        "1743bdff",
        "ba88b6ff"
      ],
      "cs": [
        0,
        26,
        95
      ],
      "gradientType": "toRight",
      "gt": "linear"
    },
    "background_style": "linear",
    "bg_type": "ms_gradient",
    "border_type": 0,
    "bottom_left_border_color": "00000000",
    "bottom_left_border_style": "plain",
    "bottom_left_border_width": "0",
    "bottom_right_border_color": "00000000",
    "bottom_right_border_style": "plain",
    "bottom_right_border_width": "0",
    "font_name": "Helvetica",
    "isForked": true,
    "top_left_border_color": "00000000",
    "top_left_border_style": "plain",
    "top_left_border_width": "0",
    "top_right_border_color": "00000000",
    "top_right_border_style": "plain",
    "top_right_border_width": "0"
  },
  "spaipad": {
    "background_color": {
      "angle": 90,
      "colors": [
        "1743bdff",
        "1743bdff",
        "ba88b6ff"
      ],
      "cs": [
        0,
        26,
        95
      ],
      "gradientType": "toRight",
      "gt": "linear"
    },
    "background_style": "linear",
    "bg_type": "ms_gradient",
    "border_type": 0,
    "bottom_left_border_color": "00000000",
    "bottom_left_border_style": "plain",
    "bottom_left_border_width": "0",
    "bottom_right_border_color": "00000000",
    "bottom_right_border_style": "plain",
    "bottom_right_border_width": "0",
    "font_name": "Helvetica",
    "isForked": true,
    "top_left_border_color": "00000000",
    "top_left_border_style": "plain",
    "top_left_border_width": "0",
    "top_right_border_color": "00000000",
    "top_right_border_style": "plain",
    "top_right_border_width": "0"
  },
  "spawindowstablet": {
    "background_color": {
      "angle": 90,
      "colors": [
        "1743bdff",
        "1743bdff",
        "ba88b6ff"
      ],
      "cs": [
        0,
        26,
        95
      ],
      "gradientType": "toRight",
      "gt": "linear"
    },
    "background_style": "linear",
    "bg_type": "ms_gradient",
    "border_type": 0,
    "bottom_left_border_color": "00000000",
    "bottom_left_border_style": "plain",
    "bottom_left_border_width": "0",
    "bottom_right_border_color": "00000000",
    "bottom_right_border_style": "plain",
    "bottom_right_border_width": "0",
    "font_name": "Helvetica",
    "isForked": true,
    "top_left_border_color": "00000000",
    "top_left_border_style": "plain",
    "top_left_border_width": "0",
    "top_right_border_color": "00000000",
    "top_right_border_style": "plain",
    "top_right_border_width": "0"
  },
  "spawinphone8": {
    "background_color": {
      "angle": 90,
      "colors": [
        "1743bdff",
        "1743bdff",
        "ba88b6ff"
      ],
      "cs": [
        0,
        26,
        95
      ],
      "gradientType": "toRight",
      "gt": "linear"
    },
    "background_style": "linear",
    "bg_type": "ms_gradient",
    "border_type": 0,
    "bottom_left_border_color": "00000000",
    "bottom_left_border_style": "plain",
    "bottom_left_border_width": "0",
    "bottom_right_border_color": "00000000",
    "bottom_right_border_style": "plain",
    "bottom_right_border_width": "0",
    "font_name": "Helvetica",
    "isForked": true,
    "top_left_border_color": "00000000",
    "top_left_border_style": "plain",
    "top_left_border_width": "0",
    "top_right_border_color": "00000000",
    "top_right_border_style": "plain",
    "top_right_border_width": "0"
  },
  "tabrcandroid": {
    "background_color": {
      "angle": 90,
      "colors": [
        "1743bdff",
        "1743bdff",
        "ba88b6ff"
      ],
      "cs": [
        0,
        26,
        95
      ],
      "gradientType": "toRight",
      "gt": "linear"
    },
    "background_style": "linear",
    "bg_type": "ms_gradient",
    "font_name": "default",
    "isForked": true
  },
  "wType": "FlexContainer",
  "watchos": {
    "font_name": "System"
  },
  "windows8": {
    "background_color": {
      "angle": 90,
      "colors": [
        "1743bdff",
        "1743bdff",
        "ba88b6ff"
      ],
      "cs": [
        0,
        26,
        95
      ],
      "gradientType": "toRight",
      "gt": "linear"
    },
    "background_style": "linear",
    "bg_type": "ms_gradient",
    "font_name": "None",
    "isForked": true
  },
  "winphone8": {
    "background_color": {
      "angle": 90,
      "colors": [
        "1743bdff",
        "1743bdff",
        "ba88b6ff"
      ],
      "cs": [
        0,
        26,
        95
      ],
      "gradientType": "toRight",
      "gt": "linear"
    },
    "background_style": "linear",
    "bg_type": "ms_gradient",
    "font_name": "None",
    "isForked": true
  }
}