{
    "android": {
        "font_name": "default"
    },
    "androidwearos": {
        "font_name": "default"
    },
    "background_color": "2772c3ff",
    "bg_type": "one",
    "border_color": "000000ff",
    "border_style": "rc",
    "border_type": 0,
    "border_width": 1,
    "delinkedPltfrms": {
        "androidwear": [],
        "desktop": [],
        "mobile": [],
        "tablet": [],
        "watch": []
    },
    "ipad": {
        "font_name": "System"
    },
    "iphone": {
        "font_name": "System"
    },
    "isDefaultSkin": false,
    "kiosk": {
        "font_name": "None"
    },
    "kuid": "s43ded9828734e10ad7dd5214f173c59",
    "spaan": {
        "border_type": 0,
        "bottom_left_border_color": "000000ff",
        "bottom_left_border_radius": "7",
        "bottom_left_border_style": "rc",
        "bottom_left_border_width": "1",
        "bottom_right_border_color": "e5e5e5ff",
        "bottom_right_border_radius": "7",
        "bottom_right_border_style": "rc",
        "bottom_right_border_width": "1",
        "font_name": "Helvetica",
        "isForked": true,
        "top_left_border_color": "000000ff",
        "top_left_border_radius": "7",
        "top_left_border_style": "rc",
        "top_left_border_width": "1",
        "top_right_border_color": "000000ff",
        "top_right_border_radius": "7",
        "top_right_border_style": "rc",
        "top_right_border_width": "1"
    },
    "spaandroidtablet": {
        "border_type": 0,
        "bottom_left_border_color": "000000ff",
        "bottom_left_border_radius": "7",
        "bottom_left_border_style": "rc",
        "bottom_left_border_width": "1",
        "bottom_right_border_color": "e5e5e5ff",
        "bottom_right_border_radius": "7",
        "bottom_right_border_style": "rc",
        "bottom_right_border_width": "1",
        "font_name": "Helvetica",
        "isForked": true,
        "top_left_border_color": "000000ff",
        "top_left_border_radius": "7",
        "top_left_border_style": "rc",
        "top_left_border_width": "1",
        "top_right_border_color": "000000ff",
        "top_right_border_radius": "7",
        "top_right_border_style": "rc",
        "top_right_border_width": "1"
    },
    "spaip": {
        "border_type": 0,
        "bottom_left_border_color": "000000ff",
        "bottom_left_border_radius": "7",
        "bottom_left_border_style": "rc",
        "bottom_left_border_width": "1",
        "bottom_right_border_color": "e5e5e5ff",
        "bottom_right_border_radius": "7",
        "bottom_right_border_style": "rc",
        "bottom_right_border_width": "1",
        "font_name": "Helvetica",
        "isForked": true,
        "top_left_border_color": "000000ff",
        "top_left_border_radius": "7",
        "top_left_border_style": "rc",
        "top_left_border_width": "1",
        "top_right_border_color": "000000ff",
        "top_right_border_radius": "7",
        "top_right_border_style": "rc",
        "top_right_border_width": "1"
    },
    "spaipad": {
        "border_type": 0,
        "bottom_left_border_color": "000000ff",
        "bottom_left_border_radius": "7",
        "bottom_left_border_style": "rc",
        "bottom_left_border_width": "1",
        "bottom_right_border_color": "e5e5e5ff",
        "bottom_right_border_radius": "7",
        "bottom_right_border_style": "rc",
        "bottom_right_border_width": "1",
        "font_name": "Helvetica",
        "isForked": true,
        "top_left_border_color": "000000ff",
        "top_left_border_radius": "7",
        "top_left_border_style": "rc",
        "top_left_border_width": "1",
        "top_right_border_color": "000000ff",
        "top_right_border_radius": "7",
        "top_right_border_style": "rc",
        "top_right_border_width": "1"
    },
    "spawindowstablet": {
        "border_type": 0,
        "bottom_left_border_color": "000000ff",
        "bottom_left_border_radius": "7",
        "bottom_left_border_style": "rc",
        "bottom_left_border_width": "1",
        "bottom_right_border_color": "e5e5e5ff",
        "bottom_right_border_radius": "7",
        "bottom_right_border_style": "rc",
        "bottom_right_border_width": "1",
        "font_name": "Helvetica",
        "isForked": true,
        "top_left_border_color": "000000ff",
        "top_left_border_radius": "7",
        "top_left_border_style": "rc",
        "top_left_border_width": "1",
        "top_right_border_color": "000000ff",
        "top_right_border_radius": "7",
        "top_right_border_style": "rc",
        "top_right_border_width": "1"
    },
    "spawinphone8": {
        "border_type": 0,
        "bottom_left_border_color": "000000ff",
        "bottom_left_border_radius": "7",
        "bottom_left_border_style": "rc",
        "bottom_left_border_width": "1",
        "bottom_right_border_color": "e5e5e5ff",
        "bottom_right_border_radius": "7",
        "bottom_right_border_style": "rc",
        "bottom_right_border_width": "1",
        "font_name": "Helvetica",
        "isForked": true,
        "top_left_border_color": "000000ff",
        "top_left_border_radius": "7",
        "top_left_border_style": "rc",
        "top_left_border_width": "1",
        "top_right_border_color": "000000ff",
        "top_right_border_radius": "7",
        "top_right_border_style": "rc",
        "top_right_border_width": "1"
    },
    "tabrcandroid": {
        "font_name": "default"
    },
    "wType": "FlexContainer",
    "watchos": {
        "font_name": "System"
    },
    "windows8": {
        "font_name": "None"
    },
    "winphone8": {
        "font_name": "None"
    }
}