{
    "android": {
        "font_name": "default",
        "font_size": 67,
        "isForked": false
    },
    "androidwearos": {
        "font_name": "default",
        "font_size": 86,
        "isForked": false
    },
    "background_color": "00000000",
    "bg_type": "one",
    "border_color": "424242ff",
    "border_style": "plain",
    "border_type": 0,
    "border_width": 0,
    "desktopweb": {
        "font_name": "Roboto-Medium",
        "font_size": 150,
        "isForked": false
    },
    "fontSizeInPx": true,
    "font_color": "4d4d4dff",
    "font_name": "iphoneSystem",
    "font_size": 150,
    "font_style": "normal",
    "font_weight": "normal",
    "ipad": {
        "font_name": "System",
        "font_size": 86,
        "isForked": false
    },
    "iphone": {
        "font_name": "System",
        "font_size": 83,
        "isForked": false
    },
    "isDefaultSkin": false,
    "kiosk": {
        "font_name": "None",
        "font_size": 150,
        "isForked": false
    },
    "kuid": "sbe2e74a69984b4f86a57ca1602ec070",
    "spaan": {
        "font_name": "Helvetica",
        "font_size": 160,
        "isForked": false
    },
    "spaandroidtablet": {
        "font_name": "Helvetica",
        "font_size": 133,
        "isForked": false
    },
    "spaip": {
        "font_name": "Helvetica",
        "font_size": 155,
        "isForked": false
    },
    "spaipad": {
        "font_name": "Helvetica",
        "font_size": 141,
        "isForked": false
    },
    "spawindowstablet": {
        "font_name": "Helvetica",
        "font_size": 141,
        "isForked": false
    },
    "spawinphone8": {
        "font_name": "Helvetica",
        "font_size": 200,
        "isForked": false
    },
    "tabrcandroid": {
        "font_name": "default",
        "font_size": 142,
        "isForked": false
    },
    "wType": "Label",
    "watchos": {
        "font_name": "System",
        "font_size": 86,
        "isForked": false
    },
    "windows8": {
        "font_name": "None",
        "font_size": 59,
        "isForked": false
    },
    "winphone8": {
        "font_name": "None",
        "font_size": 80,
        "isForked": false
    }
}