{
    "android": {
        "font_name": "default",
        "font_size": 88,
        "isForked": false
    },
    "androidwearos": {
        "font_name": "default",
        "font_size": 88,
        "isForked": false
    },
    "background_color": "f2f7fd00",
    "bg_type": "one",
    "border_color": "ffffff00",
    "border_style": "plain",
    "border_type": 0,
    "border_width": 1,
    "desktopweb": {
        "font_name": "Roboto-Regular",
        "font_size": 88,
        "isForked": false
    },
    "fontSizeInPx": false,
    "font_color": "000000ff",
    "font_name": "iphoneSystem",
    "font_size": 88,
    "font_style": "normal",
    "font_weight": "normal",
    "ipad": {
        "font_name": "System",
        "font_size": 88,
        "isForked": false
    },
    "iphone": {
        "font_name": "System",
        "font_size": 88,
        "isForked": false
    },
    "isDefaultSkin": false,
    "kiosk": {
        "font_name": "SourceSansPro-Regular",
        "font_size": 88,
        "isForked": false
    },
    "kuid": "s8d53e44a03b4ab69567d79940773e35",
    "spaan": {
        "font_name": "Helvetica",
        "font_size": 88,
        "isForked": false
    },
    "spaandroidtablet": {
        "font_name": "Helvetica",
        "font_size": 88,
        "isForked": false
    },
    "spaip": {
        "font_name": "Helvetica",
        "font_size": 88,
        "isForked": false
    },
    "spaipad": {
        "font_name": "Helvetica",
        "font_size": 88,
        "isForked": false
    },
    "spawindowstablet": {
        "font_name": "Helvetica",
        "font_size": 88,
        "isForked": false
    },
    "spawinphone8": {
        "font_name": "Helvetica",
        "font_size": 88,
        "isForked": false
    },
    "tabrcandroid": {
        "font_name": "default",
        "font_size": 88,
        "isForked": false
    },
    "wType": "TextField",
    "watchos": {
        "font_name": "System",
        "font_size": 88,
        "isForked": false
    },
    "windows8": {
        "font_name": "None",
        "font_size": 88,
        "isForked": false
    },
    "winphone8": {
        "font_name": "None",
        "font_size": 88,
        "isForked": false
    }
}