{
    "background_gradient_bottom_color": "eeeeffff",
    "background_gradient_top_color": "f8f8ffff",
    "background_style": "vg",
    "bg_type": "two",
    "border_color": "ffffffff",
    "isDefaultSkin": false,
    "kuid": "s458c297de8f46cb977c34b3437a6683",
    "wType": "Form"
}