{
  "android": {
    "background_color": {
      "angle": 90,
      "colors": [
        "2802cfff",
        "6052c9ff",
        "6052c9ff"
      ],
      "cs": [
        0,
        97,
        98
      ],
      "gradientType": "toRight",
      "gt": "linear"
    },
    "background_style": "linear",
    "bg_type": "ms_gradient",
    "font_name": "default",
    "font_size": 90,
    "isForked": true
  },
  "androidwearos": {
    "background_color": {
      "angle": 90,
      "colors": [
        "2802cfff",
        "6052c9ff",
        "6052c9ff"
      ],
      "cs": [
        0,
        97,
        98
      ],
      "gradientType": "toRight",
      "gt": "linear"
    },
    "background_style": "linear",
    "bg_type": "ms_gradient",
    "font_name": "default",
    "font_size": 90,
    "isForked": true
  },
  "background_color": "6f61d0ff",
  "bg_type": "one",
  "border_color": "6f61d0ff",
  "border_radius": 40,
  "border_style": "custom",
  "border_type": 0,
  "border_width": 1,
  "desktopweb": {
    "background_color": {
      "angle": 90,
      "colors": [
        "2802cfff",
        "6052c9ff",
        "6052c9ff"
      ],
      "cs": [
        0,
        97,
        98
      ],
      "gradientType": "toRight",
      "gt": "linear"
    },
    "background_style": "linear",
    "bg_type": "ms_gradient",
    "border_type": 0,
    "bottom_left_border_color": "6052c9ff",
    "bottom_left_border_radius": 40,
    "bottom_left_border_style": "rc",
    "bottom_left_border_width": 1,
    "bottom_right_border_color": "6052c9ff",
    "bottom_right_border_radius": 40,
    "bottom_right_border_style": "rc",
    "bottom_right_border_width": 1,
    "customCSS": "outline:none;\nbackground:#2802cf;\nborder: 1px solid #2802cf;\nborder-radius: 40px;\nfont: 11px Roboto-Regular;\ncolor : #ffffff;",
    "font_name": "Roboto-Regular",
    "font_size": 90,
    "isCustomCSSEnabled": true,
    "isForked": true,
    "top_left_border_color": "6052c9ff",
    "top_left_border_radius": 40,
    "top_left_border_style": "rc",
    "top_left_border_width": 1,
    "top_right_border_color": "6052c9ff",
    "top_right_border_radius": 40,
    "top_right_border_style": "rc",
    "top_right_border_width": 1
  },
  "fontSizeInPx": false,
  "font_color": "ffffffff",
  "font_name": "iphoneSystem",
  "font_size": 106,
  "font_style": "normal",
  "font_weight": "400",
  "ipad": {
    "background_color": {
      "angle": 90,
      "colors": [
        "2802cfff",
        "6052c9ff",
        "6052c9ff"
      ],
      "cs": [
        0,
        97,
        98
      ],
      "gradientType": "toRight",
      "gt": "linear"
    },
    "background_style": "linear",
    "bg_type": "ms_gradient",
    "font_name": "System",
    "font_size": 90,
    "isForked": true
  },
  "iphone": {
    "background_color": {
      "angle": 90,
      "colors": [
        "2802cfff",
        "6052c9ff",
        "6052c9ff"
      ],
      "cs": [
        0,
        97,
        98
      ],
      "gradientType": "toRight",
      "gt": "linear"
    },
    "background_style": "linear",
    "bg_type": "ms_gradient",
    "font_name": "System",
    "font_size": 90,
    "isForked": true
  },
  "isDefaultSkin": false,
  "kiosk": {
    "background_color": {
      "angle": 90,
      "colors": [
        "2802cfff",
        "6052c9ff",
        "6052c9ff"
      ],
      "cs": [
        0,
        97,
        98
      ],
      "gradientType": "toRight",
      "gt": "linear"
    },
    "background_style": "linear",
    "bg_type": "ms_gradient",
    "font_name": "None",
    "font_size": 90,
    "isForked": true
  },
  "kuid": "sb49c982a3a24673bece36bc3f27c335",
  "spaan": {
    "background_color": {
      "angle": 90,
      "colors": [
        "2802cfff",
        "6052c9ff",
        "6052c9ff"
      ],
      "cs": [
        0,
        97,
        98
      ],
      "gradientType": "toRight",
      "gt": "linear"
    },
    "background_style": "linear",
    "bg_type": "ms_gradient",
    "border_type": 0,
    "bottom_left_border_color": "6052c9ff",
    "bottom_left_border_radius": 40,
    "bottom_left_border_style": "rc",
    "bottom_left_border_width": 1,
    "bottom_right_border_color": "6052c9ff",
    "bottom_right_border_radius": 40,
    "bottom_right_border_style": "rc",
    "bottom_right_border_width": 1,
    "customCSS": "outline:none;\nbackground:#2802cf;\nborder: 1px solid #2802cf;\nborder-radius: 40px;\nfont: 11px Roboto-Regular;\ncolor : #ffffff;",
    "font_name": "Helvetica",
    "font_size": 90,
    "isCustomCSSEnabled": true,
    "isForked": true,
    "top_left_border_color": "6052c9ff",
    "top_left_border_radius": 40,
    "top_left_border_style": "rc",
    "top_left_border_width": 1,
    "top_right_border_color": "6052c9ff",
    "top_right_border_radius": 40,
    "top_right_border_style": "rc",
    "top_right_border_width": 1
  },
  "spaandroidtablet": {
    "background_color": {
      "angle": 90,
      "colors": [
        "2802cfff",
        "6052c9ff",
        "6052c9ff"
      ],
      "cs": [
        0,
        97,
        98
      ],
      "gradientType": "toRight",
      "gt": "linear"
    },
    "background_style": "linear",
    "bg_type": "ms_gradient",
    "border_type": 0,
    "bottom_left_border_color": "6052c9ff",
    "bottom_left_border_radius": 40,
    "bottom_left_border_style": "rc",
    "bottom_left_border_width": 1,
    "bottom_right_border_color": "6052c9ff",
    "bottom_right_border_radius": 40,
    "bottom_right_border_style": "rc",
    "bottom_right_border_width": 1,
    "customCSS": "outline:none;\nbackground:#2802cf;\nborder: 1px solid #2802cf;\nborder-radius: 40px;\nfont: 11px Roboto-Regular;\ncolor : #ffffff;",
    "font_name": "Helvetica",
    "font_size": 90,
    "isCustomCSSEnabled": true,
    "isForked": true,
    "top_left_border_color": "6052c9ff",
    "top_left_border_radius": 40,
    "top_left_border_style": "rc",
    "top_left_border_width": 1,
    "top_right_border_color": "6052c9ff",
    "top_right_border_radius": 40,
    "top_right_border_style": "rc",
    "top_right_border_width": 1
  },
  "spaip": {
    "background_color": {
      "angle": 90,
      "colors": [
        "2802cfff",
        "6052c9ff",
        "6052c9ff"
      ],
      "cs": [
        0,
        97,
        98
      ],
      "gradientType": "toRight",
      "gt": "linear"
    },
    "background_style": "linear",
    "bg_type": "ms_gradient",
    "border_type": 0,
    "bottom_left_border_color": "6052c9ff",
    "bottom_left_border_radius": 40,
    "bottom_left_border_style": "rc",
    "bottom_left_border_width": 1,
    "bottom_right_border_color": "6052c9ff",
    "bottom_right_border_radius": 40,
    "bottom_right_border_style": "rc",
    "bottom_right_border_width": 1,
    "customCSS": "outline:none;\nbackground:#2802cf;\nborder: 1px solid #2802cf;\nborder-radius: 40px;\nfont: 11px Roboto-Regular;\ncolor : #ffffff;",
    "font_name": "Helvetica",
    "font_size": 90,
    "isCustomCSSEnabled": true,
    "isForked": true,
    "top_left_border_color": "6052c9ff",
    "top_left_border_radius": 40,
    "top_left_border_style": "rc",
    "top_left_border_width": 1,
    "top_right_border_color": "6052c9ff",
    "top_right_border_radius": 40,
    "top_right_border_style": "rc",
    "top_right_border_width": 1
  },
  "spaipad": {
    "background_color": {
      "angle": 90,
      "colors": [
        "2802cfff",
        "6052c9ff",
        "6052c9ff"
      ],
      "cs": [
        0,
        97,
        98
      ],
      "gradientType": "toRight",
      "gt": "linear"
    },
    "background_style": "linear",
    "bg_type": "ms_gradient",
    "border_type": 0,
    "bottom_left_border_color": "6052c9ff",
    "bottom_left_border_radius": 40,
    "bottom_left_border_style": "rc",
    "bottom_left_border_width": 1,
    "bottom_right_border_color": "6052c9ff",
    "bottom_right_border_radius": 40,
    "bottom_right_border_style": "rc",
    "bottom_right_border_width": 1,
    "customCSS": "outline:none;\nbackground:#2802cf;\nborder: 1px solid #2802cf;\nborder-radius: 40px;\nfont: 11px Roboto-Regular;\ncolor : #ffffff;",
    "font_name": "Helvetica",
    "font_size": 90,
    "isCustomCSSEnabled": true,
    "isForked": true,
    "top_left_border_color": "6052c9ff",
    "top_left_border_radius": 40,
    "top_left_border_style": "rc",
    "top_left_border_width": 1,
    "top_right_border_color": "6052c9ff",
    "top_right_border_radius": 40,
    "top_right_border_style": "rc",
    "top_right_border_width": 1
  },
  "spawindowstablet": {
    "background_color": {
      "angle": 90,
      "colors": [
        "2802cfff",
        "6052c9ff",
        "6052c9ff"
      ],
      "cs": [
        0,
        97,
        98
      ],
      "gradientType": "toRight",
      "gt": "linear"
    },
    "background_style": "linear",
    "bg_type": "ms_gradient",
    "border_type": 0,
    "bottom_left_border_color": "6052c9ff",
    "bottom_left_border_radius": 40,
    "bottom_left_border_style": "rc",
    "bottom_left_border_width": 1,
    "bottom_right_border_color": "6052c9ff",
    "bottom_right_border_radius": 40,
    "bottom_right_border_style": "rc",
    "bottom_right_border_width": 1,
    "customCSS": "outline:none;\nbackground:#2802cf;\nborder: 1px solid #2802cf;\nborder-radius: 40px;\nfont: 11px Roboto-Regular;\ncolor : #ffffff;",
    "font_name": "Helvetica",
    "font_size": 90,
    "isCustomCSSEnabled": true,
    "isForked": true,
    "top_left_border_color": "6052c9ff",
    "top_left_border_radius": 40,
    "top_left_border_style": "rc",
    "top_left_border_width": 1,
    "top_right_border_color": "6052c9ff",
    "top_right_border_radius": 40,
    "top_right_border_style": "rc",
    "top_right_border_width": 1
  },
  "spawinphone8": {
    "background_color": {
      "angle": 90,
      "colors": [
        "2802cfff",
        "6052c9ff",
        "6052c9ff"
      ],
      "cs": [
        0,
        97,
        98
      ],
      "gradientType": "toRight",
      "gt": "linear"
    },
    "background_style": "linear",
    "bg_type": "ms_gradient",
    "border_type": 0,
    "bottom_left_border_color": "6052c9ff",
    "bottom_left_border_radius": 40,
    "bottom_left_border_style": "rc",
    "bottom_left_border_width": 1,
    "bottom_right_border_color": "6052c9ff",
    "bottom_right_border_radius": 40,
    "bottom_right_border_style": "rc",
    "bottom_right_border_width": 1,
    "customCSS": "outline:none;\nbackground:#2802cf;\nborder: 1px solid #2802cf;\nborder-radius: 40px;\nfont: 11px Roboto-Regular;\ncolor : #ffffff;",
    "font_name": "Helvetica",
    "font_size": 90,
    "isCustomCSSEnabled": true,
    "isForked": true,
    "top_left_border_color": "6052c9ff",
    "top_left_border_radius": 40,
    "top_left_border_style": "rc",
    "top_left_border_width": 1,
    "top_right_border_color": "6052c9ff",
    "top_right_border_radius": 40,
    "top_right_border_style": "rc",
    "top_right_border_width": 1
  },
  "tabrcandroid": {
    "background_color": {
      "angle": 90,
      "colors": [
        "2802cfff",
        "6052c9ff",
        "6052c9ff"
      ],
      "cs": [
        0,
        97,
        98
      ],
      "gradientType": "toRight",
      "gt": "linear"
    },
    "background_style": "linear",
    "bg_type": "ms_gradient",
    "font_name": "default",
    "font_size": 90,
    "isForked": true
  },
  "wType": "Button",
  "watchos": {
    "font_name": "System",
    "font_size": 90,
    "isForked": true
  },
  "windows8": {
    "background_color": {
      "angle": 90,
      "colors": [
        "2802cfff",
        "6052c9ff",
        "6052c9ff"
      ],
      "cs": [
        0,
        97,
        98
      ],
      "gradientType": "toRight",
      "gt": "linear"
    },
    "background_style": "linear",
    "bg_type": "ms_gradient",
    "font_name": "None",
    "font_size": 90,
    "isForked": true
  },
  "winphone8": {
    "background_color": {
      "angle": 90,
      "colors": [
        "2802cfff",
        "6052c9ff",
        "6052c9ff"
      ],
      "cs": [
        0,
        97,
        98
      ],
      "gradientType": "toRight",
      "gt": "linear"
    },
    "background_style": "linear",
    "bg_type": "ms_gradient",
    "font_name": "None",
    "font_size": 90,
    "isForked": true
  }
}