{
  "android": {
    "font_name": "default",
    "font_size": 31,
    "isForked": true
  },
  "androidwearos": {
    "font_name": "default",
    "font_size": 39,
    "isForked": true
  },
  "background_color": "ffffff00",
  "bg_type": "one",
  "border_color": "ffffffff",
  "border_style": "plain",
  "border_type": 0,
  "border_width": 0,
  "desktopweb": {
    "bottom_left_border_color": "ffffffff",
    "bottom_left_border_style": "plain",
    "bottom_left_border_width": 0,
    "bottom_right_border_color": "ffffffff",
    "bottom_right_border_style": "plain",
    "bottom_right_border_width": 0,
    "customCSS": "outline:none;\nfont: 12px Roboto-Regular;",
    "font_name": "Roboto-Regular",
    "font_size": 69,
    "isCustomCSSEnabled": true,
    "isForked": true,
    "top_left_border_color": "ffffffff",
    "top_left_border_style": "plain",
    "top_left_border_width": 0,
    "top_right_border_color": "ffffffff",
    "top_right_border_style": "plain",
    "top_right_border_width": 0
  },
  "fontSizeInPx": true,
  "font_color": "575757ff",
  "font_name": "iphoneSystem",
  "font_size": 90,
  "font_style": "normal",
  "font_weight": "400",
  "ipad": {
    "font_name": "System",
    "font_size": 39,
    "isForked": true
  },
  "iphone": {
    "font_name": "System",
    "font_size": 38,
    "isForked": true
  },
  "isDefaultSkin": false,
  "kiosk": {
    "font_name": "None",
    "font_size": 69,
    "isForked": true
  },
  "kuid": "s44f7871e81b4ff9abb4c3fabefe9289",
  "spaan": {
    "bottom_left_border_color": "ffffffff",
    "bottom_left_border_style": "plain",
    "bottom_left_border_width": 0,
    "bottom_right_border_color": "ffffffff",
    "bottom_right_border_style": "plain",
    "bottom_right_border_width": 0,
    "customCSS": "outline:none;\nfont: 12px Roboto-Regular;",
    "font_name": "Helvetica",
    "font_size": 73,
    "isCustomCSSEnabled": true,
    "isForked": true,
    "top_left_border_color": "ffffffff",
    "top_left_border_style": "plain",
    "top_left_border_width": 0,
    "top_right_border_color": "ffffffff",
    "top_right_border_style": "plain",
    "top_right_border_width": 0
  },
  "spaandroidtablet": {
    "bottom_left_border_color": "ffffffff",
    "bottom_left_border_style": "plain",
    "bottom_left_border_width": 0,
    "bottom_right_border_color": "ffffffff",
    "bottom_right_border_style": "plain",
    "bottom_right_border_width": 0,
    "customCSS": "outline:none;\nfont: 12px Roboto-Regular;",
    "font_name": "Helvetica",
    "font_size": 61,
    "isCustomCSSEnabled": true,
    "isForked": true,
    "top_left_border_color": "ffffffff",
    "top_left_border_style": "plain",
    "top_left_border_width": 0,
    "top_right_border_color": "ffffffff",
    "top_right_border_style": "plain",
    "top_right_border_width": 0
  },
  "spaip": {
    "bottom_left_border_color": "ffffffff",
    "bottom_left_border_style": "plain",
    "bottom_left_border_width": 0,
    "bottom_right_border_color": "ffffffff",
    "bottom_right_border_style": "plain",
    "bottom_right_border_width": 0,
    "customCSS": "outline:none;\nfont: 12px Roboto-Regular;",
    "font_name": "Helvetica",
    "font_size": 71,
    "isCustomCSSEnabled": true,
    "isForked": true,
    "top_left_border_color": "ffffffff",
    "top_left_border_style": "plain",
    "top_left_border_width": 0,
    "top_right_border_color": "ffffffff",
    "top_right_border_style": "plain",
    "top_right_border_width": 0
  },
  "spaipad": {
    "bottom_left_border_color": "ffffffff",
    "bottom_left_border_style": "plain",
    "bottom_left_border_width": 0,
    "bottom_right_border_color": "ffffffff",
    "bottom_right_border_style": "plain",
    "bottom_right_border_width": 0,
    "customCSS": "outline:none;\nfont: 12px Roboto-Regular;",
    "font_name": "Helvetica",
    "font_size": 65,
    "isCustomCSSEnabled": true,
    "isForked": true,
    "top_left_border_color": "ffffffff",
    "top_left_border_style": "plain",
    "top_left_border_width": 0,
    "top_right_border_color": "ffffffff",
    "top_right_border_style": "plain",
    "top_right_border_width": 0
  },
  "spawindowstablet": {
    "bottom_left_border_color": "ffffffff",
    "bottom_left_border_style": "plain",
    "bottom_left_border_width": 0,
    "bottom_right_border_color": "ffffffff",
    "bottom_right_border_style": "plain",
    "bottom_right_border_width": 0,
    "customCSS": "outline:none;\nfont: 12px Roboto-Regular;",
    "font_name": "Helvetica",
    "font_size": 65,
    "isCustomCSSEnabled": true,
    "isForked": true,
    "top_left_border_color": "ffffffff",
    "top_left_border_style": "plain",
    "top_left_border_width": 0,
    "top_right_border_color": "ffffffff",
    "top_right_border_style": "plain",
    "top_right_border_width": 0
  },
  "spawinphone8": {
    "bottom_left_border_color": "ffffffff",
    "bottom_left_border_style": "plain",
    "bottom_left_border_width": 0,
    "bottom_right_border_color": "ffffffff",
    "bottom_right_border_style": "plain",
    "bottom_right_border_width": 0,
    "customCSS": "outline:none;\nfont: 12px Roboto-Regular;",
    "font_name": "Helvetica",
    "font_size": 92,
    "isCustomCSSEnabled": true,
    "isForked": true,
    "top_left_border_color": "ffffffff",
    "top_left_border_style": "plain",
    "top_left_border_width": 0,
    "top_right_border_color": "ffffffff",
    "top_right_border_style": "plain",
    "top_right_border_width": 0
  },
  "tabrcandroid": {
    "font_name": "default",
    "font_size": 65,
    "isForked": true
  },
  "wType": "Button",
  "watchos": {
    "font_name": "System",
    "font_size": 39,
    "isForked": true
  },
  "windows8": {
    "font_name": "None",
    "font_size": 27,
    "isForked": true
  },
  "winphone8": {
    "font_name": "None",
    "font_size": 37,
    "isForked": true
  }
}