{
  "android": {
    "font_name": "default",
    "font_size": 31,
    "isForked": false
  },
  "androidwearos": {
    "font_name": "default",
    "font_size": 39,
    "isForked": false
  },
  "background_color": "00000000",
  "bg_type": "one",
  "border_color": "424242ff",
  "border_style": "plain",
  "border_type": 0,
  "border_width": 0,
  "desktopweb": {
    "font_name": "Roboto-Regular",
    "font_size": 69,
    "isForked": false
  },
  "fontSizeInPx": true,
  "font_color": "000000ff",
  "font_name": "iphoneSystem",
  "font_size": 69,
  "font_style": "normal",
  "font_weight": "normal",
  "ipad": {
    "font_name": "System",
    "font_size": 39,
    "isForked": false
  },
  "iphone": {
    "font_name": "System",
    "font_size": 38,
    "isForked": false
  },
  "isDefaultSkin": false,
  "kiosk": {
    "font_name": "None",
    "font_size": 69,
    "isForked": false
  },
  "kuid": "s281f882533f4bce9477a2fc6c35c80f",
  "spaan": {
    "font_name": "Helvetica",
    "font_size": 73,
    "isForked": false
  },
  "spaandroidtablet": {
    "font_name": "Helvetica",
    "font_size": 61,
    "isForked": false
  },
  "spaip": {
    "font_name": "Helvetica",
    "font_size": 71,
    "isForked": false
  },
  "spaipad": {
    "font_name": "Helvetica",
    "font_size": 65,
    "isForked": false
  },
  "spawindowstablet": {
    "font_name": "Helvetica",
    "font_size": 65,
    "isForked": false
  },
  "spawinphone8": {
    "font_name": "Helvetica",
    "font_size": 92,
    "isForked": false
  },
  "tabrcandroid": {
    "font_name": "default",
    "font_size": 65,
    "isForked": false
  },
  "wType": "Label",
  "watchos": {
    "font_name": "System",
    "font_size": 39,
    "isForked": false
  },
  "windows8": {
    "font_name": "None",
    "font_size": 27,
    "isForked": false
  },
  "winphone8": {
    "font_name": "None",
    "font_size": 37,
    "isForked": false
  }
}