{
  "android": {
    "font_name": "default"
  },
  "androidwearos": {
    "font_name": "default"
  },
  "background_color": "f2f2ffff",
  "bg_type": "one",
  "border_color": "cbe3f8ff",
  "border_style": "plain",
  "border_type": 0,
  "border_width": 1,
  "desktopweb": {
    "bottom_left_border_color": "cbe3f8ff",
    "bottom_left_border_style": "plain",
    "bottom_left_border_width": 1,
    "bottom_right_border_color": "cbe3f8ff",
    "bottom_right_border_style": "plain",
    "bottom_right_border_width": 1,
    "customCSS": "background: #cbd2f8; /* Old browsers */\nbackground: -moz-linear-gradient(-45deg, #cbd2f8 0%, #f2f7fd 35%, #f2f4f7 100%); /* FF3.6-15 */\nbackground: -webkit-linear-gradient(-45deg, #cbd2f8 0%,#f2f7fd 35%,#f2f4f7 100%); /* Chrome10-25,Safari5.1-6 */\nbackground: linear-gradient(135deg, #cbd2f8 0%,#f2f7fd 35%,#f2f4f7 100%);\nborder:1px solid #cbe3f8;",
    "font_name": "Helvetica",
    "isCustomCSSEnabled": true,
    "isForked": true,
    "top_left_border_color": "cbe3f8ff",
    "top_left_border_style": "plain",
    "top_left_border_width": 1,
    "top_right_border_color": "cbe3f8ff",
    "top_right_border_style": "plain",
    "top_right_border_width": 1
  },
  "ipad": {
    "font_name": "System"
  },
  "iphone": {
    "font_name": "System"
  },
  "isDefaultSkin": false,
  "kiosk": {
    "font_name": "None"
  },
  "kuid": "s97beba401f441d9bbc4d95b130e7b98",
  "spaan": {
    "bottom_left_border_color": "cbe3f8ff",
    "bottom_left_border_style": "plain",
    "bottom_left_border_width": 1,
    "bottom_right_border_color": "cbe3f8ff",
    "bottom_right_border_style": "plain",
    "bottom_right_border_width": 1,
    "customCSS": "background: #cbd2f8; /* Old browsers */\nbackground: -moz-linear-gradient(-45deg, #cbd2f8 0%, #f2f7fd 35%, #f2f4f7 100%); /* FF3.6-15 */\nbackground: -webkit-linear-gradient(-45deg, #cbd2f8 0%,#f2f7fd 35%,#f2f4f7 100%); /* Chrome10-25,Safari5.1-6 */\nbackground: linear-gradient(135deg, #cbd2f8 0%,#f2f7fd 35%,#f2f4f7 100%);\nborder:1px solid #cbe3f8;",
    "font_name": "Helvetica",
    "isCustomCSSEnabled": true,
    "isForked": true,
    "top_left_border_color": "cbe3f8ff",
    "top_left_border_style": "plain",
    "top_left_border_width": 1,
    "top_right_border_color": "cbe3f8ff",
    "top_right_border_style": "plain",
    "top_right_border_width": 1
  },
  "spaandroidtablet": {
    "bottom_left_border_color": "cbe3f8ff",
    "bottom_left_border_style": "plain",
    "bottom_left_border_width": 1,
    "bottom_right_border_color": "cbe3f8ff",
    "bottom_right_border_style": "plain",
    "bottom_right_border_width": 1,
    "customCSS": "background: #cbd2f8; /* Old browsers */\nbackground: -moz-linear-gradient(-45deg, #cbd2f8 0%, #f2f7fd 35%, #f2f4f7 100%); /* FF3.6-15 */\nbackground: -webkit-linear-gradient(-45deg, #cbd2f8 0%,#f2f7fd 35%,#f2f4f7 100%); /* Chrome10-25,Safari5.1-6 */\nbackground: linear-gradient(135deg, #cbd2f8 0%,#f2f7fd 35%,#f2f4f7 100%);\nborder:1px solid #cbe3f8;",
    "font_name": "Helvetica",
    "isCustomCSSEnabled": true,
    "isForked": true,
    "top_left_border_color": "cbe3f8ff",
    "top_left_border_style": "plain",
    "top_left_border_width": 1,
    "top_right_border_color": "cbe3f8ff",
    "top_right_border_style": "plain",
    "top_right_border_width": 1
  },
  "spaip": {
    "bottom_left_border_color": "cbe3f8ff",
    "bottom_left_border_style": "plain",
    "bottom_left_border_width": 1,
    "bottom_right_border_color": "cbe3f8ff",
    "bottom_right_border_style": "plain",
    "bottom_right_border_width": 1,
    "customCSS": "background: #cbd2f8; /* Old browsers */\nbackground: -moz-linear-gradient(-45deg, #cbd2f8 0%, #f2f7fd 35%, #f2f4f7 100%); /* FF3.6-15 */\nbackground: -webkit-linear-gradient(-45deg, #cbd2f8 0%,#f2f7fd 35%,#f2f4f7 100%); /* Chrome10-25,Safari5.1-6 */\nbackground: linear-gradient(135deg, #cbd2f8 0%,#f2f7fd 35%,#f2f4f7 100%);\nborder:1px solid #cbe3f8;",
    "font_name": "Helvetica",
    "isCustomCSSEnabled": true,
    "isForked": true,
    "top_left_border_color": "cbe3f8ff",
    "top_left_border_style": "plain",
    "top_left_border_width": 1,
    "top_right_border_color": "cbe3f8ff",
    "top_right_border_style": "plain",
    "top_right_border_width": 1
  },
  "spaipad": {
    "bottom_left_border_color": "cbe3f8ff",
    "bottom_left_border_style": "plain",
    "bottom_left_border_width": 1,
    "bottom_right_border_color": "cbe3f8ff",
    "bottom_right_border_style": "plain",
    "bottom_right_border_width": 1,
    "customCSS": "background: #cbd2f8; /* Old browsers */\nbackground: -moz-linear-gradient(-45deg, #cbd2f8 0%, #f2f7fd 35%, #f2f4f7 100%); /* FF3.6-15 */\nbackground: -webkit-linear-gradient(-45deg, #cbd2f8 0%,#f2f7fd 35%,#f2f4f7 100%); /* Chrome10-25,Safari5.1-6 */\nbackground: linear-gradient(135deg, #cbd2f8 0%,#f2f7fd 35%,#f2f4f7 100%);\nborder:1px solid #cbe3f8;",
    "font_name": "Helvetica",
    "isCustomCSSEnabled": true,
    "isForked": true,
    "top_left_border_color": "cbe3f8ff",
    "top_left_border_style": "plain",
    "top_left_border_width": 1,
    "top_right_border_color": "cbe3f8ff",
    "top_right_border_style": "plain",
    "top_right_border_width": 1
  },
  "spawindowstablet": {
    "bottom_left_border_color": "cbe3f8ff",
    "bottom_left_border_style": "plain",
    "bottom_left_border_width": 1,
    "bottom_right_border_color": "cbe3f8ff",
    "bottom_right_border_style": "plain",
    "bottom_right_border_width": 1,
    "customCSS": "background: #cbd2f8; /* Old browsers */\nbackground: -moz-linear-gradient(-45deg, #cbd2f8 0%, #f2f7fd 35%, #f2f4f7 100%); /* FF3.6-15 */\nbackground: -webkit-linear-gradient(-45deg, #cbd2f8 0%,#f2f7fd 35%,#f2f4f7 100%); /* Chrome10-25,Safari5.1-6 */\nbackground: linear-gradient(135deg, #cbd2f8 0%,#f2f7fd 35%,#f2f4f7 100%);\nborder:1px solid #cbe3f8;",
    "font_name": "Helvetica",
    "isCustomCSSEnabled": true,
    "isForked": true,
    "top_left_border_color": "cbe3f8ff",
    "top_left_border_style": "plain",
    "top_left_border_width": 1,
    "top_right_border_color": "cbe3f8ff",
    "top_right_border_style": "plain",
    "top_right_border_width": 1
  },
  "spawinphone8": {
    "bottom_left_border_color": "cbe3f8ff",
    "bottom_left_border_style": "plain",
    "bottom_left_border_width": 1,
    "bottom_right_border_color": "cbe3f8ff",
    "bottom_right_border_style": "plain",
    "bottom_right_border_width": 1,
    "customCSS": "background: #cbd2f8; /* Old browsers */\nbackground: -moz-linear-gradient(-45deg, #cbd2f8 0%, #f2f7fd 35%, #f2f4f7 100%); /* FF3.6-15 */\nbackground: -webkit-linear-gradient(-45deg, #cbd2f8 0%,#f2f7fd 35%,#f2f4f7 100%); /* Chrome10-25,Safari5.1-6 */\nbackground: linear-gradient(135deg, #cbd2f8 0%,#f2f7fd 35%,#f2f4f7 100%);\nborder:1px solid #cbe3f8;",
    "font_name": "Helvetica",
    "isCustomCSSEnabled": true,
    "isForked": true,
    "top_left_border_color": "cbe3f8ff",
    "top_left_border_style": "plain",
    "top_left_border_width": 1,
    "top_right_border_color": "cbe3f8ff",
    "top_right_border_style": "plain",
    "top_right_border_width": 1
  },
  "tabrcandroid": {
    "font_name": "default"
  },
  "wType": "FlexContainer",
  "watchos": {
    "font_name": "System"
  },
  "windows8": {
    "font_name": "None"
  },
  "winphone8": {
    "font_name": "None"
  }
}