{
  "android": {
    "font_name": "default",
    "font_size": 111,
    "isForked": false
  },
  "androidwearos": {
    "font_name": "default",
    "font_size": 143,
    "isForked": false
  },
  "background_color": "00000000",
  "bg_type": "one",
  "border_color": "424242ff",
  "border_style": "plain",
  "border_type": 0,
  "border_width": 0,
  "desktopweb": {
    "font_name": "SourceSansPro-SemiBold",
    "font_size": 250,
    "isForked": false
  },
  "fontSizeInPx": true,
  "font_color": "ffffffff",
  "font_name": "iphoneSystem",
  "font_size": 250,
  "font_style": "normal",
  "font_weight": "normal",
  "ipad": {
    "font_name": "System",
    "font_size": 143,
    "isForked": false
  },
  "iphone": {
    "font_name": "System",
    "font_size": 138,
    "isForked": false
  },
  "isDefaultSkin": false,
  "kiosk": {
    "font_name": "None",
    "font_size": 250,
    "isForked": false
  },
  "kuid": "s57028843cf94f38950a7fb80e736d8c",
  "spaan": {
    "font_name": "Helvetica",
    "font_size": 267,
    "isForked": false
  },
  "spaandroidtablet": {
    "font_name": "Helvetica",
    "font_size": 222,
    "isForked": false
  },
  "spaip": {
    "font_name": "Helvetica",
    "font_size": 258,
    "isForked": false
  },
  "spaipad": {
    "font_name": "Helvetica",
    "font_size": 235,
    "isForked": false
  },
  "spawindowstablet": {
    "font_name": "Helvetica",
    "font_size": 235,
    "isForked": false
  },
  "spawinphone8": {
    "font_name": "Helvetica",
    "font_size": 333,
    "isForked": false
  },
  "tabrcandroid": {
    "font_name": "default",
    "font_size": 237,
    "isForked": false
  },
  "wType": "Label",
  "watchos": {
    "font_name": "System",
    "font_size": 143,
    "isForked": false
  },
  "windows8": {
    "font_name": "None",
    "font_size": 98,
    "isForked": false
  },
  "winphone8": {
    "font_name": "None",
    "font_size": 133,
    "isForked": false
  }
}