{
  "android": {
    "font_name": "default",
    "font_size": 88,
    "isForked": false
  },
  "androidwearos": {
    "font_name": "default",
    "font_size": 88,
    "isForked": false
  },
  "background_color": "2e00d2ff",
  "bg_type": "one",
  "border_color": "0075dbff",
  "border_radius": 24,
  "border_style": "custom",
  "border_type": 0,
  "border_width": 1,
  "desktopweb": {
    "font_name": "Roboto-Medium",
    "font_size": 88,
    "isForked": false
  },
  "fontSizeInPx": false,
  "font_color": "ffffffff",
  "font_name": "iphoneSystem",
  "font_size": 88,
  "font_style": "normal",
  "font_weight": "400",
  "ipad": {
    "font_name": "System",
    "font_size": 88,
    "isForked": false
  },
  "iphone": {
    "font_name": "System",
    "font_size": 88,
    "isForked": false
  },
  "isDefaultSkin": false,
  "kiosk": {
    "font_name": "None",
    "font_size": 88,
    "isForked": false
  },
  "kuid": "sf3b55bbee9a424f918dcc4c9a8b9891",
  "spaan": {
    "font_name": "Helvetica",
    "font_size": 88,
    "isForked": false
  },
  "spaandroidtablet": {
    "font_name": "Helvetica",
    "font_size": 88,
    "isForked": false
  },
  "spaip": {
    "font_name": "Helvetica",
    "font_size": 88,
    "isForked": false
  },
  "spaipad": {
    "font_name": "Helvetica",
    "font_size": 88,
    "isForked": false
  },
  "spawindowstablet": {
    "font_name": "Helvetica",
    "font_size": 88,
    "isForked": false
  },
  "spawinphone8": {
    "font_name": "Helvetica",
    "font_size": 88,
    "isForked": false
  },
  "tabrcandroid": {
    "font_name": "default",
    "font_size": 88,
    "isForked": false
  },
  "wType": "Button",
  "watchos": {
    "font_name": "System",
    "font_size": 88,
    "isForked": false
  },
  "windows8": {
    "font_name": "None",
    "font_size": 88,
    "isForked": false
  },
  "winphone8": {
    "font_name": "None",
    "font_size": 88,
    "isForked": false
  }
}