{
    "android": {
        "font_name": "Roboto",
        "font_size": 39,
        "isForked": true
    },
    "androidwearos": {
        "font_name": "Roboto",
        "font_size": 50,
        "isForked": true
    },
    "background_color": "ffffff00",
    "bg_type": "one",
    "border_color": "cfd2d7ff",
    "border_radius": 20,
    "border_style": "custom",
    "border_type": 0,
    "border_width": 1,
    "desktopweb": {
        "bottom_left_border_color": "cfd2d7ff",
        "bottom_left_border_radius": "25",
        "bottom_left_border_style": "rc",
        "bottom_left_border_width": 1,
        "bottom_right_border_color": "cfd2d7ff",
        "bottom_right_border_radius": "25",
        "bottom_right_border_style": "rc",
        "bottom_right_border_width": 1,
        "font_name": "Roboto",
        "font_size": 88,
        "isForked": true,
        "top_left_border_color": "cfd2d7ff",
        "top_left_border_radius": "25",
        "top_left_border_style": "rc",
        "top_left_border_width": 1,
        "top_right_border_color": "cfd2d7ff",
        "top_right_border_radius": "25",
        "top_right_border_style": "rc",
        "top_right_border_width": 1
    },
    "fontSizeInPx": true,
    "font_color": "003e75ff",
    "font_name": "iphoneSystem",
    "font_size": 88,
    "font_style": "normal",
    "font_weight": "normal",
    "ipad": {
        "font_name": "Roboto",
        "font_size": 50,
        "isForked": true
    },
    "iphone": {
        "font_name": "Roboto",
        "font_size": 35,
        "isForked": true
    },
    "isDefaultSkin": false,
    "kiosk": {
        "font_name": "Roboto",
        "font_size": 88,
        "isForked": true
    },
    "kuid": "sab2d7f1f5b2454c80dcbbcfd162890a",
    "spaan": {
        "bottom_left_border_color": "cfd2d7ff",
        "bottom_left_border_radius": "25",
        "bottom_left_border_style": "rc",
        "bottom_left_border_width": 1,
        "bottom_right_border_color": "cfd2d7ff",
        "bottom_right_border_radius": "25",
        "bottom_right_border_style": "rc",
        "bottom_right_border_width": 1,
        "font_name": "Roboto",
        "font_size": 93,
        "isForked": true,
        "top_left_border_color": "cfd2d7ff",
        "top_left_border_radius": "25",
        "top_left_border_style": "rc",
        "top_left_border_width": 1,
        "top_right_border_color": "cfd2d7ff",
        "top_right_border_radius": "25",
        "top_right_border_style": "rc",
        "top_right_border_width": 1
    },
    "spaandroidtablet": {
        "bottom_left_border_color": "cfd2d7ff",
        "bottom_left_border_radius": "25",
        "bottom_left_border_style": "rc",
        "bottom_left_border_width": 1,
        "bottom_right_border_color": "cfd2d7ff",
        "bottom_right_border_radius": "25",
        "bottom_right_border_style": "rc",
        "bottom_right_border_width": 1,
        "font_name": "Roboto",
        "font_size": 78,
        "isForked": true,
        "top_left_border_color": "cfd2d7ff",
        "top_left_border_radius": "25",
        "top_left_border_style": "rc",
        "top_left_border_width": 1,
        "top_right_border_color": "cfd2d7ff",
        "top_right_border_radius": "25",
        "top_right_border_style": "rc",
        "top_right_border_width": 1
    },
    "spaip": {
        "bottom_left_border_color": "cfd2d7ff",
        "bottom_left_border_radius": "25",
        "bottom_left_border_style": "rc",
        "bottom_left_border_width": 1,
        "bottom_right_border_color": "cfd2d7ff",
        "bottom_right_border_radius": "25",
        "bottom_right_border_style": "rc",
        "bottom_right_border_width": 1,
        "font_name": "Roboto",
        "font_size": 100,
        "isForked": true,
        "top_left_border_color": "cfd2d7ff",
        "top_left_border_radius": "25",
        "top_left_border_style": "rc",
        "top_left_border_width": 1,
        "top_right_border_color": "cfd2d7ff",
        "top_right_border_radius": "25",
        "top_right_border_style": "rc",
        "top_right_border_width": 1
    },
    "spaipad": {
        "bottom_left_border_color": "cfd2d7ff",
        "bottom_left_border_radius": "25",
        "bottom_left_border_style": "rc",
        "bottom_left_border_width": 1,
        "bottom_right_border_color": "cfd2d7ff",
        "bottom_right_border_radius": "25",
        "bottom_right_border_style": "rc",
        "bottom_right_border_width": 1,
        "font_name": "Roboto",
        "font_size": 82,
        "isForked": true,
        "top_left_border_color": "cfd2d7ff",
        "top_left_border_radius": "25",
        "top_left_border_style": "rc",
        "top_left_border_width": 1,
        "top_right_border_color": "cfd2d7ff",
        "top_right_border_radius": "25",
        "top_right_border_style": "rc",
        "top_right_border_width": 1
    },
    "spawindowstablet": {
        "bottom_left_border_color": "cfd2d7ff",
        "bottom_left_border_radius": "25",
        "bottom_left_border_style": "rc",
        "bottom_left_border_width": 1,
        "bottom_right_border_color": "cfd2d7ff",
        "bottom_right_border_radius": "25",
        "bottom_right_border_style": "rc",
        "bottom_right_border_width": 1,
        "font_name": "Roboto",
        "font_size": 82,
        "isForked": true,
        "top_left_border_color": "cfd2d7ff",
        "top_left_border_radius": "25",
        "top_left_border_style": "rc",
        "top_left_border_width": 1,
        "top_right_border_color": "cfd2d7ff",
        "top_right_border_radius": "25",
        "top_right_border_style": "rc",
        "top_right_border_width": 1
    },
    "spawinphone8": {
        "bottom_left_border_color": "cfd2d7ff",
        "bottom_left_border_radius": "25",
        "bottom_left_border_style": "rc",
        "bottom_left_border_width": 1,
        "bottom_right_border_color": "cfd2d7ff",
        "bottom_right_border_radius": "25",
        "bottom_right_border_style": "rc",
        "bottom_right_border_width": 1,
        "font_name": "Roboto",
        "font_size": 117,
        "isForked": true,
        "top_left_border_color": "cfd2d7ff",
        "top_left_border_radius": "25",
        "top_left_border_style": "rc",
        "top_left_border_width": 1,
        "top_right_border_color": "cfd2d7ff",
        "top_right_border_radius": "25",
        "top_right_border_style": "rc",
        "top_right_border_width": 1
    },
    "tabrcandroid": {
        "font_name": "Roboto",
        "font_size": 83,
        "isForked": true
    },
    "wType": "Button",
    "watchos": {
        "font_name": "Roboto",
        "font_size": 50,
        "isForked": true
    },
    "windows8": {
        "font_name": "Roboto",
        "font_size": 34,
        "isForked": true
    },
    "winphone8": {
        "font_name": "Roboto",
        "font_size": 47,
        "isForked": true
    }
}