{
  "android": {
    "font_name": "default",
    "font_size": 83,
    "isForked": false
  },
  "androidwearos": {
    "font_name": "default",
    "font_size": 83,
    "isForked": false
  },
  "background_color": "6F61D000",
  "bg_type": "one",
  "border_color": "6F61D0ff",
  "border_radius": 4,
  "border_style": "custom",
  "border_type": 0,
  "border_width": 1,
  "desktopweb": {
    "font_name": "FontAwesome",
    "font_size": 83,
    "isForked": false
  },
  "fontSizeInPx": false,
  "font_color": "ffffff7f",
  "font_name": "iphoneSystem",
  "font_size": 83,
  "font_style": "normal",
  "font_weight": "normal",
  "ipad": {
    "font_name": "System",
    "font_size": 83,
    "isForked": false
  },
  "iphone": {
    "font_name": "System",
    "font_size": 83,
    "isForked": false
  },
  "isDefaultSkin": false,
  "kiosk": {
    "font_name": "None",
    "font_size": 83,
    "isForked": false
  },
  "kuid": "s5864d5b175640c59b6bd9f45d6f980e",
  "spaan": {
    "font_name": "Helvetica",
    "font_size": 83,
    "isForked": false
  },
  "spaandroidtablet": {
    "font_name": "Helvetica",
    "font_size": 83,
    "isForked": false
  },
  "spaip": {
    "font_name": "Helvetica",
    "font_size": 83,
    "isForked": false
  },
  "spaipad": {
    "font_name": "Helvetica",
    "font_size": 83,
    "isForked": false
  },
  "spawindowstablet": {
    "font_name": "Helvetica",
    "font_size": 83,
    "isForked": false
  },
  "spawinphone8": {
    "font_name": "Helvetica",
    "font_size": 83,
    "isForked": false
  },
  "tabrcandroid": {
    "font_name": "default",
    "font_size": 83,
    "isForked": false
  },
  "wType": "Label",
  "watchos": {
    "font_name": "System",
    "font_size": 83,
    "isForked": false
  },
  "windows8": {
    "font_name": "None",
    "font_size": 83,
    "isForked": false
  },
  "winphone8": {
    "font_name": "None",
    "font_size": 83,
    "isForked": false
  }
}