{
    "android": {
        "font_color": "003e75ff",
        "font_name": "default",
        "font_size": 44,
        "isForked": true
    },
    "androidwearos": {
        "font_color": "003e75ff",
        "font_name": "default",
        "font_size": 57,
        "isForked": true
    },
    "background_color": "00000000",
    "bg_type": "one",
    "border_color": "424242ff",
    "border_style": "plain",
    "border_type": 0,
    "border_width": 0,
    "desktopweb": {
        "border_type": 0,
        "bottom_left_border_color": "424242ff",
        "bottom_left_border_style": "plain",
        "bottom_left_border_width": 0,
        "bottom_right_border_color": "003e75ff",
        "bottom_right_border_style": "plain",
        "bottom_right_border_width": "2",
        "cursor_image": "handwhite.png",
        "cursor_type": "pointer",
        "font_color": "003e75ff",
        "font_name": "Roboto",
        "font_size": 100,
        "isForked": true,
        "top_left_border_color": "424242ff",
        "top_left_border_style": "plain",
        "top_left_border_width": 0,
        "top_right_border_color": "424242ff",
        "top_right_border_style": "plain",
        "top_right_border_width": 0
    },
    "fontSizeInPx": true,
    "font_color": "4a4a4aff",
    "font_name": "iphoneSystem",
    "font_size": 100,
    "font_style": "normal",
    "font_weight": "bold",
    "ipad": {
        "font_color": "003e75ff",
        "font_name": "System",
        "font_size": 57,
        "isForked": true
    },
    "iphone": {
        "font_color": "003e75ff",
        "font_name": "System",
        "font_size": 40,
        "isForked": true
    },
    "isDefaultSkin": false,
    "kiosk": {
        "font_color": "003e75ff",
        "font_name": "None",
        "font_size": 100,
        "isForked": true
    },
    "kuid": "s1bd1e4d6f04478d9c6754426202068f",
    "spaan": {
        "border_type": 0,
        "bottom_left_border_color": "424242ff",
        "bottom_left_border_style": "plain",
        "bottom_left_border_width": 0,
        "bottom_right_border_color": "003e75ff",
        "bottom_right_border_style": "plain",
        "bottom_right_border_width": "2",
        "font_color": "003e75ff",
        "font_name": "Helvetica",
        "font_size": 107,
        "isForked": true,
        "top_left_border_color": "424242ff",
        "top_left_border_style": "plain",
        "top_left_border_width": 0,
        "top_right_border_color": "424242ff",
        "top_right_border_style": "plain",
        "top_right_border_width": 0
    },
    "spaandroidtablet": {
        "border_type": 0,
        "bottom_left_border_color": "424242ff",
        "bottom_left_border_style": "plain",
        "bottom_left_border_width": 0,
        "bottom_right_border_color": "003e75ff",
        "bottom_right_border_style": "plain",
        "bottom_right_border_width": "2",
        "font_color": "003e75ff",
        "font_name": "Helvetica",
        "font_size": 89,
        "isForked": true,
        "top_left_border_color": "424242ff",
        "top_left_border_style": "plain",
        "top_left_border_width": 0,
        "top_right_border_color": "424242ff",
        "top_right_border_style": "plain",
        "top_right_border_width": 0
    },
    "spaip": {
        "border_type": 0,
        "bottom_left_border_color": "424242ff",
        "bottom_left_border_style": "plain",
        "bottom_left_border_width": 0,
        "bottom_right_border_color": "003e75ff",
        "bottom_right_border_style": "plain",
        "bottom_right_border_width": "2",
        "font_color": "003e75ff",
        "font_name": "Helvetica",
        "font_size": 114,
        "isForked": true,
        "top_left_border_color": "424242ff",
        "top_left_border_style": "plain",
        "top_left_border_width": 0,
        "top_right_border_color": "424242ff",
        "top_right_border_style": "plain",
        "top_right_border_width": 0
    },
    "spaipad": {
        "border_type": 0,
        "bottom_left_border_color": "424242ff",
        "bottom_left_border_style": "plain",
        "bottom_left_border_width": 0,
        "bottom_right_border_color": "003e75ff",
        "bottom_right_border_style": "plain",
        "bottom_right_border_width": "2",
        "font_color": "003e75ff",
        "font_name": "Helvetica",
        "font_size": 94,
        "isForked": true,
        "top_left_border_color": "424242ff",
        "top_left_border_style": "plain",
        "top_left_border_width": 0,
        "top_right_border_color": "424242ff",
        "top_right_border_style": "plain",
        "top_right_border_width": 0
    },
    "spawindowstablet": {
        "border_type": 0,
        "bottom_left_border_color": "424242ff",
        "bottom_left_border_style": "plain",
        "bottom_left_border_width": 0,
        "bottom_right_border_color": "003e75ff",
        "bottom_right_border_style": "plain",
        "bottom_right_border_width": "2",
        "font_color": "003e75ff",
        "font_name": "Helvetica",
        "font_size": 94,
        "isForked": true,
        "top_left_border_color": "424242ff",
        "top_left_border_style": "plain",
        "top_left_border_width": 0,
        "top_right_border_color": "424242ff",
        "top_right_border_style": "plain",
        "top_right_border_width": 0
    },
    "spawinphone8": {
        "border_type": 0,
        "bottom_left_border_color": "424242ff",
        "bottom_left_border_style": "plain",
        "bottom_left_border_width": 0,
        "bottom_right_border_color": "003e75ff",
        "bottom_right_border_style": "plain",
        "bottom_right_border_width": "2",
        "font_color": "003e75ff",
        "font_name": "Helvetica",
        "font_size": 133,
        "isForked": true,
        "top_left_border_color": "424242ff",
        "top_left_border_style": "plain",
        "top_left_border_width": 0,
        "top_right_border_color": "424242ff",
        "top_right_border_style": "plain",
        "top_right_border_width": 0
    },
    "tabrcandroid": {
        "font_color": "003e75ff",
        "font_name": "default",
        "font_size": 95,
        "isForked": true
    },
    "wType": "Label",
    "watchos": {
        "font_color": "003e75ff",
        "font_name": "System",
        "font_size": 57,
        "isForked": true
    },
    "windows8": {
        "font_color": "003e75ff",
        "font_name": "None",
        "font_size": 39,
        "isForked": true
    },
    "winphone8": {
        "font_color": "003e75ff",
        "font_name": "None",
        "font_size": 53,
        "isForked": true
    }
}