{
  "android": {
    "background_color": "5831d821",
    "bg_type": "one",
    "font_name": "default",
    "isForked": true
  },
  "androidwearos": {
    "background_color": "5831d821",
    "bg_type": "one",
    "font_name": "default",
    "isForked": true
  },
  "background_color": "2c863100",
  "bg_type": "one",
  "border_color": "2c8631ff",
  "border_radius": 0,
  "border_style": "custom",
  "border_type": 0,
  "border_width": 1,
  "desktopweb": {
    "background_color": "5831d821",
    "bg_type": "one",
    "border_type": 0,
    "bottom_left_border_color": "5831d8ff",
    "bottom_left_border_radius": "2",
    "bottom_left_border_style": "rc",
    "bottom_left_border_width": "5",
    "bottom_right_border_color": "5831d8ff",
    "bottom_right_border_radius": "2",
    "bottom_right_border_style": "rc",
    "bottom_right_border_width": 1,
    "font_name": "Helvetica",
    "isForked": true,
    "top_left_border_color": "5831d8ff",
    "top_left_border_radius": "2",
    "top_left_border_style": "rc",
    "top_left_border_width": 1,
    "top_right_border_color": "5831d8ff",
    "top_right_border_radius": "2",
    "top_right_border_style": "rc",
    "top_right_border_width": 1
  },
  "ipad": {
    "background_color": "5831d821",
    "bg_type": "one",
    "font_name": "System",
    "isForked": true
  },
  "iphone": {
    "background_color": "5831d821",
    "bg_type": "one",
    "font_name": "System",
    "isForked": true
  },
  "isDefaultSkin": false,
  "kiosk": {
    "background_color": "5831d821",
    "bg_type": "one",
    "font_name": "None",
    "isForked": true
  },
  "kuid": "s5172ff373a348628f9f13602cbe7c94",
  "spaan": {
    "background_color": "5831d821",
    "bg_type": "one",
    "border_type": 0,
    "bottom_left_border_color": "5831d8ff",
    "bottom_left_border_radius": "2",
    "bottom_left_border_style": "rc",
    "bottom_left_border_width": "5",
    "bottom_right_border_color": "5831d8ff",
    "bottom_right_border_radius": "2",
    "bottom_right_border_style": "rc",
    "bottom_right_border_width": 1,
    "font_name": "Helvetica",
    "isForked": true,
    "top_left_border_color": "5831d8ff",
    "top_left_border_radius": "2",
    "top_left_border_style": "rc",
    "top_left_border_width": 1,
    "top_right_border_color": "5831d8ff",
    "top_right_border_radius": "2",
    "top_right_border_style": "rc",
    "top_right_border_width": 1
  },
  "spaandroidtablet": {
    "background_color": "5831d821",
    "bg_type": "one",
    "border_type": 0,
    "bottom_left_border_color": "5831d8ff",
    "bottom_left_border_radius": "2",
    "bottom_left_border_style": "rc",
    "bottom_left_border_width": "5",
    "bottom_right_border_color": "5831d8ff",
    "bottom_right_border_radius": "2",
    "bottom_right_border_style": "rc",
    "bottom_right_border_width": 1,
    "font_name": "Helvetica",
    "isForked": true,
    "top_left_border_color": "5831d8ff",
    "top_left_border_radius": "2",
    "top_left_border_style": "rc",
    "top_left_border_width": 1,
    "top_right_border_color": "5831d8ff",
    "top_right_border_radius": "2",
    "top_right_border_style": "rc",
    "top_right_border_width": 1
  },
  "spaip": {
    "background_color": "5831d821",
    "bg_type": "one",
    "border_type": 0,
    "bottom_left_border_color": "5831d8ff",
    "bottom_left_border_radius": "2",
    "bottom_left_border_style": "rc",
    "bottom_left_border_width": "5",
    "bottom_right_border_color": "5831d8ff",
    "bottom_right_border_radius": "2",
    "bottom_right_border_style": "rc",
    "bottom_right_border_width": 1,
    "font_name": "Helvetica",
    "isForked": true,
    "top_left_border_color": "5831d8ff",
    "top_left_border_radius": "2",
    "top_left_border_style": "rc",
    "top_left_border_width": 1,
    "top_right_border_color": "5831d8ff",
    "top_right_border_radius": "2",
    "top_right_border_style": "rc",
    "top_right_border_width": 1
  },
  "spaipad": {
    "background_color": "5831d821",
    "bg_type": "one",
    "border_type": 0,
    "bottom_left_border_color": "5831d8ff",
    "bottom_left_border_radius": "2",
    "bottom_left_border_style": "rc",
    "bottom_left_border_width": "5",
    "bottom_right_border_color": "5831d8ff",
    "bottom_right_border_radius": "2",
    "bottom_right_border_style": "rc",
    "bottom_right_border_width": 1,
    "font_name": "Helvetica",
    "isForked": true,
    "top_left_border_color": "5831d8ff",
    "top_left_border_radius": "2",
    "top_left_border_style": "rc",
    "top_left_border_width": 1,
    "top_right_border_color": "5831d8ff",
    "top_right_border_radius": "2",
    "top_right_border_style": "rc",
    "top_right_border_width": 1
  },
  "spawindowstablet": {
    "background_color": "5831d821",
    "bg_type": "one",
    "border_type": 0,
    "bottom_left_border_color": "5831d8ff",
    "bottom_left_border_radius": "2",
    "bottom_left_border_style": "rc",
    "bottom_left_border_width": "5",
    "bottom_right_border_color": "5831d8ff",
    "bottom_right_border_radius": "2",
    "bottom_right_border_style": "rc",
    "bottom_right_border_width": 1,
    "font_name": "Helvetica",
    "isForked": true,
    "top_left_border_color": "5831d8ff",
    "top_left_border_radius": "2",
    "top_left_border_style": "rc",
    "top_left_border_width": 1,
    "top_right_border_color": "5831d8ff",
    "top_right_border_radius": "2",
    "top_right_border_style": "rc",
    "top_right_border_width": 1
  },
  "spawinphone8": {
    "background_color": "5831d821",
    "bg_type": "one",
    "border_type": 0,
    "bottom_left_border_color": "5831d8ff",
    "bottom_left_border_radius": "2",
    "bottom_left_border_style": "rc",
    "bottom_left_border_width": "5",
    "bottom_right_border_color": "5831d8ff",
    "bottom_right_border_radius": "2",
    "bottom_right_border_style": "rc",
    "bottom_right_border_width": 1,
    "font_name": "Helvetica",
    "isForked": true,
    "top_left_border_color": "5831d8ff",
    "top_left_border_radius": "2",
    "top_left_border_style": "rc",
    "top_left_border_width": 1,
    "top_right_border_color": "5831d8ff",
    "top_right_border_radius": "2",
    "top_right_border_style": "rc",
    "top_right_border_width": 1
  },
  "tabrcandroid": {
    "background_color": "5831d821",
    "bg_type": "one",
    "font_name": "default",
    "isForked": true
  },
  "wType": "FlexContainer",
  "watchos": {
    "font_name": "System"
  },
  "windows8": {
    "background_color": "5831d821",
    "bg_type": "one",
    "font_name": "None",
    "isForked": true
  },
  "winphone8": {
    "background_color": "5831d821",
    "bg_type": "one",
    "font_name": "None",
    "isForked": true
  }
}