{
  "android": {
    "font_name": "default",
    "font_size": 88,
    "isForked": false
  },
  "androidwearos": {
    "font_name": "default",
    "font_size": 88,
    "isForked": false
  },
  "background_color": "f2f2f200",
  "bg_type": "one",
  "border_color": "424242ff",
  "border_style": "plain",
  "border_type": 0,
  "border_width": 0,
  "desktopweb": {
    "font_name": "Roboto-Regular",
    "font_size": 88,
    "isForked": false
  },
  "fontSizeInPx": false,
  "font_color": "575757ff",
  "font_name": "iphoneSystem",
  "font_size": 88,
  "font_style": "normal",
  "font_weight": "normal",
  "ipad": {
    "font_name": "System",
    "font_size": 88,
    "isForked": false
  },
  "iphone": {
    "font_name": "System",
    "font_size": 88,
    "isForked": false
  },
  "isDefaultSkin": false,
  "kiosk": {
    "font_name": "None",
    "font_size": 88,
    "isForked": false
  },
  "kuid": "scf1bb5337924f7fad2066a045db7b0f",
  "spaan": {
    "font_name": "Helvetica",
    "font_size": 88,
    "isForked": false
  },
  "spaandroidtablet": {
    "font_name": "Helvetica",
    "font_size": 88,
    "isForked": false
  },
  "spaip": {
    "font_name": "Helvetica",
    "font_size": 88,
    "isForked": false
  },
  "spaipad": {
    "font_name": "Helvetica",
    "font_size": 88,
    "isForked": false
  },
  "spawindowstablet": {
    "font_name": "Helvetica",
    "font_size": 88,
    "isForked": false
  },
  "spawinphone8": {
    "font_name": "Helvetica",
    "font_size": 88,
    "isForked": false
  },
  "tabrcandroid": {
    "font_name": "default",
    "font_size": 88,
    "isForked": false
  },
  "wType": "Label",
  "watchos": {
    "font_name": "System",
    "font_size": 88,
    "isForked": false
  },
  "windows8": {
    "font_name": "None",
    "font_size": 88,
    "isForked": false
  },
  "winphone8": {
    "font_name": "None",
    "font_size": 88,
    "isForked": false
  }
}