{
    "android": {
        "font_name": "default"
    },
    "androidwearos": {
        "font_name": "default"
    },
    "background_color": "ffffffff",
    "bg_type": "one",
    "border_color": "000000ff",
    "border_style": "plain",
    "border_type": 0,
    "border_width": 0,
    "desktopweb": {
        "border_type": 0,
        "bottom_left_border_color": "1a75d1ff",
        "bottom_left_border_radius": "4",
        "bottom_left_border_style": "rc",
        "bottom_left_border_width": "3",
        "bottom_right_border_color": "e0e0e0ff",
        "bottom_right_border_radius": "4",
        "bottom_right_border_style": "rc",
        "bottom_right_border_width": "1",
        "font_name": "Helvetica",
        "isForked": true,
        "shadow": {
            "br": 5,
            "color": "00000026",
            "inner": false,
            "nm": 0,
            "x": 2,
            "y": 2
        },
        "top_left_border_color": "e0e0e0ff",
        "top_left_border_radius": "4",
        "top_left_border_style": "rc",
        "top_left_border_width": "1",
        "top_right_border_color": "e0e0e0ff",
        "top_right_border_radius": "4",
        "top_right_border_style": "rc",
        "top_right_border_width": "1"
    },
    "ipad": {
        "font_name": "System",
        "isForked": true,
        "shadow": {
            "br": 5,
            "color": "00000026",
            "inner": false,
            "nm": 0,
            "x": 2,
            "y": 2
        }
    },
    "iphone": {
        "font_name": "System",
        "isForked": true,
        "shadow": {
            "br": 5,
            "color": "00000026",
            "inner": false,
            "nm": 0,
            "x": 2,
            "y": 2
        }
    },
    "isDefaultSkin": false,
    "kiosk": {
        "font_name": "None",
        "isForked": true
    },
    "kuid": "s9f6075448df4467b6ecd1eddcc730fa",
    "spaan": {
        "border_type": 0,
        "bottom_left_border_color": "1a75d1ff",
        "bottom_left_border_radius": "4",
        "bottom_left_border_style": "rc",
        "bottom_left_border_width": "3",
        "bottom_right_border_color": "e0e0e0ff",
        "bottom_right_border_radius": "4",
        "bottom_right_border_style": "rc",
        "bottom_right_border_width": "1",
        "font_name": "Helvetica",
        "isForked": true,
        "shadow": {
            "br": 5,
            "color": "00000026",
            "inner": false,
            "nm": 0,
            "x": 2,
            "y": 2
        },
        "top_left_border_color": "e0e0e0ff",
        "top_left_border_radius": "4",
        "top_left_border_style": "rc",
        "top_left_border_width": "1",
        "top_right_border_color": "e0e0e0ff",
        "top_right_border_radius": "4",
        "top_right_border_style": "rc",
        "top_right_border_width": "1"
    },
    "spaandroidtablet": {
        "border_type": 0,
        "bottom_left_border_color": "1a75d1ff",
        "bottom_left_border_radius": "4",
        "bottom_left_border_style": "rc",
        "bottom_left_border_width": "3",
        "bottom_right_border_color": "e0e0e0ff",
        "bottom_right_border_radius": "4",
        "bottom_right_border_style": "rc",
        "bottom_right_border_width": "1",
        "font_name": "Helvetica",
        "isForked": true,
        "shadow": {
            "br": 5,
            "color": "00000026",
            "inner": false,
            "nm": 0,
            "x": 2,
            "y": 2
        },
        "top_left_border_color": "e0e0e0ff",
        "top_left_border_radius": "4",
        "top_left_border_style": "rc",
        "top_left_border_width": "1",
        "top_right_border_color": "e0e0e0ff",
        "top_right_border_radius": "4",
        "top_right_border_style": "rc",
        "top_right_border_width": "1"
    },
    "spaip": {
        "border_type": 0,
        "bottom_left_border_color": "1a75d1ff",
        "bottom_left_border_radius": "4",
        "bottom_left_border_style": "rc",
        "bottom_left_border_width": "3",
        "bottom_right_border_color": "e0e0e0ff",
        "bottom_right_border_radius": "4",
        "bottom_right_border_style": "rc",
        "bottom_right_border_width": "1",
        "font_name": "Helvetica",
        "isForked": true,
        "shadow": {
            "br": 5,
            "color": "00000026",
            "inner": false,
            "nm": 0,
            "x": 2,
            "y": 2
        },
        "top_left_border_color": "e0e0e0ff",
        "top_left_border_radius": "4",
        "top_left_border_style": "rc",
        "top_left_border_width": "1",
        "top_right_border_color": "e0e0e0ff",
        "top_right_border_radius": "4",
        "top_right_border_style": "rc",
        "top_right_border_width": "1"
    },
    "spaipad": {
        "border_type": 0,
        "bottom_left_border_color": "1a75d1ff",
        "bottom_left_border_radius": "4",
        "bottom_left_border_style": "rc",
        "bottom_left_border_width": "3",
        "bottom_right_border_color": "e0e0e0ff",
        "bottom_right_border_radius": "4",
        "bottom_right_border_style": "rc",
        "bottom_right_border_width": "1",
        "font_name": "Helvetica",
        "isForked": true,
        "shadow": {
            "br": 5,
            "color": "00000026",
            "inner": false,
            "nm": 0,
            "x": 2,
            "y": 2
        },
        "top_left_border_color": "e0e0e0ff",
        "top_left_border_radius": "4",
        "top_left_border_style": "rc",
        "top_left_border_width": "1",
        "top_right_border_color": "e0e0e0ff",
        "top_right_border_radius": "4",
        "top_right_border_style": "rc",
        "top_right_border_width": "1"
    },
    "spawindowstablet": {
        "border_type": 0,
        "bottom_left_border_color": "1a75d1ff",
        "bottom_left_border_radius": "4",
        "bottom_left_border_style": "rc",
        "bottom_left_border_width": "3",
        "bottom_right_border_color": "e0e0e0ff",
        "bottom_right_border_radius": "4",
        "bottom_right_border_style": "rc",
        "bottom_right_border_width": "1",
        "font_name": "Helvetica",
        "isForked": true,
        "shadow": {
            "br": 5,
            "color": "00000026",
            "inner": false,
            "nm": 0,
            "x": 2,
            "y": 2
        },
        "top_left_border_color": "e0e0e0ff",
        "top_left_border_radius": "4",
        "top_left_border_style": "rc",
        "top_left_border_width": "1",
        "top_right_border_color": "e0e0e0ff",
        "top_right_border_radius": "4",
        "top_right_border_style": "rc",
        "top_right_border_width": "1"
    },
    "spawinphone8": {
        "border_type": 0,
        "bottom_left_border_color": "1a75d1ff",
        "bottom_left_border_radius": "4",
        "bottom_left_border_style": "rc",
        "bottom_left_border_width": "3",
        "bottom_right_border_color": "e0e0e0ff",
        "bottom_right_border_radius": "4",
        "bottom_right_border_style": "rc",
        "bottom_right_border_width": "1",
        "font_name": "Helvetica",
        "isForked": true,
        "shadow": {
            "br": 5,
            "color": "00000026",
            "inner": false,
            "nm": 0,
            "x": 2,
            "y": 2
        },
        "top_left_border_color": "e0e0e0ff",
        "top_left_border_radius": "4",
        "top_left_border_style": "rc",
        "top_left_border_width": "1",
        "top_right_border_color": "e0e0e0ff",
        "top_right_border_radius": "4",
        "top_right_border_style": "rc",
        "top_right_border_width": "1"
    },
    "tabrcandroid": {
        "font_name": "default"
    },
    "wType": "FlexContainer",
    "watchos": {
        "font_name": "System"
    },
    "windows8": {
        "font_name": "None"
    },
    "winphone8": {
        "font_name": "None"
    }
}