{
  "android": {
    "background_color": "f3f3ffff",
    "bg_type": "one",
    "font_name": "default",
    "font_size": 39,
    "isForked": true
  },
  "androidwearos": {
    "background_color": "f3f3ffff",
    "bg_type": "one",
    "font_name": "default",
    "font_size": 50,
    "isForked": true
  },
  "background_color": "f2f7fdff",
  "bg_type": "one",
  "border_color": "333333ff",
  "border_style": "plain",
  "border_type": 0,
  "border_width": 1,
  "desktopweb": {
    "background_color": "f3f3ffff",
    "bg_type": "one",
    "border_type": 0,
    "bottom_left_border_color": "333333ff",
    "bottom_left_border_style": "plain",
    "bottom_left_border_width": "0",
    "bottom_right_border_color": "575757ff",
    "bottom_right_border_style": "plain",
    "bottom_right_border_width": "1",
    "font_name": "Roboto-Regular",
    "font_size": 88,
    "isForked": true,
    "top_left_border_color": "333333ff",
    "top_left_border_style": "plain",
    "top_left_border_width": "0",
    "top_right_border_color": "333333ff",
    "top_right_border_style": "plain",
    "top_right_border_width": "0"
  },
  "fontSizeInPx": true,
  "font_color": "575757ff",
  "font_name": "iphoneSystem",
  "font_size": 88,
  "font_style": "normal",
  "font_weight": "400",
  "ipad": {
    "background_color": "f3f3ffff",
    "bg_type": "one",
    "font_name": "System",
    "font_size": 50,
    "isForked": true
  },
  "iphone": {
    "background_color": "f3f3ffff",
    "bg_type": "one",
    "font_name": "System",
    "font_size": 48,
    "isForked": true
  },
  "isDefaultSkin": false,
  "kiosk": {
    "background_color": "f3f3ffff",
    "bg_type": "one",
    "font_name": "None",
    "font_size": 88,
    "isForked": true
  },
  "kuid": "s85fd47a34714a439c11cc64f79d19f0",
  "spaan": {
    "background_color": "f3f3ffff",
    "bg_type": "one",
    "border_type": 0,
    "bottom_left_border_color": "333333ff",
    "bottom_left_border_style": "plain",
    "bottom_left_border_width": "0",
    "bottom_right_border_color": "575757ff",
    "bottom_right_border_style": "plain",
    "bottom_right_border_width": "1",
    "font_name": "Helvetica",
    "font_size": 93,
    "isForked": true,
    "top_left_border_color": "333333ff",
    "top_left_border_style": "plain",
    "top_left_border_width": "0",
    "top_right_border_color": "333333ff",
    "top_right_border_style": "plain",
    "top_right_border_width": "0"
  },
  "spaandroidtablet": {
    "background_color": "f3f3ffff",
    "bg_type": "one",
    "border_type": 0,
    "bottom_left_border_color": "333333ff",
    "bottom_left_border_style": "plain",
    "bottom_left_border_width": "0",
    "bottom_right_border_color": "575757ff",
    "bottom_right_border_style": "plain",
    "bottom_right_border_width": "1",
    "font_name": "Helvetica",
    "font_size": 78,
    "isForked": true,
    "top_left_border_color": "333333ff",
    "top_left_border_style": "plain",
    "top_left_border_width": "0",
    "top_right_border_color": "333333ff",
    "top_right_border_style": "plain",
    "top_right_border_width": "0"
  },
  "spaip": {
    "background_color": "f3f3ffff",
    "bg_type": "one",
    "border_type": 0,
    "bottom_left_border_color": "333333ff",
    "bottom_left_border_style": "plain",
    "bottom_left_border_width": "0",
    "bottom_right_border_color": "575757ff",
    "bottom_right_border_style": "plain",
    "bottom_right_border_width": "1",
    "font_name": "Helvetica",
    "font_size": 90,
    "isForked": true,
    "top_left_border_color": "333333ff",
    "top_left_border_style": "plain",
    "top_left_border_width": "0",
    "top_right_border_color": "333333ff",
    "top_right_border_style": "plain",
    "top_right_border_width": "0"
  },
  "spaipad": {
    "background_color": "f3f3ffff",
    "bg_type": "one",
    "border_type": 0,
    "bottom_left_border_color": "333333ff",
    "bottom_left_border_style": "plain",
    "bottom_left_border_width": "0",
    "bottom_right_border_color": "575757ff",
    "bottom_right_border_style": "plain",
    "bottom_right_border_width": "1",
    "font_name": "Helvetica",
    "font_size": 82,
    "isForked": true,
    "top_left_border_color": "333333ff",
    "top_left_border_style": "plain",
    "top_left_border_width": "0",
    "top_right_border_color": "333333ff",
    "top_right_border_style": "plain",
    "top_right_border_width": "0"
  },
  "spawindowstablet": {
    "background_color": "f3f3ffff",
    "bg_type": "one",
    "border_type": 0,
    "bottom_left_border_color": "333333ff",
    "bottom_left_border_style": "plain",
    "bottom_left_border_width": "0",
    "bottom_right_border_color": "575757ff",
    "bottom_right_border_style": "plain",
    "bottom_right_border_width": "1",
    "font_name": "Helvetica",
    "font_size": 82,
    "isForked": true,
    "top_left_border_color": "333333ff",
    "top_left_border_style": "plain",
    "top_left_border_width": "0",
    "top_right_border_color": "333333ff",
    "top_right_border_style": "plain",
    "top_right_border_width": "0"
  },
  "spawinphone8": {
    "background_color": "f3f3ffff",
    "bg_type": "one",
    "border_type": 0,
    "bottom_left_border_color": "333333ff",
    "bottom_left_border_style": "plain",
    "bottom_left_border_width": "0",
    "bottom_right_border_color": "575757ff",
    "bottom_right_border_style": "plain",
    "bottom_right_border_width": "1",
    "font_name": "Helvetica",
    "font_size": 117,
    "isForked": true,
    "top_left_border_color": "333333ff",
    "top_left_border_style": "plain",
    "top_left_border_width": "0",
    "top_right_border_color": "333333ff",
    "top_right_border_style": "plain",
    "top_right_border_width": "0"
  },
  "tabrcandroid": {
    "background_color": "f3f3ffff",
    "bg_type": "one",
    "font_name": "default",
    "font_size": 83,
    "isForked": true
  },
  "wType": "TextArea",
  "watchos": {
    "font_name": "System",
    "font_size": 50,
    "isForked": false
  },
  "windows8": {
    "background_color": "f3f3ffff",
    "bg_type": "one",
    "font_name": "None",
    "font_size": 34,
    "isForked": true
  },
  "winphone8": {
    "background_color": "f3f3ffff",
    "bg_type": "one",
    "font_name": "None",
    "font_size": 47,
    "isForked": true
  }
}