{
    "@class": "com.kony.gen.viz.model.component.KVizButton",
    "DNDConfig": null,
    "_height_": {
        "type": "string",
        "value": "100%"
    },
    "_left_": {
        "type": "string",
        "value": "0dp"
    },
    "_margin_": [
        6,
        6,
        6,
        6
    ],
    "_padding_": [
        0,
        0,
        0,
        0
    ],
    "_skin_": "secf99097c2646c2929b2576edc308da",
    "_text_": "",
    "_top_": {
        "type": "string",
        "value": "0dp"
    },
    "_width_": {
        "type": "string",
        "value": "100%"
    },
    "canUpdateUI": true,
    "centery": {
        "type": "string",
        "value": "50%"
    },
    "containerweight": 100,
    "contentalignment": 5,
    "displaytext": true,
    "focusskin": "secf99097c2646c2929b2576edc308da",
    "id": "btnExplorer",
    "ide_onClick": "AS_Button_g4d6d6516cfe49bb9b7fb433cae63686",
    "info": null,
    "iscustomlayout": false,
    "isvisible": true,
    "kuid": "jd3f05b1a56d4d329f08f67062731f3b",
    "name": "kony.ui.Button",
    "parent": "flxBck",
    "pf": "userwidgetmodel",
    "retaincontentalignment": false,
    "retainflexpositionproperties": false,
    "wType": "Button",
    "zindex": 1
}