{
    "@class": "com.kony.gen.viz.model.component.KVizRichText",
    "DNDConfig": null,
    "_height_": {
        "type": "ref",
        "value": "preferred"
    },
    "_left_": {
        "type": "string",
        "value": "28%"
    },
    "_margin_": [
        0,
        0,
        0,
        0
    ],
    "_padding_": [
        0,
        0,
        0,
        0
    ],
    "_skin_": "sfeedefec1764358b8d789310d29033d",
    "_text_": "<p><font color=\"#000000\"><u>Explorer</u></font></p>\n",
    "_top_": {
        "type": "string",
        "value": "30%"
    },
    "_width_": {
        "type": "ref",
        "value": "preferred"
    },
    "_wrapping_": 2,
    "canUpdateUI": true,
    "containerweight": 100,
    "contentalignment": 4,
    "id": "rtxSelected",
    "info": null,
    "iscustomlayout": false,
    "isvisible": true,
    "kuid": "e0ea81da80be4698b7b68082daaa453a",
    "linkskin": "s9c7eaa917f74b3499b8318fd9ffb5ea",
    "name": "kony.ui.RichText",
    "parent": "flxBck",
    "pf": "userwidgetmodel",
    "retaincontentalignment": false,
    "retainflexpositionproperties": false,
    "wType": "RichText",
    "widgetalignment": 5,
    "zindex": 1
}