{
  "operationConfig" : {
    "name" : "createAaSimulation1961",
    "type" : "MappedToBackend",
    "cachable" : false,
    "smsEnabled" : false,
    "security" : "authorized_app_user",
    "responseEncoding" : "UTF-8",
    "httpMethod" : "GET",
    "decodeResponseBody" : false,
    "iMapping" : "<?xml version=\"1.0\" encoding=\"UTF-8\" standalone=\"yes\"?>\n<mapper xmlns=\"http://www.kony.com/ns/mapper\">\n    <map inputpath=\"request_in\" outputpath=\"request_out\">\n        <set-param inputpath=\"activityId\" outputpath=\"activityId\"/>\n        <set-param inputpath=\"arrangementId\" outputpath=\"arrangementId\"/>\n        <set-param inputpath=\"automaticRun\" outputpath=\"automaticrun\"/>\n        <set-param inputpath=\"closurenote\" outputpath=\"closurenote\"/>\n        <set-param inputpath=\"closurenote\" outputpath=\"closurereason\"/>\n        <set-param inputpath=\"currencyId\" outputpath=\"currencyId\"/>\n        <set-param inputpath=\"effectivedate\" outputpath=\"effectivedate\"/>\n        <set-param inputpath=\"transactionAmount\" outputpath=\"transactionAmount\"/>\n    </map>\n</mapper>\n",
    "oMapping" : "<?xml version=\"1.0\" encoding=\"UTF-8\" standalone=\"yes\"?>\n<mapper xmlns=\"http://www.kony.com/ns/mapper\">\n    <map inputpath=\"response_in\" outputpath=\"response_out\">\n        <map inputpath=\"header\" outputpath=\"createAaSimulation\">\n            <set-param inputpath=\"../body/arrangementId\" outputpath=\"arrangementId\"/>\n            <set-param inputpath=\"../body/activityId\" outputpath=\"activityId\"/>\n            <set-param inputpath=\"../body/effectiveDate\" outputpath=\"effectivedate\"/>\n            <set-param inputpath=\"../body/currencyId\" outputpath=\"currencyId\"/>\n            <set-param inputpath=\"../error/errorDetails/code\" outputpath=\"code\"/>\n            <set-param inputpath=\"../error/errorDetails/message\" outputpath=\"message\"/>\n            <set-param inputpath=\"../error/type\" outputpath=\"type\"/>\n            <set-param inputpath=\"id\" outputpath=\"id\"/>\n            <set-param inputpath=\"status\" outputpath=\"status\"/>\n            <set-param inputpath=\"transactionStatus\" outputpath=\"transactionStatus\"/>\n        </map>\n    </map>\n</mapper>\n",
    "iVisualMappingData" : "{\"nodeDataArray\":[{\"isGroup\":true,\"key\":\"request_in\",\"text\":\"createAaSimulation\",\"xy\":\"150 100\"},{\"isGroup\":true,\"key\":\"request_out\",\"text\":\"FundsWithdrawal (1.0).createAaSimulation\",\"xy\":\"770 100\"}],\"linkDataArray\":[{\"category\":\"Mapping\",\"visible\":true,\"from\":\"source:createAaSimulation:activityId:\",\"to\":\"target:activityId:\",\"fromPort\":\"source:createAaSimulation:activityId:\",\"toPort\":\"target:activityId:\"},{\"category\":\"Mapping\",\"visible\":true,\"from\":\"source:createAaSimulation:arrangementId:\",\"to\":\"target:arrangementId:\",\"fromPort\":\"source:createAaSimulation:arrangementId:\",\"toPort\":\"target:arrangementId:\"},{\"category\":\"Mapping\",\"visible\":true,\"from\":\"source:createAaSimulation:automaticRun:\",\"to\":\"target:automaticrun:\",\"fromPort\":\"source:createAaSimulation:automaticRun:\",\"toPort\":\"target:automaticrun:\"},{\"category\":\"Mapping\",\"visible\":true,\"from\":\"source:createAaSimulation:effectivedate:\",\"to\":\"target:effectivedate:\",\"fromPort\":\"source:createAaSimulation:effectivedate:\",\"toPort\":\"target:effectivedate:\"},{\"category\":\"Mapping\",\"visible\":true,\"from\":\"source:createAaSimulation:currencyId:\",\"to\":\"target:currencyId:\",\"fromPort\":\"source:createAaSimulation:currencyId:\",\"toPort\":\"target:currencyId:\"},{\"category\":\"Mapping\",\"visible\":true,\"from\":\"source:createAaSimulation:closurenote:\",\"to\":\"target:closurereason:\",\"fromPort\":\"source:createAaSimulation:closurenote:\",\"toPort\":\"target:closurereason:\"},{\"category\":\"Mapping\",\"visible\":true,\"from\":\"source:createAaSimulation:closurenote:\",\"to\":\"target:closurenote:\",\"fromPort\":\"source:createAaSimulation:closurenote:\",\"toPort\":\"target:closurenote:\"},{\"category\":\"Mapping\",\"visible\":true,\"from\":\"source:createAaSimulation:transactionAmount:\",\"to\":\"target:transactionAmount:\",\"fromPort\":\"source:createAaSimulation:transactionAmount:\",\"toPort\":\"target:transactionAmount:\"}],\"blockCount\":{\"variableCount\":0},\"variableMap\":{},\"xmlMappingOverride\":false}",
    "oVisualMappingData" : "{\"nodeDataArray\":[{\"isGroup\":true,\"key\":\"response_out\",\"text\":\"createAaSimulation\",\"xy\":\"770 100\"},{\"isGroup\":true,\"key\":\"response_in\",\"text\":\"FundsWithdrawal (1.0).createAaSimulation\",\"xy\":\"150 100\"}],\"linkDataArray\":[{\"category\":\"Mapping\",\"visible\":true,\"from\":\"source:header:id:\",\"to\":\"target:createAaSimulation:id:\",\"fromPort\":\"source:header:id:\",\"toPort\":\"target:createAaSimulation:id:\"},{\"category\":\"Mapping\",\"visible\":true,\"from\":\"source:header:status:\",\"to\":\"target:createAaSimulation:status:\",\"fromPort\":\"source:header:status:\",\"toPort\":\"target:createAaSimulation:status:\"},{\"category\":\"Mapping\",\"visible\":true,\"from\":\"source:header:transactionStatus:\",\"to\":\"target:createAaSimulation:transactionStatus:\",\"fromPort\":\"source:header:transactionStatus:\",\"toPort\":\"target:createAaSimulation:transactionStatus:\"},{\"category\":\"Mapping\",\"visible\":true,\"from\":\"source:body:activityId:\",\"to\":\"target:createAaSimulation:activityId:\",\"fromPort\":\"source:body:activityId:\",\"toPort\":\"target:createAaSimulation:activityId:\"},{\"category\":\"Mapping\",\"visible\":true,\"from\":\"source:body:arrangementId:\",\"to\":\"target:createAaSimulation:arrangementId:\",\"fromPort\":\"source:body:arrangementId:\",\"toPort\":\"target:createAaSimulation:arrangementId:\"},{\"category\":\"Mapping\",\"visible\":true,\"from\":\"source:body:currencyId:\",\"to\":\"target:createAaSimulation:currencyId:\",\"fromPort\":\"source:body:currencyId:\",\"toPort\":\"target:createAaSimulation:currencyId:\"},{\"category\":\"Mapping\",\"visible\":true,\"from\":\"source:body:effectiveDate:\",\"to\":\"target:createAaSimulation:effectivedate:\",\"fromPort\":\"source:body:effectiveDate:\",\"toPort\":\"target:createAaSimulation:effectivedate:\"},{\"category\":\"Mapping\",\"visible\":true,\"from\":\"source:error:type:\",\"to\":\"target:createAaSimulation:type:\",\"fromPort\":\"source:error:type:\",\"toPort\":\"target:createAaSimulation:type:\"},{\"category\":\"Mapping\",\"visible\":true,\"from\":\"source:error:errorDetails:code:\",\"to\":\"target:createAaSimulation:code:\",\"fromPort\":\"source:error:errorDetails:code:\",\"toPort\":\"target:createAaSimulation:code:\"},{\"category\":\"Mapping\",\"visible\":true,\"from\":\"source:error:errorDetails:message:\",\"to\":\"target:createAaSimulation:message:\",\"fromPort\":\"source:error:errorDetails:message:\",\"toPort\":\"target:createAaSimulation:message:\"}],\"blockCount\":{\"variableCount\":0},\"variableMap\":{},\"xmlMappingOverride\":false}",
    "applyCommonMapping" : false,
    "applyRequestCommonMapping" : false,
    "applyResponseCommonMapping" : false,
    "backendMeta" : {
      "serviceName" : "FundsWithdrawal",
      "serviceVersion" : "1.0",
      "operationName" : "createAaSimulation"
    },
    "relationshipHierarchyMapping" : {
      "children" : [ ],
      "name" : "createAaSimulation",
      "actions" : {
        "create" : true,
        "update" : true,
        "partialupdate" : true
      },
      "selected" : true
    },
    "requestXmlMappingOverride" : false,
    "responseXmlMappingOverride" : false
  }
}