{
    "@class": "com.kony.gen.viz.model.component.KVizRichText",
    "DNDConfig": null,
    "_height_": {
        "type": "ref",
        "value": "preferred"
    },
    "_left_": {
        "type": "string",
        "value": "2dp"
    },
    "_margin_": [
        0,
        0,
        0,
        0
    ],
    "_padding_": [
        0,
        0,
        0,
        0
    ],
    "_skin_": "sc5e0860e2b04588b978465db8799ac3",
    "_text_": "<sup><red>*</red></sup>",
    "_width_": {
        "type": "ref",
        "value": "preferred"
    },
    "_wrapping_": 2,
    "canUpdateUI": true,
    "centery": {
        "type": "string",
        "value": "50%"
    },
    "containerweight": 100,
    "contentalignment": 4,
    "disabledSkins": {},
    "id": "rtAsterix",
    "info": null,
    "iscustomlayout": false,
    "isvisible": true,
    "kiosk": {
        "psp": {
            "superScriptSkin": "s9af30f5590f43e3bd84b18b9c6d5bef"
        }
    },
    "kuid": "id1b6eb5bea348e8a36067e2db254b2b",
    "linkskin": "s9c7eaa917f74b3499b8318fd9ffb5ea",
    "name": "kony.ui.RichText",
    "parent": "flxFloatLableGrp",
    "pf": "userwidgetmodel",
    "retaincontentalignment": false,
    "retainflexpositionproperties": false,
    "wType": "RichText",
    "widgetalignment": 5,
    "zindex": 1
}