{
    "@class": "com.kony.gen.viz.model.component.KVizUserWidget",
    "DNDConfig": null,
    "_children_": [],
    "_height_": {
        "type": "string",
        "value": "85%"
    },
    "_left_": {
        "type": "string",
        "value": "8%"
    },
    "_margin_": [
        0,
        0,
        0,
        0
    ],
    "_orientation_": 1,
    "_padding_": [
        0,
        0,
        0,
        0
    ],
    "_percent_": true,
    "_skin_": "se31956b9efb4cdeb803f81ffb1335e2",
    "_top_": {
        "type": "string",
        "value": "10%"
    },
    "_width_": {
        "type": "string",
        "value": "92%"
    },
    "canUpdateUI": true,
    "containerweight": 0,
    "data": {
        "canvasHeight": "",
        "canvasWidth": "",
        "datasetsArray": "[]",
        "xlabelsArray": "[]",
        "yBeginsAtZero": false,
        "ySuggestedMin": 0
    },
    "id": "barGraph1",
    "info": null,
    "iscustomlayout": false,
    "isvisible": true,
    "kuid": "a1dde48a91f44e65bb69267e180a3f6e",
    "masterType": 1,
    "name": "kony.ui.UserWidgetInstance",
    "parent": "FlexContainer0ic0a72d08b2648",
    "pf": "frmDashboard",
    "retaincontentalignment": false,
    "retainflexpositionproperties": false,
    "retainflowhorizontalalignment": false,
    "sourceUserWidget": "i769cba10a4447378257add7a32c17e7",
    "wType": "UserWidgetInstance",
    "zindex": 1
}