{
    "@class": "com.kony.gen.viz.model.container.KVizSegment2",
    "DNDConfig": null,
    "_data_": [
        [
            {
                "lblChannel": {
                    "@class": "com.viz.ide.model.segment.SimpleTextSegmentData",
                    "text": "Channel"
                },
                "lblDate": {
                    "@class": "com.viz.ide.model.segment.SimpleTextSegmentData",
                    "text": "Date/Time"
                },
                "lblExpires": {
                    "@class": "com.viz.ide.model.segment.SimpleTextSegmentData",
                    "text": "Activity"
                },
                "lblGroup": {
                    "@class": "com.viz.ide.model.segment.SimpleTextSegmentData",
                    "text": "Client ID"
                }
            },
            [
                {
                    "lblChannel": {
                        "@class": "com.viz.ide.model.segment.SimpleTextSegmentData",
                        "text": "OLB"
                    },
                    "lblDate": {
                        "@class": "com.viz.ide.model.segment.SimpleTextSegmentData",
                        "text": "Nov 22    04:10AM"
                    },
                    "lblExpires": {
                        "@class": "com.viz.ide.model.segment.SimpleTextSegmentData",
                        "text": "Request for Business"
                    },
                    "lblGroup": {
                        "@class": "com.viz.ide.model.segment.SimpleTextSegmentData",
                        "text": "101145"
                    }
                },
                {
                    "lblChannel": {
                        "@class": "com.viz.ide.model.segment.SimpleTextSegmentData",
                        "text": "MB"
                    },
                    "lblDate": {
                        "@class": "com.viz.ide.model.segment.SimpleTextSegmentData",
                        "text": "Dec 26    05:10AM"
                    },
                    "lblExpires": {
                        "@class": "com.viz.ide.model.segment.SimpleTextSegmentData",
                        "text": "Request for Deposit"
                    },
                    "lblGroup": {
                        "@class": "com.viz.ide.model.segment.SimpleTextSegmentData",
                        "text": "101146"
                    }
                },
                {
                    "lblChannel": {
                        "@class": "com.viz.ide.model.segment.SimpleTextSegmentData",
                        "text": "IPA"
                    },
                    "lblDate": {
                        "@class": "com.viz.ide.model.segment.SimpleTextSegmentData",
                        "text": "April 22   09:10AM"
                    },
                    "lblExpires": {
                        "@class": "com.viz.ide.model.segment.SimpleTextSegmentData",
                        "text": "Request for Loan"
                    },
                    "lblGroup": {
                        "@class": "com.viz.ide.model.segment.SimpleTextSegmentData",
                        "text": "101147"
                    }
                }
            ]
        ]
    ],
    "_height_": {
        "type": "string",
        "value": "150px"
    },
    "_indicator_": "none",
    "_left_": {
        "type": "string",
        "value": "0dp"
    },
    "_margin_": [
        0,
        0,
        0,
        0
    ],
    "_orientation_": 2,
    "_padding_": [
        0,
        0,
        0,
        0
    ],
    "_top_": {
        "type": "string",
        "value": "60dp"
    },
    "_width_": {
        "type": "string",
        "value": "100%"
    },
    "autogrowmode": 0,
    "canUpdateUI": true,
    "containerweight": 100,
    "counter": "02",
    "focusedindex": null,
    "focuseditem": null,
    "groupcells": false,
    "hasSections": true,
    "id": "CopySegA0jed4be0b618440",
    "info": null,
    "ipad": {
        "psp": {
            "indicator": "rowselect"
        }
    },
    "iphone": {
        "psp": {
            "indicator": "rowselect"
        }
    },
    "iscustomlayout": false,
    "isvisible": true,
    "kuid": "hb97c5d4d4414ef681d45a0055d361e9",
    "masterdata": {},
    "name": "kony.ui.SegmentedUI2",
    "needpageindicator": true,
    "pageoffdotimage": "pageoffdot.png",
    "pageondotimage": "pageondot.png",
    "paginationconfig": {
        "position": "bottom"
    },
    "parent": "flxAHIN",
    "pf": "frmDashboard",
    "retaincontentalignment": false,
    "retainflexpositionproperties": false,
    "retainselection": false,
    "rowTemplateId": "f19e35d991534136b5ed433817ab00e2",
    "rowcounter": 2,
    "rowfocusskin": "s3f353c057a14ca8a8d6fa6caf39f59a",
    "rowskin": "s5344ea37b3f40f7877699e4eafbf3dc",
    "rowtemplate": "CopyflxHdr0e952e967ea4c45",
    "screenlevelwidget": false,
    "seccounter": 0,
    "sectionHeaderTemplateId": "b55439b2f1e24473bb5b11d0b2c4c301",
    "sectionheaderskin": "s503004a80a34e7c92b05610326c6633",
    "sectionheadertemplate": "CopyflxTemp0decad958122647",
    "selectedRows": null,
    "selectedState": false,
    "selectedindex": null,
    "selectedindices": null,
    "selecteditems": null,
    "selectedsectionindex": 0,
    "selectionbehavior": "default",
    "separatorcolor": "f2f2f200",
    "separatorrequired": true,
    "separatorthickness": 1,
    "showscrollbars": false,
    "viewtype": "tableview",
    "vizProps": {},
    "wType": "Segment",
    "widgetalignment": 5,
    "widgetdatamap": {
        "CopyflxHdr0e952e967ea4c45": "CopyflxHdr0e952e967ea4c45",
        "CopyflxTemp0decad958122647": "CopyflxTemp0decad958122647",
        "lblChannel": "lblChannel",
        "lblDate": "lblDate",
        "lblExpires": "lblExpires",
        "lblGroup": "lblGroup"
    },
    "zindex": 1
}