{
    "@class": "com.kony.gen.viz.model.component.KVizUserWidget",
    "DNDConfig": null,
    "_children_": [],
    "_height_": {
        "type": "string",
        "value": "72dp"
    },
    "_left_": {
        "type": "string",
        "value": "6.50%"
    },
    "_margin_": [
        0,
        0,
        0,
        0
    ],
    "_orientation_": 1,
    "_padding_": [
        0,
        0,
        0,
        0
    ],
    "_percent_": true,
    "_right_": {
        "type": "number",
        "value": "32"
    },
    "_skin_": "s67924bcdecb43b69aa7b14971e89709",
    "_top_": {
        "type": "string",
        "value": "0dp"
    },
    "_width_": {
        "type": "string",
        "value": "92.50%"
    },
    "android": {},
    "androidwearos": {},
    "areflexpropsreferenced": false,
    "autogrowmode": 0,
    "canUpdateUI": true,
    "clipbounds": true,
    "containerweight": 0,
    "dataDiffs": {
        "ErrorAllert": {
            "__events__": {},
            "__info__": {
                "isRoot": true,
                "kuid": "c9705edacb3b448fb89b303b997e623d",
                "srcKUID": "h8cb39ec838349b1afb7dc4d9766919c",
                "wType": "FlexContainer"
            },
            "isVisible": false,
            "left": {
                "Default": {
                    "type": "string",
                    "value": "6.50%"
                }
            },
            "responsiveData": {},
            "width": {
                "Default": {
                    "type": "string",
                    "value": "92.50%"
                }
            }
        },
        "FlexContainer0c96d2d6573ff47": {
            "__events__": {},
            "__info__": {
                "kuid": "jc50fb605c0b430295e1aca686f36bc2",
                "srcKUID": "ad572ec02bbc48ebbb4f1dc768804969",
                "wType": "FlexContainer"
            }
        },
        "FlexContainer0dbccc9f9939044": {
            "__events__": {},
            "__info__": {
                "kuid": "af69186d3230457585689f966dbd5a91",
                "srcKUID": "f59a8a61ace1455b8914462b3d6bb03b",
                "wType": "FlexContainer"
            }
        },
        "Label0c0024c57dfb34f": {
            "__events__": {},
            "__info__": {
                "kuid": "i65c0abbf7744ff0a3d3c45490ebb19c",
                "srcKUID": "hf6d5793c5024998bc6f943030f92452",
                "wType": "Label"
            }
        },
        "btnImage": {
            "__events__": {},
            "__info__": {
                "kuid": "jec9734b76c24b78bf7c017da07d2f9b",
                "srcKUID": "e3042b659f1b42e99d68d9928629a9d5",
                "wType": "Button"
            }
        },
        "flxError": {
            "__events__": {},
            "__info__": {
                "kuid": "de0fa3eab1df4130ad21d574493d2bc2",
                "srcKUID": "a49166f2d3d14eeaa2feb76e306db101",
                "wType": "FlexContainer"
            }
        },
        "imgClose": {
            "__events__": {},
            "__info__": {
                "kuid": "ed3adb1ec5c64872b807b78d53471d15",
                "srcKUID": "e1c097d66c3744f18bfb83c30858a314",
                "wType": "Button"
            }
        },
        "imgClose1": {
            "__events__": {},
            "__info__": {
                "kuid": "ab7235c79cfd4d3c8636d4380ec5c59a",
                "srcKUID": "j9728085e75b4abe9a6359d26438efcc",
                "wType": "Label"
            }
        },
        "imgClose2": {
            "__events__": {},
            "__info__": {
                "kuid": "g32c478f026b4f009be03208e49c6385",
                "srcKUID": "g5b93ccb39f549ac821e8d44292eaffa",
                "wType": "Label"
            }
        },
        "imgCloseBackup": {
            "__events__": {},
            "__info__": {
                "kuid": "e78f7b4b5f064ae58d22074a876f622d",
                "srcKUID": "c646f7e0831248d7bc0f7b6f88ab6c22",
                "wType": "Image"
            },
            "src": "ico_close.png"
        },
        "lblError": {
            "__events__": {},
            "__info__": {
                "kuid": "d39048a5c5c5426fbb2b062666a5e2b9",
                "srcKUID": "i5ab170e82924d7ea954d38f04fd3d44",
                "wType": "Label"
            }
        },
        "lblErrorNotification": {
            "__events__": {},
            "__info__": {
                "kuid": "hdd3b7f68ddf45e0a6fa764a80ff5e86",
                "srcKUID": "f918c824751a41c7a0afc1d2b466bfc7",
                "wType": "Label"
            }
        },
        "lblImag": {
            "__events__": {},
            "__info__": {
                "kuid": "g66259263b504e48bd2a0aec0a879fd2",
                "srcKUID": "ddbbe97dbe67439ea4934db8746fa110",
                "wType": "Label"
            }
        },
        "lblMessage": {
            "__events__": {},
            "__info__": {
                "kuid": "f7a68bc7ca0c47869c08fd485622f632",
                "srcKUID": "d530e1757beb4ff9b9c4b003d6a3e47a",
                "wType": "Label"
            }
        }
    },
    "desktopweb": {},
    "enablescrolling": true,
    "id": "ErrorAllert",
    "info": null,
    "ipad": {},
    "iphone": {},
    "iscustomlayout": false,
    "isdatareferenced": false,
    "isvisible": false,
    "kiosk": {},
    "kuid": "c9705edacb3b448fb89b303b997e623d",
    "layouttype": 2,
    "masterType": 0,
    "name": "kony.ui.UserWidgetInstance",
    "parent": "frmDashboard",
    "pf": "frmDashboard",
    "responsiveData": {},
    "retaincontentalignment": false,
    "retainflexpositionproperties": false,
    "retainflowhorizontalalignment": false,
    "snapgridsize": 10,
    "snaptogrid": true,
    "sourceUserWidget": "h8cb39ec838349b1afb7dc4d9766919c",
    "spa": {},
    "spaan": {},
    "spaandroidtablet": {},
    "spabb": {},
    "spaip": {},
    "spaipad": {},
    "spamobile": {},
    "spatablet": {},
    "spawindowstablet": {},
    "spawinphone8": {},
    "tabrcandroid": {},
    "vizProps": {
        "hidewidgethierarchy": false
    },
    "wType": "UserWidgetInstance",
    "windows10": {},
    "windows8": {},
    "winphone10": {},
    "winphone8": {}
}