{
    "DNDConfig": null,
    "_height_": {
        "type": "string",
        "value": "44px"
    },
    "_left_": {
        "type": "string",
        "value": "0dp"
    },
    "_margin_": [
        0,
        0,
        0,
        0
    ],
    "_orientation_": 6,
    "_padding_": [
        0,
        0,
        0,
        0
    ],
    "_percent_": true,
    "_skin_": "se31956b9efb4cdeb803f81ffb1335e2",
    "_top_": {
        "type": "string",
        "value": "10px"
    },
    "_width_": {
        "type": "string",
        "value": "100%"
    },
    "allboxes": [],
    "autogrowmode": 0,
    "canUpdateUI": true,
    "children": [
        "Label0b67643db275c42",
        "Image0c231a3fd48df4b"
    ],
    "clipbounds": true,
    "containerweight": 100,
    "enablescrolling": true,
    "id": "FlexGroup0c3cd59d1a6ef43",
    "info": null,
    "iscustomlayout": false,
    "isvisible": true,
    "kuid": "d95592f4ada74f2485c30f593d233c97",
    "layouttype": 2,
    "name": "kony.ui.FlexContainer",
    "parent": "flcProducts",
    "pf": "frmDashboard",
    "retaincontentalignment": false,
    "retainflexpositionproperties": false,
    "retainflowhorizontalalignment": false,
    "snapgridsize": 10,
    "snaptogrid": true,
    "wType": "FlexContainer",
    "widgetalignment": 1
}