{
    "DNDConfig": null,
    "_height_": {
        "type": "string",
        "value": "190px"
    },
    "_margin_": [
        0,
        0,
        0,
        0
    ],
    "_orientation_": 6,
    "_padding_": [
        0,
        0,
        0,
        0
    ],
    "_percent_": true,
    "_right_": {
        "type": "string",
        "value": "0px"
    },
    "_skin_": "se31956b9efb4cdeb803f81ffb1335e2",
    "_top_": {
        "type": "string",
        "value": "0dp"
    },
    "_width_": {
        "type": "string",
        "value": "50%"
    },
    "allboxes": [],
    "autogrowmode": 0,
    "canUpdateUI": true,
    "children": [
        "CopyLabel0d72422eb721a41",
        "CopyLabel0cff9ff7ee07740",
        "CopyFlexGroup0cd923fdeac8c4b",
        "CopyFlexGroup0caaa28879c8844"
    ],
    "clipbounds": true,
    "containerweight": 100,
    "enablescrolling": true,
    "id": "flxfees",
    "info": null,
    "iscustomlayout": false,
    "isvisible": true,
    "kuid": "ac152a92026b4575b2dc81e4d19f6da0",
    "layouttype": 4,
    "name": "kony.ui.FlexContainer",
    "parent": "flxgrpProFee",
    "pf": "frmDashboard",
    "retaincontentalignment": false,
    "retainflexpositionproperties": false,
    "retainflowhorizontalalignment": false,
    "snapgridsize": 10,
    "snaptogrid": true,
    "wType": "FlexContainer",
    "widgetalignment": 1
}