{
    "DNDConfig": null,
    "_height_": {
        "type": "string",
        "value": "54px"
    },
    "_left_": {
        "type": "string",
        "value": "0"
    },
    "_margin_": [
        0,
        0,
        0,
        0
    ],
    "_orientation_": 6,
    "_padding_": [
        0,
        0,
        0,
        0
    ],
    "_percent_": true,
    "_skin_": "se31956b9efb4cdeb803f81ffb1335e2",
    "_top_": {
        "type": "string",
        "value": "0"
    },
    "_width_": {
        "type": "string",
        "value": "100%"
    },
    "allboxes": [],
    "autogrowmode": 0,
    "canUpdateUI": true,
    "children": [
        "flxCountInner",
        "CopyflxRightLoanLabels0ife201ffdb5f4e",
        "flxRightCountSelection"
    ],
    "clipbounds": false,
    "containerweight": 100,
    "desktopweb": {
        "zIndex": "auto"
    },
    "enablescrolling": true,
    "id": "flxLoanCounts",
    "info": null,
    "iscustomlayout": false,
    "isvisible": true,
    "kuid": "ec5e053772bb4ae0882091a8d81bf3a1",
    "layouttype": 3,
    "name": "kony.ui.FlexContainer",
    "parent": "flxGraphPopup",
    "pf": "frmDashboard",
    "retaincontentalignment": false,
    "retainflexpositionproperties": false,
    "retainflowhorizontalalignment": false,
    "snapgridsize": 10,
    "snaptogrid": true,
    "wType": "FlexContainer",
    "widgetalignment": 1
}