{
    "DNDConfig": null,
    "_bottom_": {
        "type": "string",
        "value": "8px"
    },
    "_height_": {
        "type": "string",
        "value": "2px"
    },
    "_left_": {
        "type": "string",
        "value": "-63%"
    },
    "_margin_": [
        0,
        0,
        0,
        0
    ],
    "_orientation_": 6,
    "_padding_": [
        0,
        0,
        0,
        0
    ],
    "_percent_": true,
    "_skin_": "s29bf9cdc0fd467f803e273e4ca59524",
    "_width_": {
        "type": "string",
        "value": "60px"
    },
    "allboxes": [],
    "autogrowmode": 0,
    "canUpdateUI": true,
    "children": [],
    "clipbounds": true,
    "containerweight": 100,
    "enablescrolling": true,
    "id": "flxselected",
    "info": null,
    "iscustomlayout": false,
    "isvisible": true,
    "kuid": "gb8b5baca0a240ce844217c2bd23f596",
    "layouttype": 2,
    "name": "kony.ui.FlexContainer",
    "parent": "flxCntnr6",
    "pf": "frmDashboard",
    "retaincontentalignment": false,
    "retainflexpositionproperties": false,
    "retainflowhorizontalalignment": false,
    "snapgridsize": 10,
    "snaptogrid": true,
    "wType": "FlexContainer",
    "widgetalignment": 1,
    "zindex": 1
}