{
    "@class": "com.kony.gen.viz.model.component.KVizUserWidget",
    "DNDConfig": null,
    "_children_": [],
    "_height_": {
        "type": "string",
        "value": "100%"
    },
    "_left_": {
        "type": "string",
        "value": "0%"
    },
    "_margin_": [
        0,
        0,
        0,
        0
    ],
    "_orientation_": 1,
    "_padding_": [
        0,
        0,
        0,
        0
    ],
    "_percent_": true,
    "_skin_": "s88bb4b74c244669a1b5389d05ecbfae",
    "_top_": {
        "type": "string",
        "value": "0dp"
    },
    "_width_": {
        "type": "string",
        "value": "100%"
    },
    "areflexpropsreferenced": false,
    "autogrowmode": 0,
    "canUpdateUI": true,
    "clipbounds": false,
    "containerweight": 0,
    "dataDiffs": {
        "CircleDark1": {
            "__events__": {},
            "__info__": {
                "kuid": "eec5107324574d9e86b25eca4f2dda62",
                "srcKUID": "d3ba0daea5fb45a69be8202944c34e56",
                "wType": "Label"
            }
        },
        "CircleDark2": {
            "__events__": {},
            "__info__": {
                "kuid": "b9861349069d4aff9be030500e9f8fdf",
                "srcKUID": "dcbb9f49f5444a1a88bf103b137466d5",
                "wType": "Label"
            }
        },
        "CircleDark3": {
            "__events__": {},
            "__info__": {
                "kuid": "e1cf654ee8e045108a4fb1aa6ba4fb81",
                "srcKUID": "fbdc0e64f1b04d1ebce41a51e036f15a",
                "wType": "Label"
            }
        },
        "CircleLight": {
            "__events__": {},
            "__info__": {
                "kuid": "dca6ab834a6545b5b087d6d9cf79d707",
                "srcKUID": "ac11073e6bbc44b98f7fa50dd676d1d6",
                "wType": "Label"
            }
        },
        "btnCloseGetStarted": {
            "__events__": {},
            "__info__": {
                "kuid": "ad397b31d5714f318a415b4dfc62f264",
                "srcKUID": "ged8e56bd911424793a8f98b6b8f884b",
                "wType": "Button"
            }
        },
        "btnStart": {
            "__events__": {},
            "__info__": {
                "kuid": "d7e70063e2ce4acfa06db92507a2b415",
                "srcKUID": "c5d09e27643449a39e4a4105cd65ada0",
                "wType": "Button"
            }
        },
        "btnStart1": {
            "__events__": {},
            "__info__": {
                "kuid": "he914b26e6094f1eb8f25fd22c600438",
                "srcKUID": "j80de83ac9fe4bd0a7a7fa6a68a12053",
                "wType": "Button"
            }
        },
        "flxBtn": {
            "__events__": {},
            "__info__": {
                "kuid": "j92b72d2751d4860b624697490165ca2",
                "srcKUID": "fc120806fc1b4bf9bebc58c6d9028599",
                "wType": "FlexContainer"
            }
        },
        "flxClose": {
            "__events__": {},
            "__info__": {
                "kuid": "a1625b0919a84ab980fb846f44f012a2",
                "srcKUID": "c30713d82b094a84a75fe21d5f9cdfca",
                "wType": "FlexContainer"
            }
        },
        "flxIndicators": {
            "__events__": {},
            "__info__": {
                "kuid": "c4be8ee940bc4ab8863c498f99833bae",
                "srcKUID": "i6cc2713bd554fceb650308577329334",
                "wType": "FlexContainer"
            }
        },
        "flxInidcator1": {
            "__events__": {},
            "__info__": {
                "kuid": "a394a179920c4e599d0936c8d4fc5cde",
                "srcKUID": "e81cb4c239de4550b749912641275bdd",
                "wType": "FlexContainer"
            }
        },
        "flxMain": {
            "__events__": {},
            "__info__": {
                "kuid": "id4fff2a7d0c4b3ea30e43190cde0da9",
                "srcKUID": "g8754b08faab4f22b0844965e0ce31d9",
                "wType": "FlexContainer"
            }
        },
        "getStarted": {
            "__events__": {},
            "__info__": {
                "isRoot": true,
                "kuid": "e433660b6ffc4917af861d4a825800c7",
                "srcKUID": "b9a38012c2d84686bb2d53409087a6a2",
                "wType": "FlexContainer"
            },
            "isVisible": false,
            "responsiveData": {},
            "zIndex": {
                "Default": 15
            }
        },
        "img1": {
            "__events__": {},
            "__info__": {
                "kuid": "f4fa5092499f4e8c8797e1953c387960",
                "srcKUID": "c05ed807690f4e22a4de04cdcb859ce7",
                "wType": "Image"
            },
            "src": "start3.png"
        },
        "lbl2": {
            "__events__": {},
            "__info__": {
                "kuid": "da568b46d49e4e6b97259cc527b87cd8",
                "srcKUID": "b7e7f39966c245bbb28a74e8982e5633",
                "wType": "Label"
            }
        },
        "lblClose": {
            "__events__": {},
            "__info__": {
                "kuid": "baa1bb048da24d3fa5c2a9c66040f0d6",
                "srcKUID": "fa7ee56424ae4791bd45df1e51c591a8",
                "wType": "Label"
            }
        },
        "lblHi": {
            "__events__": {},
            "__info__": {
                "kuid": "bb4baa40040749b1964816412d278531",
                "srcKUID": "h1a164fd684f4336a84e7d4f8f5d5a5e",
                "wType": "Label"
            }
        },
        "line1": {
            "__events__": {},
            "__info__": {
                "kuid": "jf42e64546d149ba99ac28b16963d088",
                "srcKUID": "a589404990534fb0a83ff99a40b9c86f",
                "wType": "FlexContainer"
            }
        }
    },
    "enablescrolling": true,
    "id": "getStarted",
    "info": null,
    "iscustomlayout": false,
    "isdatareferenced": false,
    "isvisible": false,
    "kuid": "e433660b6ffc4917af861d4a825800c7",
    "layouttype": 2,
    "masterType": 0,
    "name": "kony.ui.UserWidgetInstance",
    "onclick": "AS_FlexContainer_ee0e875e848244fd927cde18fce984a0",
    "parent": "frmDashboard",
    "pf": "frmDashboard",
    "retaincontentalignment": false,
    "retainflexpositionproperties": false,
    "retainflowhorizontalalignment": false,
    "snapgridsize": 10,
    "snaptogrid": true,
    "sourceUserWidget": "b9a38012c2d84686bb2d53409087a6a2",
    "wType": "UserWidgetInstance",
    "zindex": 15
}