{
    "@class": "com.kony.gen.viz.model.component.KVizUserWidget",
    "DNDConfig": null,
    "_children_": [],
    "_height_": {
        "type": "string",
        "value": "100%"
    },
    "_left_": {
        "type": "string",
        "value": "0dp"
    },
    "_margin_": [
        0,
        0,
        0,
        0
    ],
    "_orientation_": 1,
    "_padding_": [
        0,
        0,
        0,
        0
    ],
    "_percent_": true,
    "_skin_": "s4e043b98564449d8a4a73daad362f53",
    "_top_": {
        "type": "string",
        "value": "0dp"
    },
    "_width_": {
        "type": "string",
        "value": "100%"
    },
    "areflexpropsreferenced": false,
    "autogrowmode": 0,
    "canUpdateUI": true,
    "clipbounds": true,
    "containerweight": 0,
    "dataDiffs": {
        "CopyflxBck0c8bd2742893248": {
            "__events__": {},
            "__info__": {
                "kuid": "f02e6dd305144f26aa787f7fa107277b",
                "srcKUID": "b16577411ad64ef0b69155d86f981147",
                "wType": "FlexContainer"
            }
        },
        "CopylblBack0j2de3a34459746": {
            "__events__": {},
            "__info__": {
                "kuid": "e3dc35fd9dd8493b93370c812a9b85a2",
                "srcKUID": "hf555ed03dd84c5c8b001d806fabf496",
                "wType": "Label"
            }
        },
        "CopylblBackArrow0a405d8ec3e4d46": {
            "__events__": {},
            "__info__": {
                "kuid": "dab66dd8b3cc4f828926645d7550955a",
                "srcKUID": "c2729d6470df4bec9bb2f0566aaffa17",
                "wType": "Label"
            }
        },
        "FlexContainer0da2ffc32184b42": {
            "__events__": {},
            "__info__": {
                "kuid": "dddb0c0aad014653acd86f5c046de802",
                "srcKUID": "h903dd1667de48baa27598a189677899",
                "wType": "FlexContainer"
            }
        },
        "FlexGroup0b337f90c7acb4e": {
            "__events__": {},
            "__info__": {
                "kuid": "a106dcd49d90434d98c117f3ef9ebdfd",
                "srcKUID": "fce876425ac54b2789772f60a15ba407",
                "wType": "FlexContainer"
            }
        },
        "Label0e9ea2d0c21b54f": {
            "__events__": {},
            "__info__": {
                "kuid": "i86b5fcaa39547f9a6b082538cb69051",
                "srcKUID": "i1d367cc36854ce6951d66f4288b5992",
                "wType": "Label"
            }
        },
        "PlayCircleDark": {
            "__events__": {},
            "__info__": {
                "kuid": "ab6cf83a4b25443c97eb8ae1c94071a2",
                "srcKUID": "hbbef4873ddd4d2c845f4c02d70d9e63",
                "wType": "Label"
            }
        },
        "brw": {
            "__events__": {},
            "__info__": {
                "kuid": "hecbd3b0bde048aa94b02dfb5fa70ae7",
                "srcKUID": "a71f40f28f42470baf7df31c0de8224f",
                "wType": "Browser"
            }
        },
        "btn1": {
            "__events__": {},
            "__info__": {
                "kuid": "j773c4cef1674198b79379cce2d2ba1c",
                "srcKUID": "gf03b7ec227d4252a8f10adb8fc5a29e",
                "wType": "Button"
            }
        },
        "btn2": {
            "__events__": {},
            "__info__": {
                "kuid": "c2ef22813a66404f981927faec97406c",
                "srcKUID": "b93e1896a97e46d994a5dd2137e47642",
                "wType": "Button"
            }
        },
        "btn3": {
            "__events__": {},
            "__info__": {
                "kuid": "bdb9ef2d8d514a7f9958a0021fbb12b3",
                "srcKUID": "g19387348c33490eb3a459606ac61572",
                "wType": "Button"
            }
        },
        "btn4": {
            "__events__": {},
            "__info__": {
                "kuid": "f4f4a2049db344469fd4ace1e37cefa7",
                "srcKUID": "j7114c0fedba464eba63b5f0df2121e9",
                "wType": "Button"
            }
        },
        "btn5": {
            "__events__": {},
            "__info__": {
                "kuid": "d2dc5eb775f04712a3039d11643e7f61",
                "srcKUID": "c1b425151e7c4005be4f6b1b2e6665d1",
                "wType": "Button"
            }
        },
        "btn6": {
            "__events__": {},
            "__info__": {
                "kuid": "j33b8aaab4a94e0ba6cb6f4198fc2874",
                "srcKUID": "f7160577513945aaaa8a7da41819af25",
                "wType": "Button"
            }
        },
        "btn7": {
            "__events__": {},
            "__info__": {
                "kuid": "fde298fd300c43f3bea6f123ea779864",
                "srcKUID": "bef38e3da76f493b994a1907df8a9d20",
                "wType": "Button"
            }
        },
        "btn8": {
            "__events__": {},
            "__info__": {
                "kuid": "e6f1a7b188f04227851b118ed6a86186",
                "srcKUID": "dc48bac4051f4069a07b2e9515777c97",
                "wType": "Button"
            }
        },
        "btnAccount": {
            "__events__": {},
            "__info__": {
                "kuid": "e784e33323ef482b92bdf74593dbe0d7",
                "srcKUID": "f9e7593e31214141aa727f3de5d9b8fd",
                "wType": "Button"
            }
        },
        "btnBackShowMore": {
            "__events__": {},
            "__info__": {
                "kuid": "c1b7f2fd7cf046948f0b0b61cebd4a05",
                "srcKUID": "c7e165ebb99642dca78371e584d3cf69",
                "wType": "Button"
            }
        },
        "btnBckType": {
            "__events__": {},
            "__info__": {
                "kuid": "e031c0b4d1f54ebeb845d60f0033a61a",
                "srcKUID": "fb7c1bdb2c1a4921a9eba28b2d339160",
                "wType": "Button"
            }
        },
        "btnClearTxt": {
            "__events__": {},
            "__info__": {
                "kuid": "i5e23570b37a43fb85fcc4ce81d7fb4b",
                "srcKUID": "c305fdbd3745481b847747a394cb2091",
                "wType": "Button"
            }
        },
        "btnCloseHelp": {
            "__events__": {},
            "__info__": {
                "kuid": "e05b4650c5454d01bc4d8cb0f498e0c3",
                "srcKUID": "i18a7a701189415c9f194aa7e4e8a7fe",
                "wType": "Button"
            }
        },
        "btnCloseVideo": {
            "__events__": {},
            "__info__": {
                "kuid": "ge285d1cf5ca4fa99bed8af6efa3089c",
                "srcKUID": "ccb1e540ebd942d29b2f8b3e8b63c15a",
                "wType": "Button"
            }
        },
        "btnDeposit": {
            "__events__": {},
            "__info__": {
                "kuid": "b9748ffb3107496eaa8076b64a60554b",
                "srcKUID": "b98862c630a14eed8baef0a86ec78c7d",
                "wType": "Button"
            }
        },
        "btnHomeHelp": {
            "__events__": {},
            "__info__": {
                "kuid": "ic31fd88b814492cb36a9b3d2523974e",
                "srcKUID": "i6791d96aab54846a3f762c9ddd25a10",
                "wType": "Button"
            }
        },
        "btnLoan": {
            "__events__": {},
            "__info__": {
                "kuid": "daef9d78af4f4669a6d8d8c16de5714d",
                "srcKUID": "g96fe633ec7846a78b3e819e622b34d5",
                "wType": "Button"
            }
        },
        "btnMoreQues": {
            "__events__": {},
            "__info__": {
                "kuid": "f5f96a758c0a4c1b89bd6b692c5496de",
                "srcKUID": "j24494575d2a4c2996b8a11c8e044fcf",
                "wType": "Button"
            }
        },
        "btnPlus1": {
            "__events__": {},
            "__info__": {
                "kuid": "e96f97b13d5b471b8a6de3eaa1930795",
                "srcKUID": "ade01b4e13f84d9ba2a388af7d79a8a3",
                "wType": "Button"
            }
        },
        "btnPlus2": {
            "__events__": {},
            "__info__": {
                "kuid": "g89b986a5cb84ea684fc5fc15634466c",
                "srcKUID": "ide2a591e4074e6eb1d5d4b18e9e904e",
                "wType": "Button"
            }
        },
        "btnPlus3": {
            "__events__": {},
            "__info__": {
                "kuid": "g42a104ad4f84db68ac8a97bb0d1a3cf",
                "srcKUID": "ca1ecc271d9f4f2f991827d9705fc50f",
                "wType": "Button"
            }
        },
        "btnPlus4": {
            "__events__": {},
            "__info__": {
                "kuid": "b0dc630021b248d5bcbc9ddaa688d50b",
                "srcKUID": "ac1c6f2f035a442e9144c2d076cd2ba7",
                "wType": "Button"
            }
        },
        "btnShowMore": {
            "__events__": {},
            "__info__": {
                "kuid": "h967e82ec3d746ed8fbaa9d6d3686fd9",
                "srcKUID": "f550a677a3764b5bb9f4f3a83930a9f6",
                "wType": "Button"
            }
        },
        "btnVideo": {
            "__events__": {},
            "__info__": {
                "kuid": "aa41b3551f544ab39a85b61967541085",
                "srcKUID": "a5778429f0b1450da48aa6dd90e5f891",
                "wType": "Button"
            }
        },
        "clearSearch": {
            "__events__": {},
            "__info__": {
                "kuid": "f2c777692a904b88a2e1fa02a2ec6378",
                "srcKUID": "d5b67cabc602484093e63b8bc30977f2",
                "wType": "Label"
            }
        },
        "clearTxtBxSearch": {
            "__events__": {},
            "__info__": {
                "kuid": "d77a6f0746f44c0a8c98125a8fc48a59",
                "srcKUID": "ec79be511d124c3393d9e3901c6628e8",
                "wType": "Label"
            }
        },
        "cusBackIcon": {
            "__events__": {},
            "__info__": {
                "kuid": "cc466933976b438fa216e2b2f8404959",
                "srcKUID": "bcf684a9b65b471fa13be469d4cd008b",
                "wType": "Label"
            }
        },
        "flx1": {
            "__events__": {},
            "__info__": {
                "kuid": "jbdc9daaf7b149c0bafbae582d977d51",
                "srcKUID": "a0bfb497c3984392b4a69540803595ef",
                "wType": "FlexContainer"
            }
        },
        "flx2": {
            "__events__": {},
            "__info__": {
                "kuid": "ca8d4564fbb046a8857b779934941e26",
                "srcKUID": "e1bc79ed2e17420c9329ab9862dda505",
                "wType": "FlexContainer"
            }
        },
        "flx3": {
            "__events__": {},
            "__info__": {
                "kuid": "icd1bf0e90cc4f38a6f424a4db57b392",
                "srcKUID": "e06f68df0dff47f5aea0915f446763ab",
                "wType": "FlexContainer"
            }
        },
        "flx4": {
            "__events__": {},
            "__info__": {
                "kuid": "b0c657f011e9420ebddebf524a9b02e4",
                "srcKUID": "i040b70fe33b4686b2adbe96ac59d4f3",
                "wType": "FlexContainer"
            }
        },
        "flx5": {
            "__events__": {},
            "__info__": {
                "kuid": "c7f0e65351944f01be895f6c44300fc4",
                "srcKUID": "ba4a2bd51d06431db01a951404c33781",
                "wType": "FlexContainer"
            }
        },
        "flx6": {
            "__events__": {},
            "__info__": {
                "kuid": "b19128b2113d4010b4a83abf1459fc6b",
                "srcKUID": "b130bb72adea4f09875a6eda8c55be14",
                "wType": "FlexContainer"
            }
        },
        "flx7": {
            "__events__": {},
            "__info__": {
                "kuid": "j90e287401b6460683c95fabbed4bcdb",
                "srcKUID": "b11bad47fb294dc5840f249a1b5f1906",
                "wType": "FlexContainer"
            }
        },
        "flx8": {
            "__events__": {},
            "__info__": {
                "kuid": "ac3489afd2b64c5ba5f9c0ec84772a6d",
                "srcKUID": "bad38a5e97ce4193b687e896aa3944ac",
                "wType": "FlexContainer"
            }
        },
        "flxAccount": {
            "__events__": {},
            "__info__": {
                "kuid": "hf03d79f2a074536b0e335f286331fd4",
                "srcKUID": "aaaec0ea0c204ddd861a3161b53b3d83",
                "wType": "FlexContainer"
            }
        },
        "flxAns1": {
            "__events__": {},
            "__info__": {
                "kuid": "e98fd28972554fd9a819519911cb23b0",
                "srcKUID": "b7e31d8e21af4278a8e59adc5fc6acf1",
                "wType": "FlexContainer"
            }
        },
        "flxAns2": {
            "__events__": {},
            "__info__": {
                "kuid": "h63783fff7834e62b96b676a41680761",
                "srcKUID": "b489098c53ee4c7e9249a8e348c5df26",
                "wType": "FlexContainer"
            }
        },
        "flxBack": {
            "__events__": {},
            "__info__": {
                "kuid": "ffd4a7968757411dad88287be1495d88",
                "srcKUID": "g4cea0cac8c54dbd893d0896f90da17a",
                "wType": "FlexContainer"
            }
        },
        "flxBackAns": {
            "__events__": {},
            "__info__": {
                "kuid": "a51841f5668649f28ebc927c149e9659",
                "srcKUID": "fcd55cc74304478284b321950493c37c",
                "wType": "FlexContainer"
            }
        },
        "flxBck": {
            "__events__": {},
            "__info__": {
                "kuid": "i603f1d8ef2c441aafcc468f861d0a3d",
                "srcKUID": "be9f04b77e314f9db3721cd02d646046",
                "wType": "FlexContainer"
            }
        },
        "flxBckArrow": {
            "__events__": {},
            "__info__": {
                "kuid": "b33d490ec24e43468e40c76ecfe50819",
                "srcKUID": "cc449c9de12c4e569037a55673fa6b55",
                "wType": "FlexContainer"
            }
        },
        "flxBckType": {
            "__events__": {},
            "__info__": {
                "kuid": "dd37a72f72d94524b1b9c7d79e82129d",
                "srcKUID": "c2ba4182760e4600a31e3670c358dc41",
                "wType": "FlexContainer"
            }
        },
        "flxBottom": {
            "__events__": {},
            "__info__": {
                "kuid": "f9ce6300ab2640debdf1a80e568a2ed8",
                "srcKUID": "i57540e2b2a142119b5bbd0e4ab73200",
                "wType": "FlexContainer"
            }
        },
        "flxBreadcrum": {
            "__events__": {},
            "__info__": {
                "kuid": "c6548a97687a431aa4c9997c5a905390",
                "srcKUID": "f9af58e989cb4baead77a0cdc5598ab9",
                "wType": "FlexContainer"
            }
        },
        "flxBrw": {
            "__events__": {},
            "__info__": {
                "kuid": "d9a6d91a2949415789732395a460c5b3",
                "srcKUID": "e89130c9e32a430f9bcad3459116eb6e",
                "wType": "FlexContainer"
            }
        },
        "flxClose": {
            "__events__": {},
            "__info__": {
                "kuid": "i1563c44652241ecb6ab082f6e9055e3",
                "srcKUID": "ca321916379940b3bfb45710c7e7a74e",
                "wType": "FlexContainer"
            }
        },
        "flxCloseHelp": {
            "__events__": {},
            "__info__": {
                "kuid": "eea9ad77279640af84497e1115ddba67",
                "srcKUID": "d9419379d1734dab907a6131c78a2721",
                "wType": "FlexContainer"
            }
        },
        "flxDeposits": {
            "__events__": {},
            "__info__": {
                "kuid": "f00a62e7203f48869f0457496c4d10d0",
                "srcKUID": "f7025196d4514de3a9f3f09db659b9b4",
                "wType": "FlexContainer"
            }
        },
        "flxDesc": {
            "__events__": {},
            "__info__": {
                "kuid": "c287716a4eba47fc8668502092de42fc",
                "srcKUID": "a71b80c6c201477a8d232adde99b07c8",
                "wType": "FlexScrollContainer"
            }
        },
        "flxDesc1": {
            "__events__": {},
            "__info__": {
                "kuid": "cbc6d20da58d47238d7279dd0a91c973",
                "srcKUID": "de55147eb8284035b234ce7a36eab198",
                "wType": "FlexContainer"
            }
        },
        "flxDesc2": {
            "__events__": {},
            "__info__": {
                "kuid": "f92ebe6e933940179c976dfb990a0516",
                "srcKUID": "b364975898c448cdad3f93859c6ea65d",
                "wType": "FlexContainer"
            }
        },
        "flxDesc3": {
            "__events__": {},
            "__info__": {
                "kuid": "de3efe2f1b9145c2a32298d74e15ab50",
                "srcKUID": "e15201dbff194e2e958f620777f04a42",
                "wType": "FlexContainer"
            }
        },
        "flxDescHeader2": {
            "__events__": {},
            "__info__": {
                "kuid": "c21e7b40c32146969dfe3d85d43cbfd0",
                "srcKUID": "cd19bc8590d843cba0480b9a9c56735a",
                "wType": "FlexContainer"
            }
        },
        "flxDescHeader3": {
            "__events__": {},
            "__info__": {
                "kuid": "i88bb996cc4946188638e2b0b6ec6665",
                "srcKUID": "ef2fc08b77384c08a2ad866737bca11a",
                "wType": "FlexContainer"
            }
        },
        "flxDescType1": {
            "__events__": {},
            "__info__": {
                "kuid": "a4f7bd13ca744de2933ac44fa971697f",
                "srcKUID": "c8dfd7163586439294bd41a9e2a5ff63",
                "wType": "FlexContainer"
            }
        },
        "flxDescType2": {
            "__events__": {},
            "__info__": {
                "kuid": "h057e836c6494102a5b99883b7ddec7a",
                "srcKUID": "f859acf1485c4197bbeb281e4482eb02",
                "wType": "FlexContainer"
            }
        },
        "flxDescType3": {
            "__events__": {},
            "__info__": {
                "kuid": "j1fa98d10c95475aa685309b3a2cd42d",
                "srcKUID": "ia544ffc23224366acf72e3716e439a6",
                "wType": "FlexContainer"
            }
        },
        "flxDescType4": {
            "__events__": {},
            "__info__": {
                "kuid": "h16f1f34c94248c18b31b5c68feed1ed",
                "srcKUID": "g6f6f861418f44e6adeac9a9c20e495a",
                "wType": "FlexContainer"
            }
        },
        "flxExpand1": {
            "__events__": {},
            "__info__": {
                "kuid": "ce2e3100291b4abcbaa8cd42281988a5",
                "srcKUID": "b36ec4747b694ff7bf9d217313873c75",
                "wType": "FlexContainer"
            }
        },
        "flxExpand2": {
            "__events__": {},
            "__info__": {
                "kuid": "f2ff2d5492644bd394d85115b16b57bf",
                "srcKUID": "d72c68e704a346648b0dbb5f24bf9e0e",
                "wType": "FlexContainer"
            }
        },
        "flxExpand3": {
            "__events__": {},
            "__info__": {
                "kuid": "ddc03d8aff5d427690d867bbd50679a0",
                "srcKUID": "df42118b2dd743258295227000fab538",
                "wType": "FlexContainer"
            }
        },
        "flxExpand4": {
            "__events__": {},
            "__info__": {
                "kuid": "d5fff5ac759e4c86b201e01e162fd06e",
                "srcKUID": "d5f13bf2256b41d3ac9f8501a6499c8a",
                "wType": "FlexContainer"
            }
        },
        "flxFAQ": {
            "__events__": {},
            "__info__": {
                "kuid": "f264b2594a4c4f32b7ff439be22a739a",
                "srcKUID": "b8d09475252f43d0ae581e3ee22732f7",
                "wType": "FlexContainer"
            }
        },
        "flxHeader": {
            "__events__": {},
            "__info__": {
                "kuid": "ed7e8bf95b484269902451064d25027c",
                "srcKUID": "dda40f5444384e05bd31df5586e09659",
                "wType": "FlexContainer"
            }
        },
        "flxHelpGroup": {
            "__events__": {},
            "__info__": {
                "kuid": "f70ac709d1b74cd2a773f491f17068ff",
                "srcKUID": "b026eb2fdf514268b9c59bc70041b149",
                "wType": "FlexContainer"
            }
        },
        "flxHelpHome": {
            "__events__": {},
            "__info__": {
                "kuid": "b9c83c1f97624798a05863833961a3e0",
                "srcKUID": "f8894ced966e4176ac152c460a16d078",
                "wType": "FlexContainer"
            }
        },
        "flxLeft": {
            "__events__": {},
            "__info__": {
                "kuid": "af62387d9cec4c3395e8aca3b042b64e",
                "srcKUID": "aff2d17996804d8190a87030295eb836",
                "wType": "FlexContainer"
            }
        },
        "flxLoan": {
            "__events__": {},
            "__info__": {
                "kuid": "j70c29b162ec43188b88240221283d6e",
                "srcKUID": "ed2b8e77161e42749458f58139524002",
                "wType": "FlexContainer"
            }
        },
        "flxLoanHome": {
            "__events__": {},
            "__info__": {
                "kuid": "e89b17fabf274a2a8e5b8f7c8ba580c1",
                "srcKUID": "cf0de250c9fb4f91b573f7aee70ff57a",
                "wType": "FlexContainer"
            }
        },
        "flxMain": {
            "__events__": {},
            "__info__": {
                "kuid": "c77970cebe6545fe92f73cafe7334649",
                "srcKUID": "edc31f77fb9b4fa2807e7246f98688f8",
                "wType": "FlexContainer"
            }
        },
        "flxOptions": {
            "__events__": {},
            "__info__": {
                "kuid": "ff5a765d8cf749768dd963f3a125b41f",
                "srcKUID": "ba27426a42a7450daa9c1149b09ba883",
                "wType": "FlexContainer"
            }
        },
        "flxOptions2": {
            "__events__": {},
            "__info__": {
                "kuid": "h7a8e6e26a724200aa9910456fa3018e",
                "srcKUID": "a6561fc38ef945c696d41c7e94237989",
                "wType": "FlexContainer"
            }
        },
        "flxPlayVideo": {
            "__events__": {},
            "__info__": {
                "kuid": "bec99dcbaf384fe8af390211dfbffe4b",
                "srcKUID": "c8be0376565c46ddb12cfcecea789266",
                "wType": "FlexContainer"
            }
        },
        "flxQues": {
            "__events__": {},
            "__info__": {
                "kuid": "ad7336b757c94132b7982f23eac64a76",
                "srcKUID": "b3313ededb8641a8ba2ec9456aa5fce1",
                "wType": "FlexContainer"
            }
        },
        "flxQues1": {
            "__events__": {},
            "__info__": {
                "kuid": "c82916a258f442a7af741247d12853f3",
                "srcKUID": "i16361d2a2c3482fbab82abf34e0105e",
                "wType": "FlexContainer"
            }
        },
        "flxQues2": {
            "__events__": {},
            "__info__": {
                "kuid": "d855fb18f0344b3ca44b4bb323f10003",
                "srcKUID": "h59f7992372c48fdb4a6e729be05343e",
                "wType": "FlexContainer"
            }
        },
        "flxRight": {
            "__events__": {},
            "__info__": {
                "kuid": "a84f1eeb7f144a8ea22dd8b7b652c8de",
                "srcKUID": "b048fa0e16df45ed98495f445cdc77d9",
                "wType": "FlexContainer"
            }
        },
        "flxSearch": {
            "__events__": {},
            "__info__": {
                "kuid": "df4e1e2528784469bc4275c7b30a12d9",
                "srcKUID": "a4ad2b5851c140798c699f30d83e5922",
                "wType": "FlexContainer"
            }
        },
        "flxSearchResult": {
            "__events__": {},
            "__info__": {
                "kuid": "b6a398cc7f8b406fa073c1fceb49772d",
                "srcKUID": "fd9bf5e18c5341229d01ca66f9080d78",
                "wType": "FlexContainer"
            }
        },
        "flxSeg": {
            "__events__": {},
            "__info__": {
                "kuid": "b83cf25042a6493f9d8d9411df4ed184",
                "srcKUID": "i5df22fbbdc9499da4cea87aa52903e9",
                "wType": "FlexContainer"
            }
        },
        "flxSeparator": {
            "__events__": {},
            "__info__": {
                "kuid": "d43b9fb21f7e495aa3d53283e3a65a7c",
                "srcKUID": "a65262a100b3484a8c59afdf2937b887",
                "wType": "FlexContainer"
            }
        },
        "flxSeparator1": {
            "__events__": {},
            "__info__": {
                "kuid": "a9831eb88d5e47a6bff74ffcd2c2e233",
                "srcKUID": "d71721d3e671480b85ac0798048399bc",
                "wType": "FlexContainer"
            }
        },
        "flxSeparator2": {
            "__events__": {},
            "__info__": {
                "kuid": "g01c7904d70f46c1b94831abbbbf1b87",
                "srcKUID": "id6eb87e507c4475b63c7787625ce39b",
                "wType": "FlexContainer"
            }
        },
        "flxSeparator3": {
            "__events__": {},
            "__info__": {
                "kuid": "a2757652599d4b398b2e8d7c5b95f7bb",
                "srcKUID": "f7f295b9a2e64e96aab50961fef790e5",
                "wType": "FlexContainer"
            }
        },
        "flxSeparator4": {
            "__events__": {},
            "__info__": {
                "kuid": "bf34029c562241179b913df8f987acc0",
                "srcKUID": "d900e79d05234530868fce776015fbce",
                "wType": "FlexContainer"
            }
        },
        "flxSeparator5": {
            "__events__": {},
            "__info__": {
                "kuid": "c6028fdaeed14cf29b41b7e4163f0d88",
                "srcKUID": "ee45b60a6001476793b66433336a2889",
                "wType": "FlexContainer"
            }
        },
        "flxSeparator6": {
            "__events__": {},
            "__info__": {
                "kuid": "d3bac19f364e4079963397b3a7d0d42f",
                "srcKUID": "gec0ca0f8f7e43ec9007fcf1207942fa",
                "wType": "FlexContainer"
            }
        },
        "flxSeparator7": {
            "__events__": {},
            "__info__": {
                "kuid": "h685fdf3425a47a2b07a11e5ebe36532",
                "srcKUID": "b5346b7944524e6d8c3dac7c37c54269",
                "wType": "FlexContainer"
            }
        },
        "flxSeparator8": {
            "__events__": {},
            "__info__": {
                "kuid": "i78f9b13e7ca4faaa1cccaddd6cd1425",
                "srcKUID": "c8906c555203487fad3bb1dc986f3cd8",
                "wType": "FlexContainer"
            }
        },
        "flxSeparator9": {
            "__events__": {},
            "__info__": {
                "kuid": "cef5482db6194a0685bf26adf0477964",
                "srcKUID": "b7f3ccf8eaeb46abb63a872ad1108e65",
                "wType": "FlexContainer"
            }
        },
        "flxServiceType": {
            "__events__": {},
            "__info__": {
                "kuid": "f39c6b87468a44599b71cbf412f9af75",
                "srcKUID": "b3b28e084d7b41b4b83322526324e6a8",
                "wType": "FlexContainer"
            }
        },
        "flxServices": {
            "__events__": {},
            "__info__": {
                "kuid": "ba4bd797aab345d9a955e0dd9f5ad4de",
                "srcKUID": "c016e66338364214b74a7461d9848d2d",
                "wType": "FlexContainer"
            }
        },
        "flxThumbnail": {
            "__events__": {},
            "__info__": {
                "kuid": "ef0c4bfcf568469fbdea257e5fa98aed",
                "srcKUID": "a3b1803b4d4d4e2785bdef5e6dd2f964",
                "wType": "FlexContainer"
            }
        },
        "flxTop": {
            "__events__": {},
            "__info__": {
                "kuid": "g0b7454cc0c74560b5700c0148f7bda1",
                "srcKUID": "ga3af34ef52f46e5a7a1605b0bf8e376",
                "wType": "FlexContainer"
            }
        },
        "flxTypes": {
            "__events__": {},
            "__info__": {
                "kuid": "e8eac56b2a1e417cac62b2f183c979c4",
                "srcKUID": "f35a0eb455c141e1a4d6efc5d43897b0",
                "wType": "FlexContainer"
            }
        },
        "flxVideoHeader": {
            "__events__": {},
            "__info__": {
                "kuid": "b0ade005fd3849db883365793827f72d",
                "srcKUID": "f217a1e1d1af4bd68f0db20b8ab36d62",
                "wType": "FlexContainer"
            }
        },
        "help": {
            "__events__": {},
            "__info__": {
                "isRoot": true,
                "kuid": "d564b1a9447845a58648ae4e6140d5c8",
                "srcKUID": "i643b92ec19747a8a19d0206aa4e7dfd",
                "wType": "FlexContainer"
            },
            "isVisible": false,
            "responsiveData": {}
        },
        "imgClearSearch": {
            "__events__": {},
            "__info__": {
                "kuid": "e2267f736b3f4d49b42e5ae4efc9cd8c",
                "srcKUID": "f4a067ad50494fcf9f5dfc3be078ff02",
                "wType": "Image"
            }
        },
        "imgHelp": {
            "__events__": {},
            "__info__": {
                "kuid": "ic2d71fe771b44c9acdf9f658d23a2d0",
                "srcKUID": "i227efa189b94f3cba993d40a231401a",
                "wType": "Image"
            }
        },
        "lbl1": {
            "__events__": {},
            "__info__": {
                "kuid": "h9df416e2dfe4732a49edde57523b79f",
                "srcKUID": "d3509ce36f9e4898bd95157609d83193",
                "wType": "Label"
            }
        },
        "lbl2": {
            "__events__": {},
            "__info__": {
                "kuid": "df1d8c8cadef40e0ba9225ccf2890994",
                "srcKUID": "g035c358ae3a40e2a7a0366a5666b095",
                "wType": "Label"
            }
        },
        "lbl3": {
            "__events__": {},
            "__info__": {
                "kuid": "g11065842abf479997dc8aa20b290120",
                "srcKUID": "ee5313e1acb84d7c98e771e5199ebf16",
                "wType": "Label"
            }
        },
        "lbl4": {
            "__events__": {},
            "__info__": {
                "kuid": "jb9b8924021a4fcf984f49abcf60c3ef",
                "srcKUID": "i33f05e82aeb404bae061e09b9a4c032",
                "wType": "Label"
            }
        },
        "lbl5": {
            "__events__": {},
            "__info__": {
                "kuid": "dd4147a4b70740bea43d8f6cbddb4592",
                "srcKUID": "i16ddf3e513248938ccabcb86227dff0",
                "wType": "Label"
            }
        },
        "lbl6": {
            "__events__": {},
            "__info__": {
                "kuid": "ade514664c1542cd8a9b634a9ff722ff",
                "srcKUID": "c78cae81e7db4c2997465d9b2a316c3c",
                "wType": "Label"
            }
        },
        "lbl7": {
            "__events__": {},
            "__info__": {
                "kuid": "af93fc6615704722b47998b82056b2b1",
                "srcKUID": "fdddfe4f6ae54acd9d2f24cef1480edd",
                "wType": "Label"
            }
        },
        "lblAccount": {
            "__events__": {},
            "__info__": {
                "kuid": "a4717a94217943ad8a10dcf06f346bd6",
                "srcKUID": "gcb11ef9112f4aaf83dedf081949f218",
                "wType": "Label"
            }
        },
        "lblBack": {
            "__events__": {},
            "__info__": {
                "kuid": "a639566871094a07a1a23035739932f2",
                "srcKUID": "af42efb5c9734f35a86479e12082d7c9",
                "wType": "Label"
            }
        },
        "lblBackArrow": {
            "__events__": {},
            "__info__": {
                "kuid": "g9a2d83c72e0491aa361216be590e99b",
                "srcKUID": "i7e4d3fe76064489897ad754ba1436dc",
                "wType": "Label"
            }
        },
        "lblBreadBoardSplashValue": {
            "__events__": {},
            "__info__": {
                "kuid": "b60128f2b4c14a8a8072857293bc7a22",
                "srcKUID": "d9392996140e41dc9047b3de22c0535e",
                "wType": "Label"
            }
        },
        "lblBreadBoardSplashValue1": {
            "__events__": {},
            "__info__": {
                "kuid": "cda4dfddd07f4a96ac9c94f7f499d1e1",
                "srcKUID": "a8753db037664f35a09cb871bc0f296e",
                "wType": "Label"
            }
        },
        "lblCLose": {
            "__events__": {},
            "__info__": {
                "kuid": "j1e2a82b61464ea787969b0f4ebb9088",
                "srcKUID": "a014c0d9739f414d9f9f05c5a1a8bf69",
                "wType": "Label"
            }
        },
        "lblCloseVideo": {
            "__events__": {},
            "__info__": {
                "kuid": "gedd4a36fcb44938b3bcceab8db233b4",
                "srcKUID": "d43553c48af5450ba14840aad780e774",
                "wType": "Label"
            }
        },
        "lblDeposit": {
            "__events__": {},
            "__info__": {
                "kuid": "bd3b8434532a4b59be5e9ad301aaff0b",
                "srcKUID": "c3b2ca8b86984ba58226493879af811f",
                "wType": "Label"
            }
        },
        "lblDesc1": {
            "__events__": {},
            "__info__": {
                "kuid": "d63f9cb2ec684f679d1c689cd76b3e19",
                "srcKUID": "eb41c26584474f49839c8cea12417259",
                "wType": "Label"
            }
        },
        "lblDescHeader2": {
            "__events__": {},
            "__info__": {
                "kuid": "h71e67cccf6c4bfdbb4e4bf122e4a225",
                "srcKUID": "b5baf206b8464b4fba2e02ec2ff69888",
                "wType": "Label"
            }
        },
        "lblDescHeader3": {
            "__events__": {},
            "__info__": {
                "kuid": "icebfd444806488b9cc1b99bbdd0d2aa",
                "srcKUID": "e91aa104975a4dab9c88374817aadce4",
                "wType": "Label"
            }
        },
        "lblDescType1": {
            "__events__": {},
            "__info__": {
                "kuid": "f925e1efb1ee469581cd5c0467fd2371",
                "srcKUID": "g61a30d608d94984bff052fe7a75d5e2",
                "wType": "Label"
            }
        },
        "lblDescType2": {
            "__events__": {},
            "__info__": {
                "kuid": "eb22def52d794d5b89b6cc3ec67a386c",
                "srcKUID": "i06779772e5546f287996e47a1156cc7",
                "wType": "Label"
            }
        },
        "lblDescType3": {
            "__events__": {},
            "__info__": {
                "kuid": "c8049c8e2ee2468baf98fa13b9c28366",
                "srcKUID": "j6f4c4f9894f44fe84c9162133f9e7eb",
                "wType": "Label"
            }
        },
        "lblDescType4": {
            "__events__": {},
            "__info__": {
                "kuid": "f0ce18b6b4ae4dd681156806179363a3",
                "srcKUID": "e8815ac2be7a4e23911c11e2cc745e50",
                "wType": "Label"
            }
        },
        "lblHelp": {
            "__events__": {},
            "__info__": {
                "kuid": "fc31b4bbb13d4ff8a95d9b67d0f79638",
                "srcKUID": "c60e7721576e4bce9af8c5a0bf066e28",
                "wType": "Label"
            }
        },
        "lblHelpBig": {
            "__events__": {},
            "__info__": {
                "kuid": "hf5fa183cccb4295b84c1142cb8df2be",
                "srcKUID": "hb4e3cec82214761a188a1c8387481a9",
                "wType": "Label"
            }
        },
        "lblHi": {
            "__events__": {},
            "__info__": {
                "kuid": "a2eab37181a44ec489b817c9b7dd93df",
                "srcKUID": "ba14537be17d47fcb5e47c0a0f94be78",
                "wType": "Label"
            }
        },
        "lblLoan": {
            "__events__": {},
            "__info__": {
                "kuid": "d7f0865cbfa94990a104d99867cbf9e7",
                "srcKUID": "jb61888820914473bb0d8b812e54aa98",
                "wType": "Label"
            }
        },
        "lblLoanServices": {
            "__events__": {},
            "__info__": {
                "kuid": "a4b4635c4a1743858561c4f97a3fd5e3",
                "srcKUID": "ja7646bccdcc4a42bcfe7c658e46f3ad",
                "wType": "Button"
            }
        },
        "lblNoData": {
            "__events__": {},
            "__info__": {
                "kuid": "f3ce01aa7f814379a2b0dbd34531fab6",
                "srcKUID": "cd2176c2df61427cb905124d4c92fab2",
                "wType": "Label"
            }
        },
        "lblPath": {
            "__events__": {},
            "__info__": {
                "kuid": "fc1e154ea68f4436b932043812c41e3d",
                "srcKUID": "a8dfafdc1a4d4acb961014a59df368c9",
                "wType": "Label"
            }
        },
        "lblQues1": {
            "__events__": {},
            "__info__": {
                "kuid": "jc55a6b71ad5484ab789febd82547980",
                "srcKUID": "cb6f936cf02945fc9e4a428dcb292d88",
                "wType": "Label"
            }
        },
        "lblQues2": {
            "__events__": {},
            "__info__": {
                "kuid": "fdf18a6fdf534909a78d58cf952e43c7",
                "srcKUID": "ia9ef851cabb492ba83249268b865363",
                "wType": "Label"
            }
        },
        "lblResult": {
            "__events__": {},
            "__info__": {
                "kuid": "cdf653fb47bf45c5ab0d4b25331848fd",
                "srcKUID": "a2287e54ffac4f9ea760a2dfdb84b834",
                "wType": "Label"
            }
        },
        "lblSearchIcon": {
            "__events__": {},
            "__info__": {
                "kuid": "d9079e734faf4f29aec4d59158a15ff3",
                "srcKUID": "j9598771545e4a9e9b36f2743bc662af",
                "wType": "Label"
            }
        },
        "lblSlash": {
            "__events__": {},
            "__info__": {
                "kuid": "b63fe792ab1741948d50dfb85407c332",
                "srcKUID": "cde106359f19405c818b784bdd9847fe",
                "wType": "Label"
            }
        },
        "lblType": {
            "__events__": {},
            "__info__": {
                "kuid": "fb08e170ab7e4e088287227831acf377",
                "srcKUID": "b2a41d31f8224e2ea24fe828c518f342",
                "wType": "Label"
            }
        },
        "lblVideoPath": {
            "__events__": {},
            "__info__": {
                "kuid": "d2234a4e2253486b8f65e79821e3abb1",
                "srcKUID": "i4ecdcd46ac14fd0b3e3f014336565a8",
                "wType": "Label"
            }
        },
        "lstCategories": {
            "__events__": {},
            "__info__": {
                "kuid": "i17e7b87c2c442bfafe96b53c356bff2",
                "srcKUID": "fdb0776ac7e6402c987b030b0c2b699b",
                "wType": "ListBox"
            }
        },
        "plus1": {
            "__events__": {},
            "__info__": {
                "kuid": "dead5cd27b984715b4b981ec5a7a6e0e",
                "srcKUID": "bbfd7a95280a4bde99a7434f3c488e53",
                "wType": "Label"
            }
        },
        "plus2": {
            "__events__": {},
            "__info__": {
                "kuid": "d1a8e418ac2c495e9a86d6f2e7647d21",
                "srcKUID": "a1d1685e5635469a8b07f4c0af156710",
                "wType": "Label"
            }
        },
        "plus3": {
            "__events__": {},
            "__info__": {
                "kuid": "b1c0f52236204228aceea4a5ef5cbb37",
                "srcKUID": "bf69cfac4b28433dab6f5a00758301cb",
                "wType": "Label"
            }
        },
        "plus4": {
            "__events__": {},
            "__info__": {
                "kuid": "jd3134ee07ee4ea2a2b0ac4a55e86b27",
                "srcKUID": "f08e0fbf4bc14c6cbb569f861ddcca36",
                "wType": "Label"
            }
        },
        "plus5": {
            "__events__": {},
            "__info__": {
                "kuid": "hff2c76e725a4271ac2265433a99fc5b",
                "srcKUID": "c635d227d8544e0c85417f75e148b139",
                "wType": "Label"
            }
        },
        "plus6": {
            "__events__": {},
            "__info__": {
                "kuid": "b5bbb633ccc64fe08447ea2f182f212b",
                "srcKUID": "f54fb970b6774bd2a49e59c358732426",
                "wType": "Label"
            }
        },
        "rtx1": {
            "__events__": {},
            "__info__": {
                "kuid": "h84d839ef8b040cd8c37afad7bf178c0",
                "srcKUID": "d7748b2e7f544c169d7ab366bab4eefd",
                "wType": "RichText"
            }
        },
        "rtx2": {
            "__events__": {},
            "__info__": {
                "kuid": "e294dfb85ab34bf59cbfbc2ea66e3723",
                "srcKUID": "a0af20ffdb8549c7bdcfe8b884cdc696",
                "wType": "RichText"
            }
        },
        "rtx3": {
            "__events__": {},
            "__info__": {
                "kuid": "e066cc0507154b048c54e8351aafb0da",
                "srcKUID": "f8414a33a79b4607bf06610c3b723de6",
                "wType": "RichText"
            }
        },
        "rtx4": {
            "__events__": {},
            "__info__": {
                "kuid": "b2a857dda8114b949c0f310524cd6078",
                "srcKUID": "debb7ffca0cf468b8692f8b44dbb7ebd",
                "wType": "RichText"
            }
        },
        "rtxAns1": {
            "__events__": {},
            "__info__": {
                "kuid": "c7a0726efb4b4ba7b704bbc10035737d",
                "srcKUID": "f675d12d064140628a8e1c834e7942af",
                "wType": "RichText"
            }
        },
        "rtxAns2": {
            "__events__": {},
            "__info__": {
                "kuid": "a04fc964175242399cca10080053c53b",
                "srcKUID": "caaf177d270c4f4fb452ee87c1ae46df",
                "wType": "RichText"
            }
        },
        "rtxSelected": {
            "__events__": {},
            "__info__": {
                "kuid": "a460fdd270bf4362bd4d59dcccb05ed6",
                "srcKUID": "e1aefa0a2ea74c4a830633e87c133eb3",
                "wType": "RichText"
            }
        },
        "rtxShow2": {
            "__events__": {},
            "__info__": {
                "kuid": "cc8edfb87fb8435797ef38da6a73a182",
                "srcKUID": "b63bf04d14564b7f9fb88149b7fa0dae",
                "wType": "RichText"
            }
        },
        "rtxShow3": {
            "__events__": {},
            "__info__": {
                "kuid": "jf665ee551f04c70a91bc8338e6306e8",
                "srcKUID": "g1639a2b25b140199804ab85c752f967",
                "wType": "RichText"
            }
        },
        "rtxType": {
            "__events__": {},
            "__info__": {
                "kuid": "b1ef3c9356c54971b1a110803a64e4f4",
                "srcKUID": "be50cc1d0df54b4a989bdc8881351e07",
                "wType": "RichText"
            }
        },
        "seg1": {
            "__events__": {},
            "__info__": {
                "kuid": "f72c3c25867f4308a386d3ed1c080826",
                "srcKUID": "a5f67ffc497242809217564a4dfaff76",
                "wType": "Segment"
            }
        },
        "segQues": {
            "__events__": {},
            "__info__": {
                "kuid": "h9782f426c494d66b993cccafdb39e3a",
                "srcKUID": "e043e3df04fb49c497ef0db96bed707d",
                "wType": "Segment"
            }
        },
        "segSearch": {
            "__events__": {},
            "__info__": {
                "kuid": "f4578958df374037bfe614adb9e5042e",
                "srcKUID": "b3b9b207ea3043de85c736dde199c688",
                "wType": "FlexContainer"
            }
        },
        "segServiceTypes": {
            "__events__": {},
            "__info__": {
                "kuid": "fcd786f5b7ca40739641fce970dd4db3",
                "srcKUID": "db3a15118c504dd7b720c7fb76a49c6f",
                "wType": "Segment"
            }
        },
        "txtPartialText": {
            "__events__": {},
            "__info__": {
                "kuid": "bc3dd787f72c4ba2bc203923bad49f73",
                "srcKUID": "d409d95d749148e89bfc5b9f67de71a0",
                "wType": "TextField"
            }
        }
    },
    "enablescrolling": true,
    "id": "help",
    "info": null,
    "iscustomlayout": false,
    "isdatareferenced": false,
    "isvisible": false,
    "kuid": "d564b1a9447845a58648ae4e6140d5c8",
    "layouttype": 2,
    "masterType": 0,
    "name": "kony.ui.UserWidgetInstance",
    "parent": "frmDashboard",
    "pf": "frmDashboard",
    "retaincontentalignment": false,
    "retainflexpositionproperties": false,
    "retainflowhorizontalalignment": false,
    "snapgridsize": 10,
    "snaptogrid": true,
    "sourceUserWidget": "i643b92ec19747a8a19d0206aa4e7dfd",
    "wType": "UserWidgetInstance",
    "zindex": 10
}