{
    "@class": "com.kony.gen.viz.model.container.KVizSegment2",
    "DNDConfig": null,
    "_data_": [
        {
            "lblActivity": {
                "@class": "com.viz.ide.model.segment.SimpleTextSegmentData",
                "text": ""
            },
            "lblCid": {
                "@class": "com.viz.ide.model.segment.SimpleTextSegmentData",
                "text": ""
            },
            "lblDate": {
                "@class": "com.viz.ide.model.segment.SimpleTextSegmentData",
                "text": ""
            },
            "lblGroup": {
                "@class": "com.viz.ide.model.segment.SimpleTextSegmentData",
                "text": ""
            },
            "lblInformed": {
                "@class": "com.viz.ide.model.segment.SimpleTextSegmentData",
                "text": ""
            }
        }
    ],
    "_height_": {
        "type": "string",
        "value": "245dp"
    },
    "_indicator_": "none",
    "_left_": {
        "type": "string",
        "value": "1%"
    },
    "_margin_": [
        0,
        0,
        0,
        0
    ],
    "_orientation_": 2,
    "_padding_": [
        0,
        0,
        0,
        0
    ],
    "_right_": {
        "type": "string",
        "value": "1%"
    },
    "_top_": {
        "type": "string",
        "value": "10dp"
    },
    "_width_": {
        "type": "string",
        "value": "98%"
    },
    "alternaterowskin": "s5344ea37b3f40f7877699e4eafbf3dc",
    "autogrowmode": 0,
    "canUpdateUI": true,
    "containerweight": 100,
    "counter": "00",
    "disabledSkins": {},
    "focusedindex": null,
    "focuseditem": null,
    "groupcells": false,
    "hasSections": false,
    "id": "SegA",
    "ide_onRowClick": "AS_Segment_ad9c9c5e47f640edabeeea09fcd99501",
    "info": null,
    "ipad": {
        "psp": {
            "indicator": "rowselect"
        }
    },
    "iphone": {
        "psp": {
            "indicator": "rowselect"
        }
    },
    "iscustomlayout": false,
    "isvisible": true,
    "kuid": "g587797762684c2c870d9b90744b99cd",
    "masterdata": {},
    "name": "kony.ui.SegmentedUI2",
    "needpageindicator": true,
    "pageoffdotimage": "pageoffdot.png",
    "pageondotimage": "pageondot.png",
    "paginationconfig": {
        "position": "bottom"
    },
    "parent": "flxClientActivities",
    "pf": "frmDashboard",
    "retaincontentalignment": false,
    "retainflexpositionproperties": false,
    "retainselection": false,
    "rowTemplateId": "ea7b7d25a3eb44ac92c0b9c3b92dbc60",
    "rowcounter": 0,
    "rowfocusskin": "s1efc18871dc4628800d55461bc4ebc3",
    "rowskin": "s95c74030ca949bd9bf58af58971b545",
    "rowtemplate": "flxHdr",
    "screenlevelwidget": false,
    "seccounter": 0,
    "sectionHeaderTemplateId": null,
    "sectionheaderskin": "s503004a80a34e7c92b05610326c6633",
    "selectedRows": null,
    "selectedState": false,
    "selectedindex": null,
    "selectedindices": null,
    "selecteditems": null,
    "selectedsectionindex": 0,
    "selectionbehavior": "default",
    "separatorcolor": "70707055",
    "separatorrequired": true,
    "separatorthickness": 1,
    "showscrollbars": true,
    "viewtype": "tableview",
    "vizProps": {},
    "wType": "Segment",
    "widgetalignment": 5,
    "widgetdatamap": {
        "flxHdr": "flxHdr",
        "flxName": "flxName",
        "flxRowAct": "flxRowAct",
        "flxStatus": "flxStatus",
        "flxStatusinner": "flxStatusinner",
        "lblActivity": "lblActivity",
        "lblCid": "lblCid",
        "lblDate": "lblDate",
        "lblGroup": "lblGroup",
        "lblInformed": "lblInformed"
    },
    "zindex": 2
}