{
    "@class": "com.kony.gen.viz.model.container.KVizSegment2",
    "DNDConfig": null,
    "_data_": [
        {
            "lblAccNo": {
                "@class": "com.viz.ide.model.segment.SimpleTextSegmentData",
                "text": "50033656"
            },
            "lblBalance": {
                "@class": "com.viz.ide.model.segment.SimpleTextSegmentData",
                "text": "10000"
            },
            "lblCurrency": {
                "@class": "com.viz.ide.model.segment.SimpleTextSegmentData",
                "text": "USD"
            },
            "lblLastActivityDate": {
                "@class": "com.viz.ide.model.segment.SimpleTextSegmentData",
                "text": "10 March 2020"
            }
        },
        {
            "lblAccNo": {
                "@class": "com.viz.ide.model.segment.SimpleTextSegmentData",
                "text": "50033656"
            },
            "lblBalance": {
                "@class": "com.viz.ide.model.segment.SimpleTextSegmentData",
                "text": "10000"
            },
            "lblCurrency": {
                "@class": "com.viz.ide.model.segment.SimpleTextSegmentData",
                "text": "USD"
            },
            "lblLastActivityDate": {
                "@class": "com.viz.ide.model.segment.SimpleTextSegmentData",
                "text": "10 March 2020"
            }
        },
        {
            "lblAccNo": {
                "@class": "com.viz.ide.model.segment.SimpleTextSegmentData",
                "text": "50033656"
            },
            "lblBalance": {
                "@class": "com.viz.ide.model.segment.SimpleTextSegmentData",
                "text": "10000"
            },
            "lblCurrency": {
                "@class": "com.viz.ide.model.segment.SimpleTextSegmentData",
                "text": "USD"
            },
            "lblLastActivityDate": {
                "@class": "com.viz.ide.model.segment.SimpleTextSegmentData",
                "text": "10 March 2020"
            }
        },
        {
            "lblAccNo": {
                "@class": "com.viz.ide.model.segment.SimpleTextSegmentData",
                "text": "50033656"
            },
            "lblBalance": {
                "@class": "com.viz.ide.model.segment.SimpleTextSegmentData",
                "text": "10000"
            },
            "lblCurrency": {
                "@class": "com.viz.ide.model.segment.SimpleTextSegmentData",
                "text": "USD"
            },
            "lblLastActivityDate": {
                "@class": "com.viz.ide.model.segment.SimpleTextSegmentData",
                "text": "10 March 2020"
            }
        },
        {
            "lblAccNo": {
                "@class": "com.viz.ide.model.segment.SimpleTextSegmentData",
                "text": "50033656"
            },
            "lblBalance": {
                "@class": "com.viz.ide.model.segment.SimpleTextSegmentData",
                "text": "10000"
            },
            "lblCurrency": {
                "@class": "com.viz.ide.model.segment.SimpleTextSegmentData",
                "text": "USD"
            },
            "lblLastActivityDate": {
                "@class": "com.viz.ide.model.segment.SimpleTextSegmentData",
                "text": "10 March 2020"
            }
        },
        {
            "lblAccNo": {
                "@class": "com.viz.ide.model.segment.SimpleTextSegmentData",
                "text": "50033656"
            },
            "lblBalance": {
                "@class": "com.viz.ide.model.segment.SimpleTextSegmentData",
                "text": "10000"
            },
            "lblCurrency": {
                "@class": "com.viz.ide.model.segment.SimpleTextSegmentData",
                "text": "USD"
            },
            "lblLastActivityDate": {
                "@class": "com.viz.ide.model.segment.SimpleTextSegmentData",
                "text": "10 March 2020"
            }
        },
        {
            "lblAccNo": {
                "@class": "com.viz.ide.model.segment.SimpleTextSegmentData",
                "text": "50033656"
            },
            "lblBalance": {
                "@class": "com.viz.ide.model.segment.SimpleTextSegmentData",
                "text": "10000"
            },
            "lblCurrency": {
                "@class": "com.viz.ide.model.segment.SimpleTextSegmentData",
                "text": "USD"
            },
            "lblLastActivityDate": {
                "@class": "com.viz.ide.model.segment.SimpleTextSegmentData",
                "text": "10 March 2020"
            }
        },
        {
            "lblAccNo": {
                "@class": "com.viz.ide.model.segment.SimpleTextSegmentData",
                "text": "50033656"
            },
            "lblBalance": {
                "@class": "com.viz.ide.model.segment.SimpleTextSegmentData",
                "text": "10000"
            },
            "lblCurrency": {
                "@class": "com.viz.ide.model.segment.SimpleTextSegmentData",
                "text": "USD"
            },
            "lblLastActivityDate": {
                "@class": "com.viz.ide.model.segment.SimpleTextSegmentData",
                "text": "10 March 2020"
            }
        },
        {
            "lblAccNo": {
                "@class": "com.viz.ide.model.segment.SimpleTextSegmentData",
                "text": "50033656"
            },
            "lblBalance": {
                "@class": "com.viz.ide.model.segment.SimpleTextSegmentData",
                "text": "10000"
            },
            "lblCurrency": {
                "@class": "com.viz.ide.model.segment.SimpleTextSegmentData",
                "text": "USD"
            },
            "lblLastActivityDate": {
                "@class": "com.viz.ide.model.segment.SimpleTextSegmentData",
                "text": "10 March 2020"
            }
        },
        {
            "lblAccNo": {
                "@class": "com.viz.ide.model.segment.SimpleTextSegmentData",
                "text": "50033656"
            },
            "lblBalance": {
                "@class": "com.viz.ide.model.segment.SimpleTextSegmentData",
                "text": "10000"
            },
            "lblCurrency": {
                "@class": "com.viz.ide.model.segment.SimpleTextSegmentData",
                "text": "USD"
            },
            "lblLastActivityDate": {
                "@class": "com.viz.ide.model.segment.SimpleTextSegmentData",
                "text": "10 March 2020"
            }
        }
    ],
    "_height_": {
        "type": "string",
        "value": "200dp"
    },
    "_indicator_": "none",
    "_left_": {
        "type": "string",
        "value": "1%"
    },
    "_margin_": [
        0,
        0,
        0,
        0
    ],
    "_orientation_": 2,
    "_padding_": [
        0,
        0,
        0,
        0
    ],
    "_top_": {
        "type": "number",
        "value": "0"
    },
    "_width_": {
        "type": "string",
        "value": "99%"
    },
    "autogrowmode": 0,
    "canUpdateUI": true,
    "containerweight": 100,
    "counter": "09",
    "focusedindex": null,
    "focuseditem": null,
    "groupcells": false,
    "hasSections": false,
    "id": "segAccData",
    "info": null,
    "ipad": {
        "psp": {
            "indicator": "rowselect"
        }
    },
    "iphone": {
        "psp": {
            "indicator": "rowselect"
        }
    },
    "iscustomlayout": false,
    "isvisible": true,
    "kuid": "e00071a53ee94d6ca1b1d260177e1f1f",
    "masterdata": {},
    "name": "kony.ui.SegmentedUI2",
    "needpageindicator": true,
    "pageoffdotimage": "pageoffdot.png",
    "pageondotimage": "pageondot.png",
    "paginationconfig": {
        "position": "bottom"
    },
    "parent": "flxAccDataTable",
    "pf": "frmDashboard",
    "retaincontentalignment": false,
    "retainflexpositionproperties": false,
    "retainselection": false,
    "rowTemplateId": "f7de3d4492ad42c494eb3e833a960937",
    "rowcounter": 9,
    "rowfocusskin": "s3f353c057a14ca8a8d6fa6caf39f59a",
    "rowskin": "s5344ea37b3f40f7877699e4eafbf3dc",
    "rowtemplate": "CopyflxLoan0icf6efa07da643",
    "screenlevelwidget": false,
    "seccounter": 0,
    "sectionheaderskin": "s67dfc97c181442ebeb45ecca8ba0dc8",
    "selectedRows": null,
    "selectedState": false,
    "selectedindex": null,
    "selectedindices": null,
    "selecteditems": null,
    "selectedsectionindex": 0,
    "selectionbehavior": "default",
    "separatorcolor": "70707055",
    "separatorrequired": true,
    "separatorthickness": 1,
    "showscrollbars": false,
    "viewtype": "tableview",
    "vizProps": {},
    "wType": "Segment",
    "widgetalignment": 5,
    "widgetdatamap": {
        "CopyflxLoan0icf6efa07da643": "CopyflxLoan0icf6efa07da643",
        "lblAccNo": "lblAccNo",
        "lblBalance": "lblBalance",
        "lblCurrency": "lblCurrency",
        "lblLastActivityDate": "lblLastActivityDate"
    }
}