{
    "DNDConfig": null,
    "_height_": {
        "type": "string",
        "value": "25dp"
    },
    "_margin_": [
        0,
        0,
        0,
        0
    ],
    "_orientation_": 6,
    "_padding_": [
        0,
        0,
        0,
        0
    ],
    "_percent_": true,
    "_right_": {
        "type": "number",
        "value": "10"
    },
    "_skin_": "sd7b6f84c7a044dcb053017e6c057b6c",
    "_top_": {
        "type": "string",
        "value": "-35dp"
    },
    "_width_": {
        "type": "string",
        "value": "25dp"
    },
    "allboxes": [],
    "autogrowmode": 0,
    "canUpdateUI": true,
    "children": [],
    "clipbounds": true,
    "containerId": true,
    "containerweight": 100,
    "enablescrolling": true,
    "id": "flxImgClicks",
    "info": null,
    "iscustomlayout": false,
    "isvisible": true,
    "kuid": "g4688e8087ce4cef8c273c8837be1a43",
    "layouttype": 2,
    "name": "kony.ui.FlexContainer",
    "parent": "flxBenName",
    "pf": "TempAddCustomerRow",
    "retaincontentalignment": false,
    "retainflexpositionproperties": false,
    "retainflowhorizontalalignment": false,
    "snapgridsize": 10,
    "snaptogrid": true,
    "wType": "FlexContainer",
    "widgetalignment": 1
}