{
    "@class": "com.kony.gen.viz.model.component.KVizCustom",
    "DNDConfig": null,
    "_height_": {
        "type": "string",
        "value": "56dp"
    },
    "_left_": {
        "type": "string",
        "value": "0dp"
    },
    "_margin_": [
        0,
        0,
        0,
        0
    ],
    "_padding_": [
        0,
        0,
        0,
        0
    ],
    "_top_": {
        "type": "string",
        "value": "0dp"
    },
    "_width_": {
        "type": "string",
        "value": "273dp"
    },
    "android": {
        "render": false
    },
    "androidwearos": {
        "render": false
    },
    "canUpdateUI": true,
    "clipbounds": true,
    "containerweight": 0,
    "customProperties": {
        "dense": true,
        "disabled": true,
        "disabledDates": "",
        "disabledDays": "",
        "displayFormat": "",
        "firstDayOfWeek": 0,
        "hideHeader": false,
        "iconButtonTrailingAriaLabel": "Open date calendar",
        "labelText": "Maturity date",
        "max": "",
        "min": "-",
        "showWeekNumber": false,
        "value": "-",
        "weekLabel": "Wk"
    },
    "cwEvents": [],
    "cwid": "cwfec5353029634671b5a44b7a745ad774",
    "id": "custMaturityDate",
    "info": null,
    "ipad": {
        "render": false
    },
    "iphone": {
        "render": false
    },
    "iscustomlayout": false,
    "isvisible": true,
    "kiosk": {
        "render": false
    },
    "kuid": "j6e26c2b132e433db82c8698735a33e2",
    "name": "uuxDatePicker-kony.ui",
    "nameSpaceIndex": 0,
    "parent": "flxRow1",
    "pf": "frmDepositCreation",
    "platformKey": "spa",
    "retaincontentalignment": false,
    "retainflexpositionproperties": false,
    "tabrcandroid": {
        "render": false
    },
    "wType": "TPW",
    "watchos": {
        "render": false
    },
    "widgetIndex": 6,
    "windows10": {
        "render": false
    },
    "windows8": {
        "render": false
    },
    "winphone10": {
        "render": false
    },
    "winphone8": {
        "render": false
    },
    "zindex": 1
}