{
    "@class": "com.kony.gen.viz.model.component.KVizCustom",
    "DNDConfig": null,
    "_height_": {
        "type": "string",
        "value": "56dp"
    },
    "_left_": {
        "type": "string",
        "value": "500dp"
    },
    "_margin_": [
        0,
        0,
        0,
        0
    ],
    "_padding_": [
        0,
        0,
        0,
        0
    ],
    "_top_": {
        "type": "string",
        "value": "90dp"
    },
    "_width_": {
        "type": "string",
        "value": "297dp"
    },
    "android": {
        "render": false
    },
    "androidwearos": {
        "render": false
    },
    "canUpdateUI": true,
    "clipbounds": false,
    "containerweight": 0,
    "customProperties": {
        "dailyMax": "",
        "dense": true,
        "formattedValue": "",
        "lableText": "Interest Payout Frequency",
        "messagePrefix": "",
        "monthlyDayMax": "",
        "monthlyMax": "",
        "value": "",
        "weeklyMax": "",
        "yearlyDayMax": "",
        "yearlyMax": ""
    },
    "cwEvents": [
        "onValueSelected"
    ],
    "cwid": "cwc6e328bb49cb4ac5a3606728e0b67bc4",
    "desktopweb": {
        "zIndex": 2
    },
    "id": "custInterestFrequency",
    "info": null,
    "ipad": {
        "render": false
    },
    "iphone": {
        "render": false
    },
    "iscustomlayout": false,
    "isvisible": true,
    "kiosk": {
        "render": false
    },
    "kuid": "a53873d5c0354776bd15e617a4e800b5",
    "name": "uuxRecurrenceDatePicker-kony.ui",
    "nameSpaceIndex": 0,
    "parent": "flxRow1",
    "pf": "frmDepositCreation",
    "platformKey": "spa",
    "retaincontentalignment": false,
    "retainflexpositionproperties": false,
    "tabrcandroid": {
        "render": false
    },
    "wType": "TPW",
    "watchos": {
        "render": false
    },
    "widgetIndex": 19,
    "windows10": {
        "render": false
    },
    "windows8": {
        "render": false
    },
    "winphone10": {
        "render": false
    },
    "winphone8": {
        "render": false
    },
    "zindex": 1
}