{
    "@class": "com.kony.gen.viz.model.component.KVizUserWidget",
    "DNDConfig": null,
    "_children_": [],
    "_height_": {
        "type": "string",
        "value": "72dp"
    },
    "_left_": {
        "type": "string",
        "value": "6.50%"
    },
    "_margin_": [
        0,
        0,
        0,
        0
    ],
    "_orientation_": 1,
    "_padding_": [
        0,
        0,
        0,
        0
    ],
    "_percent_": true,
    "_right_": {
        "type": "number",
        "value": "32"
    },
    "_skin_": "s67924bcdecb43b69aa7b14971e89709",
    "_top_": {
        "type": "string",
        "value": "0dp"
    },
    "_width_": {
        "type": "string",
        "value": "92.50%"
    },
    "areflexpropsreferenced": false,
    "autogrowmode": 0,
    "canUpdateUI": true,
    "clipbounds": true,
    "containerweight": 0,
    "dataDiffs": {
        "ErrorAllert": {
            "__events__": {},
            "__info__": {
                "isRoot": true,
                "kuid": "d5da3cb3a9a841e0abe2964c1a6b90f2",
                "srcKUID": "h8cb39ec838349b1afb7dc4d9766919c",
                "wType": "FlexContainer"
            },
            "isVisible": false,
            "left": {
                "Default": {
                    "type": "string",
                    "value": "6.50%"
                }
            },
            "responsiveData": {},
            "width": {
                "Default": {
                    "type": "string",
                    "value": "92.50%"
                }
            },
            "zIndex": {
                "Default": 1
            }
        },
        "FlexContainer0c96d2d6573ff47": {
            "__events__": {},
            "__info__": {
                "kuid": "d44ad26397db4d44b9f92a5329cf788a",
                "srcKUID": "ad572ec02bbc48ebbb4f1dc768804969",
                "wType": "FlexContainer"
            }
        },
        "FlexContainer0dbccc9f9939044": {
            "__events__": {},
            "__info__": {
                "kuid": "a110d840dd364eccbefd795d6a281ef7",
                "srcKUID": "f59a8a61ace1455b8914462b3d6bb03b",
                "wType": "FlexContainer"
            }
        },
        "Label0c0024c57dfb34f": {
            "__events__": {},
            "__info__": {
                "kuid": "dfc544c4ac964f82ba26b2c4ffeede59",
                "srcKUID": "hf6d5793c5024998bc6f943030f92452",
                "wType": "Label"
            }
        },
        "btnImage": {
            "__events__": {},
            "__info__": {
                "kuid": "ddefee1ad29d4038bd15932061242bb1",
                "srcKUID": "e3042b659f1b42e99d68d9928629a9d5",
                "wType": "Button"
            }
        },
        "flxError": {
            "__events__": {},
            "__info__": {
                "kuid": "g62a4f6e5ecc43bd81d361e0233f7597",
                "srcKUID": "a49166f2d3d14eeaa2feb76e306db101",
                "wType": "FlexContainer"
            }
        },
        "imgClose": {
            "__events__": {},
            "__info__": {
                "kuid": "ea7588cd121c4d6299e862abab001967",
                "srcKUID": "e1c097d66c3744f18bfb83c30858a314",
                "wType": "Button"
            }
        },
        "imgClose1": {
            "__events__": {},
            "__info__": {
                "kuid": "gb452131cfe1486ab26b535832c2b077",
                "srcKUID": "j9728085e75b4abe9a6359d26438efcc",
                "wType": "Label"
            }
        },
        "imgClose2": {
            "__events__": {},
            "__info__": {
                "kuid": "ic25250dbddf41a1be1c2bfe0e1b38c5",
                "srcKUID": "g5b93ccb39f549ac821e8d44292eaffa",
                "wType": "Label"
            }
        },
        "imgCloseBackup": {
            "__events__": {},
            "__info__": {
                "kuid": "e6dcface11f64fe5bcfd878ab596da5d",
                "srcKUID": "c646f7e0831248d7bc0f7b6f88ab6c22",
                "wType": "Image"
            },
            "src": "ico_close.png"
        },
        "lblError": {
            "__events__": {},
            "__info__": {
                "kuid": "ad1a269fe84f40fd88e8dffedc96962d",
                "srcKUID": "i5ab170e82924d7ea954d38f04fd3d44",
                "wType": "Label"
            }
        },
        "lblErrorNotification": {
            "__events__": {},
            "__info__": {
                "kuid": "f3e7209196ee45349d73449d09397c37",
                "srcKUID": "f918c824751a41c7a0afc1d2b466bfc7",
                "wType": "Label"
            }
        },
        "lblImag": {
            "__events__": {},
            "__info__": {
                "kuid": "b3c643c262694cf0952cfe67f36dabf6",
                "srcKUID": "ddbbe97dbe67439ea4934db8746fa110",
                "wType": "Label"
            }
        },
        "lblMessage": {
            "__events__": {},
            "__info__": {
                "kuid": "f46474233ce141158d4fa5e39978d591",
                "srcKUID": "d530e1757beb4ff9b9c4b003d6a3e47a",
                "wType": "Label"
            }
        }
    },
    "enablescrolling": true,
    "id": "ErrorAllert",
    "info": null,
    "iscustomlayout": false,
    "isdatareferenced": false,
    "isvisible": false,
    "kuid": "d5da3cb3a9a841e0abe2964c1a6b90f2",
    "layouttype": 2,
    "masterType": 0,
    "name": "kony.ui.UserWidgetInstance",
    "parent": "frmDepositCreation",
    "pf": "frmDepositCreation",
    "retaincontentalignment": false,
    "retainflexpositionproperties": false,
    "retainflowhorizontalalignment": false,
    "snapgridsize": 10,
    "snaptogrid": true,
    "sourceUserWidget": "h8cb39ec838349b1afb7dc4d9766919c",
    "wType": "UserWidgetInstance",
    "zindex": 1
}