{
    "DNDConfig": null,
    "_height_": {
        "type": "string",
        "value": "235dp"
    },
    "_left_": {
        "type": "string",
        "value": "28.89%"
    },
    "_margin_": [
        0,
        0,
        0,
        0
    ],
    "_orientation_": 6,
    "_padding_": [
        0,
        0,
        0,
        0
    ],
    "_percent_": true,
    "_skin_": "s695cfd9797d4cabb48625139c954503",
    "_top_": {
        "type": "string",
        "value": "220dp"
    },
    "_width_": {
        "type": "string",
        "value": "300dp"
    },
    "allboxes": [],
    "autogrowmode": 0,
    "canUpdateUI": true,
    "children": [
        "AccountList"
    ],
    "clipbounds": true,
    "containerweight": 100,
    "desktopweb": {
        "bottom": "",
        "centerX": "",
        "centerY": "",
        "maxHeight": "",
        "maxWidth": "",
        "minHeight": "",
        "minWidth": "",
        "right": "",
        "zIndex": 1
    },
    "enablescrolling": true,
    "id": "flxPayinComp",
    "info": null,
    "iscustomlayout": false,
    "isvisible": false,
    "kuid": "b149ce776aaa48dcbab126246006b218",
    "layouttype": 2,
    "name": "kony.ui.FlexContainer",
    "parent": "flxRow1",
    "pf": "frmDepositCreation",
    "retaincontentalignment": false,
    "retainflexpositionproperties": false,
    "retainflowhorizontalalignment": false,
    "snapgridsize": 10,
    "snaptogrid": true,
    "wType": "FlexContainer",
    "widgetalignment": 1,
    "zindex": 10
}