{
    "DNDConfig": null,
    "_height_": {
        "type": "string",
        "value": "40dp"
    },
    "_left_": {
        "type": "string",
        "value": "570dp"
    },
    "_margin_": [
        0,
        0,
        0,
        0
    ],
    "_orientation_": 6,
    "_padding_": [
        0,
        0,
        0,
        0
    ],
    "_percent_": true,
    "_skin_": "s750865a1e5e454c8f6c65bccf3d8a39",
    "_top_": {
        "type": "number",
        "value": "180"
    },
    "_width_": {
        "type": "string",
        "value": "40dp"
    },
    "allboxes": [],
    "autogrowmode": 0,
    "canUpdateUI": true,
    "children": [
        "iconPayinsearch",
        "lblSearchIcon"
    ],
    "clipbounds": true,
    "containerweight": 100,
    "enablescrolling": true,
    "id": "flxpayInSearch",
    "info": null,
    "iscustomlayout": false,
    "isvisible": true,
    "kuid": "e7620d1cebc54c9ca679aabac3f4b7db",
    "layouttype": 2,
    "name": "kony.ui.FlexContainer",
    "parent": "flxRow1",
    "pf": "frmDepositCreation",
    "retaincontentalignment": false,
    "retainflexpositionproperties": false,
    "retainflowhorizontalalignment": false,
    "snapgridsize": 10,
    "snaptogrid": true,
    "wType": "FlexContainer",
    "widgetalignment": 1,
    "zindex": 1
}