{
    "DNDConfig": null,
    "_height_": {
        "type": "string",
        "value": "100%"
    },
    "_margin_": [
        0,
        0,
        0,
        0
    ],
    "_orientation_": 6,
    "_padding_": [
        0,
        0,
        0,
        0
    ],
    "_percent_": true,
    "_skin_": "se31956b9efb4cdeb803f81ffb1335e2",
    "_width_": {
        "type": "string",
        "value": "340dp"
    },
    "allboxes": [],
    "autogrowmode": 0,
    "canUpdateUI": true,
    "children": [
        "custDepositType",
        "custLoanType1",
        "custCurrency",
        "lblCurrencyErr",
        "custDepositAmount",
        "lblDepositAmountErr",
        "custDepositTerm",
        "lblDepositTermErr"
    ],
    "clipbounds": false,
    "containerweight": 100,
    "desktopweb": {
        "zIndex": 1
    },
    "enablescrolling": true,
    "id": "flxRightpart",
    "info": null,
    "iscustomlayout": false,
    "isvisible": true,
    "kuid": "eeaffbf0eec0421c817d79520bcd9f83",
    "layouttype": 2,
    "name": "kony.ui.FlexContainer",
    "parent": "flxBasicDetails",
    "pf": "frmDepositCreation",
    "retaincontentalignment": false,
    "retainflexpositionproperties": false,
    "retainflowhorizontalalignment": false,
    "snapgridsize": 10,
    "snaptogrid": true,
    "wType": "FlexContainer",
    "widgetalignment": 1,
    "zindex": 1
}