{
    "DNDConfig": null,
    "_height_": {
        "type": "string",
        "value": "330dp"
    },
    "_left_": {
        "type": "number",
        "value": "0"
    },
    "_margin_": [
        0,
        0,
        0,
        0
    ],
    "_orientation_": 6,
    "_padding_": [
        0,
        0,
        0,
        0
    ],
    "_percent_": true,
    "_skin_": "se31956b9efb4cdeb803f81ffb1335e2",
    "_top_": {
        "type": "string",
        "value": "20dp"
    },
    "_width_": {
        "type": "string",
        "value": "750dp"
    },
    "allboxes": [],
    "autogrowmode": 0,
    "canUpdateUI": true,
    "children": [
        "flxTopBenRows",
        "flxAddRow"
    ],
    "clipbounds": true,
    "containerweight": 100,
    "desktopweb": {
        "bottom": "",
        "centerX": "",
        "centerY": "",
        "maxHeight": "",
        "maxWidth": "",
        "minHeight": "",
        "minWidth": "",
        "right": "",
        "zIndex": 1
    },
    "enablescrolling": true,
    "id": "flxTopRow",
    "info": null,
    "iscustomlayout": false,
    "isvisible": true,
    "kuid": "e568b75a91b949cca145f887cde09aa2",
    "layouttype": 2,
    "name": "kony.ui.FlexContainer",
    "parent": "flxBasicDetails",
    "pf": "frmDepositCreation",
    "retaincontentalignment": false,
    "retainflexpositionproperties": false,
    "retainflowhorizontalalignment": false,
    "snapgridsize": 10,
    "snaptogrid": true,
    "wType": "FlexContainer",
    "widgetalignment": 1,
    "zindex": 1
}