{
    "@class": "com.kony.gen.viz.model.container.KVizSegment2",
    "DNDConfig": null,
    "_data_": [
        {
            "lblBenLabel": {
                "@class": "com.viz.ide.model.segment.SimpleTextSegmentData",
                "text": "Beneficiary Name"
            },
            "lblBenLabel1": {
                "@class": "com.viz.ide.model.segment.SimpleTextSegmentData",
                "text": "Role"
            },
            "lblDelete": {
                "@class": "com.viz.ide.model.segment.SimpleTextSegmentData",
                "text": "Delete"
            },
            "lblDeleteIcon": {
                "@class": "com.viz.ide.model.segment.SimpleTextSegmentData",
                "text": "Q"
            },
            "lblRole": {
                "@class": "com.viz.ide.model.segment.ComplexTextSegmentData",
                "placeholder": "",
                "text": ""
            },
            "lbxBenRole": {
                "@class": "com.viz.ide.model.segment.CheckableSegmentData",
                "masterData": [
                    [
                        "lb1",
                        "Placeholder One"
                    ],
                    [
                        "lb2",
                        "Placeholder Two"
                    ],
                    [
                        "lb3",
                        "Placeholder Three"
                    ]
                ],
                "selectedKey": null,
                "selectedKeys": null
            }
        },
        {
            "lblBenLabel": {
                "@class": "com.viz.ide.model.segment.SimpleTextSegmentData",
                "text": "Beneficiary Name"
            },
            "lblBenLabel1": {
                "@class": "com.viz.ide.model.segment.SimpleTextSegmentData",
                "text": "Role"
            },
            "lblDelete": {
                "@class": "com.viz.ide.model.segment.SimpleTextSegmentData",
                "text": "Delete"
            },
            "lblDeleteIcon": {
                "@class": "com.viz.ide.model.segment.SimpleTextSegmentData",
                "text": "Q"
            },
            "lblRole": {
                "@class": "com.viz.ide.model.segment.ComplexTextSegmentData",
                "placeholder": "",
                "text": ""
            },
            "lbxBenRole": {
                "@class": "com.viz.ide.model.segment.CheckableSegmentData",
                "masterData": [
                    [
                        "lb1",
                        "Placeholder One"
                    ],
                    [
                        "lb2",
                        "Placeholder Two"
                    ],
                    [
                        "lb3",
                        "Placeholder Three"
                    ]
                ],
                "selectedKey": null,
                "selectedKeys": null
            }
        },
        {
            "lblBenLabel": {
                "@class": "com.viz.ide.model.segment.SimpleTextSegmentData",
                "text": "Beneficiary Name"
            },
            "lblBenLabel1": {
                "@class": "com.viz.ide.model.segment.SimpleTextSegmentData",
                "text": "Role"
            },
            "lblDelete": {
                "@class": "com.viz.ide.model.segment.SimpleTextSegmentData",
                "text": "Delete"
            },
            "lblDeleteIcon": {
                "@class": "com.viz.ide.model.segment.SimpleTextSegmentData",
                "text": "Q"
            },
            "lblRole": {
                "@class": "com.viz.ide.model.segment.ComplexTextSegmentData",
                "placeholder": "",
                "text": ""
            },
            "lbxBenRole": {
                "@class": "com.viz.ide.model.segment.CheckableSegmentData",
                "masterData": [
                    [
                        "lb1",
                        "Placeholder One"
                    ],
                    [
                        "lb2",
                        "Placeholder Two"
                    ],
                    [
                        "lb3",
                        "Placeholder Three"
                    ]
                ],
                "selectedKey": null,
                "selectedKeys": null
            }
        },
        {
            "lblBenLabel": {
                "@class": "com.viz.ide.model.segment.SimpleTextSegmentData",
                "text": "Beneficiary Name"
            },
            "lblBenLabel1": {
                "@class": "com.viz.ide.model.segment.SimpleTextSegmentData",
                "text": "Role"
            },
            "lblDelete": {
                "@class": "com.viz.ide.model.segment.SimpleTextSegmentData",
                "text": "Delete"
            },
            "lblDeleteIcon": {
                "@class": "com.viz.ide.model.segment.SimpleTextSegmentData",
                "text": "Q"
            },
            "lblRole": {
                "@class": "com.viz.ide.model.segment.ComplexTextSegmentData",
                "placeholder": "",
                "text": ""
            },
            "lbxBenRole": {
                "@class": "com.viz.ide.model.segment.CheckableSegmentData",
                "masterData": [
                    [
                        "lb1",
                        "Placeholder One"
                    ],
                    [
                        "lb2",
                        "Placeholder Two"
                    ],
                    [
                        "lb3",
                        "Placeholder Three"
                    ]
                ],
                "selectedKey": null,
                "selectedKeys": null
            }
        },
        {
            "lblBenLabel": {
                "@class": "com.viz.ide.model.segment.SimpleTextSegmentData",
                "text": "Beneficiary Name"
            },
            "lblBenLabel1": {
                "@class": "com.viz.ide.model.segment.SimpleTextSegmentData",
                "text": "Role"
            },
            "lblDelete": {
                "@class": "com.viz.ide.model.segment.SimpleTextSegmentData",
                "text": "Delete"
            },
            "lblDeleteIcon": {
                "@class": "com.viz.ide.model.segment.SimpleTextSegmentData",
                "text": "Q"
            },
            "lblRole": {
                "@class": "com.viz.ide.model.segment.ComplexTextSegmentData",
                "placeholder": "",
                "text": ""
            },
            "lbxBenRole": {
                "@class": "com.viz.ide.model.segment.CheckableSegmentData",
                "masterData": [
                    [
                        "lb1",
                        "Placeholder One"
                    ],
                    [
                        "lb2",
                        "Placeholder Two"
                    ],
                    [
                        "lb3",
                        "Placeholder Three"
                    ]
                ],
                "selectedKey": null,
                "selectedKeys": null
            }
        },
        {
            "lblBenLabel": {
                "@class": "com.viz.ide.model.segment.SimpleTextSegmentData",
                "text": "Beneficiary Name"
            },
            "lblBenLabel1": {
                "@class": "com.viz.ide.model.segment.SimpleTextSegmentData",
                "text": "Role"
            },
            "lblDelete": {
                "@class": "com.viz.ide.model.segment.SimpleTextSegmentData",
                "text": "Delete"
            },
            "lblDeleteIcon": {
                "@class": "com.viz.ide.model.segment.SimpleTextSegmentData",
                "text": "Q"
            },
            "lblRole": {
                "@class": "com.viz.ide.model.segment.ComplexTextSegmentData",
                "placeholder": "",
                "text": ""
            },
            "lbxBenRole": {
                "@class": "com.viz.ide.model.segment.CheckableSegmentData",
                "masterData": [
                    [
                        "lb1",
                        "Placeholder One"
                    ],
                    [
                        "lb2",
                        "Placeholder Two"
                    ],
                    [
                        "lb3",
                        "Placeholder Three"
                    ]
                ],
                "selectedKey": null,
                "selectedKeys": null
            }
        },
        {
            "lblBenLabel": {
                "@class": "com.viz.ide.model.segment.SimpleTextSegmentData",
                "text": "Beneficiary Name"
            },
            "lblBenLabel1": {
                "@class": "com.viz.ide.model.segment.SimpleTextSegmentData",
                "text": "Role"
            },
            "lblDelete": {
                "@class": "com.viz.ide.model.segment.SimpleTextSegmentData",
                "text": "Delete"
            },
            "lblDeleteIcon": {
                "@class": "com.viz.ide.model.segment.SimpleTextSegmentData",
                "text": "Q"
            },
            "lblRole": {
                "@class": "com.viz.ide.model.segment.ComplexTextSegmentData",
                "placeholder": "",
                "text": ""
            },
            "lbxBenRole": {
                "@class": "com.viz.ide.model.segment.CheckableSegmentData",
                "masterData": [
                    [
                        "lb1",
                        "Placeholder One"
                    ],
                    [
                        "lb2",
                        "Placeholder Two"
                    ],
                    [
                        "lb3",
                        "Placeholder Three"
                    ]
                ],
                "selectedKey": null,
                "selectedKeys": null
            }
        },
        {
            "lblBenLabel": {
                "@class": "com.viz.ide.model.segment.SimpleTextSegmentData",
                "text": "Beneficiary Name"
            },
            "lblBenLabel1": {
                "@class": "com.viz.ide.model.segment.SimpleTextSegmentData",
                "text": "Role"
            },
            "lblDelete": {
                "@class": "com.viz.ide.model.segment.SimpleTextSegmentData",
                "text": "Delete"
            },
            "lblDeleteIcon": {
                "@class": "com.viz.ide.model.segment.SimpleTextSegmentData",
                "text": "Q"
            },
            "lblRole": {
                "@class": "com.viz.ide.model.segment.ComplexTextSegmentData",
                "placeholder": "",
                "text": ""
            },
            "lbxBenRole": {
                "@class": "com.viz.ide.model.segment.CheckableSegmentData",
                "masterData": [
                    [
                        "lb1",
                        "Placeholder One"
                    ],
                    [
                        "lb2",
                        "Placeholder Two"
                    ],
                    [
                        "lb3",
                        "Placeholder Three"
                    ]
                ],
                "selectedKey": null,
                "selectedKeys": null
            }
        },
        {
            "lblBenLabel": {
                "@class": "com.viz.ide.model.segment.SimpleTextSegmentData",
                "text": "Beneficiary Name"
            },
            "lblBenLabel1": {
                "@class": "com.viz.ide.model.segment.SimpleTextSegmentData",
                "text": "Role"
            },
            "lblDelete": {
                "@class": "com.viz.ide.model.segment.SimpleTextSegmentData",
                "text": "Delete"
            },
            "lblDeleteIcon": {
                "@class": "com.viz.ide.model.segment.SimpleTextSegmentData",
                "text": "Q"
            },
            "lblRole": {
                "@class": "com.viz.ide.model.segment.ComplexTextSegmentData",
                "placeholder": "",
                "text": ""
            },
            "lbxBenRole": {
                "@class": "com.viz.ide.model.segment.CheckableSegmentData",
                "masterData": [
                    [
                        "lb1",
                        "Placeholder One"
                    ],
                    [
                        "lb2",
                        "Placeholder Two"
                    ],
                    [
                        "lb3",
                        "Placeholder Three"
                    ]
                ],
                "selectedKey": null,
                "selectedKeys": null
            }
        },
        {
            "lblBenLabel": {
                "@class": "com.viz.ide.model.segment.SimpleTextSegmentData",
                "text": "Beneficiary Name"
            },
            "lblBenLabel1": {
                "@class": "com.viz.ide.model.segment.SimpleTextSegmentData",
                "text": "Role"
            },
            "lblDelete": {
                "@class": "com.viz.ide.model.segment.SimpleTextSegmentData",
                "text": "Delete"
            },
            "lblDeleteIcon": {
                "@class": "com.viz.ide.model.segment.SimpleTextSegmentData",
                "text": "Q"
            },
            "lblRole": {
                "@class": "com.viz.ide.model.segment.ComplexTextSegmentData",
                "placeholder": "",
                "text": ""
            },
            "lbxBenRole": {
                "@class": "com.viz.ide.model.segment.CheckableSegmentData",
                "masterData": [
                    [
                        "lb1",
                        "Placeholder One"
                    ],
                    [
                        "lb2",
                        "Placeholder Two"
                    ],
                    [
                        "lb3",
                        "Placeholder Three"
                    ]
                ],
                "selectedKey": null,
                "selectedKeys": null
            }
        }
    ],
    "_height_": {
        "type": "ref",
        "value": "preferred"
    },
    "_indicator_": "none",
    "_left_": {
        "type": "string",
        "value": "0"
    },
    "_margin_": [
        0,
        0,
        0,
        0
    ],
    "_orientation_": 2,
    "_padding_": [
        0,
        0,
        0,
        0
    ],
    "_top_": {
        "type": "string",
        "value": "0"
    },
    "_width_": {
        "type": "string",
        "value": "100%"
    },
    "autogrowmode": 1,
    "canUpdateUI": true,
    "containerweight": 100,
    "counter": "09",
    "focusedindex": null,
    "focuseditem": null,
    "groupcells": false,
    "hasSections": false,
    "id": "segAddRow",
    "info": null,
    "ipad": {
        "psp": {
            "indicator": "rowselect"
        }
    },
    "iphone": {
        "psp": {
            "indicator": "rowselect"
        }
    },
    "iscustomlayout": false,
    "isvisible": true,
    "kuid": "f033a16aa54f46cfbd870581bd0f1df1",
    "masterdata": {},
    "name": "kony.ui.SegmentedUI2",
    "needpageindicator": true,
    "pageoffdotimage": "pageoffdot.png",
    "pageondotimage": "pageondot.png",
    "paginationconfig": {
        "position": "bottom"
    },
    "parent": "flxBenRow",
    "pf": "frmDepositCreation",
    "retaincontentalignment": false,
    "retainflexpositionproperties": false,
    "retainselection": false,
    "rowTemplateId": "h251fcb9a87a41f4a8c9908b63df8351",
    "rowcounter": 9,
    "rowfocusskin": "s3f353c057a14ca8a8d6fa6caf39f59a",
    "rowskin": "s5344ea37b3f40f7877699e4eafbf3dc",
    "rowtemplate": "flxAddCutomerRow",
    "screenlevelwidget": false,
    "seccounter": 0,
    "sectionheaderskin": "s67dfc97c181442ebeb45ecca8ba0dc8",
    "selectedRows": null,
    "selectedState": false,
    "selectedindex": null,
    "selectedindices": null,
    "selecteditems": null,
    "selectedsectionindex": 0,
    "selectionbehavior": "default",
    "separatorcolor": "ffffff00",
    "separatorrequired": true,
    "separatorthickness": 15,
    "showscrollbars": false,
    "viewtype": "tableview",
    "vizProps": {},
    "wType": "Segment",
    "widgetalignment": 5,
    "widgetdatamap": {
        "flxAddCutomerRow": "flxAddCutomerRow",
        "flxBenName": "flxBenName",
        "flxBenRole": "flxBenRole",
        "flxDelete": "flxDelete",
        "flxImgClicks": "flxImgClicks",
        "lblBenLabel": "lblBenLabel",
        "lblBenLabel1": "lblBenLabel1",
        "lblDelete": "lblDelete",
        "lblDeleteIcon": "lblDeleteIcon",
        "lblRole": "lblRole",
        "lbxBenRole": "lbxBenRole"
    }
}