{
    "@class": "com.kony.gen.viz.model.component.KVizUserWidget",
    "DNDConfig": null,
    "_children_": [],
    "_height_": {
        "type": "string",
        "value": "40dp"
    },
    "_left_": {
        "type": "string",
        "value": "0dp"
    },
    "_margin_": [
        0,
        0,
        0,
        0
    ],
    "_orientation_": 1,
    "_padding_": [
        0,
        0,
        0,
        0
    ],
    "_percent_": true,
    "_skin_": "s5a3e0d5915c4869befec3700a7163a9",
    "_top_": {
        "type": "string",
        "value": "180dp"
    },
    "_width_": {
        "type": "string",
        "value": "230dp"
    },
    "android": {},
    "androidwearos": {},
    "areflexpropsreferenced": false,
    "autogrowmode": 0,
    "canUpdateUI": true,
    "clipbounds": false,
    "containerweight": 0,
    "dataDiffs": {
        "downArrowLbl": {
            "__events__": {},
            "__info__": {
                "kuid": "d4180a1b94004b40890717fe0ba26878",
                "srcKUID": "h227f7547df0435ab3ea696a4ed034ff",
                "wType": "Label"
            },
            "isVisible": true,
            "responsiveData": {},
            "zIndex": {
                "Default": 5
            }
        },
        "floatLabelText": {
            "__events__": {},
            "__info__": {
                "isRoot": true,
                "kuid": "ac63cde117a2484684c1bd66100d50af",
                "srcKUID": "cc42f9cace784a28b15ed4bc68d3c958",
                "wType": "FlexContainer"
            },
            "autogrowMode": {
                "Default": 0
            },
            "centerX": {
                "Default": {
                    "type": "string",
                    "value": ""
                }
            },
            "height": {
                "Default": {
                    "type": "string",
                    "value": "40dp"
                }
            },
            "isVisible": true,
            "left": {
                "Default": {
                    "type": "string",
                    "value": "0dp"
                }
            },
            "responsiveData": {},
            "top": {
                "Default": {
                    "type": "string",
                    "value": "180dp"
                }
            },
            "width": {
                "Default": {
                    "type": "string",
                    "value": "230dp"
                }
            },
            "zIndex": {
                "Default": 1
            }
        },
        "flxBgColor": {
            "__events__": {},
            "__info__": {
                "kuid": "j5c1f3173be04e4e83b7e0511efc9940",
                "srcKUID": "b373e2ea11b54a98887ad7a778f1cb25",
                "wType": "FlexContainer"
            }
        },
        "flxBottomLine": {
            "__events__": {},
            "__info__": {
                "kuid": "e59af435a0d44bc1b19b022a81b6e2d9",
                "srcKUID": "j3d46e8ea6314c108dace99eaac86886",
                "wType": "FlexContainer"
            }
        },
        "flxFloatLableGrp": {
            "__events__": {},
            "__info__": {
                "kuid": "f03038e68fa549c7a0fb5702b8051f9c",
                "srcKUID": "ie2126455fd24160b9aab9fe3e8e08f1",
                "wType": "FlexContainer"
            }
        },
        "lblFloatLabel": {
            "__events__": {},
            "__info__": {
                "kuid": "a47191c366344d6c875cdbeecca6067d",
                "srcKUID": "df653f1416324c3fae3c25c8c74f30b9",
                "wType": "Label"
            },
            "left": {
                "Default": {
                    "type": "string",
                    "value": "5%"
                }
            },
            "responsiveData": {},
            "text": "Pay-out Account "
        },
        "rtAsterix": {
            "__events__": {},
            "__info__": {
                "kuid": "f2e26c8d6283499cb58cab668375c8c2",
                "srcKUID": "id1b6eb5bea348e8a36067e2db254b2b",
                "wType": "RichText"
            }
        },
        "txtFloatText": {
            "__events__": {},
            "__info__": {
                "kuid": "i0a11bdbc81349a8ade2b9c5ee35d04d",
                "srcKUID": "ja7d9ecb54d44af58c4f290624c8a3b0",
                "wType": "TextField"
            },
            "centerY": {
                "Default": {
                    "type": "string",
                    "value": "49.19%"
                }
            },
            "isVisible": true,
            "left": {
                "Default": {
                    "type": "string",
                    "value": "0dp"
                }
            },
            "responsiveData": {},
            "text": "",
            "width": {
                "Default": {
                    "type": "string",
                    "value": "100%"
                }
            }
        }
    },
    "desktopweb": {},
    "enablescrolling": true,
    "id": "tbxPayOutAccount",
    "info": null,
    "ipad": {},
    "iphone": {},
    "iscustomlayout": false,
    "isdatareferenced": false,
    "isvisible": true,
    "kiosk": {},
    "kuid": "ac63cde117a2484684c1bd66100d50af",
    "layouttype": 2,
    "masterType": 0,
    "name": "kony.ui.UserWidgetInstance",
    "parent": "flxRow1",
    "pf": "frmDepositCreation",
    "responsiveData": {},
    "retaincontentalignment": false,
    "retainflexpositionproperties": false,
    "retainflowhorizontalalignment": false,
    "snapgridsize": 10,
    "snaptogrid": true,
    "sourceUserWidget": "cc42f9cace784a28b15ed4bc68d3c958",
    "spa": {},
    "spaan": {},
    "spaandroidtablet": {},
    "spabb": {},
    "spaip": {},
    "spaipad": {},
    "spamobile": {},
    "spatablet": {},
    "spawindowstablet": {},
    "spawinphone8": {},
    "tabrcandroid": {},
    "vizProps": {
        "hidewidgethierarchy": false
    },
    "wType": "UserWidgetInstance",
    "windows10": {},
    "windows8": {},
    "winphone10": {},
    "winphone8": {},
    "zindex": 1
}