{
    "@class": "com.kony.gen.viz.model.component.KVizTextBox2",
    "DNDConfig": null,
    "_height_": {
        "type": "string",
        "value": "56px"
    },
    "_left_": {
        "type": "string",
        "value": "31dp"
    },
    "_margin_": [
        0,
        0,
        0,
        0
    ],
    "_padding_": [
        1,
        0,
        0,
        0
    ],
    "_placeholder_": "PayOut",
    "_skin_": "sd7cdf18d825424d8d3d2a764ee24437",
    "_text_": "",
    "_top_": {
        "type": "string",
        "value": "188dp"
    },
    "_width_": {
        "type": "string",
        "value": "233dp"
    },
    "autocapitalize": "none",
    "autocomplete": false,
    "autocorrect": false,
    "autofilter": false,
    "canUpdateUI": true,
    "containerheight": "",
    "containerheightmode": 1,
    "containerweight": 100,
    "contentalignment": 4,
    "desktopweb": {
        "placeholderSkin": "saa8837cd665434c82bb26a4a2796cc1"
    },
    "disabledSkins": {},
    "focusskin": "sd7cdf18d825424d8d3d2a764ee24437",
    "id": "tbxPayOutAccount1",
    "ide_onTouchStart": "AS_TextField_j4b048bc619c4ce1b26bba5669ca874f",
    "info": null,
    "iscustomlayout": false,
    "isvisible": false,
    "keyboardtype": "A",
    "kuid": "a207389c92594fd0ab60faad214a0ca1",
    "mode": "A",
    "name": "kony.ui.TextBox2",
    "paddinginpixel": false,
    "parent": "flxRow1",
    "pf": "frmDepositCreation",
    "placeholderskin": "saa8837cd665434c82bb26a4a2796cc1",
    "retaincontentalignment": false,
    "retainflexpositionproperties": false,
    "securetextentry": false,
    "textinputmode": "A",
    "tooltip": "",
    "viewtype": "default",
    "wType": "TextField",
    "zindex": 1
}