{
    "customComponent": {
        "i18nSupported": true,
        "id": "cwc6e328bb49cb4ac5a3606728e0b67bc4",
        "isOverride": false,
        "konyWrapperFiles": [
            "resources/thirdpartywidgets/widgetwrapper/tp-uuxRecurrenceDatePicker-wrapper.js"
        ],
        "libraryFiles": [
            "resources/thirdpartywidgets/libtoimport/base.css",
            "resources/thirdpartywidgets/libtoimport/unified-ux-web.min.js"
        ],
        "libraryName": "libtoimport",
        "marginSupported": true,
        "name": "uuxRecurrenceDatePicker",
        "paddingSupported": true,
        "platformID": "0",
        "property": [
            {
                "categoryType": "Custom",
                "defaultValue": "",
                "exclude": false,
                "name": "dailyMax",
                "propertySelection": false,
                "type": "String",
                "uniqueID": "cwpa87223f2344b48299ca44454dfa3c99e",
                "value": ""
            },
            {
                "categoryType": "Custom",
                "defaultValue": "Recurrence Date",
                "exclude": false,
                "name": "lableText",
                "propertySelection": false,
                "type": "String",
                "uniqueID": "cwpa1928f283da6423ea44c6d0eb3fc3a1d",
                "value": "Recurrence Date"
            },
            {
                "categoryType": "Custom",
                "defaultValue": "",
                "exclude": false,
                "name": "monthlyDayMax",
                "propertySelection": false,
                "type": "String",
                "uniqueID": "cwpcfcd8a7dfa2d414fa81e1a2c4c0b53d4",
                "value": ""
            },
            {
                "categoryType": "Custom",
                "defaultValue": "",
                "exclude": false,
                "name": "monthlyMax",
                "propertySelection": false,
                "type": "String",
                "uniqueID": "cwpf5e28a784afc4b92bc39830c15a6b479",
                "value": ""
            },
            {
                "categoryType": "Custom",
                "defaultValue": "",
                "exclude": false,
                "name": "value",
                "propertySelection": false,
                "type": "String",
                "uniqueID": "cwpa931029b06f546148aa1514832cb6736",
                "value": ""
            },
            {
                "categoryType": "Custom",
                "defaultValue": "",
                "exclude": false,
                "name": "weeklyMax",
                "propertySelection": false,
                "type": "String",
                "uniqueID": "cwpg91e5fc9694444bdb5975c21a8f845d8",
                "value": ""
            },
            {
                "categoryType": "Custom",
                "defaultValue": "",
                "exclude": false,
                "name": "yearlyDayMax",
                "propertySelection": false,
                "type": "String",
                "uniqueID": "cwpb3d4bce5b0d94afcb69ee9192ad6bff0",
                "value": ""
            },
            {
                "categoryType": "Custom",
                "defaultValue": "",
                "exclude": false,
                "name": "yearlyMax",
                "propertySelection": false,
                "type": "String",
                "uniqueID": "cwpc696b55d8a2845f9b804a8b38935bade",
                "value": ""
            },
            {
                "categoryType": "Event",
                "defaultValue": "",
                "exclude": false,
                "name": "onValueSelected",
                "propertySelection": false,
                "type": "Event",
                "uniqueID": "cwpb57ceffb25d04082b0c7c61607e62b12",
                "value": ""
            },
            {
                "categoryType": "Custom",
                "defaultValue": "",
                "exclude": false,
                "name": "messagePrefix",
                "propertySelection": false,
                "type": "String",
                "uniqueID": "cwpjb7429a978704c89bf3cee71a9e4957f",
                "value": ""
            },
            {
                "categoryType": "Custom",
                "defaultValue": "",
                "exclude": false,
                "name": "formattedValue",
                "propertySelection": false,
                "type": "String",
                "uniqueID": "cwpea01a61f02f748579992ef70faee1170",
                "value": ""
            }
        ]
    }
}