{
    "customComponent": {
        "i18nSupported": true,
        "id": "cwb840f8c35cbd456c8ccb2e55aaecd9e7",
        "isOverride": false,
        "konyWrapperFiles": [
            "resources/thirdpartywidgets/widgetwrapper/tp-uuxTabBar-wrapper.js"
        ],
        "libraryFiles": [
            "resources/thirdpartywidgets/libtoimport/base.css",
            "resources/thirdpartywidgets/libtoimport/unified-ux-web.min.js"
        ],
        "libraryName": "libtoimport",
        "marginSupported": true,
        "name": "uuxTabBar",
        "paddingSupported": true,
        "platformID": "0",
        "property": [
            {
                "categoryType": "Custom",
                "defaultValue": 0,
                "exclude": false,
                "name": "activeIndex",
                "propertySelection": false,
                "type": "Number",
                "uniqueID": "cwpccdca2fe7e7948d2bbf20a0e9004797e",
                "value": 0
            },
            {
                "categoryType": "Custom",
                "defaultValue": "",
                "exclude": false,
                "name": "tabs",
                "propertySelection": false,
                "type": "String",
                "uniqueID": "cwpb4daa4aa8bfb4176a860f17e5e0248b9",
                "value": ""
            }
        ]
    }
}