{
    "@class": "com.kony.gen.viz.model.component.KVizCustom",
    "DNDConfig": null,
    "_height_": {
        "type": "string",
        "value": "60dp"
    },
    "_left_": {
        "type": "string",
        "value": "796dp"
    },
    "_margin_": [
        0,
        0,
        0,
        0
    ],
    "_padding_": [
        0,
        0,
        0,
        0
    ],
    "_right_": {
        "type": "string",
        "value": "215dp"
    },
    "_top_": {
        "type": "string",
        "value": "173dp"
    },
    "_width_": {
        "type": "string",
        "value": "265dp"
    },
    "android": {
        "render": false
    },
    "androidwearos": {
        "render": false
    },
    "canUpdateUI": true,
    "containerweight": 0,
    "customProperties": {
        "decimals": 0,
        "disabled": false,
        "endAligned": false,
        "labelDescription": "Revised Commitment",
        "locale": "en-US",
        "placeholder": "",
        "prefix": "",
        "readonly": true,
        "required": false,
        "suffix": "",
        "value": ""
    },
    "cwEvents": [],
    "cwid": "cwc78708e3b36b4a869b0ef21472b48b16",
    "id": "amtRevisedCommitment",
    "info": null,
    "ipad": {
        "render": false
    },
    "iphone": {
        "render": false
    },
    "iscustomlayout": false,
    "isvisible": true,
    "kiosk": {
        "render": false
    },
    "kuid": "e9df9debba1c40f39edeba8e27027444",
    "name": "uuxAmountComponent-kony.ui",
    "nameSpaceIndex": 0,
    "parent": "flxIncreaseCommitment",
    "pf": "frmCustomerLoanIncreaseAmt",
    "platformKey": "spa",
    "retaincontentalignment": false,
    "retainflexpositionproperties": false,
    "tabrcandroid": {
        "render": false
    },
    "wType": "TPW",
    "watchos": {
        "render": false
    },
    "widgetIndex": 0,
    "windows10": {
        "render": false
    },
    "windows8": {
        "render": false
    },
    "winphone10": {
        "render": false
    },
    "winphone8": {
        "render": false
    },
    "zindex": 1
}