{
    "DNDConfig": null,
    "_height_": {
        "type": "string",
        "value": "2dp"
    },
    "_left_": {
        "type": "string",
        "value": "220dp"
    },
    "_margin_": [
        0,
        0,
        0,
        0
    ],
    "_orientation_": 6,
    "_padding_": [
        0,
        0,
        0,
        0
    ],
    "_percent_": true,
    "_skin_": "se31956b9efb4cdeb803f81ffb1335e2",
    "_top_": {
        "type": "string",
        "value": "60dp"
    },
    "_width_": {
        "type": "string",
        "value": "5%"
    },
    "allboxes": [],
    "autogrowmode": 0,
    "canUpdateUI": true,
    "children": [],
    "clipbounds": true,
    "containerweight": 100,
    "enablescrolling": true,
    "id": "flxDeposits",
    "info": null,
    "iscustomlayout": false,
    "isvisible": true,
    "kuid": "g68829dc896544f7a23ec08808b3783c",
    "layouttype": 2,
    "name": "kony.ui.FlexContainer",
    "parent": "flxLoanHeader",
    "pf": "frmCustomerLoanIncreaseAmt",
    "retaincontentalignment": false,
    "retainflexpositionproperties": false,
    "retainflowhorizontalalignment": false,
    "snapgridsize": 10,
    "snaptogrid": true,
    "wType": "FlexContainer",
    "widgetalignment": 1,
    "zindex": 1
}