{
    "DNDConfig": null,
    "_height_": {
        "type": "string",
        "value": "64dp"
    },
    "_left_": {
        "type": "string",
        "value": "10dp"
    },
    "_margin_": [
        0,
        0,
        0,
        0
    ],
    "_orientation_": 6,
    "_padding_": [
        0,
        0,
        0,
        0
    ],
    "_percent_": true,
    "_skin_": "s393df3cec1840f2a3c875ea5d28aa4c",
    "_top_": {
        "type": "string",
        "value": "293dp"
    },
    "_width_": {
        "type": "string",
        "value": "100%"
    },
    "allboxes": [],
    "autogrowmode": 0,
    "canUpdateUI": true,
    "children": [
        "lblSelected",
        "lblReq",
        "lblCcy",
        "lblLoantype",
        "lblBalance",
        "lblStartDate",
        "lblMaturityDate",
        "lblAccountServices",
        "Image0a992dc1a206440"
    ],
    "clipbounds": true,
    "containerweight": 100,
    "enablescrolling": true,
    "id": "flxSelectedLoanHeader",
    "info": null,
    "iscustomlayout": false,
    "isvisible": true,
    "kuid": "a5bba85e2cda4b249671a94912118c66",
    "layouttype": 2,
    "name": "kony.ui.FlexContainer",
    "parent": "flxMainContainer",
    "pf": "frmCustomerLoanIncreaseAmt",
    "retaincontentalignment": false,
    "retainflexpositionproperties": false,
    "retainflowhorizontalalignment": false,
    "snapgridsize": 10,
    "snaptogrid": true,
    "wType": "FlexContainer",
    "widgetalignment": 1,
    "zindex": 1
}