{
    "@class": "com.kony.gen.viz.model.container.KVizSegment2",
    "DNDConfig": null,
    "_data_": [
        {
            "lblInterestVal": {
                "@class": "com.viz.ide.model.segment.SimpleTextSegmentData",
                "text": " 58.86"
            }
        },
        {
            "lblInterestVal": {
                "@class": "com.viz.ide.model.segment.SimpleTextSegmentData",
                "text": " 58.29"
            }
        },
        {
            "lblInterestVal": {
                "@class": "com.viz.ide.model.segment.SimpleTextSegmentData",
                "text": " 57.73"
            }
        },
        {
            "lblInterestVal": {
                "@class": "com.viz.ide.model.segment.SimpleTextSegmentData",
                "text": " 57.16"
            }
        },
        {
            "lblInterestVal": {
                "@class": "com.viz.ide.model.segment.SimpleTextSegmentData",
                "text": " 56.59"
            }
        },
        {
            "lblInterestVal": {
                "@class": "com.viz.ide.model.segment.SimpleTextSegmentData",
                "text": " 56.02"
            }
        }
    ],
    "_height_": {
        "type": "string",
        "value": "150dp"
    },
    "_indicator_": "none",
    "_left_": {
        "type": "string",
        "value": "420dp"
    },
    "_margin_": [
        0,
        0,
        0,
        0
    ],
    "_orientation_": 2,
    "_padding_": [
        0,
        0,
        0,
        0
    ],
    "_top_": {
        "type": "string",
        "value": "80dp"
    },
    "_width_": {
        "type": "string",
        "value": "120dp"
    },
    "autogrowmode": 0,
    "canUpdateUI": true,
    "containerweight": 100,
    "counter": "05",
    "focusedindex": null,
    "focuseditem": null,
    "generatedtemplate": "g7a2aa846bc742d399d5eb237316bd07",
    "groupcells": false,
    "hasSections": false,
    "id": "segInterest",
    "info": null,
    "ipad": {
        "psp": {
            "indicator": "rowselect"
        }
    },
    "iphone": {
        "psp": {
            "indicator": "rowselect"
        }
    },
    "iscustomlayout": false,
    "isvisible": true,
    "kuid": "g4888a24d84844e7bc5a536fcf0aa863",
    "masterdata": {},
    "name": "kony.ui.SegmentedUI2",
    "needpageindicator": true,
    "pageoffdotimage": "pageoffdot.png",
    "pageondotimage": "pageondot.png",
    "paginationconfig": {
        "position": "bottom"
    },
    "parent": "flxRevisedPaymentDetails",
    "pf": "frmCustomerLoanIncreaseAmt",
    "retaincontentalignment": false,
    "retainflexpositionproperties": false,
    "retainselection": false,
    "rowTemplateId": "g7a2aa846bc742d399d5eb237316bd07",
    "rowcounter": 5,
    "rowfocusskin": "s3f353c057a14ca8a8d6fa6caf39f59a",
    "rowskin": "sdfa70aaf9c84c329dfaeea934d70bff",
    "rowtemplate": "FBox0h8cf25fe123142",
    "screenlevelwidget": false,
    "seccounter": 0,
    "sectionheaderskin": "s67dfc97c181442ebeb45ecca8ba0dc8",
    "selectedRows": null,
    "selectedState": false,
    "selectedindex": null,
    "selectedindices": null,
    "selecteditems": null,
    "selectedsectionindex": 0,
    "selectionbehavior": "default",
    "separatorcolor": "f2f7fd00",
    "separatorrequired": true,
    "separatorthickness": 1,
    "showscrollbars": false,
    "viewtype": "tableview",
    "vizProps": {},
    "wType": "Segment",
    "widgetalignment": 5,
    "widgetdatamap": {
        "lblInterestVal": "lblInterestVal"
    },
    "zindex": 1
}