{
    "@class": "com.kony.gen.viz.model.container.KVizSegment2",
    "DNDConfig": null,
    "_data_": [
        {
            "lblPaymentDateValues": {
                "@class": "com.viz.ide.model.segment.SimpleTextSegmentData",
                "text": " 19 Oct 2020"
            }
        },
        {
            "lblPaymentDateValues": {
                "@class": "com.viz.ide.model.segment.SimpleTextSegmentData",
                "text": " 19 Nov 2020"
            }
        },
        {
            "lblPaymentDateValues": {
                "@class": "com.viz.ide.model.segment.SimpleTextSegmentData",
                "text": " 19 Dec 2020"
            }
        },
        {
            "lblPaymentDateValues": {
                "@class": "com.viz.ide.model.segment.SimpleTextSegmentData",
                "text": " 19 Jan 2021"
            }
        },
        {
            "lblPaymentDateValues": {
                "@class": "com.viz.ide.model.segment.SimpleTextSegmentData",
                "text": " 19 Feb 2021"
            }
        },
        {
            "lblPaymentDateValues": {
                "@class": "com.viz.ide.model.segment.SimpleTextSegmentData",
                "text": " 19 Mar 2021"
            }
        }
    ],
    "_height_": {
        "type": "string",
        "value": "150dp"
    },
    "_indicator_": "none",
    "_left_": {
        "type": "string",
        "value": "18dp"
    },
    "_margin_": [
        0,
        0,
        0,
        0
    ],
    "_orientation_": 2,
    "_padding_": [
        0,
        0,
        0,
        0
    ],
    "_top_": {
        "type": "string",
        "value": "80dp"
    },
    "_width_": {
        "type": "string",
        "value": "120dp"
    },
    "autogrowmode": 0,
    "canUpdateUI": true,
    "containerweight": 100,
    "counter": "05",
    "focusedindex": null,
    "focuseditem": null,
    "generatedtemplate": "b8216ad671064b5aa03dd553bacf49cb",
    "groupcells": false,
    "hasSections": false,
    "id": "segPaymentDate",
    "info": null,
    "ipad": {
        "psp": {
            "indicator": "rowselect"
        }
    },
    "iphone": {
        "psp": {
            "indicator": "rowselect"
        }
    },
    "iscustomlayout": false,
    "isvisible": true,
    "kuid": "fc01845edbe94e25a3040968fc737716",
    "masterdata": {},
    "name": "kony.ui.SegmentedUI2",
    "needpageindicator": true,
    "pageoffdotimage": "pageoffdot.png",
    "pageondotimage": "pageondot.png",
    "paginationconfig": {
        "position": "bottom"
    },
    "parent": "flxRevisedPaymentDetails",
    "pf": "frmCustomerLoanIncreaseAmt",
    "retaincontentalignment": false,
    "retainflexpositionproperties": false,
    "retainselection": false,
    "rowTemplateId": "b8216ad671064b5aa03dd553bacf49cb",
    "rowcounter": 5,
    "rowfocusskin": "s3f353c057a14ca8a8d6fa6caf39f59a",
    "rowskin": "s954e26861d34d3a8e311bcac2040f96",
    "rowtemplate": "FBox0a671ac011eec47",
    "screenlevelwidget": false,
    "seccounter": 0,
    "sectionheaderskin": "s67dfc97c181442ebeb45ecca8ba0dc8",
    "selectedRows": null,
    "selectedState": false,
    "selectedindex": null,
    "selectedindices": null,
    "selecteditems": null,
    "selectedsectionindex": 0,
    "selectionbehavior": "default",
    "separatorcolor": "f2f7fd00",
    "separatorrequired": true,
    "separatorthickness": 1,
    "showscrollbars": false,
    "viewtype": "tableview",
    "vizProps": {},
    "wType": "Segment",
    "widgetalignment": 5,
    "widgetdatamap": {
        "lblPaymentDateValues": "lblPaymentDateValues"
    },
    "zindex": 1
}