{
    "@class": "com.kony.gen.viz.model.component.KVizButton",
    "DNDConfig": null,
    "_height_": {
        "type": "string",
        "value": "32dp"
    },
    "_left_": {
        "type": "string",
        "value": "16dp"
    },
    "_margin_": [
        6,
        6,
        6,
        6
    ],
    "_padding_": [
        0,
        0,
        0,
        0
    ],
    "_skin_": "s2d460b82ae84e20ab4272b82e15d559",
    "_text_": "C",
    "_width_": {
        "type": "string",
        "value": "32dp"
    },
    "canUpdateUI": true,
    "centery": {
        "type": "string",
        "value": "50%"
    },
    "containerId": true,
    "containerweight": 100,
    "contentalignment": 5,
    "disabledSkins": {
        "focusSkin": "s2d460b82ae84e20ab4272b82e15d559"
    },
    "displaytext": true,
    "id": "btnEdit",
    "info": null,
    "iscustomlayout": false,
    "isvisible": true,
    "kuid": "d67ada1b3293461bae855e43e09c5433",
    "name": "kony.ui.Button",
    "parent": "flxRowBlockFunds",
    "pf": "tempRowBlockFunds",
    "retaincontentalignment": false,
    "retainflexpositionproperties": false,
    "wType": "Button",
    "zindex": 1
}