{
  "operationConfig" : {
    "name" : "getInterestDetailsCurrent2568",
    "type" : "MappedToBackend",
    "cachable" : false,
    "smsEnabled" : false,
    "security" : "authorized_app_user",
    "responseEncoding" : "UTF-8",
    "httpMethod" : "GET",
    "decodeResponseBody" : false,
    "odata" : [ {
      "id" : "$select",
      "dataType" : "string",
      "encode" : true,
      "accessType" : "readonly"
    }, {
      "id" : "$filter",
      "dataType" : "string",
      "encode" : true,
      "accessType" : "readonly"
    }, {
      "id" : "$orderby",
      "dataType" : "string",
      "encode" : true,
      "accessType" : "readonly"
    }, {
      "id" : "$top",
      "dataType" : "string",
      "encode" : true,
      "accessType" : "readonly"
    }, {
      "id" : "$skip",
      "dataType" : "string",
      "encode" : true,
      "accessType" : "readonly"
    }, {
      "id" : "$expand",
      "dataType" : "string",
      "encode" : true,
      "accessType" : "readonly"
    }, {
      "id" : "$batchsize",
      "dataType" : "string",
      "encode" : true,
      "accessType" : "readonly"
    }, {
      "id" : "$batchid",
      "dataType" : "string",
      "encode" : true,
      "accessType" : "readonly"
    } ],
    "iMapping" : "<?xml version=\"1.0\" encoding=\"UTF-8\" standalone=\"yes\"?>\n<mapper xmlns=\"http://www.kony.com/ns/mapper\">\n    <map inputpath=\"request_in\" outputpath=\"request_out\">\n        <set-param inputpath=\"arrangementId\" outputpath=\"arrangementId\"/>\n    </map>\n</mapper>\n",
    "oMapping" : "<?xml version=\"1.0\" encoding=\"UTF-8\" standalone=\"yes\"?>\n<mapper xmlns=\"http://www.kony.com/ns/mapper\">\n    <map inputpath=\"response_in\" outputpath=\"response_out\">\n        <map inputpath=\"header\" outputpath=\"getInterestDetailsCurrent\">\n            <set-param inputpath=\"status\" outputpath=\"status\"/>\n            <set-param inputpath=\"../body/totalAmount\" outputpath=\"totalAmount\"/>\n            <set-param inputpath=\"../body/interestProperty\" outputpath=\"interestProperty\"/>\n            <set-param inputpath=\"../body/positiveInterestAmount\" outputpath=\"positiveInterestAmount\"/>\n            <set-param inputpath=\"../body/startDate\" outputpath=\"startDate\"/>\n            <set-param inputpath=\"../body/endDate\" outputpath=\"endDate\"/>\n            <set-param inputpath=\"../body/negativeInterestAmount\" outputpath=\"negativeInterestAmount\"/>\n            <set-param inputpath=\"../body/adjustmentAmount\" outputpath=\"adjustmentAmount\"/>\n            <set-param inputpath=\"../error/code\" outputpath=\"code\"/>\n            <set-param inputpath=\"../error/type\" outputpath=\"type\"/>\n            <set-param inputpath=\"../error/message\" outputpath=\"message\"/>\n        </map>\n    </map>\n</mapper>\n",
    "iVisualMappingData" : "{\"nodeDataArray\":[{\"isGroup\":true,\"key\":\"request_in\",\"text\":\"getInterestDetailsCurrent\",\"xy\":\"150 100\"},{\"isGroup\":true,\"key\":\"request_out\",\"text\":\"FundsWithdrawal (1.0).getInterestDetailsCurrent\",\"xy\":\"770 100\"}],\"linkDataArray\":[{\"category\":\"Mapping\",\"visible\":true,\"from\":\"source:getInterestDetailsCurrent:arrangementId:\",\"to\":\"target:arrangementId:\",\"fromPort\":\"source:getInterestDetailsCurrent:arrangementId:\",\"toPort\":\"target:arrangementId:\"}],\"blockCount\":{\"variableCount\":0},\"variableMap\":{},\"xmlMappingOverride\":false}",
    "oVisualMappingData" : "{\"nodeDataArray\":[{\"isGroup\":true,\"key\":\"response_out\",\"text\":\"getInterestDetailsCurrent\",\"xy\":\"781 209\"},{\"isGroup\":true,\"key\":\"response_in\",\"text\":\"FundsWithdrawal (1.0).getInterestDetailsCurrent\",\"xy\":\"150 100\"}],\"linkDataArray\":[{\"category\":\"Mapping\",\"visible\":true,\"from\":\"source:error:code:\",\"to\":\"target:getInterestDetailsCurrent:code:\",\"fromPort\":\"source:error:code:\",\"toPort\":\"target:getInterestDetailsCurrent:code:\"},{\"category\":\"Mapping\",\"visible\":true,\"from\":\"source:error:message:\",\"to\":\"target:getInterestDetailsCurrent:message:\",\"fromPort\":\"source:error:message:\",\"toPort\":\"target:getInterestDetailsCurrent:message:\"},{\"category\":\"Mapping\",\"visible\":true,\"from\":\"source:error:type:\",\"to\":\"target:getInterestDetailsCurrent:type:\",\"fromPort\":\"source:error:type:\",\"toPort\":\"target:getInterestDetailsCurrent:type:\"},{\"category\":\"Mapping\",\"visible\":true,\"from\":\"source:body:adjustmentAmount:\",\"to\":\"target:getInterestDetailsCurrent:adjustmentAmount:\",\"fromPort\":\"source:body:adjustmentAmount:\",\"toPort\":\"target:getInterestDetailsCurrent:adjustmentAmount:\"},{\"category\":\"Mapping\",\"visible\":true,\"from\":\"source:body:endDate:\",\"to\":\"target:getInterestDetailsCurrent:endDate:\",\"fromPort\":\"source:body:endDate:\",\"toPort\":\"target:getInterestDetailsCurrent:endDate:\"},{\"category\":\"Mapping\",\"visible\":true,\"from\":\"source:body:startDate:\",\"to\":\"target:getInterestDetailsCurrent:startDate:\",\"fromPort\":\"source:body:startDate:\",\"toPort\":\"target:getInterestDetailsCurrent:startDate:\"},{\"category\":\"Mapping\",\"visible\":true,\"from\":\"source:body:interestProperty:\",\"to\":\"target:getInterestDetailsCurrent:interestProperty:\",\"fromPort\":\"source:body:interestProperty:\",\"toPort\":\"target:getInterestDetailsCurrent:interestProperty:\"},{\"category\":\"Mapping\",\"visible\":true,\"from\":\"source:body:totalAmount:\",\"to\":\"target:getInterestDetailsCurrent:totalAmount:\",\"fromPort\":\"source:body:totalAmount:\",\"toPort\":\"target:getInterestDetailsCurrent:totalAmount:\"},{\"category\":\"Mapping\",\"visible\":true,\"from\":\"source:body:negativeInterestAmount:\",\"to\":\"target:getInterestDetailsCurrent:negativeInterestAmount:\",\"fromPort\":\"source:body:negativeInterestAmount:\",\"toPort\":\"target:getInterestDetailsCurrent:negativeInterestAmount:\"},{\"category\":\"Mapping\",\"visible\":true,\"from\":\"source:body:positiveInterestAmount:\",\"to\":\"target:getInterestDetailsCurrent:positiveInterestAmount:\",\"fromPort\":\"source:body:positiveInterestAmount:\",\"toPort\":\"target:getInterestDetailsCurrent:positiveInterestAmount:\"},{\"category\":\"Mapping\",\"visible\":true,\"from\":\"source:header:status:\",\"to\":\"target:getInterestDetailsCurrent:status:\",\"fromPort\":\"source:header:status:\",\"toPort\":\"target:getInterestDetailsCurrent:status:\"}],\"blockCount\":{\"variableCount\":0},\"variableMap\":{},\"xmlMappingOverride\":false}",
    "applyCommonMapping" : false,
    "applyRequestCommonMapping" : false,
    "applyResponseCommonMapping" : false,
    "backendMeta" : {
      "serviceName" : "FundsWithdrawal",
      "serviceVersion" : "1.0",
      "operationName" : "getInterestDetailsCurrent"
    },
    "relationshipHierarchyMapping" : {
      "children" : [ ],
      "name" : "getInterestDetailsCurrent",
      "actions" : {
        "get" : true
      },
      "selected" : true
    },
    "requestXmlMappingOverride" : false,
    "responseXmlMappingOverride" : false
  }
}