{
	"AS_Button_c5e22f5b8c7b459c84b8d282296f635c": {
		"id": "AS_Button_c5e22f5b8c7b459c84b8d282296f635c",
		"type": "ACTION_SEQUENCE",
		"params": [
			{
				"datatype": "collection",
				"name": "eventobject"
			}
		],
		"contextObj": {
			"type": "forms",
			"platform": "",
			"KUID": "i0c907a8786849ac96dc928d812a2815",
			"name": "frmDashboard"
		},
		"language": "js",
		"actions": [
			{
				"id": "NAVIGATE_TO_FORM__c627ede09d7d4caa828b7315d9099217",
				"type": "NAVIGATE_TO_FORM",
				"formId": "frmCustomerCreation",
				"formKUID": "b87713fbc0da42c3a4175c7d3f108977",
				"mappings": {},
				"mappingsOrder": [],
				"enableMappingEditor": true,
				"package": "",
				"isCustomInput": false
			}
		]
	}
}