{
	"AS_Button_c06315740020458b854f2190afcaf9fb": {
		"id": "AS_Button_c06315740020458b854f2190afcaf9fb",
		"type": "ACTION_SEQUENCE",
		"params": [
			{
				"datatype": "collection",
				"name": "eventobject"
			}
		],
		"contextObj": {
			"type": "forms",
			"platform": "",
			"KUID": "i0c907a8786849ac96dc928d812a2815",
			"name": "frmDashboard"
		},
		"language": "js",
		"actions": []
	}
}