{
	"AS_Button_h383b92ad6514f889ff7ab76d2851474": {
		"id": "AS_Button_h383b92ad6514f889ff7ab76d2851474",
		"type": "ACTION_SEQUENCE",
		"params": [
			{
				"datatype": "collection",
				"name": "eventobject"
			}
		],
		"contextObj": {
			"type": "forms",
			"platform": "",
			"KUID": "i0c907a8786849ac96dc928d812a2815",
			"name": "frmDashboard"
		},
		"language": "js",
		"actions": [
			{
				"id": "INVOKE_FUNCTION__icfb71b1d61348e5b33c22e08cbfdd5b",
				"type": "INVOKE_FUNCTION",
				"sequenceKUID": "navigateCustomerCreationfunction",
				"display": "navigateCustomerCreationfunction",
				"inputparams": [],
				"parentId": null,
				"callbackType": null,
				"disabled": null,
				"source": "controller"
			}
		]
	}
}