{
	"AS_Button_g294969036934b7fb108c4beefbb7594": {
		"id": "AS_Button_g294969036934b7fb108c4beefbb7594",
		"type": "ACTION_SEQUENCE",
		"params": [
			{
				"datatype": "collection",
				"name": "eventobject"
			},
			{
				"datatype": "collection",
				"name": "context"
			}
		],
		"contextObj": {
			"name": "tempServiceType",
			"type": "templates",
			"platform": "",
			"KUID": "e578f0f0f7ff4c97a5ccea6617e38587"
		},
		"language": "js",
		"actions": [
			{
				"id": "INVOKE_FUNCTION__d8c4500a28b247f29645cd14379a274e",
				"type": "INVOKE_FUNCTION",
				"sequenceKUID": "onRowClick",
				"display": "onRowClick",
				"inputparams": [
					{
						"name": "context",
						"value": " context.id"
					}
				],
				"parentId": null,
				"callbackType": null,
				"disabled": null,
				"source": "controller"
			}
		]
	}
}