{
	"AS_Button_ie54ac5da89d4e568d5e7000a99fb76c": {
		"id": "AS_Button_ie54ac5da89d4e568d5e7000a99fb76c",
		"type": "ACTION_SEQUENCE",
		"params": [
			{
				"datatype": "collection",
				"name": "eventobject"
			}
		],
		"contextObj": {
			"type": "forms",
			"platform": "",
			"KUID": "i0c907a8786849ac96dc928d812a2815",
			"name": "frmDashboard"
		},
		"language": "js",
		"actions": [
			{
				"id": "INVOKE_FUNCTION__cc680116548f4055815e21344c4a269e",
				"type": "INVOKE_FUNCTION",
				"sequenceKUID": "getStarted",
				"display": "getStarted",
				"inputparams": [],
				"parentId": null,
				"callbackType": null,
				"disabled": null,
				"source": "controller"
			}
		]
	}
}