{
	"AS_FlexContainer_f4fb312f30db4fb985a099723a15d7af": {
		"id": "AS_FlexContainer_f4fb312f30db4fb985a099723a15d7af",
		"type": "ACTION_SEQUENCE",
		"params": [
			{
				"datatype": "collection",
				"name": "eventobject"
			},
			{
				"datatype": "collection",
				"name": "context"
			}
		],
		"contextObj": {
			"type": "templates",
			"platform": null,
			"KUID": "facb576e488b458bb4b025ed713936b6"
		},
		"language": "js",
		"actions": [
			{
				"id": "INVOKE_FUNCTION__b30fdd5f23ff4d03b09eff49eff8eeb9",
				"type": "INVOKE_FUNCTION",
				"sequenceKUID": "onShowMoreSectionClick",
				"display": "onShowMoreSectionClick",
				"inputparams": [
					{
						"name": "context",
						"value": " context"
					}
				],
				"parentId": null,
				"callbackType": null,
				"disabled": null,
				"source": "controller"
			}
		]
	}
}