{
	"AS_FlexContainer_a6c0cbe9831b4ff7a4374bbcf615e145": {
		"id": "AS_FlexContainer_a6c0cbe9831b4ff7a4374bbcf615e145",
		"type": "ACTION_SEQUENCE",
		"params": [
			{
				"datatype": "collection",
				"name": "eventobject"
			}
		],
		"contextObj": {
			"type": "forms",
			"platform": "",
			"KUID": "i0c907a8786849ac96dc928d812a2815",
			"name": "frmDashboard"
		},
		"language": "js",
		"actions": [
			{
				"id": "ADD_SNIPPET_h6bd5547d9544f16bbe96d59a0a5ccdc",
				"type": "ADD_SNIPPET",
				"codeSnippet": "this.view.getStarted.isVisible = false;",
				"parentId": null
			}
		]
	}
}