{
	"AS_Image_ae9428a3f7d54919b7720ac15c9c7941": {
		"id": "AS_Image_ae9428a3f7d54919b7720ac15c9c7941",
		"type": "ACTION_SEQUENCE",
		"params": [
			{
				"datatype": "collection",
				"name": "eventobject"
			},
			{
				"datatype": "string",
				"name": "x"
			},
			{
				"datatype": "string",
				"name": "y"
			}
		],
		"contextObj": {
			"type": "forms",
			"platform": "",
			"KUID": "e2ae0f366871480594ee5ea9d179cb4b",
			"name": "frmDisburse"
		},
		"language": "js",
		"actions": [
			{
				"id": "INVOKE_FUNCTION__c7444f7cde064f89bcd032b58051bf6f",
				"type": "INVOKE_FUNCTION",
				"sequenceKUID": "closePayAccountDetails",
				"display": "closePayAccountDetails",
				"inputparams": [],
				"parentId": null,
				"callbackType": null,
				"disabled": null,
				"source": "controller"
			}
		]
	}
}