{
	"AS_ListBox_b67175ffaba04b1a86f3696d1f7a2aea": {
		"id": "AS_ListBox_b67175ffaba04b1a86f3696d1f7a2aea",
		"type": "ACTION_SEQUENCE",
		"params": [
			{
				"datatype": "collection",
				"name": "eventobject"
			},
			{
				"datatype": "collection",
				"name": "context"
			}
		],
		"contextObj": {
			"type": "templates",
			"platform": "",
			"KUID": "b5c29b0d616348b382cdb79116411101",
			"name": "tempForLoansSegment"
		},
		"language": "js",
		"actions": [
			{
				"id": "INVOKE_FUNCTION__j02f760b696d4886afa7c9893e12d2a1",
				"type": "INVOKE_FUNCTION",
				"sequenceKUID": "getdata",
				"display": "getdata",
				"inputparams": [
					{
						"name": "widget",
						"value": "eventobject"
					},
					{
						"name": "context",
						"value": " context"
					}
				],
				"parentId": null,
				"callbackType": null,
				"disabled": null,
				"source": "controller"
			}
		]
	}
}