{
	"AS_Label_a5236dab43f64805872d8110e967b142": {
		"id": "AS_Label_a5236dab43f64805872d8110e967b142",
		"type": "ACTION_SEQUENCE",
		"params": [
			{
				"datatype": "collection",
				"name": "eventobject"
			},
			{
				"datatype": "string",
				"name": "x"
			},
			{
				"datatype": "string",
				"name": "y"
			}
		],
		"contextObj": {
			"type": "forms",
			"platform": "",
			"KUID": "i0c907a8786849ac96dc928d812a2815",
			"name": "frmDashboard"
		},
		"language": "js",
		"actions": [
			{
				"id": "INVOKE_FUNCTION__a6db8bf11aee4e38b74a636aa73d5ae0",
				"type": "INVOKE_FUNCTION",
				"display": "helpCenter",
				"inputparams": [],
				"parentId": null,
				"callbackType": null,
				"disabled": null,
				"source": "controller"
			}
		]
	}
}