{
	"AS_RichText_ed1f8d5087c04890ad48cfd2376995b0": {
		"id": "AS_RichText_ed1f8d5087c04890ad48cfd2376995b0",
		"type": "ACTION_SEQUENCE",
		"params": [
			{
				"datatype": "collection",
				"name": "eventobject"
			},
			{
				"datatype": "string",
				"name": "linktext"
			},
			{
				"datatype": "string",
				"name": "attributes"
			}
		],
		"contextObj": {
			"type": "forms",
			"platform": "",
			"KUID": "i0c907a8786849ac96dc928d812a2815",
			"name": "frmDashboard"
		},
		"language": "js",
		"actions": [
			{
				"id": "INVOKE_FUNCTION__d2e4783d094349a58badb74c4e177115",
				"type": "INVOKE_FUNCTION",
				"sequenceKUID": "showMore",
				"display": "showMore",
				"inputparams": [],
				"parentId": null,
				"callbackType": null,
				"disabled": null,
				"source": "controller"
			}
		]
	}
}