{
	"AS_Segment_cd66c81de52e4de29e68381495b002db": {
		"id": "AS_Segment_cd66c81de52e4de29e68381495b002db",
		"type": "ACTION_SEQUENCE",
		"params": [
			{
				"datatype": "collection",
				"name": "eventobject"
			},
			{
				"datatype": "number",
				"name": "sectionNumber"
			},
			{
				"datatype": "number",
				"name": "rowNumber"
			}
		],
		"contextObj": {
			"type": "forms",
			"platform": "",
			"KUID": "e2ae0f366871480594ee5ea9d179cb4b",
			"name": "frmDisburse"
		},
		"language": "js",
		"actions": [
			{
				"id": "INVOKE_FUNCTION__de3599d87d2d4f5489df5c8d1fe18374",
				"type": "INVOKE_FUNCTION",
				"sequenceKUID": "getSegRowinfo",
				"display": "getSegRowinfo",
				"inputparams": [],
				"parentId": null,
				"callbackType": null,
				"disabled": null,
				"source": "controller"
			}
		]
	}
}