{
	"AS_Segment_ad9c9c5e47f640edabeeea09fcd99501": {
		"id": "AS_Segment_ad9c9c5e47f640edabeeea09fcd99501",
		"type": "ACTION_SEQUENCE",
		"params": [
			{
				"datatype": "collection",
				"name": "eventobject"
			},
			{
				"datatype": "number",
				"name": "sectionNumber"
			},
			{
				"datatype": "number",
				"name": "rowNumber"
			}
		],
		"contextObj": {
			"type": "forms",
			"platform": "",
			"KUID": "i0c907a8786849ac96dc928d812a2815",
			"name": "frmDashboard"
		},
		"language": "js",
		"actions": [
			{
				"id": "INVOKE_FUNCTION__e08659bcca3948c39995be1e8517dbc6",
				"type": "INVOKE_FUNCTION",
				"display": "navigatefunction",
				"inputparams": [],
				"parentId": null,
				"callbackType": null,
				"disabled": null,
				"source": "controller"
			}
		]
	}
}