{
	"AS_TPW_id3ba129083b4142b3240de453b444d3": {
		"id": "AS_TPW_id3ba129083b4142b3240de453b444d3",
		"type": "ACTION_SEQUENCE",
		"params": [
			{
				"datatype": "collection",
				"name": "eventobject"
			}
		],
		"contextObj": {
			"type": "forms",
			"platform": "",
			"KUID": "b87713fbc0da42c3a4175c7d3f108977",
			"name": "frmCustomerCreation"
		},
		"language": "js",
		"actions": [
			{
				"id": "INVOKE_FUNCTION__e5378e0a2e6146dc946b8fc0e281af1f",
				"type": "INVOKE_FUNCTION",
				"display": "<>",
				"inputparams": [],
				"parentId": null,
				"callbackType": null,
				"disabled": null,
				"source": "module"
			}
		]
	}
}