{
	"AS_UWI_ga1f56fa6663455ea4f1d6a216c6a166": {
		"id": "AS_UWI_ga1f56fa6663455ea4f1d6a216c6a166",
		"type": "ACTION_SEQUENCE",
		"params": [
			{
				"datatype": "collection",
				"name": "eventobject"
			}
		],
		"contextObj": {
			"type": "forms",
			"platform": null,
			"KUID": "a08301e3b3ed4845aa3bd24ea96fcd5f",
			"name": "frmDashboardLending"
		},
		"language": "js",
		"actions": [
			{
				"id": "INVOKE_FUNCTION__ide_onClickBtnExplorer_b2b5b6ea4b254b6fa53c4d53ca24470a",
				"type": "INVOKE_FUNCTION",
				"sequenceKUID": "onClickExplorer",
				"display": "onClickExplorer",
				"inputparams": [],
				"disabled": null,
				"source": "controller"
			}
		]
	}
}