{
	"AS_UWI_h051bd1eb39e4cd18899c2af3dd9054c": {
		"id": "AS_UWI_h051bd1eb39e4cd18899c2af3dd9054c",
		"type": "ACTION_SEQUENCE",
		"params": [
			{
				"datatype": "collection",
				"name": "eventobject"
			}
		],
		"contextObj": {
			"type": "forms",
			"platform": "",
			"KUID": "i0c907a8786849ac96dc928d812a2815",
			"name": "frmDashboard"
		},
		"language": "js",
		"actions": [
			{
				"id": "ADD_SNIPPET_f192d7cf3f6742a5a6c0441573f2738c",
				"type": "ADD_SNIPPET",
				"codeSnippet": "this.view.helpCenter.isVisible = true;\nthis.view.help.isVisible = false;\nthis.view.getStarted.isVisible = false;",
				"parentId": null
			}
		]
	}
}