{
	"AS_UWI_c5a076b351ba492a85f7fc6865ed80ba": {
		"id": "AS_UWI_c5a076b351ba492a85f7fc6865ed80ba",
		"type": "ACTION_SEQUENCE",
		"params": [
			{
				"datatype": "collection",
				"name": "eventobject"
			}
		],
		"contextObj": {
			"type": "forms",
			"platform": "",
			"KUID": "fcaf5c9ab3324cccb5d95d1c64145d92",
			"name": "frmLoanPayOff"
		},
		"language": "js",
		"actions": [
			{
				"id": "ADD_SNIPPET_da669e62b04e44ccb75cd9a1bbf0856a",
				"type": "ADD_SNIPPET",
				"codeSnippet": "this.view.help.isVisible = true;\nthis.view.help.flxServices.isVisible = true;\nthis.view.help.flxBottom.isVisible = false;\nthis.view.help.flxServiceType.isVisible = false;\nthis.view.help.flxSeg.isVisible = false;\n\nthis.view.helpCenter.isVisible = false;\nthis.view.help.flxBack.isVisible = false;\nthis.view.help.flxLoan.skin = \"sknFlxTypeUnselect\";",
				"parentId": null
			}
		]
	}
}