{
	"AS_UWI_a47c5b20b2604db1b286d9916959a04c": {
		"id": "AS_UWI_a47c5b20b2604db1b286d9916959a04c",
		"type": "ACTION_SEQUENCE",
		"params": [
			{
				"datatype": "collection",
				"name": "eventobject"
			}
		],
		"contextObj": {
			"type": "forms",
			"platform": "",
			"KUID": "fcaf5c9ab3324cccb5d95d1c64145d92",
			"name": "frmLoanPayOff"
		},
		"language": "js",
		"actions": [
			{
				"id": "INVOKE_FUNCTION__c4dca2cbcd4149a7bd8ebbc3b4d4bcd2",
				"type": "INVOKE_FUNCTION",
				"sequenceKUID": "onClickBtnHelp",
				"display": "onClickBtnHelp",
				"inputparams": [],
				"parentId": null,
				"disabled": null,
				"source": "controller"
			}
		]
	}
}