{
	"AS_UWI_d596066755f845b9b391133a3c31725b": {
		"id": "AS_UWI_d596066755f845b9b391133a3c31725b",
		"type": "ACTION_SEQUENCE",
		"params": [
			{
				"datatype": "collection",
				"name": "eventobject"
			}
		],
		"contextObj": {
			"type": "forms",
			"platform": "",
			"KUID": "d2299b1fbf2749dcaceb615bfa816471",
			"name": "loanNavigate"
		},
		"language": "js",
		"actions": [
			{
				"id": "INVOKE_FUNCTION__hb2fd853a7eb47bf82ec7459f9edca7f",
				"type": "INVOKE_FUNCTION",
				"sequenceKUID": "onClickBtnHelp",
				"display": "onClickBtnHelp",
				"inputparams": [],
				"parentId": null,
				"disabled": null,
				"source": "controller"
			}
		]
	}
}