{
	"AS_UWI_gfcea63cafcf45a2b255c3654117fc85": {
		"id": "AS_UWI_gfcea63cafcf45a2b255c3654117fc85",
		"type": "ACTION_SEQUENCE",
		"params": [
			{
				"datatype": "collection",
				"name": "eventobject"
			}
		],
		"contextObj": {
			"type": "forms",
			"platform": "",
			"KUID": "i80882ead08845859c00c94f356ac8fd",
			"name": "frmHolidayPayment"
		},
		"language": "js",
		"actions": [
			{
				"id": "INVOKE_FUNCTION__g49b2d84e1174236913336d860871ea5",
				"type": "INVOKE_FUNCTION",
				"sequenceKUID": "onClickBtnHelp",
				"display": "onClickBtnHelp",
				"inputparams": [],
				"parentId": null,
				"disabled": null,
				"source": "controller"
			}
		]
	}
}