{
	"AS_UWI_b5728b1b8ce34018ac679a3bba802db8": {
		"id": "AS_UWI_b5728b1b8ce34018ac679a3bba802db8",
		"type": "ACTION_SEQUENCE",
		"params": [
			{
				"datatype": "collection",
				"name": "eventobject"
			}
		],
		"contextObj": {
			"type": "forms",
			"platform": "",
			"KUID": "e69312af97e8439faf592c45a624e14c",
			"name": "frmLoanCreation"
		},
		"language": "js",
		"actions": [
			{
				"id": "ADD_SNIPPET_c8a8ea5ac7704044aac1991068965859",
				"type": "ADD_SNIPPET",
				"codeSnippet": "this.view.helpCenter.isVisible = true;\nthis.view.help.isVisible = false;\nthis.view.getStarted.isVisible = false;",
				"parentId": null
			}
		]
	}
}