{
	"AS_UWI_bbd783e212c6498b83b01a8438674b10": {
		"id": "AS_UWI_bbd783e212c6498b83b01a8438674b10",
		"type": "ACTION_SEQUENCE",
		"params": [
			{
				"datatype": "collection",
				"name": "eventobject"
			}
		],
		"contextObj": {
			"type": "forms",
			"platform": "",
			"KUID": "g302e35d80424697be1810e7f47ee7fb",
			"name": "frmCustomerLoanInterestChange"
		},
		"language": "js",
		"actions": [
			{
				"id": "INVOKE_FUNCTION__ffa084e707144f8f90d4ecc81ea2d92e",
				"type": "INVOKE_FUNCTION",
				"sequenceKUID": "onClickBtnHelp",
				"display": "onClickBtnHelp",
				"inputparams": [],
				"parentId": null,
				"disabled": null,
				"source": "controller"
			}
		]
	}
}