{
	"AS_UWI_b6da1c9231af46438a5fb2acd9dacea7": {
		"id": "AS_UWI_b6da1c9231af46438a5fb2acd9dacea7",
		"type": "ACTION_SEQUENCE",
		"params": [
			{
				"datatype": "collection",
				"name": "eventobject"
			}
		],
		"contextObj": {
			"type": "forms",
			"platform": "",
			"KUID": "g302e35d80424697be1810e7f47ee7fb",
			"name": "frmCustomerLoanInterestChange"
		},
		"language": "js",
		"actions": [
			{
				"id": "INVOKE_FUNCTION__c2c57221d22f469985c14919d244b004",
				"type": "INVOKE_FUNCTION",
				"sequenceKUID": "onClickExplorer",
				"display": "onClickExplorer",
				"inputparams": [],
				"parentId": null,
				"disabled": null,
				"source": "controller"
			}
		]
	}
}