{
	"AS_UWI_d3f40cc95ed342dfaf5713254003b404": {
		"id": "AS_UWI_d3f40cc95ed342dfaf5713254003b404",
		"type": "ACTION_SEQUENCE",
		"params": [
			{
				"datatype": "collection",
				"name": "eventobject"
			}
		],
		"contextObj": {
			"type": "forms",
			"platform": "",
			"KUID": "b5029a9aed5f4898b502ab1b910faeec",
			"name": "frmRepayment"
		},
		"language": "js",
		"actions": [
			{
				"id": "ADD_SNIPPET_ce3b97c352674b78836a412514a3237a",
				"type": "ADD_SNIPPET",
				"codeSnippet": "this.view.help.isVisible = true;\nthis.view.help.flxServices.isVisible = true;\nthis.view.help.flxBottom.isVisible = false;\nthis.view.help.flxServiceType.isVisible = false;\nthis.view.help.flxSeg.isVisible = false;\n\nthis.view.helpCenter.isVisible = false;\nthis.view.help.flxBack.isVisible = false;\nthis.view.help.flxLoan.skin = \"sknFlxTypeUnselect\";",
				"parentId": null
			}
		]
	}
}