{
	"AS_UWI_bb61b37313204be3833502157fa6d2d9": {
		"id": "AS_UWI_bb61b37313204be3833502157fa6d2d9",
		"type": "ACTION_SEQUENCE",
		"params": [
			{
				"datatype": "collection",
				"name": "eventobject"
			}
		],
		"contextObj": {
			"type": "forms",
			"platform": "",
			"KUID": "fcaf5c9ab3324cccb5d95d1c64145d92",
			"name": "frmLoanPayOff"
		},
		"language": "js",
		"actions": [
			{
				"id": "INVOKE_FUNCTION__gdd717d311854b2395da1bf1a8f32073",
				"type": "INVOKE_FUNCTION",
				"sequenceKUID": "onClickExplorer",
				"display": "onClickExplorer",
				"inputparams": [],
				"parentId": null,
				"disabled": null,
				"source": "controller"
			}
		]
	}
}