{
	"AS_UWI_d3a506d12d684bb29e9a29eb6af503c8": {
		"id": "AS_UWI_d3a506d12d684bb29e9a29eb6af503c8",
		"type": "ACTION_SEQUENCE",
		"params": [
			{
				"datatype": "collection",
				"name": "eventobject"
			}
		],
		"contextObj": {
			"type": "forms",
			"platform": "",
			"KUID": "d2299b1fbf2749dcaceb615bfa816471",
			"name": "loanNavigate"
		},
		"language": "js",
		"actions": [
			{
				"id": "ADD_SNIPPET_a155bb97ab704363a9106d3a031151c3",
				"type": "ADD_SNIPPET",
				"codeSnippet": "this.view.helpCenter.isVisible = true;\nthis.view.help.isVisible = false;\nthis.view.getStarted.isVisible = false;",
				"parentId": null
			}
		]
	}
}