{
	"AS_UWI_b9526842e3234c3e855d4309c59dd505": {
		"id": "AS_UWI_b9526842e3234c3e855d4309c59dd505",
		"type": "ACTION_SEQUENCE",
		"params": [
			{
				"datatype": "collection",
				"name": "eventobject"
			}
		],
		"contextObj": {
			"type": "forms",
			"platform": "",
			"KUID": "i0c907a8786849ac96dc928d812a2815",
			"name": "frmDashboard"
		},
		"language": "js",
		"actions": [
			{
				"id": "INVOKE_FUNCTION__c8e0d70fdefd43b6a91b38b31c428d32",
				"type": "INVOKE_FUNCTION",
				"sequenceKUID": "onClickBtnHelp",
				"display": "onClickBtnHelp",
				"inputparams": [],
				"parentId": null,
				"disabled": null,
				"source": "controller"
			}
		]
	}
}