{
	"AS_UWI_b5fdff74b36a4ea69d10cb4a2eee5257": {
		"id": "AS_UWI_b5fdff74b36a4ea69d10cb4a2eee5257",
		"type": "ACTION_SEQUENCE",
		"params": [
			{
				"datatype": "collection",
				"name": "eventobject"
			}
		],
		"contextObj": {
			"type": "forms",
			"platform": "",
			"KUID": "f7755a408d7f4e87ab530630a58057c3",
			"name": "frmCustomerAccountsDetails"
		},
		"language": "js",
		"actions": [
			{
				"id": "INVOKE_FUNCTION__b4ed2e23b9ae48f199be4eea7d3d0847",
				"type": "INVOKE_FUNCTION",
				"sequenceKUID": "onClickBtnHelp",
				"display": "onClickBtnHelp",
				"inputparams": [],
				"parentId": null,
				"disabled": null,
				"source": "controller"
			}
		]
	}
}