{
	"AS_UWI_b7da5a251fac4ab0a3f9940d5ff973fa": {
		"id": "AS_UWI_b7da5a251fac4ab0a3f9940d5ff973fa",
		"type": "ACTION_SEQUENCE",
		"params": [
			{
				"datatype": "collection",
				"name": "eventobject"
			}
		],
		"contextObj": {
			"type": "forms",
			"platform": "",
			"KUID": "e2ae0f366871480594ee5ea9d179cb4b",
			"name": "frmDisburse"
		},
		"language": "js",
		"actions": [
			{
				"id": "INVOKE_FUNCTION__faeb5d9159dc4d8191d61f86dba93749",
				"type": "INVOKE_FUNCTION",
				"sequenceKUID": "onClickBtnHelp",
				"display": "onClickBtnHelp",
				"inputparams": [],
				"parentId": null,
				"disabled": null,
				"source": "controller"
			}
		]
	}
}