{
    "@class": "com.kony.gen.viz.model.component.KVizButton",
    "DNDConfig": null,
    "_height_": {
        "type": "string",
        "value": "40dp"
    },
    "_left_": {
        "type": "string",
        "value": "616dp"
    },
    "_margin_": [
        6,
        6,
        6,
        6
    ],
    "_padding_": [
        0,
        0,
        0,
        0
    ],
    "_skin_": "scf2cdac43da48a3bc884b6b4a39cdca",
    "_text_": "",
    "_top_": {
        "type": "string",
        "value": "28dp"
    },
    "_width_": {
        "type": "string",
        "value": "54dp"
    },
    "canUpdateUI": true,
    "containerId": true,
    "containerweight": 100,
    "contentalignment": 5,
    "displaytext": true,
    "focusskin": "sb47e4be03c74bcc8599b34b76f24950",
    "id": "btnEditClick",
    "info": null,
    "iscustomlayout": false,
    "isvisible": true,
    "kuid": "f702e163be384c878d46f47f7a9fe4f3",
    "name": "kony.ui.Button",
    "parent": "flxBlockingHistoryDetailsResponse",
    "pf": "temBlockingHistoryDetailsResponse",
    "retaincontentalignment": false,
    "retainflexpositionproperties": false,
    "wType": "Button",
    "zindex": 1
}