{
    "@class": "com.kony.gen.viz.model.component.KVizButton",
    "DNDConfig": null,
    "_height_": {
        "type": "string",
        "value": "40dp"
    },
    "_left_": {
        "type": "string",
        "value": "670dp"
    },
    "_margin_": [
        6,
        6,
        6,
        6
    ],
    "_padding_": [
        0,
        0,
        0,
        0
    ],
    "_skin_": "sef909f9d75345f5bad3d9ca973a91fd",
    "_text_": "",
    "_top_": {
        "type": "string",
        "value": "27dp"
    },
    "_width_": {
        "type": "string",
        "value": "50dp"
    },
    "canUpdateUI": true,
    "containerId": true,
    "containerweight": 100,
    "contentalignment": 5,
    "displaytext": true,
    "focusskin": "sb47e4be03c74bcc8599b34b76f24950",
    "id": "btnUnblockClick",
    "info": null,
    "iscustomlayout": false,
    "isvisible": true,
    "kuid": "b3f0d8eba9f14298884f309f28fff50d",
    "name": "kony.ui.Button",
    "parent": "flxBlockingHistoryDetailsResponse",
    "pf": "temBlockingHistoryDetailsResponse",
    "retaincontentalignment": false,
    "retainflexpositionproperties": false,
    "wType": "Button",
    "zindex": 1
}