{
    "DNDConfig": null,
    "_height_": {
        "type": "string",
        "value": "65dp"
    },
    "_left_": {
        "type": "string",
        "value": "0dp"
    },
    "_margin_": [
        0,
        0,
        0,
        0
    ],
    "_orientation_": 6,
    "_padding_": [
        0,
        0,
        0,
        0
    ],
    "_percent_": true,
    "_skin_": "se31956b9efb4cdeb803f81ffb1335e2",
    "_top_": {
        "type": "string",
        "value": "0dp"
    },
    "_width_": {
        "type": "string",
        "value": "100%"
    },
    "allboxes": [],
    "autogrowmode": 0,
    "canUpdateUI": true,
    "children": [
        "lblRefNoTitle",
        "lblStartDateTitle",
        "lblToDateTitle",
        "lblAmountTitle",
        "lblReasonTitle",
        "btnEditClick",
        "btnUnblockClick"
    ],
    "clipbounds": true,
    "containerId": true,
    "containerweight": 100,
    "controllerInfo": {
        "default": {
            "channel": "desktop",
            "name": "flxBlockingHistoryDetailsResponseController"
        }
    },
    "enablescrolling": true,
    "id": "flxBlockingHistoryDetailsResponse",
    "info": null,
    "isTemplate": true,
    "iscustomlayout": false,
    "ismodalcontainer": false,
    "isvisible": true,
    "kuid": "ff0c5152b9804049951841b4b501d798",
    "layouttype": 2,
    "name": "kony.ui.FlexContainer",
    "parent": "temBlockingHistoryDetailsResponse",
    "pf": "temBlockingHistoryDetailsResponse",
    "retaincontentalignment": false,
    "retainflexpositionproperties": false,
    "retainflowhorizontalalignment": false,
    "snapgridsize": 10,
    "snaptogrid": true,
    "wType": "FlexContainer",
    "widgetalignment": 1
}