{
    "@class": "com.kony.gen.viz.model.component.KVizCustom",
    "DNDConfig": null,
    "_height_": {
        "type": "string",
        "value": "56dp"
    },
    "_left_": {
        "type": "string",
        "value": "371dp"
    },
    "_margin_": [
        0,
        0,
        0,
        0
    ],
    "_padding_": [
        0,
        0,
        0,
        0
    ],
    "_top_": {
        "type": "string",
        "value": "120px"
    },
    "_width_": {
        "type": "string",
        "value": "275dp"
    },
    "android": {
        "render": false
    },
    "androidwearos": {
        "render": false
    },
    "canUpdateUI": true,
    "clipbounds": true,
    "containerweight": 0,
    "customProperties": {
        "dense": true,
        "disabled": false,
        "fieldType": {
            "optionsList": [
                "text",
                "search",
                "tel",
                "url",
                "email",
                "password",
                "date",
                "month",
                "week",
                "time",
                "datetime-local",
                "number"
            ],
            "selectedValue": "text"
        },
        "iconButtonIcon": "",
        "labelText": "First Name",
        "maxLength": 35,
        "showIconButtonTrailing": false,
        "showIconButtonTrailingWithValue": false,
        "validateRequired": "required",
        "validationMessage": "",
        "value": ""
    },
    "cwEvents": [
        "valueChanged",
        "isValid",
        "onKeyDown",
        "onKeyUp"
    ],
    "cwid": "cwa42be51691834e0eba953697bbf896b3",
    "desktopweb": {
        "zIndex": "auto"
    },
    "id": "custFirstName",
    "info": null,
    "ipad": {
        "render": false
    },
    "iphone": {
        "render": false
    },
    "iscustomlayout": false,
    "isvisible": true,
    "kiosk": {
        "render": false
    },
    "kuid": "fd88d9e13a5149d480d54e8079975108",
    "name": "uuxTextField-kony.ui",
    "nameSpaceIndex": 0,
    "parent": "flxCustomerDetails",
    "pf": "frmCustomerCreation",
    "platformKey": "spa",
    "retaincontentalignment": false,
    "retainflexpositionproperties": false,
    "tabrcandroid": {
        "render": false
    },
    "wType": "TPW",
    "watchos": {
        "render": false
    },
    "widgetIndex": 22,
    "windows10": {
        "render": false
    },
    "windows8": {
        "render": false
    },
    "winphone10": {
        "render": false
    },
    "winphone8": {
        "render": false
    },
    "zindex": 1
}