{
    "DNDConfig": null,
    "_height_": {
        "type": "string",
        "value": "1dp"
    },
    "_left_": {
        "type": "string",
        "value": "150dp"
    },
    "_margin_": [
        0,
        0,
        0,
        0
    ],
    "_orientation_": 6,
    "_padding_": [
        0,
        0,
        0,
        0
    ],
    "_percent_": true,
    "_skin_": "s5d2f4462bc844dfa9118c44a2d8279c",
    "_top_": {
        "type": "string",
        "value": "35dp"
    },
    "_width_": {
        "type": "string",
        "value": "870dp"
    },
    "allboxes": [],
    "autogrowmode": 0,
    "canUpdateUI": true,
    "children": [],
    "clipbounds": true,
    "containerweight": 100,
    "desktopweb": {
        "zIndex": "auto"
    },
    "enablescrolling": true,
    "id": "flxContactDtls",
    "info": null,
    "iscustomlayout": false,
    "isvisible": false,
    "kuid": "a03baabe950749c0b1f1f01a8d65ff98",
    "layouttype": 2,
    "name": "kony.ui.FlexContainer",
    "parent": "flxContactDetails",
    "pf": "frmCustomerCreation",
    "retaincontentalignment": false,
    "retainflexpositionproperties": false,
    "retainflowhorizontalalignment": false,
    "snapgridsize": 10,
    "snaptogrid": true,
    "wType": "FlexContainer",
    "widgetalignment": 1,
    "zindex": 1
}