{
    "DNDConfig": null,
    "_height_": {
        "type": "number",
        "value": "1022"
    },
    "_left_": {
        "type": "string",
        "value": "0dp"
    },
    "_margin_": [
        0,
        0,
        0,
        0
    ],
    "_orientation_": 6,
    "_padding_": [
        0,
        0,
        0,
        0
    ],
    "_percent_": true,
    "_skin_": "s836d429d3b84460b5c4d7ab0ff5adbf",
    "_top_": {
        "type": "string",
        "value": "72dp"
    },
    "_width_": {
        "type": "string",
        "value": "1000dp"
    },
    "allboxes": [],
    "autogrowmode": 0,
    "canUpdateUI": true,
    "centerx": {
        "type": "string",
        "value": "50%"
    },
    "children": [
        "flxBasicDetails",
        "flxContactDetails",
        "flxEmployeementDetails",
        "flxOtherDetials",
        "custTitleDropDown",
        "custFirstName",
        "custLastName",
        "custAlternateRefName",
        "custGenderDropDown",
        "custDateOfBirth",
        "custNationalityDropDown",
        "custResidenceDropDown",
        "custEmail",
        "custPhoneNumber",
        "custStreet",
        "custAddress",
        "custTown",
        "custCityTextField",
        "custCountryDropDown",
        "custPostalCode",
        "custEmploymentStatusDropDown",
        "custEmployersName",
        "custAccountOfficerDropDown",
        "custSectorDropDown",
        "flxCustButtons"
    ],
    "clipbounds": true,
    "containerweight": 100,
    "desktopweb": {
        "zIndex": "auto"
    },
    "enablescrolling": true,
    "id": "flxCustomerDetails",
    "info": null,
    "iscustomlayout": false,
    "isvisible": true,
    "kuid": "ha4ca24585744f56a587a1e88abb4d69",
    "layouttype": 2,
    "name": "kony.ui.FlexContainer",
    "parent": "flxMainContainer",
    "pf": "frmCustomerCreation",
    "retaincontentalignment": false,
    "retainflexpositionproperties": false,
    "retainflowhorizontalalignment": false,
    "snapgridsize": 10,
    "snaptogrid": true,
    "wType": "FlexContainer",
    "widgetalignment": 1,
    "zindex": 1
}