{
    "@class": "com.kony.gen.viz.model.component.KVizListBox",
    "DNDConfig": null,
    "_height_": {
        "type": "string",
        "value": "60dp"
    },
    "_left_": {
        "type": "string",
        "value": "71dp"
    },
    "_margin_": [
        0,
        0,
        0,
        0
    ],
    "_padding_": [
        3,
        0,
        0,
        0
    ],
    "_placeholder_": "Please Select",
    "_skin_": "s83124a4df144b2dac326dd569e32298",
    "_top_": {
        "type": "string",
        "value": "210dp"
    },
    "_width_": {
        "type": "string",
        "value": "275dp"
    },
    "canUpdateUI": true,
    "containerweight": 100,
    "contentalignment": 4,
    "desktopweb": {
        "psp": {
            "multiple": false
        },
        "zIndex": "auto"
    },
    "focusskin": "s6459b4e1e854d2ebfa3bf2b0a69365f",
    "groupcells": false,
    "id": "nationalityDropDownList",
    "info": null,
    "iscustomlayout": false,
    "isvisible": false,
    "kiosk": {
        "psp": {
            "placeholder": "Nationality",
            "toolTip": ""
        }
    },
    "kuid": "f9c2b3f1d2fc4f93a29cdcf40369c448",
    "masterdata": [
        [
            "lb1",
            "Placeholder One"
        ],
        [
            "lb2",
            "Placeholder Two"
        ],
        [
            "lb3",
            "Placeholder Three"
        ]
    ],
    "multiselect": false,
    "name": "kony.ui.ListBox",
    "parent": "flxBasicDetails",
    "pf": "frmCustomerCreation",
    "retaincontentalignment": false,
    "retainflexpositionproperties": false,
    "selectedkey": null,
    "selectedkeys": null,
    "selectedkeyvalue": null,
    "selectedkeyvalues": null,
    "size": 18,
    "viewconfig": {
        "toggleViewConfig": {
            "viewStyle": 0
        }
    },
    "viewtype": 0,
    "wType": "ListBox",
    "zindex": 1
}