{
    "@class": "com.kony.gen.viz.model.component.KVizListBox",
    "DNDConfig": null,
    "_height_": {
        "type": "string",
        "value": "60dp"
    },
    "_left_": {
        "type": "string",
        "value": "400dp"
    },
    "_margin_": [
        0,
        0,
        0,
        0
    ],
    "_padding_": [
        3,
        0,
        0,
        0
    ],
    "_placeholder_": "Please Select",
    "_skin_": "s83124a4df144b2dac326dd569e32298",
    "_top_": {
        "type": "string",
        "value": "40dp"
    },
    "_width_": {
        "type": "string",
        "value": "275dp"
    },
    "canUpdateUI": true,
    "containerweight": 100,
    "contentalignment": 4,
    "desktopweb": {
        "zIndex": "auto"
    },
    "focusskin": "s6459b4e1e854d2ebfa3bf2b0a69365f",
    "groupcells": false,
    "id": "sectorListDropDown",
    "info": null,
    "iscustomlayout": false,
    "isvisible": false,
    "kiosk": {
        "psp": {
            "placeholder": "Sector"
        }
    },
    "kuid": "i12f0777d4a740ae8e231d69b60e7bfc",
    "masterdata": [
        [
            "1001",
            "Individual"
        ],
        [
            "1002",
            "Staff"
        ],
        [
            "1003",
            "High Networth"
        ],
        [
            "1004",
            "Director"
        ],
        [
            "1005",
            "Principal Shareholder"
        ],
        [
            "1006",
            "Executive Officer"
        ],
        [
            "1007",
            "Director (Employee)"
        ],
        [
            "1008",
            "Principal Shareholder (Employee)"
        ],
        [
            "1009",
            "Individuals with entrepreneurial activity (Self-employed"
        ],
        [
            "1010",
            "Executive Officer (Employee)"
        ],
        [
            "9000",
            "Others"
        ]
    ],
    "name": "kony.ui.ListBox",
    "parent": "flxOtherDetials",
    "pf": "frmCustomerCreation",
    "retaincontentalignment": false,
    "retainflexpositionproperties": false,
    "selectedkeys": null,
    "selectedkeyvalue": null,
    "selectedkeyvalues": null,
    "size": 18,
    "viewconfig": {
        "toggleViewConfig": {
            "viewStyle": 0
        }
    },
    "viewtype": 0,
    "wType": "ListBox",
    "zindex": 1
}