{
    "@class": "com.kony.gen.viz.model.component.KVizListBox",
    "DNDConfig": null,
    "_height_": {
        "type": "string",
        "value": "100%"
    },
    "_left_": {
        "type": "string",
        "value": "0dp"
    },
    "_margin_": [
        0,
        0,
        0,
        0
    ],
    "_padding_": [
        10,
        0,
        1,
        0
    ],
    "_placeholder_": "Please Select",
    "_skin_": "sddf77c1bb3e451292e5032bb17de594",
    "_top_": {
        "type": "string",
        "value": "0dp"
    },
    "_width_": {
        "type": "string",
        "value": "100%"
    },
    "canUpdateUI": true,
    "containerId": true,
    "containerweight": 100,
    "contentalignment": 4,
    "focusskin": "s6459b4e1e854d2ebfa3bf2b0a69365f",
    "groupcells": false,
    "id": "CopyListBox0i4da39afd4404c",
    "info": null,
    "iscustomlayout": false,
    "isvisible": true,
    "kiosk": {
        "psp": {
            "placeholder": "Payment Amount"
        }
    },
    "kuid": "j635117d5fbf419892c5c99c8a31df31",
    "masterdata": [
        [
            "lb1",
            "Payment Amount"
        ],
        [
            "lb2",
            "Term"
        ]
    ],
    "name": "kony.ui.ListBox",
    "paddinginpixel": false,
    "parent": "flxRecalculate",
    "pf": "TempAccountsRow",
    "retaincontentalignment": false,
    "retainflexpositionproperties": false,
    "selectedkeys": null,
    "selectedkeyvalue": null,
    "selectedkeyvalues": null,
    "size": 18,
    "viewconfig": {
        "toggleViewConfig": {
            "viewStyle": 0
        }
    },
    "viewtype": 0,
    "wType": "ListBox",
    "zindex": 1
}