{
    "@class": "com.kony.gen.viz.model.component.KVizButton",
    "DNDConfig": null,
    "_height_": {
        "type": "string",
        "value": "50%"
    },
    "_margin_": [
        6,
        6,
        6,
        6
    ],
    "_padding_": [
        0,
        0,
        0,
        0
    ],
    "_right_": {
        "type": "string",
        "value": "60px"
    },
    "_skin_": "s55e2ef454724c5fb0f63dcdc9efe1dd",
    "_text_": "Button",
    "_top_": {
        "type": "string",
        "value": "0px"
    },
    "_width_": {
        "type": "string",
        "value": "50px"
    },
    "canUpdateUI": true,
    "centery": {
        "type": "string",
        "value": "50%"
    },
    "containerweight": 100,
    "contentalignment": 5,
    "displaytext": true,
    "focusskin": "sb47e4be03c74bcc8599b34b76f24950",
    "id": "btnprint",
    "info": null,
    "iscustomlayout": false,
    "isvisible": true,
    "kuid": "f025ff50605847618032ae14eb12abff",
    "name": "kony.ui.Button",
    "parent": "flxheader",
    "pf": "frmpopups",
    "retaincontentalignment": false,
    "retainflexpositionproperties": false,
    "wType": "Button",
    "zindex": 1
}