{
    "@class": "com.kony.gen.viz.model.component.KVizButton",
    "DNDConfig": null,
    "_height_": {
        "type": "string",
        "value": "44dp"
    },
    "_left_": {
        "type": "string",
        "value": "2%"
    },
    "_margin_": [
        6,
        6,
        6,
        6
    ],
    "_padding_": [
        0,
        0,
        0,
        0
    ],
    "_skin_": "s129a56ded704a2abb98d46d5eceb3f5",
    "_text_": "",
    "_top_": {
        "type": "string",
        "value": "0dp"
    },
    "_width_": {
        "type": "string",
        "value": "44px"
    },
    "canUpdateUI": true,
    "containerweight": 100,
    "contentalignment": 5,
    "displaytext": true,
    "focusskin": "sb47e4be03c74bcc8599b34b76f24950",
    "id": "btnSelect4",
    "info": null,
    "iscustomlayout": false,
    "isvisible": true,
    "kuid": "ia25e7a78d3540499cd060d2f8a110c0",
    "name": "kony.ui.Button",
    "parent": "flxrow4",
    "pf": "frmpopups",
    "retaincontentalignment": false,
    "retainflexpositionproperties": false,
    "wType": "Button",
    "zindex": 1
}