{
    "DNDConfig": null,
    "_height_": {
        "type": "string",
        "value": "220px"
    },
    "_left_": {
        "type": "string",
        "value": "5px"
    },
    "_margin_": [
        0,
        0,
        0,
        0
    ],
    "_orientation_": 6,
    "_padding_": [
        0,
        0,
        0,
        0
    ],
    "_percent_": true,
    "_skin_": "s9c2c33c226e4de68998e15c1dc138ea",
    "_top_": {
        "type": "string",
        "value": "0px"
    },
    "_width_": {
        "type": "string",
        "value": "38%"
    },
    "allboxes": [],
    "autogrowmode": 0,
    "canUpdateUI": true,
    "children": [
        "btnViewDocuments",
        "lblFullDetails",
        "lblmessage"
    ],
    "clipbounds": false,
    "containerweight": 100,
    "enablescrolling": true,
    "id": "flxpop1",
    "info": null,
    "iscustomlayout": false,
    "isvisible": true,
    "kuid": "id9f6cba60314419908f8cbf705275c9",
    "layouttype": 2,
    "name": "kony.ui.FlexContainer",
    "parent": "frmpopups",
    "pf": "frmpopups",
    "retaincontentalignment": false,
    "retainflexpositionproperties": false,
    "retainflowhorizontalalignment": false,
    "snapgridsize": 10,
    "snaptogrid": true,
    "wType": "FlexContainer",
    "widgetalignment": 1,
    "zindex": 1
}