{
	"AS_Button_h41b250f9e374a7fb212b13119f51b7a": {
		"id": "AS_Button_h41b250f9e374a7fb212b13119f51b7a",
		"type": "ACTION_SEQUENCE",
		"params": [
			{
				"datatype": "collection",
				"name": "eventobject"
			}
		],
		"contextObj": {
			"type": "userwidgets",
			"KUID": "u0af84559ceb45308c21052cc277371f",
			"name": "uwu0af84559ceb45308c21052cc277371f"
		},
		"language": "js",
		"actions": [
			{
				"id": "INVOKE_FUNCTION__ide_onClick_g229476204024f209a37741b51e99932",
				"type": "INVOKE_FUNCTION",
				"sequenceKUID": "selectedServiceType",
				"display": "selectedServiceType",
				"inputparams": [
					{
						"name": "context",
						"value": "eventobject.text"
					}
				],
				"callbackType": null,
				"disabled": null,
				"source": "controller"
			}
		]
	}
}