{
	"AS_Button_gb211ccc462d48ee942a2bf2659d5a28": {
		"id": "AS_Button_gb211ccc462d48ee942a2bf2659d5a28",
		"type": "ACTION_SEQUENCE",
		"params": [
			{
				"datatype": "collection",
				"name": "eventobject"
			}
		],
		"contextObj": {
			"type": "userwidgets",
			"KUID": "u345529b30bd494d88cc8737ad4ed178",
			"name": "uwu345529b30bd494d88cc8737ad4ed178"
		},
		"language": "js",
		"actions": [
			{
				"id": "INVOKE_FUNCTION__be2dfefacd594e99bdbca1db94cd658e",
				"type": "INVOKE_FUNCTION",
				"sequenceKUID": "closeHelp",
				"display": "closeHelp",
				"inputparams": [],
				"parentId": null,
				"callbackType": null,
				"disabled": null,
				"source": "controller"
			}
		]
	}
}