{
	"AS_Button_g2dca9a2f31744e590333105cec65f66": {
		"id": "AS_Button_g2dca9a2f31744e590333105cec65f66",
		"type": "ACTION_SEQUENCE",
		"params": [
			{
				"datatype": "collection",
				"name": "eventobject"
			}
		],
		"contextObj": {
			"type": "userwidgets",
			"KUID": "u0af84559ceb45308c21052cc277371f",
			"name": "uwu0af84559ceb45308c21052cc277371f"
		},
		"language": "js",
		"actions": [
			{
				"id": "INVOKE_FUNCTION__e0a4debb16ed42d8bfe4bda7471e1f55",
				"type": "INVOKE_FUNCTION",
				"sequenceKUID": "loanServicesHome",
				"display": "loanServicesHome",
				"inputparams": [],
				"parentId": null,
				"callbackType": null,
				"disabled": null,
				"source": "controller"
			}
		]
	}
}