{
	"AS_Button_d7b96f0d523e4992a759010fb2db87ba": {
		"id": "AS_Button_d7b96f0d523e4992a759010fb2db87ba",
		"type": "ACTION_SEQUENCE",
		"params": [
			{
				"datatype": "collection",
				"name": "eventobject"
			}
		],
		"contextObj": {
			"type": "userwidgets",
			"KUID": "u0af84559ceb45308c21052cc277371f",
			"name": "uwu0af84559ceb45308c21052cc277371f"
		},
		"language": "js",
		"actions": [
			{
				"id": "INVOKE_FUNCTION__f15b39e0e05940da903811454e9a6f90",
				"type": "INVOKE_FUNCTION",
				"sequenceKUID": "helpServiceType",
				"display": "helpServiceType",
				"inputparams": [
					{
						"name": "serviceArr",
						"value": " eventobject.id"
					}
				],
				"parentId": null,
				"callbackType": null,
				"disabled": null,
				"source": "controller"
			}
		]
	}
}