{
	"AS_Button_ca5647f3ac24432caf1db8b764acd1e3": {
		"id": "AS_Button_ca5647f3ac24432caf1db8b764acd1e3",
		"type": "ACTION_SEQUENCE",
		"params": [
			{
				"datatype": "collection",
				"name": "eventobject"
			}
		],
		"contextObj": {
			"type": "userwidgets",
			"KUID": "u345529b30bd494d88cc8737ad4ed178",
			"name": "uwu345529b30bd494d88cc8737ad4ed178"
		},
		"language": "js",
		"actions": [
			{
				"id": "INVOKE_FUNCTION__ide_onClick_bd4834714365442abeff2504045540b3",
				"type": "INVOKE_FUNCTION",
				"sequenceKUID": "btnStart",
				"display": "btnStart",
				"inputparams": [],
				"callbackType": null,
				"disabled": null,
				"source": "controller"
			}
		]
	}
}