{
	"AS_Button_a400d28c4fb044a8b46444a580abf4d0": {
		"id": "AS_Button_a400d28c4fb044a8b46444a580abf4d0",
		"type": "ACTION_SEQUENCE",
		"params": [
			{
				"datatype": "collection",
				"name": "eventobject"
			}
		],
		"contextObj": {
			"type": "userwidgets",
			"KUID": "u29d5c740eb2485e946d62c201e61558",
			"name": "uwu29d5c740eb2485e946d62c201e61558"
		},
		"language": "js",
		"actions": [
			{
				"id": "ADD_SNIPPET_c75286c757c34f7ebb3c80585e28ce45",
				"type": "ADD_SNIPPET",
				"codeSnippet": "this.view.isVisible = false;",
				"parentId": null
			}
		]
	}
}