{
	"AS_Button_f44e332a93af4fad874a55484222a065": {
		"id": "AS_Button_f44e332a93af4fad874a55484222a065",
		"type": "ACTION_SEQUENCE",
		"params": [
			{
				"datatype": "collection",
				"name": "eventobject"
			}
		],
		"contextObj": {
			"type": "userwidgets",
			"KUID": "u0af84559ceb45308c21052cc277371f",
			"name": "uwu0af84559ceb45308c21052cc277371f"
		},
		"language": "js",
		"actions": [
			{
				"id": "INVOKE_FUNCTION__hcc30a7d7ec946878462aaa56aea19a9",
				"type": "INVOKE_FUNCTION",
				"sequenceKUID": "selectedServiceType",
				"display": "selectedServiceType",
				"inputparams": [
					{
						"name": "context",
						"value": " eventobject.text"
					}
				],
				"parentId": null,
				"callbackType": null,
				"disabled": null,
				"source": "controller"
			}
		]
	}
}