{
	"AS_Button_d59462caa3844de598357c8c69b3cb69": {
		"id": "AS_Button_d59462caa3844de598357c8c69b3cb69",
		"type": "ACTION_SEQUENCE",
		"params": [
			{
				"datatype": "collection",
				"name": "eventobject"
			}
		],
		"contextObj": {
			"name": "uwu0af84559ceb45308c21052cc277371f",
			"type": "userwidgets",
			"KUID": "u0af84559ceb45308c21052cc277371f"
		},
		"language": "js",
		"actions": [
			{
				"id": "INVOKE_FUNCTION__hd1e15d9cb1a46a7bc78c3f262e2f2fe",
				"type": "INVOKE_FUNCTION",
				"sequenceKUID": "onClickBckShowMore",
				"display": "onClickBckShowMore",
				"inputparams": [],
				"parentId": null,
				"callbackType": null,
				"disabled": null,
				"source": "controller"
			}
		]
	}
}