{
	"AS_FlexContainer_d7d210c825054cf98d76d91004db043a": {
		"id": "AS_FlexContainer_d7d210c825054cf98d76d91004db043a",
		"type": "ACTION_SEQUENCE",
		"params": [
			{
				"datatype": "collection",
				"name": "eventobject"
			}
		],
		"contextObj": {
			"type": "userwidgets",
			"KUID": "u0af84559ceb45308c21052cc277371f",
			"name": "uwu0af84559ceb45308c21052cc277371f"
		},
		"language": "js",
		"actions": [
			{
				"id": "ADD_SNIPPET_ef290661bed34c6eb642a3eff41d2223",
				"type": "ADD_SNIPPET",
				"codeSnippet": "this.view.flxSeg.isVisible = false;",
				"parentId": null
			}
		]
	}
}