{
	"AS_FlexContainer_i6283148b29b4e3c8748af843e2d1fb0": {
		"id": "AS_FlexContainer_i6283148b29b4e3c8748af843e2d1fb0",
		"type": "ACTION_SEQUENCE",
		"params": [
			{
				"datatype": "collection",
				"name": "eventobject"
			}
		],
		"contextObj": {
			"type": "userwidgets",
			"KUID": "u0af84559ceb45308c21052cc277371f",
			"name": "uwu0af84559ceb45308c21052cc277371f"
		},
		"language": "js",
		"actions": [
			{
				"id": "INVOKE_FUNCTION__e27faf458efe4fd792996358d6a51317",
				"type": "INVOKE_FUNCTION",
				"sequenceKUID": "expandFunc2",
				"display": "expandFunc2",
				"inputparams": [],
				"parentId": null,
				"callbackType": null,
				"disabled": null,
				"source": "controller"
			}
		]
	}
}