{
	"AS_FlexContainer_fc5cde83c40345d59f128a0538d064d0": {
		"id": "AS_FlexContainer_fc5cde83c40345d59f128a0538d064d0",
		"type": "ACTION_SEQUENCE",
		"params": [
			{
				"datatype": "collection",
				"name": "eventobject"
			}
		],
		"contextObj": {
			"type": "userwidgets",
			"KUID": "u0af84559ceb45308c21052cc277371f",
			"name": "uwu0af84559ceb45308c21052cc277371f"
		},
		"language": "js",
		"actions": [
			{
				"id": "ADD_SNIPPET_j67ea81be29245fb8e398cc207ab21bd",
				"type": "ADD_SNIPPET",
				"codeSnippet": "this.view.isVisible = false;\n\nthis.view.flxServices.isVisible = true;\nthis.view.flxBottom.isVisible = false;\nthis.view.flxServiceType.isVisible = false;\nthis.view.flxSeg.isVisible = false;\nthis.view.flxLoan.skin = \"sknFlxTypeUnselect\";\nthis.view.lblBreadBoardSplashValue.isVisible = false;\nthis.view.lblBreadBoardSplashValue1.isVisible = false;\nthis.view.lblPath.isVisible = false;\nthis.view.flxServices.isVisible = true;\nthis.view.lblLoanServices.isVisible = false;\nthis.view.txtPartialText.text = \"\";\nthis.view.clearSearch.isVisible = false;\nthis.view.lblSearchIcon.isVisible = true;\n//this.view.rtxSelected.isVisible = false;",
				"parentId": null
			}
		]
	}
}