{
	"AS_FlexContainer_c2deb240c8a941598a9f97f7ed2e64f2": {
		"id": "AS_FlexContainer_c2deb240c8a941598a9f97f7ed2e64f2",
		"type": "ACTION_SEQUENCE",
		"params": [
			{
				"datatype": "collection",
				"name": "eventobject"
			}
		],
		"contextObj": {
			"type": "userwidgets",
			"KUID": "u0af84559ceb45308c21052cc277371f",
			"name": "uwu0af84559ceb45308c21052cc277371f"
		},
		"language": "js",
		"actions": [
			{
				"id": "INVOKE_FUNCTION__cd56630022ad4bd288b21e46d118f8d8",
				"type": "INVOKE_FUNCTION",
				"sequenceKUID": "expandFunc3",
				"display": "expandFunc3",
				"inputparams": [],
				"parentId": null,
				"callbackType": null,
				"disabled": null,
				"source": "controller"
			}
		]
	}
}