{
	"AS_FlexContainer_f2df1befbb2c462ea205c7061ea7e186": {
		"id": "AS_FlexContainer_f2df1befbb2c462ea205c7061ea7e186",
		"type": "ACTION_SEQUENCE",
		"params": [
			{
				"datatype": "collection",
				"name": "eventobject"
			}
		],
		"contextObj": {
			"type": "userwidgets",
			"KUID": "u0af84559ceb45308c21052cc277371f",
			"name": "uwu0af84559ceb45308c21052cc277371f"
		},
		"language": "js",
		"actions": [
			{
				"id": "INVOKE_FUNCTION__d383c2b48680498f978e648a87d9c0d4",
				"type": "INVOKE_FUNCTION",
				"sequenceKUID": "expandFunc4",
				"display": "expandFunc4",
				"inputparams": [],
				"parentId": null,
				"callbackType": null,
				"disabled": null,
				"source": "controller"
			}
		]
	}
}