{
	"AS_FlexContainer_jab0b7944625463ab8d4906fc027d099": {
		"id": "AS_FlexContainer_jab0b7944625463ab8d4906fc027d099",
		"type": "ACTION_SEQUENCE",
		"params": [
			{
				"datatype": "collection",
				"name": "eventobject"
			}
		],
		"contextObj": {
			"type": "userwidgets",
			"KUID": "u0af84559ceb45308c21052cc277371f",
			"name": "uwu0af84559ceb45308c21052cc277371f"
		},
		"language": "js",
		"actions": [
			{
				"id": "INVOKE_FUNCTION__ab02ab6249604a3e83a1612d4f9271ef",
				"type": "INVOKE_FUNCTION",
				"sequenceKUID": "helpServiceType",
				"display": "helpServiceType",
				"inputparams": [
					{
						"name": "serviceArr",
						"value": " eventobject.id"
					}
				],
				"parentId": null,
				"callbackType": null,
				"disabled": null,
				"source": "controller"
			}
		]
	}
}