{
	"AS_FlexContainer_b90cf040ffb24068b41a04d6b9460e67": {
		"id": "AS_FlexContainer_b90cf040ffb24068b41a04d6b9460e67",
		"type": "ACTION_SEQUENCE",
		"params": [
			{
				"datatype": "collection",
				"name": "eventobject"
			}
		],
		"contextObj": {
			"KUID": "u4b568eb14c94da7ae1eb48f4fcb76b9",
			"type": "userwidgets",
			"name": "uwu4b568eb14c94da7ae1eb48f4fcb76b9"
		},
		"language": "js",
		"actions": [
			{
				"id": "INVOKE_FUNCTION__c2a1d83b0d124535907a07422f490d7b",
				"type": "INVOKE_FUNCTION",
				"sequenceKUID": "setCustomerValuesFromCache",
				"display": "setCustomerValuesFromCache",
				"inputparams": [],
				"parentId": null,
				"callbackType": null,
				"disabled": null,
				"source": "controller"
			}
		]
	}
}