{
	"AS_FlexContainer_dabf37e277154466a7e75d212c009432": {
		"id": "AS_FlexContainer_dabf37e277154466a7e75d212c009432",
		"type": "ACTION_SEQUENCE",
		"params": [
			{
				"datatype": "collection",
				"name": "eventobject"
			}
		],
		"contextObj": {
			"type": "userwidgets",
			"KUID": "u0af84559ceb45308c21052cc277371f",
			"name": "uwu0af84559ceb45308c21052cc277371f"
		},
		"language": "js",
		"actions": [
			{
				"id": "INVOKE_FUNCTION__ae161da7b63a45ad81e8b1ec3d37ee45",
				"type": "INVOKE_FUNCTION",
				"sequenceKUID": "onClickBckShowMore",
				"display": "onClickBckShowMore",
				"inputparams": [],
				"parentId": null,
				"callbackType": null,
				"disabled": null,
				"source": "controller"
			}
		]
	}
}