{
	"AS_FlexContainer_e32b43c9bb594377888ca4eb51c2b3a3": {
		"id": "AS_FlexContainer_e32b43c9bb594377888ca4eb51c2b3a3",
		"type": "ACTION_SEQUENCE",
		"params": [
			{
				"datatype": "collection",
				"name": "eventobject"
			}
		],
		"contextObj": {
			"type": "userwidgets",
			"KUID": "u0af84559ceb45308c21052cc277371f",
			"name": "uwu0af84559ceb45308c21052cc277371f"
		},
		"language": "js",
		"actions": [
			{
				"id": "INVOKE_FUNCTION__cfc115715c4a4e69b6d7263a0490d171",
				"type": "INVOKE_FUNCTION",
				"sequenceKUID": "helpServiceType",
				"display": "helpServiceType",
				"inputparams": [
					{
						"name": "serviceArr",
						"value": " eventobject.id"
					}
				],
				"parentId": null,
				"callbackType": null,
				"disabled": null,
				"source": "controller"
			}
		]
	}
}