{
	"AS_FlexContainer_cb20c973e91b4730806650c7d0361ea1": {
		"id": "AS_FlexContainer_cb20c973e91b4730806650c7d0361ea1",
		"type": "ACTION_SEQUENCE",
		"params": [
			{
				"datatype": "collection",
				"name": "eventobject"
			}
		],
		"contextObj": {
			"type": "userwidgets",
			"KUID": "u0af84559ceb45308c21052cc277371f",
			"name": "uwu0af84559ceb45308c21052cc277371f"
		},
		"language": "js",
		"actions": [
			{
				"id": "INVOKE_FUNCTION__d7ccae8f72ab4570a871e41fa309cf83",
				"type": "INVOKE_FUNCTION",
				"sequenceKUID": "helpServiceType",
				"display": "helpServiceType",
				"inputparams": [
					{
						"name": "serviceArr",
						"value": " eventobject.id"
					}
				],
				"parentId": null,
				"callbackType": null,
				"disabled": null,
				"source": "controller"
			}
		]
	}
}