{
	"AS_FlexContainer_f64322d561434f988f6cd120ab7ca2f6": {
		"id": "AS_FlexContainer_f64322d561434f988f6cd120ab7ca2f6",
		"type": "ACTION_SEQUENCE",
		"params": [
			{
				"datatype": "collection",
				"name": "eventobject"
			}
		],
		"contextObj": {
			"type": "userwidgets",
			"KUID": "u0af84559ceb45308c21052cc277371f",
			"name": "uwu0af84559ceb45308c21052cc277371f"
		},
		"language": "js",
		"actions": [
			{
				"id": "INVOKE_FUNCTION__a131c93334b34d06b1cd81c05178c836",
				"type": "INVOKE_FUNCTION",
				"sequenceKUID": "ques2",
				"display": "ques2",
				"inputparams": [],
				"parentId": null,
				"callbackType": null,
				"disabled": null,
				"source": "controller"
			}
		]
	}
}