{
	"AS_Image_aef243a1ac1b4348b174203156b5d486": {
		"id": "AS_Image_aef243a1ac1b4348b174203156b5d486",
		"type": "ACTION_SEQUENCE",
		"params": [
			{
				"datatype": "collection",
				"name": "eventobject"
			},
			{
				"datatype": "string",
				"name": "x"
			},
			{
				"datatype": "string",
				"name": "y"
			}
		],
		"contextObj": {
			"KUID": "u18f785e92904f94aa67e71acc12709b",
			"type": "userwidgets"
		},
		"language": "js",
		"actions": [
			{
				"id": "ADD_SNIPPET__cc1c03b6d49e49cca84ded815eb7252a",
				"type": "ADD_SNIPPET",
				"codeSnippet": "this.view.FlexContainer.isVisible = false;\nthis.view.forceLayout();",
				"parentId": null,
				"callbackType": null
			}
		]
	}
}