{
	"AS_Label_eeacbcccf79e4cf08418218d20e0bbb6": {
		"id": "AS_Label_eeacbcccf79e4cf08418218d20e0bbb6",
		"type": "ACTION_SEQUENCE",
		"params": [
			{
				"datatype": "collection",
				"name": "eventobject"
			},
			{
				"datatype": "string",
				"name": "x"
			},
			{
				"datatype": "string",
				"name": "y"
			}
		],
		"contextObj": {
			"type": "userwidgets",
			"KUID": "u0af84559ceb45308c21052cc277371f",
			"name": "uwu0af84559ceb45308c21052cc277371f"
		},
		"language": "js",
		"actions": [
			{
				"id": "INVOKE_FUNCTION__f1231feaeb60416aab7e467af646f5e3",
				"type": "INVOKE_FUNCTION",
				"sequenceKUID": "helpServiceType",
				"display": "helpServiceType",
				"inputparams": [
					{
						"name": "context",
						"value": " eventobject.text"
					}
				],
				"parentId": null,
				"callbackType": null,
				"disabled": null,
				"source": "controller"
			}
		]
	}
}