{
	"AS_Label_cbb50615d2e5401d8db4abdd677b5f2e": {
		"id": "AS_Label_cbb50615d2e5401d8db4abdd677b5f2e",
		"type": "ACTION_SEQUENCE",
		"params": [
			{
				"datatype": "collection",
				"name": "eventobject"
			},
			{
				"datatype": "string",
				"name": "x"
			},
			{
				"datatype": "string",
				"name": "y"
			}
		],
		"contextObj": {
			"type": "userwidgets",
			"KUID": "u0af84559ceb45308c21052cc277371f",
			"name": "uwu0af84559ceb45308c21052cc277371f"
		},
		"language": "js",
		"actions": [
			{
				"id": "INVOKE_FUNCTION__ad42682fb55944e1bfcc45e2b5de1946",
				"type": "INVOKE_FUNCTION",
				"sequenceKUID": "selectedServiceType",
				"display": "selectedServiceType",
				"inputparams": [
					{
						"name": "context",
						"value": " eventobject.text"
					}
				],
				"parentId": null,
				"callbackType": null,
				"disabled": null,
				"source": "controller"
			}
		]
	}
}