{
	"AS_Segment_h637801843614b8698d5a73679e214dc": {
		"id": "AS_Segment_h637801843614b8698d5a73679e214dc",
		"type": "ACTION_SEQUENCE",
		"params": [
			{
				"datatype": "collection",
				"name": "eventobject"
			},
			{
				"datatype": "string",
				"name": "x"
			},
			{
				"datatype": "string",
				"name": "y"
			}
		],
		"contextObj": {
			"type": "userwidgets",
			"KUID": "u0af84559ceb45308c21052cc277371f",
			"name": "uwu0af84559ceb45308c21052cc277371f"
		},
		"language": "js",
		"actions": [
			{
				"id": "INVOKE_FUNCTION__a9ff9c649aea4de593d0db90b7fdf403",
				"type": "INVOKE_FUNCTION",
				"sequenceKUID": "rowClickNav",
				"display": "rowClickNav",
				"inputparams": [],
				"parentId": null,
				"disabled": null,
				"source": "controller"
			}
		]
	}
}