{
	"AS_Segment_f2c98c263ad243c4979dc427a78f58bf": {
		"id": "AS_Segment_f2c98c263ad243c4979dc427a78f58bf",
		"type": "ACTION_SEQUENCE",
		"params": [
			{
				"datatype": "collection",
				"name": "eventobject"
			},
			{
				"datatype": "string",
				"name": "x"
			},
			{
				"datatype": "string",
				"name": "y"
			}
		],
		"contextObj": {
			"type": "userwidgets",
			"KUID": "u0af84559ceb45308c21052cc277371f",
			"name": "uwu0af84559ceb45308c21052cc277371f"
		},
		"language": "js",
		"actions": [
			{
				"id": "INVOKE_FUNCTION__ed01800b48104967ac42633ad1a5ca54",
				"type": "INVOKE_FUNCTION",
				"sequenceKUID": "rowClickNav",
				"display": "rowClickNav",
				"inputparams": [],
				"parentId": null,
				"callbackType": null,
				"disabled": null,
				"source": "controller"
			}
		]
	}
}