{
	"AS_Segment_h2fea222f1ea47fa9f974e95b8947b4d": {
		"id": "AS_Segment_h2fea222f1ea47fa9f974e95b8947b4d",
		"type": "ACTION_SEQUENCE",
		"params": [
			{
				"datatype": "collection",
				"name": "eventobject"
			},
			{
				"datatype": "number",
				"name": "sectionNumber"
			},
			{
				"datatype": "number",
				"name": "rowNumber"
			}
		],
		"contextObj": {
			"type": "userwidgets",
			"KUID": "u0af84559ceb45308c21052cc277371f",
			"name": "uwu0af84559ceb45308c21052cc277371f"
		},
		"language": "js",
		"actions": [
			{
				"id": "INVOKE_FUNCTION__e38346d3263c461e95c3bbcfb65bba2c",
				"type": "INVOKE_FUNCTION",
				"sequenceKUID": "loadSegData",
				"display": "loadSegData",
				"inputparams": [],
				"parentId": null,
				"callbackType": null,
				"disabled": null,
				"source": "controller"
			}
		]
	}
}