{
	"AS_Segment_b938b2f610c14364a84b738719981001": {
		"id": "AS_Segment_b938b2f610c14364a84b738719981001",
		"type": "ACTION_SEQUENCE",
		"params": [
			{
				"datatype": "collection",
				"name": "eventobject"
			},
			{
				"datatype": "number",
				"name": "sectionNumber"
			},
			{
				"datatype": "number",
				"name": "rowNumber"
			}
		],
		"contextObj": {
			"type": "userwidgets",
			"KUID": "u0af84559ceb45308c21052cc277371f",
			"name": "uwu0af84559ceb45308c21052cc277371f"
		},
		"language": "js",
		"actions": [
			{
				"id": "ADD_SNIPPET_b787de045a054fbeb117a261d502c810",
				"type": "ADD_SNIPPET",
				"codeSnippet": "var x = this.view.segServiceTypes.selectedRowItems;\nconsole.log(x);\nvar y = this.view.segServiceTypes.selectedIndices;\nconsole.log(y);\nvar a = this.view.segServiceTypes.selectedRowIndex;\nconsole.log(a);\nvar b = this.view.segServiceTypes.selectedRowIndices;\nconsole.log(b);",
				"parentId": null
			}
		]
	}
}