{
	"AS_Segment_jb4f075d8aa347b39a08eb86280a1904": {
		"id": "AS_Segment_jb4f075d8aa347b39a08eb86280a1904",
		"type": "ACTION_SEQUENCE",
		"params": [
			{
				"datatype": "collection",
				"name": "eventobject"
			},
			{
				"datatype": "number",
				"name": "sectionNumber"
			},
			{
				"datatype": "number",
				"name": "rowNumber"
			}
		],
		"contextObj": {
			"type": "userwidgets",
			"KUID": "u0af84559ceb45308c21052cc277371f",
			"name": "uwu0af84559ceb45308c21052cc277371f"
		},
		"language": "js",
		"actions": [
			{
				"id": "INVOKE_FUNCTION__fb45ad2ac57a4b0fa4adc00954224034",
				"type": "INVOKE_FUNCTION",
				"sequenceKUID": "navSearchData",
				"display": "navSearchData",
				"inputparams": [
					{
						"name": "context",
						"value": " eventobject"
					}
				],
				"parentId": null,
				"callbackType": null,
				"disabled": null,
				"source": "controller"
			}
		]
	}
}