{
	"AS_Segment_f9fa02675e254d299ed80bbf711a0bee": {
		"id": "AS_Segment_f9fa02675e254d299ed80bbf711a0bee",
		"type": "ACTION_SEQUENCE",
		"params": [
			{
				"datatype": "collection",
				"name": "eventobject"
			},
			{
				"datatype": "number",
				"name": "sectionNumber"
			},
			{
				"datatype": "number",
				"name": "rowNumber"
			}
		],
		"contextObj": {
			"type": "userwidgets",
			"KUID": "u0af84559ceb45308c21052cc277371f",
			"name": "uwu0af84559ceb45308c21052cc277371f"
		},
		"language": "js",
		"actions": [
			{
				"id": "INVOKE_FUNCTION__dcde8a8ba09a4f18ac67d1cae4c94811",
				"type": "INVOKE_FUNCTION",
				"sequenceKUID": "rowClickNav",
				"display": "rowClickNav",
				"inputparams": [],
				"parentId": null,
				"callbackType": null,
				"disabled": null,
				"source": "controller"
			}
		]
	}
}