{
    "customComponent": {
        "i18nSupported": true,
        "id": "cwfa29b3aa35574dc5b71621bb9223161d",
        "isOverride": false,
        "konyWrapperFiles": [
            "resources/thirdpartywidgets/widgetwrapper/tp-uuxProductSelector-wrapper.js"
        ],
        "libraryFiles": [
            "resources/thirdpartywidgets/libtoimport/base.css",
            "resources/thirdpartywidgets/libtoimport/unified-ux-web.min.js"
        ],
        "libraryName": "libtoimport",
        "marginSupported": true,
        "name": "uuxProductSelector",
        "paddingSupported": true,
        "platformID": "0",
        "property": [
            {
                "categoryType": "Custom",
                "defaultValue": "",
                "exclude": false,
                "name": "packageConfig",
                "propertySelection": false,
                "type": "String",
                "uniqueID": "cwpi04228c50e8a4dd59830f2bdd91281f9",
                "value": ""
            },
            {
                "categoryType": "Custom",
                "defaultValue": "",
                "exclude": false,
                "name": "productList",
                "propertySelection": false,
                "type": "String",
                "uniqueID": "cwph126bb8d7e0e4814ae58e66bf87433c4",
                "value": ""
            }
        ]
    }
}