{
    "@class": "com.kony.gen.viz.model.component.KVizButton",
    "DNDConfig": null,
    "_height_": {
        "type": "string",
        "value": "50%"
    },
    "_margin_": [
        6,
        6,
        6,
        6
    ],
    "_padding_": [
        1,
        1,
        1,
        1
    ],
    "_right_": {
        "type": "string",
        "value": "20px"
    },
    "_skin_": "saf7e723069a4febb8200c00437aa3e9",
    "_text_": "Button",
    "_top_": {
        "type": "number",
        "value": "20"
    },
    "_width_": {
        "type": "string",
        "value": "50px"
    },
    "canUpdateUI": true,
    "containerweight": 100,
    "contentalignment": 5,
    "displaytext": true,
    "focusskin": "sb47e4be03c74bcc8599b34b76f24950",
    "id": "Copyblnclose0j1ad0326d44c4b",
    "info": null,
    "iscustomlayout": false,
    "isvisible": true,
    "kuid": "c157493f09c348059b8bbf2814762d78",
    "name": "kony.ui.Button",
    "paddingLocked": true,
    "paddinginpixel": false,
    "parent": "Copyflxheader0e3f2de0659b74f",
    "pf": "frmpopups",
    "retaincontentalignment": false,
    "retainflexpositionproperties": false,
    "wType": "Button",
    "zindex": 1
}