{
    "customComponent": {
        "i18nSupported": true,
        "id": "cwd89592cb512944138b29050137e19020",
        "isOverride": false,
        "konyWrapperFiles": [
            "resources/thirdpartywidgets/widgetwrapper/tp-uuxRadioGroup-wrapper.js"
        ],
        "libraryFiles": [
            "resources/thirdpartywidgets/libtoimport/base.css",
            "resources/thirdpartywidgets/libtoimport/unified-ux-web.min.js"
        ],
        "libraryName": "libtoimport",
        "marginSupported": true,
        "name": "uuxRadioGroup",
        "paddingSupported": true,
        "platformID": "0",
        "property": [
            {
                "categoryType": "Custom",
                "defaultValue": "",
                "exclude": false,
                "name": "labelText",
                "propertySelection": false,
                "type": "String",
                "uniqueID": "cwpac6538e7a66e4ee296169b95e0cd09e6",
                "value": ""
            },
            {
                "categoryType": "Custom",
                "defaultValue": "",
                "exclude": false,
                "name": "value",
                "propertySelection": false,
                "type": "String",
                "uniqueID": "cwpiced628821a141839d650918b9f232de",
                "value": ""
            },
            {
                "categoryType": "Custom",
                "defaultValue": "",
                "exclude": false,
                "name": "options",
                "propertySelection": false,
                "type": "List",
                "uniqueID": "cwpf0164b932dc147d9a536b65fb2d5031a",
                "value": ""
            },
            {
                "categoryType": "Event",
                "defaultValue": "",
                "exclude": false,
                "name": "onRadioChange",
                "propertySelection": false,
                "type": "Event",
                "uniqueID": "cwpc9aa45fc89534d9d9565e5ae79e4a4d5",
                "value": ""
            }
        ]
    }
}