{
    "DNDConfig": null,
    "_height_": {
        "type": "string",
        "value": "40dp"
    },
    "_left_": {
        "type": "string",
        "value": "20dp"
    },
    "_margin_": [
        0,
        0,
        0,
        0
    ],
    "_orientation_": 6,
    "_padding_": [
        0,
        0,
        0,
        0
    ],
    "_percent_": true,
    "_skin_": "s3c98ef7eb5b4633b47e2ee8bac80558",
    "_width_": {
        "type": "string",
        "value": "200dp"
    },
    "allboxes": [],
    "autogrowmode": 0,
    "canUpdateUI": true,
    "centery": {
        "type": "string",
        "value": "47%"
    },
    "children": [
        "lblListBoxSelectedValue",
        "imgListBoxSelectedDropDown",
        "FlexContainer0ebe191bc1cf946"
    ],
    "clipbounds": true,
    "containerweight": 100,
    "enablescrolling": true,
    "id": "flxListBoxSelectedValue",
    "info": null,
    "iscustomlayout": false,
    "isvisible": true,
    "kuid": "f21b66021d0249a7b91aa69c873702a3",
    "layouttype": 3,
    "minwidth": {
        "type": "string",
        "value": "160dp"
    },
    "name": "kony.ui.FlexContainer",
    "parent": "flxLoanDetailsvalue",
    "pf": "userwidgetmodel",
    "retaincontentalignment": false,
    "retainflexpositionproperties": false,
    "retainflowhorizontalalignment": false,
    "snapgridsize": 10,
    "snaptogrid": true,
    "wType": "FlexContainer",
    "widgetalignment": 1,
    "zindex": 1
}