{
    "DNDConfig": null,
    "_height_": {
        "type": "string",
        "value": "450dp"
    },
    "_left_": {
        "type": "string",
        "value": "0dp"
    },
    "_margin_": [
        0,
        0,
        0,
        0
    ],
    "_orientation_": 6,
    "_padding_": [
        0,
        0,
        0,
        0
    ],
    "_percent_": true,
    "_skin_": "se31956b9efb4cdeb803f81ffb1335e2",
    "_top_": {
        "type": "string",
        "value": "5dp"
    },
    "_width_": {
        "type": "string",
        "value": "100%"
    },
    "allboxes": [],
    "autogrowmode": 0,
    "canUpdateUI": true,
    "children": [
        "flxBasicInner"
    ],
    "clipbounds": true,
    "containerweight": 100,
    "enablescrolling": true,
    "id": "flxBasicMain",
    "info": null,
    "iscustomlayout": false,
    "isvisible": true,
    "kuid": "d1f6517e96604f7082e07182996fd859",
    "layouttype": 3,
    "name": "kony.ui.FlexContainer",
    "parent": "flxFullDetailsMain",
    "pf": "frmFullDetails",
    "responsiveData": {
        "b3": {
            "layoutType": 4
        },
        "b4": {}
    },
    "retaincontentalignment": false,
    "retainflexpositionproperties": false,
    "retainflowhorizontalalignment": false,
    "snapgridsize": 10,
    "snaptogrid": true,
    "wType": "FlexContainer",
    "widgetalignment": 1,
    "zindex": 1
}