{
    "DNDConfig": null,
    "_height_": {
        "type": "string",
        "value": "371dp"
    },
    "_left_": {
        "type": "string",
        "value": "7%"
    },
    "_margin_": [
        0,
        0,
        0,
        0
    ],
    "_orientation_": 6,
    "_padding_": [
        0,
        0,
        0,
        0
    ],
    "_percent_": true,
    "_skin_": "s56addbca28c435e8416db563c83331b",
    "_top_": {
        "type": "string",
        "value": "0dp"
    },
    "_width_": {
        "type": "string",
        "value": "50%"
    },
    "allboxes": [],
    "autogrowmode": 0,
    "canUpdateUI": true,
    "children": [
        "flxContactMethodTitle",
        "flxPreferredChannel",
        "flxInternetBanking",
        "flxSecureMsg",
        "flxMobileBanking"
    ],
    "clipbounds": true,
    "containerweight": 100,
    "enablescrolling": true,
    "id": "flxContactMethodColumn",
    "info": null,
    "iscustomlayout": false,
    "isvisible": true,
    "kuid": "c8e6c730627a48519e321443ca7b5170",
    "layouttype": 4,
    "name": "kony.ui.FlexContainer",
    "parent": "flxContactMethod",
    "pf": "frmFullDetails",
    "retaincontentalignment": false,
    "retainflexpositionproperties": false,
    "retainflowhorizontalalignment": false,
    "snapgridsize": 10,
    "snaptogrid": true,
    "wType": "FlexContainer",
    "widgetalignment": 1,
    "zindex": 1
}