{
    "DNDConfig": null,
    "_height_": {
        "type": "ref",
        "value": "preferred"
    },
    "_left_": {
        "type": "string",
        "value": "0dp"
    },
    "_margin_": [
        0,
        0,
        0,
        0
    ],
    "_orientation_": 6,
    "_padding_": [
        0,
        0,
        0,
        0
    ],
    "_percent_": true,
    "_skin_": "se31956b9efb4cdeb803f81ffb1335e2",
    "_top_": {
        "type": "string",
        "value": "32dp"
    },
    "_width_": {
        "type": "string",
        "value": "90%"
    },
    "allboxes": [],
    "autogrowmode": 1,
    "canUpdateUI": true,
    "children": [
        "imgPrevArrow",
        "lblDashboard",
        "lblOverview",
        "lblCustId"
    ],
    "clipbounds": true,
    "containerweight": 100,
    "enablescrolling": true,
    "id": "flxTitleHeader",
    "info": null,
    "iscustomlayout": false,
    "isvisible": true,
    "kuid": "c981867da4da40faa1b844225c8f8e3a",
    "layouttype": 3,
    "name": "kony.ui.FlexContainer",
    "parent": "flxFullDetailstitle",
    "pf": "frmFullDetails",
    "retaincontentalignment": false,
    "retainflexpositionproperties": false,
    "retainflowhorizontalalignment": false,
    "snapgridsize": 10,
    "snaptogrid": true,
    "wType": "FlexContainer",
    "widgetalignment": 1
}