{
    "@class": "com.kony.gen.viz.model.component.KVizUserWidget",
    "DNDConfig": null,
    "_children_": [],
    "_height_": {
        "type": "string",
        "value": "100%"
    },
    "_left_": {
        "type": "string",
        "value": "0dp"
    },
    "_margin_": [
        0,
        0,
        0,
        0
    ],
    "_orientation_": 1,
    "_padding_": [
        0,
        0,
        0,
        0
    ],
    "_percent_": true,
    "_skin_": "se33f57d269c467ebda9a53b3d48feda",
    "_top_": {
        "type": "string",
        "value": "0dp"
    },
    "_width_": {
        "type": "string",
        "value": "100%"
    },
    "areflexpropsreferenced": false,
    "autogrowmode": 0,
    "canUpdateUI": true,
    "clipbounds": true,
    "containerweight": 0,
    "dataDiffs": {
        "imgSpinnerFulldetails": {
            "__events__": {},
            "__info__": {
                "kuid": "d07d08a47a45448ab2e47f8032a97de7",
                "srcKUID": "d40af6960e8c49f583a257973f5b3912",
                "wType": "Image"
            },
            "src": "loadingblue.gif"
        },
        "spinner": {
            "__events__": {},
            "__info__": {
                "isRoot": true,
                "kuid": "ade77c9238e042baa760b6c1225bb8ff",
                "srcKUID": "e214a438963c4fd8bce9d3d229de6b6d",
                "wType": "FlexContainer"
            },
            "isVisible": false,
            "responsiveData": {}
        }
    },
    "enablescrolling": true,
    "id": "spinnerKYC",
    "info": null,
    "iscustomlayout": false,
    "isdatareferenced": false,
    "issegmentchild": false,
    "isvisible": false,
    "kuid": "ade77c9238e042baa760b6c1225bb8ff",
    "layouttype": 2,
    "masterType": 0,
    "name": "kony.ui.UserWidgetInstance",
    "parent": "flxKYCCompliance",
    "pf": "frmFullDetails",
    "responsiveData": {},
    "retaincontentalignment": false,
    "retainflexpositionproperties": false,
    "retainflowhorizontalalignment": false,
    "snapgridsize": 10,
    "snaptogrid": true,
    "sourceUserWidget": "e214a438963c4fd8bce9d3d229de6b6d",
    "wType": "UserWidgetInstance"
}