{
    "@class": "com.kony.gen.viz.model.component.KVizUserWidget",
    "DNDConfig": null,
    "_children_": [],
    "_height_": {
        "type": "string",
        "value": "125dp"
    },
    "_left_": {
        "type": "string",
        "value": "0dp"
    },
    "_margin_": [
        0,
        0,
        0,
        0
    ],
    "_orientation_": 1,
    "_padding_": [
        0,
        0,
        0,
        0
    ],
    "_percent_": true,
    "_skin_": "s07c59fb0e60441999db2dc48b732164",
    "_top_": {
        "type": "string",
        "value": "0dp"
    },
    "_width_": {
        "type": "string",
        "value": "100%"
    },
    "areflexpropsreferenced": false,
    "autogrowmode": 0,
    "canUpdateUI": true,
    "clipbounds": true,
    "containerweight": 0,
    "dataDiffs": {
        "flxTitleHeader": {
            "__events__": {
                "ide_onClick": "AS_FlexContainer_ca99da93965c47ff910f574fcb49582f"
            },
            "__info__": {
                "kuid": "bbfd18987d9b4d2b9b15e817ac9d5a7d",
                "srcKUID": "d92a01ba84a7429793971a04de85f6db",
                "wType": "FlexContainer"
            }
        },
        "imgPrevArrow": {
            "__events__": {},
            "__info__": {
                "kuid": "d2a99804c57146dc833b2e87dc061ebb",
                "srcKUID": "ba02e495a2894b1bb92df079db8b8e70",
                "wType": "Image"
            },
            "src": "bread_arrow_1.png"
        },
        "lblCustId": {
            "__events__": {},
            "__info__": {
                "kuid": "fb611cd8e76a4bcaa75b46e1ffda6d5a",
                "srcKUID": "af375703fa1b40c4972ec087e8890e9a",
                "wType": "Label"
            }
        },
        "lblCustName": {
            "__events__": {},
            "__info__": {
                "kuid": "cbd04e8606614002837614e855b25f5c",
                "srcKUID": "j486264e48e04bfcacbf200a3af9b866",
                "wType": "Label"
            }
        },
        "lblDashboard": {
            "__events__": {},
            "__info__": {
                "kuid": "c6d0a80d93af4c53868fe9521776fbe5",
                "srcKUID": "d82001e384c245de97d692d9a1613af2",
                "wType": "Label"
            },
            "responsiveData": {},
            "text": "Home /"
        },
        "titleHeader": {
            "__events__": {},
            "__info__": {
                "isRoot": true,
                "kuid": "d90cb72fd51043079168f82e0c2898a2",
                "srcKUID": "f806d81e08784122acbf83a62b8aee2b",
                "wType": "FlexContainer"
            },
            "isVisible": false,
            "responsiveData": {}
        }
    },
    "enablescrolling": true,
    "id": "titleHeader",
    "info": null,
    "iscustomlayout": false,
    "isdatareferenced": false,
    "isvisible": false,
    "kuid": "d90cb72fd51043079168f82e0c2898a2",
    "layouttype": 4,
    "masterType": 0,
    "name": "kony.ui.UserWidgetInstance",
    "parent": "flxBasicHeader",
    "pf": "frmFullDetails",
    "retaincontentalignment": false,
    "retainflexpositionproperties": false,
    "retainflowhorizontalalignment": false,
    "snapgridsize": 10,
    "snaptogrid": true,
    "sourceUserWidget": "f806d81e08784122acbf83a62b8aee2b",
    "wType": "UserWidgetInstance",
    "zindex": 1
}