{
    "DNDConfig": null,
    "_height_": {
        "type": "string",
        "value": "50px"
    },
    "_left_": {
        "type": "string",
        "value": "0dp"
    },
    "_margin_": [
        0,
        0,
        0,
        0
    ],
    "_orientation_": 6,
    "_padding_": [
        0,
        0,
        0,
        0
    ],
    "_percent_": true,
    "_skin_": "s020a12e74e9445885fd14ff569154a0",
    "_top_": {
        "type": "string",
        "value": "0dp"
    },
    "_width_": {
        "type": "string",
        "value": "100%"
    },
    "allboxes": [],
    "autogrowmode": 0,
    "canUpdateUI": true,
    "children": [
        "lblAccount",
        "lblType",
        "lblCurrency",
        "lblBalance",
        "lblStartDate",
        "lblMaturity",
        "lblLoan",
        "CopylblLoan0c29d377b97554f"
    ],
    "clipbounds": true,
    "containerId": true,
    "containerweight": 100,
    "enablescrolling": true,
    "id": "flxHdr",
    "info": null,
    "iscustomlayout": false,
    "isvisible": true,
    "kuid": "d01d7d8dbd3f49c79b56814cb2beb9f0",
    "layouttype": 2,
    "name": "kony.ui.FlexContainer",
    "parent": "flxCntnr1",
    "pf": "TemplateCastle7",
    "retaincontentalignment": false,
    "retainflexpositionproperties": false,
    "retainflowhorizontalalignment": false,
    "snapgridsize": 10,
    "snaptogrid": true,
    "wType": "FlexContainer",
    "widgetalignment": 1,
    "zindex": 1
}