{
  "background_color": "dcdcdcff",
  "bg_type": "one",
  "border_color": "000000ff",
  "border_style": "plain",
  "border_type": 0,
  "border_width": 0,
  "isDefaultSkin": false,
  "kuid": "s2c380f5f555471cbe15f5c8ef275c7d",
  "wType": "FlexContainer"
}