{
    "android": {
        "font_color": "858585ff",
        "font_name": "default",
        "font_size": 28,
        "font_weight": "normal",
        "isForked": true
    },
    "androidwearos": {
        "font_color": "858585ff",
        "font_name": "default",
        "font_size": 36,
        "font_weight": "normal",
        "isForked": true
    },
    "background_color": "00000000",
    "bg_type": "one",
    "border_color": "424242ff",
    "border_style": "plain",
    "border_type": 0,
    "border_width": 1,
    "desktopweb": {
        "border_type": 0,
        "bottom_left_border_color": "424242ff",
        "bottom_left_border_style": "plain",
        "bottom_left_border_width": "0",
        "bottom_right_border_color": "4242427f",
        "bottom_right_border_style": "plain",
        "bottom_right_border_width": "0",
        "font_color": "858585ff",
        "font_name": "Roboto",
        "font_size": 63,
        "font_weight": "normal",
        "isForked": true,
        "top_left_border_color": "424242ff",
        "top_left_border_style": "plain",
        "top_left_border_width": "0",
        "top_right_border_color": "424242ff",
        "top_right_border_style": "plain",
        "top_right_border_width": "0"
    },
    "fontSizeInPx": true,
    "font_color": "2e2e2eff",
    "font_name": "iphoneSystem",
    "font_size": 100,
    "font_style": "normal",
    "font_weight": "bold",
    "ipad": {
        "font_color": "858585ff",
        "font_name": "System",
        "font_size": 36,
        "isForked": true
    },
    "iphone": {
        "font_color": "858585ff",
        "font_name": "System",
        "font_size": 34,
        "isForked": true
    },
    "isDefaultSkin": false,
    "kiosk": {
        "font_color": "858585ff",
        "font_name": "None",
        "font_size": 63,
        "font_weight": "normal",
        "isForked": true
    },
    "kuid": "s04b654f72aa4ed7a429d2b394d9a3b9",
    "spaan": {
        "border_type": 0,
        "bottom_left_border_color": "424242ff",
        "bottom_left_border_style": "plain",
        "bottom_left_border_width": "0",
        "bottom_right_border_color": "4242427f",
        "bottom_right_border_style": "plain",
        "bottom_right_border_width": "0",
        "font_color": "858585ff",
        "font_name": "Helvetica",
        "font_size": 67,
        "font_weight": "normal",
        "isForked": true,
        "top_left_border_color": "424242ff",
        "top_left_border_style": "plain",
        "top_left_border_width": "0",
        "top_right_border_color": "424242ff",
        "top_right_border_style": "plain",
        "top_right_border_width": "0"
    },
    "spaandroidtablet": {
        "border_type": 0,
        "bottom_left_border_color": "424242ff",
        "bottom_left_border_style": "plain",
        "bottom_left_border_width": "0",
        "bottom_right_border_color": "4242427f",
        "bottom_right_border_style": "plain",
        "bottom_right_border_width": "0",
        "font_color": "858585ff",
        "font_name": "Helvetica",
        "font_size": 56,
        "font_weight": "normal",
        "isForked": true,
        "top_left_border_color": "424242ff",
        "top_left_border_style": "plain",
        "top_left_border_width": "0",
        "top_right_border_color": "424242ff",
        "top_right_border_style": "plain",
        "top_right_border_width": "0"
    },
    "spaip": {
        "border_type": 0,
        "bottom_left_border_color": "424242ff",
        "bottom_left_border_style": "plain",
        "bottom_left_border_width": "0",
        "bottom_right_border_color": "4242427f",
        "bottom_right_border_style": "plain",
        "bottom_right_border_width": "0",
        "font_color": "858585ff",
        "font_name": "Helvetica",
        "font_size": 64,
        "font_weight": "normal",
        "isForked": true,
        "top_left_border_color": "424242ff",
        "top_left_border_style": "plain",
        "top_left_border_width": "0",
        "top_right_border_color": "424242ff",
        "top_right_border_style": "plain",
        "top_right_border_width": "0"
    },
    "spaipad": {
        "border_type": 0,
        "bottom_left_border_color": "424242ff",
        "bottom_left_border_style": "plain",
        "bottom_left_border_width": "0",
        "bottom_right_border_color": "4242427f",
        "bottom_right_border_style": "plain",
        "bottom_right_border_width": "0",
        "font_color": "858585ff",
        "font_name": "Helvetica",
        "font_size": 59,
        "font_weight": "normal",
        "isForked": true,
        "top_left_border_color": "424242ff",
        "top_left_border_style": "plain",
        "top_left_border_width": "0",
        "top_right_border_color": "424242ff",
        "top_right_border_style": "plain",
        "top_right_border_width": "0"
    },
    "spawindowstablet": {
        "border_type": 0,
        "bottom_left_border_color": "424242ff",
        "bottom_left_border_style": "plain",
        "bottom_left_border_width": "0",
        "bottom_right_border_color": "4242427f",
        "bottom_right_border_style": "plain",
        "bottom_right_border_width": "0",
        "font_color": "858585ff",
        "font_name": "Helvetica",
        "font_size": 59,
        "font_weight": "normal",
        "isForked": true,
        "top_left_border_color": "424242ff",
        "top_left_border_style": "plain",
        "top_left_border_width": "0",
        "top_right_border_color": "424242ff",
        "top_right_border_style": "plain",
        "top_right_border_width": "0"
    },
    "spawinphone8": {
        "border_type": 0,
        "bottom_left_border_color": "424242ff",
        "bottom_left_border_style": "plain",
        "bottom_left_border_width": "0",
        "bottom_right_border_color": "4242427f",
        "bottom_right_border_style": "plain",
        "bottom_right_border_width": "0",
        "font_color": "858585ff",
        "font_name": "Helvetica",
        "font_size": 83,
        "font_weight": "normal",
        "isForked": true,
        "top_left_border_color": "424242ff",
        "top_left_border_style": "plain",
        "top_left_border_width": "0",
        "top_right_border_color": "424242ff",
        "top_right_border_style": "plain",
        "top_right_border_width": "0"
    },
    "tabrcandroid": {
        "font_color": "858585ff",
        "font_name": "default",
        "font_size": 59,
        "font_weight": "normal",
        "isForked": true
    },
    "wType": "Label",
    "watchos": {
        "font_color": "858585ff",
        "font_name": "System",
        "font_size": 36,
        "font_weight": "normal",
        "isForked": true
    },
    "windows8": {
        "font_color": "858585ff",
        "font_name": "None",
        "font_size": 24,
        "font_weight": "normal",
        "isForked": true
    },
    "winphone8": {
        "font_color": "858585ff",
        "font_name": "None",
        "font_size": 33,
        "font_weight": "normal",
        "isForked": true
    }
}