{
    "android": {
        "font_name": "default",
        "font_size": 44,
        "isForked": false
    },
    "androidwearos": {
        "font_name": "default",
        "font_size": 57,
        "isForked": false
    },
    "background_color": "4b88f100",
    "bg_type": "one",
    "border_color": "ffffff00",
    "border_radius": 20,
    "border_style": "custom",
    "border_type": 0,
    "border_width": 1,
    "desktopweb": {
        "font_name": "castle-icons",
        "font_size": 100,
        "isForked": false
    },
    "fontSizeInPx": true,
    "font_color": "ffffffff",
    "font_name": "iphoneSystem",
    "font_size": 100,
    "font_style": "normal",
    "font_weight": "400",
    "ipad": {
        "font_name": "System",
        "font_size": 57,
        "isForked": false
    },
    "iphone": {
        "font_name": "System",
        "font_size": 55,
        "isForked": false
    },
    "isDefaultSkin": false,
    "kiosk": {
        "font_name": "None",
        "font_size": 100,
        "isForked": false
    },
    "kuid": "s53e68657c604da482533179950f4891",
    "spaan": {
        "font_name": "Helvetica",
        "font_size": 107,
        "isForked": false
    },
    "spaandroidtablet": {
        "font_name": "Helvetica",
        "font_size": 89,
        "isForked": false
    },
    "spaip": {
        "font_name": "Helvetica",
        "font_size": 103,
        "isForked": false
    },
    "spaipad": {
        "font_name": "Helvetica",
        "font_size": 94,
        "isForked": false
    },
    "spawindowstablet": {
        "font_name": "Helvetica",
        "font_size": 94,
        "isForked": false
    },
    "spawinphone8": {
        "font_name": "Helvetica",
        "font_size": 133,
        "isForked": false
    },
    "tabrcandroid": {
        "font_name": "default",
        "font_size": 95,
        "isForked": false
    },
    "wType": "Button",
    "watchos": {
        "font_name": "System",
        "font_size": 57,
        "isForked": false
    },
    "windows8": {
        "font_name": "None",
        "font_size": 39,
        "isForked": false
    },
    "winphone8": {
        "font_name": "None",
        "font_size": 53,
        "isForked": false
    }
}