{
    "android": {
        "font_name": "default",
        "font_size": 56,
        "isForked": false
    },
    "androidwearos": {
        "font_name": "default",
        "font_size": 71,
        "isForked": false
    },
    "background_color": "00000000",
    "bg_type": "one",
    "border_color": "424242ff",
    "border_style": "plain",
    "border_type": 0,
    "border_width": 0,
    "desktopweb": {
        "font_name": "castle-icons",
        "font_size": 125,
        "isForked": false
    },
    "fontSizeInPx": true,
    "font_color": "005096ff",
    "font_name": "iphoneSystem",
    "font_size": 125,
    "font_style": "normal",
    "font_weight": "normal",
    "ipad": {
        "font_name": "System",
        "font_size": 71,
        "isForked": false
    },
    "iphone": {
        "font_name": "System",
        "font_size": 69,
        "isForked": false
    },
    "isDefaultSkin": false,
    "kiosk": {
        "font_name": "None",
        "font_size": 125,
        "isForked": false
    },
    "kuid": "sed688e3c3214295adcbe36b0555ab44",
    "spaan": {
        "font_name": "Helvetica",
        "font_size": 133,
        "isForked": false
    },
    "spaandroidtablet": {
        "font_name": "Helvetica",
        "font_size": 111,
        "isForked": false
    },
    "spaip": {
        "font_name": "Helvetica",
        "font_size": 129,
        "isForked": false
    },
    "spaipad": {
        "font_name": "Helvetica",
        "font_size": 118,
        "isForked": false
    },
    "spawindowstablet": {
        "font_name": "Helvetica",
        "font_size": 118,
        "isForked": false
    },
    "spawinphone8": {
        "font_name": "Helvetica",
        "font_size": 167,
        "isForked": false
    },
    "tabrcandroid": {
        "font_name": "default",
        "font_size": 119,
        "isForked": false
    },
    "wType": "Label",
    "watchos": {
        "font_name": "System",
        "font_size": 71,
        "isForked": false
    },
    "windows8": {
        "font_name": "None",
        "font_size": 49,
        "isForked": false
    },
    "winphone8": {
        "font_name": "None",
        "font_size": 67,
        "isForked": false
    }
}