{
  "android": {
    "font_name": "default",
    "font_size": 33,
    "isForked": false
  },
  "androidwearos": {
    "font_name": "default",
    "font_size": 43,
    "isForked": false
  },
  "background_gradient_bottom_color": "3270ddff",
  "background_gradient_top_color": "4558c6ff",
  "background_style": "vg",
  "bg_type": "two",
  "border_color": "ffffff00",
  "border_radius": 50,
  "border_style": "custom",
  "border_type": 0,
  "border_width": 1,
  "desktopweb": {
    "font_name": "Helvetica",
    "font_size": 75,
    "isForked": false
  },
  "fontSizeInPx": true,
  "font_color": "ffffffff",
  "font_name": "iphoneSystem",
  "font_size": 75,
  "font_style": "normal",
  "font_weight": "normal",
  "ipad": {
    "font_name": "System",
    "font_size": 43,
    "isForked": false
  },
  "iphone": {
    "font_name": "System",
    "font_size": 41,
    "isForked": false
  },
  "isDefaultSkin": false,
  "kiosk": {
    "font_name": "SourceSansPro-SemiBold",
    "font_size": 75,
    "isForked": false
  },
  "kuid": "s4f100417a6a49b0ab2c7b0ac0b43d73",
  "spaan": {
    "font_name": "Helvetica",
    "font_size": 80,
    "isForked": false
  },
  "spaandroidtablet": {
    "font_name": "Helvetica",
    "font_size": 67,
    "isForked": false
  },
  "spaip": {
    "font_name": "Helvetica",
    "font_size": 77,
    "isForked": false
  },
  "spaipad": {
    "font_name": "Helvetica",
    "font_size": 71,
    "isForked": false
  },
  "spawindowstablet": {
    "font_name": "Helvetica",
    "font_size": 71,
    "isForked": false
  },
  "spawinphone8": {
    "font_name": "Helvetica",
    "font_size": 100,
    "isForked": false
  },
  "tabrcandroid": {
    "font_name": "default",
    "font_size": 71,
    "isForked": false
  },
  "wType": "Button",
  "watchos": {
    "font_name": "System",
    "font_size": 43,
    "isForked": false
  },
  "windows8": {
    "font_name": "None",
    "font_size": 29,
    "isForked": false
  },
  "winphone8": {
    "font_name": "None",
    "font_size": 40,
    "isForked": false
  }
}