{
  "android": {
    "font_name": "default",
    "font_size": 50,
    "isForked": false
  },
  "androidwearos": {
    "font_name": "default",
    "font_size": 64,
    "isForked": false
  },
  "background_color": "00000000",
  "bg_type": "one",
  "border_color": "424242ff",
  "border_style": "plain",
  "border_type": 0,
  "border_width": 0,
  "desktopweb": {
    "font_name": "Helvetica",
    "font_size": 113,
    "isForked": false
  },
  "fontSizeInPx": true,
  "font_color": "333333ff",
  "font_name": "iphoneSystem",
  "font_size": 113,
  "font_style": "normal",
  "font_weight": "400",
  "ipad": {
    "font_name": "System",
    "font_size": 64,
    "isForked": false
  },
  "iphone": {
    "font_name": "System",
    "font_size": 62,
    "isForked": false
  },
  "isDefaultSkin": false,
  "kiosk": {
    "font_name": "None",
    "font_size": 113,
    "isForked": false
  },
  "kuid": "s77516f775b74a8fb286a4eac1532be3",
  "spaan": {
    "font_name": "Helvetica",
    "font_size": 120,
    "isForked": false
  },
  "spaandroidtablet": {
    "font_name": "Helvetica",
    "font_size": 113,
    "isForked": false
  },
  "spaip": {
    "font_name": "Helvetica",
    "font_size": 116,
    "isForked": false
  },
  "spaipad": {
    "font_name": "Helvetica",
    "font_size": 106,
    "isForked": false
  },
  "spawindowstablet": {
    "font_name": "Helvetica",
    "font_size": 106,
    "isForked": false
  },
  "spawinphone8": {
    "font_name": "Helvetica",
    "font_size": 150,
    "isForked": false
  },
  "tabrcandroid": {
    "font_name": "default",
    "font_size": 107,
    "isForked": false
  },
  "wType": "RichText",
  "watchos": {
    "font_name": "System",
    "font_size": 64,
    "isForked": false
  },
  "windows8": {
    "font_name": "None",
    "font_size": 44,
    "isForked": false
  },
  "winphone8": {
    "font_name": "None",
    "font_size": 60,
    "isForked": false
  }
}