{
  "android": {
    "font_color": "0e0f0fff",
    "font_name": "default",
    "font_size": 61,
    "isForked": true
  },
  "androidwearos": {
    "font_color": "0e0f0fff",
    "font_name": "default",
    "font_size": 79,
    "isForked": true
  },
  "background_color": "0e0f0f00",
  "bg_type": "one",
  "border_color": "424242ff",
  "border_style": "plain",
  "border_type": 0,
  "border_width": 0,
  "desktopweb": {
    "bottom_left_border_color": "424242ff",
    "bottom_left_border_style": "plain",
    "bottom_left_border_width": 0,
    "bottom_right_border_color": "424242ff",
    "bottom_right_border_style": "plain",
    "bottom_right_border_width": 0,
    "font_color": "0e0f0fff",
    "font_name": "Roboto-Medium",
    "font_size": 138,
    "isCustomCSSEnabled": false,
    "isForked": true,
    "top_left_border_color": "424242ff",
    "top_left_border_style": "plain",
    "top_left_border_width": 0,
    "top_right_border_color": "424242ff",
    "top_right_border_style": "plain",
    "top_right_border_width": 0
  },
  "fontSizeInPx": true,
  "font_color": "005096ff",
  "font_name": "iphoneSystem",
  "font_size": 138,
  "font_style": "normal",
  "font_weight": "normal",
  "ipad": {
    "font_color": "0e0f0fff",
    "font_name": "System",
    "font_size": 79,
    "isForked": true
  },
  "iphone": {
    "font_color": "0e0f0fff",
    "font_name": "System",
    "font_size": 76,
    "isForked": true
  },
  "isDefaultSkin": false,
  "kiosk": {
    "font_color": "0e0f0fff",
    "font_name": "None",
    "font_size": 138,
    "isForked": true
  },
  "kuid": "s747a04d264148028bd7c68bab7e8866",
  "spaan": {
    "bottom_left_border_color": "424242ff",
    "bottom_left_border_style": "plain",
    "bottom_left_border_width": 0,
    "bottom_right_border_color": "424242ff",
    "bottom_right_border_style": "plain",
    "bottom_right_border_width": 0,
    "font_color": "0e0f0fff",
    "font_name": "Helvetica",
    "font_size": 147,
    "isCustomCSSEnabled": false,
    "isForked": true,
    "top_left_border_color": "424242ff",
    "top_left_border_style": "plain",
    "top_left_border_width": 0,
    "top_right_border_color": "424242ff",
    "top_right_border_style": "plain",
    "top_right_border_width": 0
  },
  "spaandroidtablet": {
    "bottom_left_border_color": "424242ff",
    "bottom_left_border_style": "plain",
    "bottom_left_border_width": 0,
    "bottom_right_border_color": "424242ff",
    "bottom_right_border_style": "plain",
    "bottom_right_border_width": 0,
    "font_color": "0e0f0fff",
    "font_name": "Helvetica",
    "font_size": 122,
    "isCustomCSSEnabled": false,
    "isForked": true,
    "top_left_border_color": "424242ff",
    "top_left_border_style": "plain",
    "top_left_border_width": 0,
    "top_right_border_color": "424242ff",
    "top_right_border_style": "plain",
    "top_right_border_width": 0
  },
  "spaip": {
    "bottom_left_border_color": "424242ff",
    "bottom_left_border_style": "plain",
    "bottom_left_border_width": 0,
    "bottom_right_border_color": "424242ff",
    "bottom_right_border_style": "plain",
    "bottom_right_border_width": 0,
    "font_color": "0e0f0fff",
    "font_name": "Helvetica",
    "font_size": 142,
    "isCustomCSSEnabled": false,
    "isForked": true,
    "top_left_border_color": "424242ff",
    "top_left_border_style": "plain",
    "top_left_border_width": 0,
    "top_right_border_color": "424242ff",
    "top_right_border_style": "plain",
    "top_right_border_width": 0
  },
  "spaipad": {
    "bottom_left_border_color": "424242ff",
    "bottom_left_border_style": "plain",
    "bottom_left_border_width": 0,
    "bottom_right_border_color": "424242ff",
    "bottom_right_border_style": "plain",
    "bottom_right_border_width": 0,
    "font_color": "0e0f0fff",
    "font_name": "Helvetica",
    "font_size": 129,
    "isCustomCSSEnabled": false,
    "isForked": true,
    "top_left_border_color": "424242ff",
    "top_left_border_style": "plain",
    "top_left_border_width": 0,
    "top_right_border_color": "424242ff",
    "top_right_border_style": "plain",
    "top_right_border_width": 0
  },
  "spawindowstablet": {
    "bottom_left_border_color": "424242ff",
    "bottom_left_border_style": "plain",
    "bottom_left_border_width": 0,
    "bottom_right_border_color": "424242ff",
    "bottom_right_border_style": "plain",
    "bottom_right_border_width": 0,
    "font_color": "0e0f0fff",
    "font_name": "Helvetica",
    "font_size": 129,
    "isCustomCSSEnabled": false,
    "isForked": true,
    "top_left_border_color": "424242ff",
    "top_left_border_style": "plain",
    "top_left_border_width": 0,
    "top_right_border_color": "424242ff",
    "top_right_border_style": "plain",
    "top_right_border_width": 0
  },
  "spawinphone8": {
    "bottom_left_border_color": "424242ff",
    "bottom_left_border_style": "plain",
    "bottom_left_border_width": 0,
    "bottom_right_border_color": "424242ff",
    "bottom_right_border_style": "plain",
    "bottom_right_border_width": 0,
    "font_color": "0e0f0fff",
    "font_name": "Helvetica",
    "font_size": 183,
    "isCustomCSSEnabled": false,
    "isForked": true,
    "top_left_border_color": "424242ff",
    "top_left_border_style": "plain",
    "top_left_border_width": 0,
    "top_right_border_color": "424242ff",
    "top_right_border_style": "plain",
    "top_right_border_width": 0
  },
  "tabrcandroid": {
    "font_color": "0e0f0fff",
    "font_name": "default",
    "font_size": 130,
    "isForked": true
  },
  "wType": "Label",
  "watchos": {
    "font_color": "0e0f0fff",
    "font_name": "System",
    "font_size": 79,
    "isForked": true
  },
  "windows8": {
    "font_color": "0e0f0fff",
    "font_name": "None",
    "font_size": 54,
    "isForked": true
  },
  "winphone8": {
    "font_color": "0e0f0fff",
    "font_name": "None",
    "font_size": 73,
    "isForked": true
  }
}