{
  "background_color": "00000000",
  "bg_type": "one",
  "border_color": "424242ff",
  "border_style": "plain",
  "border_type": 0,
  "border_width": 0,
  "desktopweb": {
    "bottom_left_border_color": "424242ff",
    "bottom_left_border_style": "plain",
    "bottom_left_border_width": 0,
    "bottom_right_border_color": "424242ff",
    "bottom_right_border_style": "plain",
    "bottom_right_border_width": 0,
    "customCSS": "#uuxButtonUUXButtonWrapper{\n  width:190px;\n}\n#flxCustButtonscustCancel{\n  width:196px;\n}\n#flxCustButtonscustConfirm{\n  width:204px;\n}\n#flxButtonscustCancel{\n  width:196px;\n}\n#flxButtonscustProceed{\n  width:196px;\n}\n#flxButtonscustSubmit{\n  width:196px;\n}\n#flxNewDisbursementcustButtonCancel{\n  width:196px;\n}\n#flxNewDisbursementcustButtonConfirm{\n  width:204px;\n}\n#flxButtonsHzFlowcusButtonCancel{\n  width:196px;\n}\n#flxButtonsHzFlowcusButtonConfirm{\n  width:204px;\n}\n#flxCustButtonsbtnCancel{\n  width:196px;\n}\n#flxCustButtonsbtnConfirm{\n  width:204px;\n}\n#frmHolidayPayment_cusButtonConfirm{\n  width:179px;\n}\n#frmHolidayPayment_cusButtonCancel{\n  width:179px;\n}\n#flxSkipConfirmUUXButtonWrapper{\n  width:179px;\n}\n#flxSkipCancelcusButtonSkipCancel{\n  width:179px;\n}\n#flxSubmitcusButtonConfirm{\n  width:204px;\n}\n#flxCancelcusButtonCancel{\n  width:196px;\n}\n#flxSubmitcusButtonConfirm1{\n  width:179px;\n}\n#flxCancelcusButtonCancel1{\n  width:179px;\n}\n#flxCustButtonscustProceed{\n  width:204px;\n}\n\n#flxCustButtonscustCancel1{\n  width:183px;\n}\n#flxCustButtonscustProceed1{\n  width:192px;\n}\n\n#flxCustomerDetailsSearch_custCustomerId{\n  --uwc-select-min-width : 120px;\n}\n#flxCustomerDetailsSearch_custFirstName{\n  --uwc-select-min-width : 120px;\n}\n#flxCustomerDetailsSearch_custLastName{\n  --uwc-select-min-width : 120px;\n}\n#flxCustomerDetailsSearch_custDOB{\n  --uwc-select-min-width : 120px;\n}\n#flxCustomerDetailsSearch_custPhoneNumber{\n  --uwc-select-min-width : 120px;\n}\n#flxCustomerDetailsSearch_custEmail{\n  --uwc-select-min-width : 120px;\n}\n#flxCustomerDetailsSearch_custAccountOfficer{\n  --uwc-select-min-width : 120px;\n}\n\n\n\n",
    "font_name": "Helvetica",
    "isCustomCSSEnabled": true,
    "isForked": true,
    "top_left_border_color": "424242ff",
    "top_left_border_style": "plain",
    "top_left_border_width": 0,
    "top_right_border_color": "424242ff",
    "top_right_border_style": "plain",
    "top_right_border_width": 0
  },
  "font_color": "333333ff",
  "font_name": "iphoneSystem",
  "font_size": 200,
  "font_style": "normal",
  "font_weight": "normal",
  "isDefaultSkin": false,
  "kuid": "sb04dc3d44ec4b2fa64d896f6a380b66",
  "wType": "Label"
}