{
  "android": {
    "font_name": "default",
    "font_size": 61,
    "isForked": false
  },
  "androidwearos": {
    "font_name": "default",
    "font_size": 79,
    "isForked": false
  },
  "background_color": "00000000",
  "bg_type": "one",
  "border_color": "424242ff",
  "border_style": "plain",
  "border_type": 0,
  "border_width": 0,
  "desktopweb": {
    "font_name": "SourceSansPro-SemiBold",
    "font_size": 138,
    "isForked": false
  },
  "fontSizeInPx": true,
  "font_color": "525252ff",
  "font_name": "iphoneSystem",
  "font_size": 138,
  "font_style": "normal",
  "font_weight": "normal",
  "ipad": {
    "font_name": "System",
    "font_size": 79,
    "isForked": false
  },
  "iphone": {
    "font_name": "System",
    "font_size": 76,
    "isForked": false
  },
  "isDefaultSkin": false,
  "kiosk": {
    "font_name": "None",
    "font_size": 138,
    "isForked": false
  },
  "kuid": "s06f57c7f7ac4e3f8de00d4527be42da",
  "spaan": {
    "font_name": "Helvetica",
    "font_size": 147,
    "isForked": false
  },
  "spaandroidtablet": {
    "font_name": "Helvetica",
    "font_size": 122,
    "isForked": false
  },
  "spaip": {
    "font_name": "Helvetica",
    "font_size": 142,
    "isForked": false
  },
  "spaipad": {
    "font_name": "Helvetica",
    "font_size": 129,
    "isForked": false
  },
  "spawindowstablet": {
    "font_name": "Helvetica",
    "font_size": 129,
    "isForked": false
  },
  "spawinphone8": {
    "font_name": "Helvetica",
    "font_size": 183,
    "isForked": false
  },
  "tabrcandroid": {
    "font_name": "default",
    "font_size": 130,
    "isForked": false
  },
  "wType": "Label",
  "watchos": {
    "font_name": "System",
    "font_size": 79,
    "isForked": false
  },
  "windows8": {
    "font_name": "None",
    "font_size": 54,
    "isForked": false
  },
  "winphone8": {
    "font_name": "None",
    "font_size": 73,
    "isForked": false
  }
}