{
  "android": {
    "font_name": "default"
  },
  "androidwearos": {
    "font_name": "default"
  },
  "background_color": "ffffffff",
  "bg_type": "one",
  "border_color": "00000000",
  "border_style": "rc",
  "border_type": 0,
  "border_width": 1,
  "delinkedPltfrms": {
    "androidwear": [],
    "desktop": [
      "desktopweb"
    ],
    "mobile": [],
    "tablet": [],
    "watch": []
  },
  "desktopweb": {
    "background_color": "ffffffff",
    "bg_type": "one",
    "border_type": 0,
    "bottom_left_border_color": "9dc5ed72",
    "bottom_left_border_radius": "0",
    "bottom_left_border_style": "rc",
    "bottom_left_border_width": "1",
    "bottom_right_border_color": "9dc5ed72",
    "bottom_right_border_radius": "0",
    "bottom_right_border_style": "rc",
    "bottom_right_border_width": "1",
    "isForked": true,
    "shadow": {
      "br": 4,
      "color": "00000019",
      "inner": false,
      "nm": 0,
      "x": 2,
      "y": 2
    },
    "top_left_border_color": "9dc5ed72",
    "top_left_border_radius": "0",
    "top_left_border_style": "rc",
    "top_left_border_width": "1",
    "top_right_border_color": "9dc5ed72",
    "top_right_border_radius": "0",
    "top_right_border_style": "rc",
    "top_right_border_width": "1"
  },
  "ipad": {
    "font_name": "System",
    "isForked": true,
    "shadow": {
      "br": 6,
      "color": "00000002",
      "inner": false,
      "nm": 0,
      "x": 0,
      "y": 3
    }
  },
  "iphone": {
    "font_name": "System",
    "isForked": true,
    "shadow": {
      "br": 6,
      "color": "00000002",
      "inner": false,
      "nm": 0,
      "x": 0,
      "y": 3
    }
  },
  "isDefaultSkin": false,
  "kiosk": {
    "font_name": "None"
  },
  "kuid": "s94c213359384cff954d64fb6fbeb90e",
  "spaan": {
    "border_type": 0,
    "bottom_left_border_color": "000000ff",
    "bottom_left_border_radius": 10,
    "bottom_left_border_style": "rc",
    "bottom_left_border_width": 0,
    "bottom_right_border_color": "000000ff",
    "bottom_right_border_radius": 10,
    "bottom_right_border_style": "rc",
    "bottom_right_border_width": 0,
    "font_name": "Helvetica",
    "isForked": true,
    "shadow": {
      "br": 6,
      "color": "00000002",
      "inner": false,
      "nm": 0,
      "x": 0,
      "y": 3
    },
    "top_left_border_color": "ffffffff",
    "top_left_border_radius": 10,
    "top_left_border_style": "rc",
    "top_left_border_width": "1",
    "top_right_border_color": "000000ff",
    "top_right_border_radius": 10,
    "top_right_border_style": "rc",
    "top_right_border_width": 0
  },
  "spaandroidtablet": {
    "border_type": 0,
    "bottom_left_border_color": "000000ff",
    "bottom_left_border_radius": 10,
    "bottom_left_border_style": "rc",
    "bottom_left_border_width": 0,
    "bottom_right_border_color": "000000ff",
    "bottom_right_border_radius": 10,
    "bottom_right_border_style": "rc",
    "bottom_right_border_width": 0,
    "font_name": "Helvetica",
    "isForked": true,
    "shadow": {
      "br": 6,
      "color": "00000002",
      "inner": false,
      "nm": 0,
      "x": 0,
      "y": 3
    },
    "top_left_border_color": "ffffffff",
    "top_left_border_radius": 10,
    "top_left_border_style": "rc",
    "top_left_border_width": "1",
    "top_right_border_color": "000000ff",
    "top_right_border_radius": 10,
    "top_right_border_style": "rc",
    "top_right_border_width": 0
  },
  "spaip": {
    "border_type": 0,
    "bottom_left_border_color": "000000ff",
    "bottom_left_border_radius": 10,
    "bottom_left_border_style": "rc",
    "bottom_left_border_width": 0,
    "bottom_right_border_color": "000000ff",
    "bottom_right_border_radius": 10,
    "bottom_right_border_style": "rc",
    "bottom_right_border_width": 0,
    "font_name": "Helvetica",
    "isForked": true,
    "shadow": {
      "br": 6,
      "color": "00000002",
      "inner": false,
      "nm": 0,
      "x": 0,
      "y": 3
    },
    "top_left_border_color": "ffffffff",
    "top_left_border_radius": 10,
    "top_left_border_style": "rc",
    "top_left_border_width": "1",
    "top_right_border_color": "000000ff",
    "top_right_border_radius": 10,
    "top_right_border_style": "rc",
    "top_right_border_width": 0
  },
  "spaipad": {
    "border_type": 0,
    "bottom_left_border_color": "000000ff",
    "bottom_left_border_radius": 10,
    "bottom_left_border_style": "rc",
    "bottom_left_border_width": 0,
    "bottom_right_border_color": "000000ff",
    "bottom_right_border_radius": 10,
    "bottom_right_border_style": "rc",
    "bottom_right_border_width": 0,
    "font_name": "Helvetica",
    "isForked": true,
    "shadow": {
      "br": 6,
      "color": "00000002",
      "inner": false,
      "nm": 0,
      "x": 0,
      "y": 3
    },
    "top_left_border_color": "ffffffff",
    "top_left_border_radius": 10,
    "top_left_border_style": "rc",
    "top_left_border_width": "1",
    "top_right_border_color": "000000ff",
    "top_right_border_radius": 10,
    "top_right_border_style": "rc",
    "top_right_border_width": 0
  },
  "spawindowstablet": {
    "border_type": 0,
    "bottom_left_border_color": "000000ff",
    "bottom_left_border_radius": 10,
    "bottom_left_border_style": "rc",
    "bottom_left_border_width": 0,
    "bottom_right_border_color": "000000ff",
    "bottom_right_border_radius": 10,
    "bottom_right_border_style": "rc",
    "bottom_right_border_width": 0,
    "font_name": "Helvetica",
    "isForked": true,
    "shadow": {
      "br": 6,
      "color": "00000002",
      "inner": false,
      "nm": 0,
      "x": 0,
      "y": 3
    },
    "top_left_border_color": "ffffffff",
    "top_left_border_radius": 10,
    "top_left_border_style": "rc",
    "top_left_border_width": "1",
    "top_right_border_color": "000000ff",
    "top_right_border_radius": 10,
    "top_right_border_style": "rc",
    "top_right_border_width": 0
  },
  "spawinphone8": {
    "border_type": 0,
    "bottom_left_border_color": "000000ff",
    "bottom_left_border_radius": 10,
    "bottom_left_border_style": "rc",
    "bottom_left_border_width": 0,
    "bottom_right_border_color": "000000ff",
    "bottom_right_border_radius": 10,
    "bottom_right_border_style": "rc",
    "bottom_right_border_width": 0,
    "font_name": "Helvetica",
    "isForked": true,
    "shadow": {
      "br": 6,
      "color": "00000002",
      "inner": false,
      "nm": 0,
      "x": 0,
      "y": 3
    },
    "top_left_border_color": "ffffffff",
    "top_left_border_radius": 10,
    "top_left_border_style": "rc",
    "top_left_border_width": "1",
    "top_right_border_color": "000000ff",
    "top_right_border_radius": 10,
    "top_right_border_style": "rc",
    "top_right_border_width": 0
  },
  "tabrcandroid": {
    "font_name": "default"
  },
  "wType": "FlexContainer",
  "watchos": {
    "font_name": "System"
  },
  "windows8": {
    "font_name": "None"
  },
  "winphone8": {
    "font_name": "None"
  }
}