{
    "android": {
        "font_name": "default",
        "font_size": 28,
        "isForked": false
    },
    "androidwearos": {
        "font_name": "default",
        "font_size": 36,
        "isForked": false
    },
    "background_color": "00000000",
    "bg_type": "one",
    "border_color": "424242ff",
    "border_style": "plain",
    "border_type": 0,
    "border_width": 0,
    "desktopweb": {
        "font_name": "Roboto",
        "font_size": 63,
        "isForked": false
    },
    "fontSizeInPx": true,
    "font_color": "757474ff",
    "font_name": "iphoneSystem",
    "font_size": 63,
    "font_style": "normal",
    "font_weight": "normal",
    "ipad": {
        "font_name": "System",
        "font_size": 36,
        "isForked": false
    },
    "iphone": {
        "font_name": "System",
        "font_size": 25,
        "isForked": false
    },
    "isDefaultSkin": false,
    "kiosk": {
        "font_name": "None",
        "font_size": 63,
        "isForked": false
    },
    "kuid": "s1e9f60a0dd24f98aec6458dcf9bde95",
    "spaan": {
        "font_name": "Helvetica",
        "font_size": 67,
        "isForked": false
    },
    "spaandroidtablet": {
        "font_name": "Helvetica",
        "font_size": 56,
        "isForked": false
    },
    "spaip": {
        "font_name": "Helvetica",
        "font_size": 71,
        "isForked": false
    },
    "spaipad": {
        "font_name": "Helvetica",
        "font_size": 59,
        "isForked": false
    },
    "spawindowstablet": {
        "font_name": "Helvetica",
        "font_size": 59,
        "isForked": false
    },
    "spawinphone8": {
        "font_name": "Helvetica",
        "font_size": 83,
        "isForked": false
    },
    "tabrcandroid": {
        "font_name": "default",
        "font_size": 59,
        "isForked": false
    },
    "wType": "Label",
    "watchos": {
        "font_name": "System",
        "font_size": 36,
        "isForked": false
    },
    "windows8": {
        "font_name": "None",
        "font_size": 24,
        "isForked": false
    },
    "winphone8": {
        "font_name": "None",
        "font_size": 33,
        "isForked": false
    }
}