{
  "android": {
    "font_color": "757575ff",
    "font_name": "Helvetica",
    "font_size": 88,
    "font_style": "normal",
    "font_weight": "normal",
    "isForked": true
  },
  "androidwearos": {
    "font_color": "757575ff",
    "font_name": "Helvetica",
    "font_size": 88,
    "font_style": "normal",
    "font_weight": "normal",
    "isForked": true
  },
  "background_color": "00000000",
  "bg_type": "one",
  "border_color": "424242ff",
  "border_style": "plain",
  "border_type": 0,
  "border_width": 0,
  "desktopweb": {
    "font_name": "Roboto-Regular"
  },
  "font_color": "de450dff",
  "font_name": "iphoneSystem",
  "font_size": 88,
  "font_style": "normal",
  "font_weight": "400",
  "ipad": {
    "font_color": "757575ff",
    "font_name": "Helvetica",
    "font_size": 88,
    "font_style": "normal",
    "font_weight": "normal",
    "isForked": true
  },
  "iphone": {
    "font_color": "757575ff",
    "font_name": "Helvetica",
    "font_size": 88,
    "isForked": true
  },
  "isDefaultSkin": false,
  "kiosk": {
    "font_name": "None"
  },
  "kuid": "s9af30f5590f43e3bd84b18b9c6d5bef",
  "spaan": {
    "border_type": 0,
    "font_color": "757575ff",
    "font_name": "Helvetica",
    "font_size": 88,
    "font_style": "normal",
    "font_weight": "normal",
    "isForked": true
  },
  "spaandroidtablet": {
    "border_type": 0,
    "font_color": "757575ff",
    "font_name": "Helvetica",
    "font_size": 88,
    "font_style": "normal",
    "font_weight": "normal",
    "isForked": true
  },
  "spaip": {
    "border_type": 0,
    "font_color": "757575ff",
    "font_name": "Helvetica",
    "font_size": 88,
    "font_style": "normal",
    "font_weight": "normal",
    "isForked": true
  },
  "spaipad": {
    "border_type": 0,
    "font_color": "757575ff",
    "font_name": "Helvetica",
    "font_size": 88,
    "font_style": "normal",
    "font_weight": "normal",
    "isForked": true
  },
  "spawindowstablet": {
    "border_type": 0,
    "font_color": "757575ff",
    "font_name": "Helvetica",
    "font_size": 88,
    "font_style": "normal",
    "font_weight": "normal",
    "isForked": true
  },
  "spawinphone8": {
    "border_type": 0,
    "font_color": "757575ff",
    "font_name": "Helvetica",
    "font_size": 88,
    "font_style": "normal",
    "font_weight": "normal",
    "isForked": true
  },
  "tabrcandroid": {
    "font_color": "757575ff",
    "font_name": "Helvetica",
    "font_size": 88,
    "font_style": "normal",
    "font_weight": "normal",
    "isForked": true
  },
  "wType": "RichText",
  "watchos": {
    "font_name": "System",
    "font_size": 88,
    "isForked": false
  },
  "windows8": {
    "font_color": "757575ff",
    "font_name": "None",
    "font_size": 88,
    "font_style": "normal",
    "font_weight": "normal",
    "isForked": true
  },
  "winphone8": {
    "font_color": "757575ff",
    "font_name": "None",
    "font_size": 88,
    "font_style": "normal",
    "font_weight": "normal",
    "isForked": true
  }
}