{
  "android": {
    "font_color": "757575ff",
    "font_name": "Helvetica",
    "font_size": 88,
    "font_style": "normal",
    "font_weight": "normal",
    "isForked": true
  },
  "androidwearos": {
    "font_color": "757575ff",
    "font_name": "Helvetica",
    "font_size": 88,
    "font_style": "normal",
    "font_weight": "normal",
    "isForked": true
  },
  "background_color": "f2f7fd00",
  "bg_type": "one",
  "border_color": "424242ff",
  "border_style": "plain",
  "border_type": 0,
  "border_width": 0,
  "delinkedPltfrms": {
    "androidwear": [],
    "desktop": [
      "desktopweb"
    ],
    "mobile": [],
    "tablet": [],
    "watch": []
  },
  "fontSizeInPx": false,
  "font_color": "de0000ff",
  "font_name": "iphoneSystem",
  "font_size": 88,
  "font_style": "normal",
  "font_weight": "400",
  "ipad": {
    "font_color": "757575ff",
    "font_name": "Helvetica",
    "font_size": 88,
    "font_style": "normal",
    "font_weight": "normal",
    "isForked": true
  },
  "iphone": {
    "font_color": "757575ff",
    "font_name": "Helvetica",
    "font_size": 88,
    "isForked": true
  },
  "isDefaultSkin": false,
  "kuid": "sc5e0860e2b04588b978465db8799ac3",
  "spaan": {
    "border_type": 0,
    "bottom_left_border_color": "424242ff",
    "bottom_left_border_style": "plain",
    "bottom_left_border_width": 0,
    "bottom_right_border_color": "424242ff",
    "bottom_right_border_style": "plain",
    "bottom_right_border_width": 0,
    "font_color": "757575ff",
    "font_name": "Helvetica",
    "font_size": 88,
    "font_style": "normal",
    "font_weight": "normal",
    "isForked": true,
    "top_left_border_color": "424242ff",
    "top_left_border_style": "plain",
    "top_left_border_width": 0,
    "top_right_border_color": "424242ff",
    "top_right_border_style": "plain",
    "top_right_border_width": 0
  },
  "spaandroidtablet": {
    "border_type": 0,
    "bottom_left_border_color": "424242ff",
    "bottom_left_border_style": "plain",
    "bottom_left_border_width": 0,
    "bottom_right_border_color": "424242ff",
    "bottom_right_border_style": "plain",
    "bottom_right_border_width": 0,
    "font_color": "757575ff",
    "font_name": "Helvetica",
    "font_size": 88,
    "font_style": "normal",
    "font_weight": "normal",
    "isForked": true,
    "top_left_border_color": "424242ff",
    "top_left_border_style": "plain",
    "top_left_border_width": 0,
    "top_right_border_color": "424242ff",
    "top_right_border_style": "plain",
    "top_right_border_width": 0
  },
  "spaip": {
    "border_type": 0,
    "bottom_left_border_color": "424242ff",
    "bottom_left_border_style": "plain",
    "bottom_left_border_width": 0,
    "bottom_right_border_color": "424242ff",
    "bottom_right_border_style": "plain",
    "bottom_right_border_width": 0,
    "font_color": "757575ff",
    "font_name": "Helvetica",
    "font_size": 88,
    "font_style": "normal",
    "font_weight": "normal",
    "isForked": true,
    "top_left_border_color": "424242ff",
    "top_left_border_style": "plain",
    "top_left_border_width": 0,
    "top_right_border_color": "424242ff",
    "top_right_border_style": "plain",
    "top_right_border_width": 0
  },
  "spaipad": {
    "border_type": 0,
    "bottom_left_border_color": "424242ff",
    "bottom_left_border_style": "plain",
    "bottom_left_border_width": 0,
    "bottom_right_border_color": "424242ff",
    "bottom_right_border_style": "plain",
    "bottom_right_border_width": 0,
    "font_color": "757575ff",
    "font_name": "Helvetica",
    "font_size": 88,
    "font_style": "normal",
    "font_weight": "normal",
    "isForked": true,
    "top_left_border_color": "424242ff",
    "top_left_border_style": "plain",
    "top_left_border_width": 0,
    "top_right_border_color": "424242ff",
    "top_right_border_style": "plain",
    "top_right_border_width": 0
  },
  "spawindowstablet": {
    "border_type": 0,
    "bottom_left_border_color": "424242ff",
    "bottom_left_border_style": "plain",
    "bottom_left_border_width": 0,
    "bottom_right_border_color": "424242ff",
    "bottom_right_border_style": "plain",
    "bottom_right_border_width": 0,
    "font_color": "757575ff",
    "font_name": "Helvetica",
    "font_size": 88,
    "font_style": "normal",
    "font_weight": "normal",
    "isForked": true,
    "top_left_border_color": "424242ff",
    "top_left_border_style": "plain",
    "top_left_border_width": 0,
    "top_right_border_color": "424242ff",
    "top_right_border_style": "plain",
    "top_right_border_width": 0
  },
  "spawinphone8": {
    "border_type": 0,
    "bottom_left_border_color": "424242ff",
    "bottom_left_border_style": "plain",
    "bottom_left_border_width": 0,
    "bottom_right_border_color": "424242ff",
    "bottom_right_border_style": "plain",
    "bottom_right_border_width": 0,
    "font_color": "757575ff",
    "font_name": "Helvetica",
    "font_size": 88,
    "font_style": "normal",
    "font_weight": "normal",
    "isForked": true,
    "top_left_border_color": "424242ff",
    "top_left_border_style": "plain",
    "top_left_border_width": 0,
    "top_right_border_color": "424242ff",
    "top_right_border_style": "plain",
    "top_right_border_width": 0
  },
  "tabrcandroid": {
    "font_color": "757575ff",
    "font_name": "Helvetica",
    "font_size": 88,
    "font_style": "normal",
    "font_weight": "normal",
    "isForked": true
  },
  "wType": "RichText",
  "watchos": {
    "font_name": "System",
    "font_size": 88,
    "isForked": false
  },
  "windows8": {
    "font_color": "757575ff",
    "font_name": "None",
    "font_size": 88,
    "font_style": "normal",
    "font_weight": "normal",
    "isForked": true
  },
  "winphone8": {
    "font_color": "757575ff",
    "font_name": "None",
    "font_size": 88,
    "font_style": "normal",
    "font_weight": "normal",
    "isForked": true
  }
}