{
    "@class": "com.kony.gen.viz.model.component.KVizUserWidget",
    "DNDConfig": null,
    "_children_": [],
    "_height_": {
        "type": "string",
        "value": "240dp"
    },
    "_left_": {
        "type": "string",
        "value": "0dp"
    },
    "_margin_": [
        0,
        0,
        0,
        0
    ],
    "_orientation_": 1,
    "_padding_": [
        0,
        0,
        0,
        0
    ],
    "_percent_": true,
    "_skin_": "sc3152e84f124ba89897dc36dd3dbc9e",
    "_top_": {
        "type": "string",
        "value": "0dp"
    },
    "_width_": {
        "type": "string",
        "value": "100%"
    },
    "areflexpropsreferenced": false,
    "autogrowmode": 0,
    "canUpdateUI": true,
    "clipbounds": false,
    "containerweight": 0,
    "dataDiffs": {
        "AccountList": {
            "__events__": {},
            "__info__": {
                "isRoot": true,
                "kuid": "e3fc16804c5e460e9020fef5d022338b",
                "srcKUID": "cbb7b673c99b462696ec92c15e5adcd7",
                "wType": "FlexContainer"
            }
        },
        "flxHeader": {
            "__events__": {},
            "__info__": {
                "kuid": "d92217ce628f4817be31ce7700ecb034",
                "srcKUID": "f1c09a8c62eb47cc84c394d39ae9df23",
                "wType": "FlexContainer"
            }
        },
        "lblAccNo": {
            "__events__": {},
            "__info__": {
                "kuid": "a511ffc6522c418e98959607c0cf483a",
                "srcKUID": "b284f18f988f4b9babfebd3517890b56",
                "wType": "Label"
            }
        },
        "lblBalance": {
            "__events__": {},
            "__info__": {
                "kuid": "h0873cb506714b05b0eed3123ce9a005",
                "srcKUID": "b8cb8c84a7ff422caeab094fdfd63b0c",
                "wType": "Label"
            }
        },
        "lblNoAccounts": {
            "__events__": {},
            "__info__": {
                "kuid": "g7e36e9a582743adbdba4ac0bf82bcc2",
                "srcKUID": "c328608af89d4eeda7651cddb7a99e3a",
                "wType": "Label"
            }
        },
        "lblType": {
            "__events__": {},
            "__info__": {
                "kuid": "c9dad87230c44f63a071e36950afbc1f",
                "srcKUID": "ef7d6421dce34f5aaf8e3acf81214474",
                "wType": "Label"
            }
        },
        "segAccountList": {
            "__events__": {},
            "__info__": {
                "kuid": "daada49d8fcf4e638e35855c0ad780a6",
                "srcKUID": "f2669e646d954ea49668ed564a010b7c",
                "wType": "Segment"
            }
        }
    },
    "enablescrolling": true,
    "id": "AccountList2",
    "info": null,
    "iscustomlayout": false,
    "isdatareferenced": false,
    "isvisible": true,
    "kuid": "e3fc16804c5e460e9020fef5d022338b",
    "layouttype": 2,
    "masterType": 0,
    "name": "kony.ui.UserWidgetInstance",
    "parent": "flxDropDownAccountList",
    "pf": "frmFundDeposit",
    "retaincontentalignment": false,
    "retainflexpositionproperties": false,
    "retainflowhorizontalalignment": false,
    "snapgridsize": 10,
    "snaptogrid": true,
    "sourceUserWidget": "cbb7b673c99b462696ec92c15e5adcd7",
    "wType": "UserWidgetInstance",
    "zindex": 10
}