{
    "@class": "com.kony.gen.viz.model.component.KVizButton",
    "DNDConfig": null,
    "_height_": {
        "type": "string",
        "value": "40dp"
    },
    "_margin_": [
        6,
        6,
        6,
        6
    ],
    "_padding_": [
        0,
        0,
        0,
        0
    ],
    "_right_": {
        "type": "string",
        "value": "50dp"
    },
    "_skin_": "s4f36f81a352456daff08fdebbecae1a",
    "_text_": "",
    "_top_": {
        "type": "string",
        "value": "0dp"
    },
    "_width_": {
        "type": "string",
        "value": "25dp"
    },
    "canUpdateUI": true,
    "containerweight": 100,
    "contentalignment": 5,
    "disabledSkins": {
        "focusSkin": "sb47e4be03c74bcc8599b34b76f24950"
    },
    "displaytext": true,
    "id": "btnNext",
    "info": null,
    "iscustomlayout": false,
    "isvisible": true,
    "kuid": "ffdec19dc94848f1883646a086b2f3c7",
    "name": "kony.ui.Button",
    "parent": "flxPagination",
    "pf": "frmFundDeposit",
    "retaincontentalignment": false,
    "retainflexpositionproperties": false,
    "wType": "Button",
    "zindex": 50
}