{
    "@class": "com.kony.gen.viz.model.component.KVizCustom",
    "DNDConfig": null,
    "_height_": {
        "type": "string",
        "value": "56dp"
    },
    "_left_": {
        "type": "string",
        "value": "64%"
    },
    "_margin_": [
        0,
        0,
        0,
        0
    ],
    "_padding_": [
        0,
        0,
        0,
        0
    ],
    "_top_": {
        "type": "string",
        "value": "120dp"
    },
    "_width_": {
        "type": "string",
        "value": "25%"
    },
    "android": {
        "render": false
    },
    "androidwearos": {
        "render": false
    },
    "canUpdateUI": true,
    "clipbounds": false,
    "containerweight": 0,
    "customProperties": {
        "decimals": 0,
        "dense": true,
        "disabled": true,
        "endAligned": false,
        "labelDescription": "Available Balance",
        "locale": "en-US",
        "placeholder": "",
        "prefix": "",
        "readonly": false,
        "required": "",
        "suffix": "",
        "value": ""
    },
    "cwEvents": [],
    "cwid": "cwc78708e3b36b4a869b0ef21472b48b16",
    "id": "cusTextAvailableBalance",
    "info": null,
    "ipad": {
        "render": false
    },
    "iphone": {
        "render": false
    },
    "iscustomlayout": false,
    "isvisible": true,
    "kiosk": {
        "render": false
    },
    "kuid": "ab6b10bfaef14a479ffaf80eaa5d17cc",
    "name": "uuxAmountComponent-kony.ui",
    "nameSpaceIndex": 0,
    "parent": "flxFundDepositWrapper",
    "pf": "frmFundDeposit",
    "platformKey": "spa",
    "retaincontentalignment": false,
    "retainflexpositionproperties": false,
    "tabrcandroid": {
        "render": false
    },
    "wType": "TPW",
    "watchos": {
        "render": false
    },
    "widgetIndex": 1,
    "windows10": {
        "render": false
    },
    "windows8": {
        "render": false
    },
    "winphone10": {
        "render": false
    },
    "winphone8": {
        "render": false
    },
    "zindex": 1
}