{
    "@class": "com.kony.gen.viz.model.component.KVizUserWidget",
    "DNDConfig": null,
    "_children_": [],
    "_height_": {
        "type": "string",
        "value": "72dp"
    },
    "_left_": {
        "type": "string",
        "value": "18dp"
    },
    "_margin_": [
        0,
        0,
        0,
        0
    ],
    "_orientation_": 1,
    "_padding_": [
        0,
        0,
        0,
        0
    ],
    "_percent_": true,
    "_right_": {
        "type": "number",
        "value": "32"
    },
    "_skin_": "s9c9737658294ba5b3f6f61d8462116a",
    "_top_": {
        "type": "string",
        "value": "0dp"
    },
    "_width_": {
        "type": "ref",
        "value": "preferred"
    },
    "android": {},
    "androidwearos": {},
    "areflexpropsreferenced": false,
    "autogrowmode": 0,
    "canUpdateUI": true,
    "clipbounds": true,
    "containerweight": 0,
    "dataDiffs": {
        "ErrorAllertCopy": {
            "__events__": {},
            "__info__": {
                "isRoot": true,
                "kuid": "bba3bcade0cd4d25ba4638f09afd00a0",
                "srcKUID": "uf4eaac55e6443e78f2309b9be489c87",
                "wType": "FlexContainer"
            },
            "isVisible": false,
            "responsiveData": {}
        },
        "FlexContainer0c96d2d6573ff47": {
            "__events__": {},
            "__info__": {
                "kuid": "e8240d3c9e944df393a62afb33b97091",
                "srcKUID": "u2ffbfddc324458d804de2a1a8a872fe",
                "wType": "FlexContainer"
            }
        },
        "flxError": {
            "__events__": {},
            "__info__": {
                "kuid": "j00370289b6f4925a1ee9ffb193584f9",
                "srcKUID": "u50300375f714223bc372d26369224e0",
                "wType": "FlexContainer"
            }
        },
        "imgClose": {
            "__events__": {},
            "__info__": {
                "kuid": "gb580023601b4f1d82288d8b5e5bae40",
                "srcKUID": "ufc258fb883c489e9d51184e54adfc20",
                "wType": "Image"
            },
            "src": "ico_close_1.png"
        },
        "lblError": {
            "__events__": {},
            "__info__": {
                "kuid": "c35e948180d44e30834fe86fe00b0136",
                "srcKUID": "uebc88d3933a44f0b0db266a868a435f",
                "wType": "Label"
            }
        },
        "lblMessage": {
            "__events__": {},
            "__info__": {
                "kuid": "b8831c6bf6c34051a1abd7b4740993bf",
                "srcKUID": "ud4a2d8c8ed9468ab7d65ed93108bc73",
                "wType": "Label"
            }
        }
    },
    "desktopweb": {},
    "enablescrolling": true,
    "id": "ErrorAllert",
    "info": null,
    "ipad": {},
    "iphone": {},
    "iscustomlayout": false,
    "isdatareferenced": false,
    "isvisible": false,
    "kiosk": {},
    "kuid": "bba3bcade0cd4d25ba4638f09afd00a0",
    "layouttype": 2,
    "masterType": 0,
    "name": "kony.ui.UserWidgetInstance",
    "parent": "flxMainContainer",
    "pf": "frmFundDeposit",
    "responsiveData": {},
    "retaincontentalignment": false,
    "retainflexpositionproperties": false,
    "retainflowhorizontalalignment": false,
    "snapgridsize": 10,
    "snaptogrid": true,
    "sourceUserWidget": "uf4eaac55e6443e78f2309b9be489c87",
    "spa": {},
    "spaan": {},
    "spaandroidtablet": {},
    "spabb": {},
    "spaip": {},
    "spaipad": {},
    "spamobile": {},
    "spatablet": {},
    "spawindowstablet": {},
    "spawinphone8": {},
    "tabrcandroid": {},
    "vizProps": {
        "hidewidgethierarchy": false
    },
    "wType": "UserWidgetInstance",
    "windows10": {},
    "windows8": {},
    "winphone10": {},
    "winphone8": {}
}