{
    "DNDConfig": null,
    "_height_": {
        "type": "string",
        "value": "250dp"
    },
    "_left_": {
        "type": "string",
        "value": "10%"
    },
    "_margin_": [
        0,
        0,
        0,
        0
    ],
    "_orientation_": 6,
    "_padding_": [
        0,
        0,
        0,
        0
    ],
    "_percent_": true,
    "_skin_": "se31956b9efb4cdeb803f81ffb1335e2",
    "_top_": {
        "type": "string",
        "value": "250dp"
    },
    "_width_": {
        "type": "string",
        "value": "280dp"
    },
    "allboxes": [],
    "autogrowmode": 0,
    "canUpdateUI": true,
    "children": [
        "AccountList2"
    ],
    "clipbounds": true,
    "containerweight": 100,
    "enablescrolling": true,
    "id": "flxDropDownAccountList",
    "info": null,
    "iscustomlayout": false,
    "isvisible": false,
    "kuid": "aa258e67a546456eaf717428ca304605",
    "layouttype": 2,
    "name": "kony.ui.FlexContainer",
    "parent": "flxFundDepositWrapper",
    "pf": "frmFundDeposit",
    "retaincontentalignment": false,
    "retainflexpositionproperties": false,
    "retainflowhorizontalalignment": false,
    "snapgridsize": 10,
    "snaptogrid": true,
    "wType": "FlexContainer",
    "widgetalignment": 1,
    "zindex": 1
}