{
    "DNDConfig": null,
    "_height_": {
        "type": "string",
        "value": "30dp"
    },
    "_left_": {
        "type": "string",
        "value": "2%"
    },
    "_margin_": [
        0,
        0,
        0,
        0
    ],
    "_orientation_": 6,
    "_padding_": [
        0,
        0,
        0,
        0
    ],
    "_percent_": true,
    "_skin_": "se31956b9efb4cdeb803f81ffb1335e2",
    "_top_": {
        "type": "string",
        "value": "23dp"
    },
    "_width_": {
        "type": "string",
        "value": "96%"
    },
    "allboxes": [],
    "autogrowmode": 0,
    "canUpdateUI": true,
    "children": [
        "lblAccountIDInfo",
        "lblCustomerIDInfo",
        "lblProductInfo",
        "lblCCYInfo",
        "lblUsableBalanceInfo"
    ],
    "clipbounds": true,
    "containerweight": 100,
    "enablescrolling": true,
    "id": "flxSegmentHeaderInfo",
    "info": null,
    "iscustomlayout": false,
    "isvisible": true,
    "kuid": "af3d1eabe46244ab98b05b8de568ac32",
    "layouttype": 3,
    "name": "kony.ui.FlexContainer",
    "parent": "flxDropDownAccountListInnerWrapper",
    "pf": "frmFundDeposit",
    "retaincontentalignment": false,
    "retainflexpositionproperties": false,
    "retainflowhorizontalalignment": false,
    "snapgridsize": 10,
    "snaptogrid": true,
    "wType": "FlexContainer",
    "widgetalignment": 1,
    "zindex": 1
}