{
    "@class": "com.kony.gen.viz.model.component.KVizUserWidget",
    "DNDConfig": null,
    "_children_": [],
    "_height_": {
        "type": "string",
        "value": "128dp"
    },
    "_left_": {
        "type": "string",
        "value": "18dp"
    },
    "_margin_": [
        0,
        0,
        0,
        0
    ],
    "_orientation_": 1,
    "_padding_": [
        0,
        0,
        0,
        0
    ],
    "_percent_": true,
    "_right_": {
        "type": "string",
        "value": "32dp"
    },
    "_skin_": "se31956b9efb4cdeb803f81ffb1335e2",
    "_top_": {
        "type": "string",
        "value": "292dp"
    },
    "_width_": {
        "type": "ref",
        "value": "preferred"
    },
    "areflexpropsreferenced": false,
    "autogrowmode": 0,
    "canUpdateUI": true,
    "clipbounds": true,
    "containerweight": 0,
    "dataDiffs": {
        "FundDetails": {
            "__events__": {},
            "__info__": {
                "isRoot": true,
                "kuid": "g1e5a87f5a5e4aa282edd3f204f2458b",
                "srcKUID": "ff6026887e164bfcb3ef875207446229",
                "wType": "FlexContainer"
            },
            "left": {
                "Default": {
                    "type": "string",
                    "value": "18dp"
                }
            },
            "responsiveData": {},
            "right": {
                "Default": {
                    "type": "string",
                    "value": "32dp"
                }
            },
            "top": {
                "Default": {
                    "type": "string",
                    "value": "292dp"
                }
            },
            "width": {
                "Default": {
                    "type": "ref",
                    "value": "preferred"
                }
            }
        },
        "flxDepositsDetailsvalue": {
            "__events__": {},
            "__info__": {
                "kuid": "ce8d9daf9cfb4c8a840fd2971a5a62e2",
                "srcKUID": "i225c7f9682d4faaa3744e821ade1602",
                "wType": "FlexContainer"
            },
            "left": {
                "Default": {
                    "type": "string",
                    "value": "0dp"
                }
            },
            "responsiveData": {},
            "top": {
                "Default": {
                    "type": "string",
                    "value": "70dp"
                }
            },
            "width": {
                "Default": {
                    "type": "string",
                    "value": "100%"
                }
            }
        },
        "flxFundDetailsHeader": {
            "__events__": {},
            "__info__": {
                "kuid": "d16731b300544fc1a2fe9e2e3a047a3b",
                "srcKUID": "bd378108163c4a92938da73e382fd1cc",
                "wType": "FlexContainer"
            },
            "responsiveData": {},
            "right": {
                "Default": {
                    "type": "string",
                    "value": "32dp"
                }
            },
            "width": {
                "Default": {
                    "type": "string",
                    "value": "100%"
                }
            }
        },
        "flxListBoxSelectedValue": {
            "__events__": {},
            "__info__": {
                "kuid": "i7f5971da9674b93b8a0e98e3b1a0dd9",
                "srcKUID": "i03cdc0d8b7a401cbee1e3dc83591b78",
                "wType": "FlexContainer"
            },
            "left": {
                "Default": {
                    "type": "string",
                    "value": "20dp"
                }
            },
            "responsiveData": {
                "b2": {
                    "left": {
                        "type": "string",
                        "value": "1dp"
                    },
                    "width": {
                        "type": "string",
                        "value": "120dp"
                    }
                }
            },
            "width": {
                "Default": {
                    "type": "string",
                    "value": "140dp"
                }
            }
        },
        "flxontainerLoans": {
            "__events__": {},
            "__info__": {
                "kuid": "a717a75433814fadb88ccb79bcb17b1d",
                "srcKUID": "a013e0cea3ef4c71a35f21a030287edd",
                "wType": "FlexContainer"
            },
            "bottom": {
                "Default": {
                    "type": "string",
                    "value": "-1px"
                }
            },
            "responsiveData": {},
            "top": {
                "Default": {
                    "type": "string",
                    "value": "7dp"
                }
            }
        },
        "imgListBoxSelectedDropDown": {
            "__events__": {},
            "__info__": {
                "kuid": "cfff85e222bd4d628537db7b980aca35",
                "srcKUID": "a7e981a66e0c45589dd4359670819ec8",
                "wType": "Image"
            },
            "isVisible": false,
            "left": {
                "Default": {
                    "type": "string",
                    "value": "8dp"
                }
            },
            "responsiveData": {
                "b2": {
                    "left": {
                        "type": "string",
                        "value": "3dp"
                    }
                }
            },
            "src": "drop_down_arrow_1.png"
        },
        "lblAccountNumberInfo": {
            "__events__": {},
            "__info__": {
                "kuid": "a5ff49bc09cd46949fa3ae4905ede774",
                "srcKUID": "d47cb976dc234ac2b2b6d8a97439c707",
                "wType": "Label"
            },
            "left": {
                "Default": {
                    "type": "string",
                    "value": "27dp"
                }
            },
            "responsiveData": {
                "b2": {
                    "width": {
                        "type": "string",
                        "value": "130dp"
                    }
                }
            },
            "width": {
                "Default": {
                    "type": "string",
                    "value": "160dp"
                }
            }
        },
        "lblAccountNumberResponse": {
            "__events__": {},
            "__info__": {
                "kuid": "db6cc7e304d1489fbf98f69818afd9d0",
                "srcKUID": "bd8580b2af0645298a8cfe6ec8840a78",
                "wType": "Label"
            },
            "left": {
                "Default": {
                    "type": "string",
                    "value": "27dp"
                }
            },
            "responsiveData": {
                "b2": {
                    "width": {
                        "type": "string",
                        "value": "130dp"
                    }
                }
            },
            "width": {
                "Default": {
                    "type": "string",
                    "value": "160dp"
                }
            }
        },
        "lblAccountServiceInfo": {
            "__events__": {},
            "__info__": {
                "kuid": "dfdb8d5e7f4441658aa04174a1b9e5cc",
                "srcKUID": "fa75ce1d584344c49c25bd146fd6eb5d",
                "wType": "Label"
            },
            "left": {
                "Default": {
                    "type": "string",
                    "value": "20dp"
                }
            },
            "responsiveData": {
                "b2": {
                    "left": {
                        "type": "string",
                        "value": "1dp"
                    }
                }
            },
            "text": "Deposit Services"
        },
        "lblAccountTypeInfo": {
            "__events__": {},
            "__info__": {
                "kuid": "ad97ae2dadbf4d8f957328ffb5011280",
                "srcKUID": "da872a34fbcd41b2896b173101827b97",
                "wType": "Label"
            },
            "left": {
                "Default": {
                    "type": "string",
                    "value": "20dp"
                }
            },
            "responsiveData": {
                "b2": {
                    "left": {
                        "type": "string",
                        "value": "1dp"
                    },
                    "width": {
                        "type": "string",
                        "value": "150dp"
                    }
                }
            },
            "width": {
                "Default": {
                    "type": "string",
                    "value": "160dp"
                }
            }
        },
        "lblAccountTypeResponse": {
            "__events__": {},
            "__info__": {
                "kuid": "d3f343d769b143ba83f952bfd7dbe471",
                "srcKUID": "f6a191bf433d407ca52c163296febce8",
                "wType": "Label"
            },
            "left": {
                "Default": {
                    "type": "string",
                    "value": "20dp"
                }
            },
            "responsiveData": {
                "b2": {
                    "left": {
                        "type": "string",
                        "value": "1dp"
                    },
                    "width": {
                        "type": "string",
                        "value": "150dp"
                    }
                }
            },
            "width": {
                "Default": {
                    "type": "string",
                    "value": "160dp"
                }
            }
        },
        "lblAmountValueInfo": {
            "__events__": {},
            "__info__": {
                "kuid": "bb62f31165174119ba64474647c1796e",
                "srcKUID": "jdfa663bf5f74ffea0cc92796b371552",
                "wType": "Label"
            },
            "left": {
                "Default": {
                    "type": "string",
                    "value": "20dp"
                }
            },
            "responsiveData": {
                "b2": {
                    "left": {
                        "type": "string",
                        "value": "1dp"
                    },
                    "width": {
                        "type": "string",
                        "value": "120dp"
                    }
                }
            },
            "width": {
                "Default": {
                    "type": "string",
                    "value": "155dp"
                }
            }
        },
        "lblAmountValueResponse": {
            "__events__": {},
            "__info__": {
                "kuid": "b838aee6d8f54ec7b0b002462dd71b81",
                "srcKUID": "dfd8418f6eaf4bde854b2b769489ab1e",
                "wType": "Label"
            },
            "left": {
                "Default": {
                    "type": "string",
                    "value": "20dp"
                }
            },
            "responsiveData": {
                "b2": {
                    "left": {
                        "type": "string",
                        "value": "1dp"
                    },
                    "width": {
                        "type": "string",
                        "value": "120dp"
                    }
                }
            },
            "text": "83,550.50",
            "width": {
                "Default": {
                    "type": "string",
                    "value": "155dp"
                }
            }
        },
        "lblCurrencyValueInfo": {
            "__events__": {},
            "__info__": {
                "kuid": "dee0007cb7344d51873e29088b699843",
                "srcKUID": "g083b93ae7e3429793f8be226532fa59",
                "wType": "Label"
            },
            "left": {
                "Default": {
                    "type": "string",
                    "value": "20dp"
                }
            },
            "responsiveData": {
                "b2": {
                    "left": {
                        "type": "string",
                        "value": "1dp"
                    },
                    "width": {
                        "type": "string",
                        "value": "80dp"
                    }
                }
            },
            "width": {
                "Default": {
                    "type": "string",
                    "value": "120dp"
                }
            }
        },
        "lblCurrencyValueResponse": {
            "__events__": {},
            "__info__": {
                "kuid": "a7ad65a285a24fea8a935f76cc467c22",
                "srcKUID": "ecf1769ce017496eadb391f31f31911d",
                "wType": "Label"
            },
            "left": {
                "Default": {
                    "type": "string",
                    "value": "20dp"
                }
            },
            "responsiveData": {
                "b2": {
                    "left": {
                        "type": "string",
                        "value": "1dp"
                    },
                    "width": {
                        "type": "string",
                        "value": "80dp"
                    }
                }
            },
            "width": {
                "Default": {
                    "type": "string",
                    "value": "120dp"
                }
            }
        },
        "lblListBoxSelectedValue": {
            "__events__": {},
            "__info__": {
                "kuid": "d052de4c85ff4715a9cd528c322e7fe7",
                "srcKUID": "dd1995316fca4104acccde65c2b8fb81",
                "wType": "Label"
            },
            "centerX": {
                "Default": {
                    "type": "string",
                    "value": "50%"
                }
            },
            "left": {
                "Default": {
                    "type": "string",
                    "value": ""
                }
            },
            "responsiveData": {
                "b2": {
                    "left": null
                }
            }
        },
        "lblMaturityDateInfo": {
            "__events__": {},
            "__info__": {
                "kuid": "a9ce7516826f4c5bbcbb7a100173e2d2",
                "srcKUID": "b73993f007794fffa079486a34746d93",
                "wType": "Label"
            },
            "left": {
                "Default": {
                    "type": "string",
                    "value": "20dp"
                }
            },
            "responsiveData": {
                "b2": {
                    "left": {
                        "type": "string",
                        "value": "1dp"
                    },
                    "width": {
                        "type": "string",
                        "value": "130dp"
                    }
                }
            },
            "width": {
                "Default": {
                    "type": "string",
                    "value": "155dp"
                }
            }
        },
        "lblMaturityDateResponse": {
            "__events__": {},
            "__info__": {
                "kuid": "efe8f06555d24d4384e6193de1892f16",
                "srcKUID": "bca593e20f1a433b9e2785d94fa2714a",
                "wType": "Label"
            },
            "left": {
                "Default": {
                    "type": "string",
                    "value": "20dp"
                }
            },
            "responsiveData": {
                "b2": {
                    "left": {
                        "type": "string",
                        "value": "1dp"
                    },
                    "width": {
                        "type": "string",
                        "value": "130dp"
                    }
                }
            },
            "text": "",
            "width": {
                "Default": {
                    "type": "string",
                    "value": "155dp"
                }
            }
        },
        "lblStartDateInfo": {
            "__events__": {},
            "__info__": {
                "kuid": "g552746fef1546369d76426268eba679",
                "srcKUID": "ea4354ad447a49eebd25fe64f824fe78",
                "wType": "Label"
            },
            "left": {
                "Default": {
                    "type": "string",
                    "value": "20dp"
                }
            },
            "responsiveData": {
                "b2": {
                    "left": {
                        "type": "string",
                        "value": "1dp"
                    },
                    "width": {
                        "type": "string",
                        "value": "120dp"
                    }
                }
            },
            "width": {
                "Default": {
                    "type": "string",
                    "value": "150dp"
                }
            }
        },
        "lblStartDateResponse": {
            "__events__": {},
            "__info__": {
                "kuid": "g862a3c7202a4e78b1c691f907b6db29",
                "srcKUID": "h05ba9c875924af79716a915d587be6e",
                "wType": "Label"
            },
            "left": {
                "Default": {
                    "type": "string",
                    "value": "20dp"
                }
            },
            "responsiveData": {
                "b2": {
                    "left": {
                        "type": "string",
                        "value": "1dp"
                    },
                    "width": {
                        "type": "string",
                        "value": "120dp"
                    }
                }
            },
            "text": "",
            "width": {
                "Default": {
                    "type": "string",
                    "value": "150dp"
                }
            }
        }
    },
    "enablescrolling": true,
    "id": "FundDetails",
    "info": null,
    "iscustomlayout": false,
    "isdatareferenced": false,
    "isvisible": true,
    "kuid": "g1e5a87f5a5e4aa282edd3f204f2458b",
    "layouttype": 2,
    "masterType": 0,
    "name": "kony.ui.UserWidgetInstance",
    "parent": "flxMainContainer",
    "pf": "frmFundDeposit",
    "retaincontentalignment": false,
    "retainflexpositionproperties": false,
    "retainflowhorizontalalignment": false,
    "snapgridsize": 10,
    "snaptogrid": true,
    "sourceUserWidget": "ff6026887e164bfcb3ef875207446229",
    "wType": "UserWidgetInstance",
    "zindex": 1
}