{
    "@class": "com.kony.gen.viz.model.component.KVizUserWidget",
    "DNDConfig": null,
    "_children_": [],
    "_height_": {
        "type": "string",
        "value": "100%"
    },
    "_left_": {
        "type": "string",
        "value": "0dp"
    },
    "_margin_": [
        0,
        0,
        0,
        0
    ],
    "_orientation_": 1,
    "_padding_": [
        0,
        0,
        0,
        0
    ],
    "_percent_": true,
    "_skin_": "sb06116e4770424bbf152ed05298135c",
    "_top_": {
        "type": "string",
        "value": "0%"
    },
    "_width_": {
        "type": "string",
        "value": "64dp"
    },
    "canUpdateUI": true,
    "containerweight": 0,
    "data": {},
    "id": "uuxNavigationRail",
    "info": null,
    "iscustomlayout": false,
    "isvisible": true,
    "kuid": "h3f18cec4ff546f8932e27294f517bbf",
    "masterType": 1,
    "name": "kony.ui.UserWidgetInstance",
    "parent": "frmFundDeposit",
    "pf": "frmFundDeposit",
    "retaincontentalignment": false,
    "retainflexpositionproperties": false,
    "retainflowhorizontalalignment": false,
    "sourceUserWidget": "u19b6fcce1524d6aa76107ca8427e1bb",
    "wType": "UserWidgetInstance"
}