{
    "@class": "com.kony.gen.viz.model.component.KVizListBox",
    "DNDConfig": null,
    "_height_": {
        "type": "string",
        "value": "40dp"
    },
    "_left_": {
        "type": "string",
        "value": "60dp"
    },
    "_margin_": [
        0,
        0,
        0,
        0
    ],
    "_padding_": [
        1,
        0,
        0,
        0
    ],
    "_placeholder_": "Please Select",
    "_skin_": "s22d6df5def643478ed3cf1a4e70d09e",
    "_top_": {
        "type": "string",
        "value": "5dp"
    },
    "_width_": {
        "type": "string",
        "value": "160dp"
    },
    "canUpdateUI": true,
    "containerId": true,
    "containerweight": 100,
    "contentalignment": 4,
    "disabledSkins": {
        "focusSkin": "s6459b4e1e854d2ebfa3bf2b0a69365f"
    },
    "groupcells": false,
    "id": "lstOperand",
    "info": null,
    "iscustomlayout": false,
    "isvisible": true,
    "kuid": "e668bba68d2342f2aa681d95781d52ce",
    "masterdata": [
        [
            "lb1",
            "Add"
        ],
        [
            "lb2",
            "SUB"
        ],
        [
            "lb3",
            "MUL"
        ]
    ],
    "name": "kony.ui.ListBox",
    "paddinginpixel": false,
    "parent": "flxSegLoanFixed",
    "pf": "TempSegLoanFixed",
    "retaincontentalignment": false,
    "retainflexpositionproperties": false,
    "selectedkey": "lb1",
    "selectedkeys": null,
    "selectedkeyvalue": [
        "lb1",
        "Add"
    ],
    "selectedkeyvalues": null,
    "size": 18,
    "viewconfig": {
        "toggleViewConfig": {
            "viewStyle": 0
        }
    },
    "viewtype": 0,
    "wType": "ListBox",
    "zindex": 1
}