{
    "@class": "com.kony.gen.viz.model.component.KVizCustom",
    "DNDConfig": null,
    "_height_": {
        "type": "string",
        "value": "40dp"
    },
    "_left_": {
        "type": "string",
        "value": "15dp"
    },
    "_margin_": [
        0,
        0,
        0,
        0
    ],
    "_padding_": [
        0,
        0,
        0,
        0
    ],
    "_top_": {
        "type": "string",
        "value": "0dp"
    },
    "_width_": {
        "type": "string",
        "value": "180dp"
    },
    "android": {
        "render": false
    },
    "androidwearos": {
        "render": false
    },
    "canUpdateUI": true,
    "clipbounds": false,
    "containerweight": 0,
    "customProperties": {
        "compact": false,
        "contained": false,
        "cta": false,
        "disabled": false,
        "icon": "",
        "labelText": "Cancel",
        "outlined": true,
        "size": {
            "optionsList": [
                "small",
                "medium",
                "large",
                "X-large"
            ],
            "selectedValue": "large"
        },
        "trailingIcon": false,
        "typeButton": {
            "optionsList": [
                "button",
                "submit",
                "reset"
            ],
            "selectedValue": "submit"
        }
    },
    "cwEvents": [
        "onclickEvent"
    ],
    "cwid": "cwhc92309f9d5b4240b8ec249442967df9",
    "desktopweb": {
        "zIndex": "auto"
    },
    "id": "cusButtonCancel",
    "info": null,
    "ipad": {
        "render": false
    },
    "iphone": {
        "render": false
    },
    "iscustomlayout": false,
    "isvisible": true,
    "kiosk": {
        "render": false
    },
    "kuid": "df0730e86b4a4af4b38f85a4fff72a50",
    "name": "uuxButton-kony.ui",
    "nameSpaceIndex": 0,
    "parent": "flxCancel",
    "pf": "frmChangeInterestPayoutTerms",
    "platformKey": "spa",
    "retaincontentalignment": false,
    "retainflexpositionproperties": false,
    "tabrcandroid": {
        "render": false
    },
    "wType": "TPW",
    "watchos": {
        "render": false
    },
    "widgetIndex": 2,
    "windows10": {
        "render": false
    },
    "windows8": {
        "render": false
    },
    "winphone10": {
        "render": false
    },
    "winphone8": {
        "render": false
    },
    "zindex": 1
}