{
    "DNDConfig": null,
    "_height_": {
        "type": "string",
        "value": "40dp"
    },
    "_left_": {
        "type": "string",
        "value": "1dp"
    },
    "_margin_": [
        0,
        0,
        0,
        0
    ],
    "_orientation_": 6,
    "_padding_": [
        0,
        0,
        0,
        0
    ],
    "_percent_": true,
    "_skin_": "se31956b9efb4cdeb803f81ffb1335e2",
    "_width_": {
        "type": "string",
        "value": "216dp"
    },
    "allboxes": [],
    "autogrowmode": 0,
    "canUpdateUI": true,
    "centery": {
        "type": "string",
        "value": "50%"
    },
    "children": [
        "cusButtonCancel"
    ],
    "clipbounds": false,
    "containerweight": 100,
    "desktopweb": {
        "zIndex": 1
    },
    "enablescrolling": true,
    "id": "flxCancel",
    "info": null,
    "iscustomlayout": false,
    "isvisible": true,
    "kuid": "d7199d2f0d764393968e23b89e9a1a32",
    "layouttype": 2,
    "name": "kony.ui.FlexContainer",
    "parent": "flxButtons",
    "pf": "frmChangeInterestPayoutTerms",
    "retaincontentalignment": false,
    "retainflexpositionproperties": false,
    "retainflowhorizontalalignment": false,
    "snapgridsize": 10,
    "snaptogrid": true,
    "wType": "FlexContainer",
    "widgetalignment": 1,
    "zindex": 3
}