{
    "@class": "com.kony.gen.viz.model.component.KVizUserWidget",
    "DNDConfig": null,
    "_children_": [],
    "_height_": {
        "type": "string",
        "value": "64dp"
    },
    "_left_": {
        "type": "string",
        "value": "0dp"
    },
    "_margin_": [
        0,
        0,
        0,
        0
    ],
    "_orientation_": 1,
    "_padding_": [
        0,
        0,
        0,
        0
    ],
    "_percent_": true,
    "_skin_": "s326344e94f3406b86de51e19fc61057",
    "_top_": {
        "type": "string",
        "value": "227dp"
    },
    "_width_": {
        "type": "string",
        "value": "100%"
    },
    "android": {},
    "androidwearos": {},
    "areflexpropsreferenced": false,
    "autogrowmode": 0,
    "canUpdateUI": true,
    "clipbounds": true,
    "containerweight": 0,
    "dataDiffs": {
        "MainTabs": {
            "__events__": {},
            "__info__": {
                "isRoot": true,
                "kuid": "df43bfda6fce40dcadc36c7a27421a95",
                "srcKUID": "gfa2cf89659d4a20bcd9887a4293aceb",
                "wType": "FlexContainer"
            },
            "left": {
                "Default": {
                    "type": "string",
                    "value": "0dp"
                }
            },
            "responsiveData": {},
            "top": {
                "Default": {
                    "type": "string",
                    "value": "227dp"
                }
            },
            "width": {
                "Default": {
                    "type": "string",
                    "value": "100%"
                }
            }
        },
        "btnAccounts1": {
            "__events__": {},
            "__info__": {
                "kuid": "c1653b76845f42a29b8300315b541db6",
                "srcKUID": "d907392e82444815861b42c16a52e990",
                "wType": "Button"
            },
            "left": {
                "Default": {
                    "type": "number",
                    "value": "40"
                }
            },
            "responsiveData": {}
        },
        "btnAccounts2": {
            "__events__": {},
            "__info__": {
                "kuid": "f5045b54d38a4fcf82e20d8ca2408458",
                "srcKUID": "b164258465c04156b0bfe728a8ba9edc",
                "wType": "Button"
            }
        },
        "btnAccounts3": {
            "__events__": {},
            "__info__": {
                "kuid": "f3e9d15c096c4159944294a8e7113021",
                "srcKUID": "f92522096e564e2e8c7ebcdc48881b6e",
                "wType": "Button"
            }
        },
        "flxButtons": {
            "__events__": {},
            "__info__": {
                "kuid": "d8f927c1893943ecaad29f8eb2bdd417",
                "srcKUID": "g5e41e55e19f4d73a0c0f80586ee0af5",
                "wType": "FlexContainer"
            }
        },
        "flxContainerAccount": {
            "__events__": {},
            "__info__": {
                "kuid": "i336c90b19b0419c88e914ca944b2e39",
                "srcKUID": "f02fd497ec2440efaf459ea4a1e30d76",
                "wType": "FlexContainer"
            },
            "left": {
                "Default": {
                    "type": "string",
                    "value": "27dp"
                }
            },
            "responsiveData": {}
        },
        "flxContainerdeposits": {
            "__events__": {},
            "__info__": {
                "kuid": "eee1da1a553a44c892b662ace829efe8",
                "srcKUID": "de5db572dc7d40da9a34209bd8d48cbc",
                "wType": "FlexContainer"
            },
            "left": {
                "Default": {
                    "type": "string",
                    "value": "142dp"
                }
            },
            "responsiveData": {}
        },
        "flxSelectedLine": {
            "__events__": {},
            "__info__": {
                "kuid": "fa9c4195c4504e8a97e53a9f4543314a",
                "srcKUID": "ebb68235498b423c978053017e5a2b76",
                "wType": "FlexContainer"
            }
        },
        "flxSeparatorLine1": {
            "__events__": {},
            "__info__": {
                "kuid": "a0109f847fc44321ace56b452d748165",
                "srcKUID": "g7af0e5532294f0b822b96c67e9a5da5",
                "wType": "FlexContainer"
            }
        },
        "flxontainerLoans": {
            "__events__": {},
            "__info__": {
                "kuid": "d8c0f811f5c24e26998e68e10fb0c2d6",
                "srcKUID": "acdd8666dd3b4d4d9d1fee68579444f5",
                "wType": "FlexContainer"
            },
            "left": {
                "Default": {
                    "type": "string",
                    "value": "247dp"
                }
            },
            "responsiveData": {}
        }
    },
    "desktopweb": {},
    "enablescrolling": true,
    "id": "MainTabs",
    "info": null,
    "ipad": {},
    "iphone": {},
    "iscustomlayout": false,
    "isdatareferenced": false,
    "issegmentchild": false,
    "isvisible": true,
    "kiosk": {},
    "kuid": "df43bfda6fce40dcadc36c7a27421a95",
    "layouttype": 2,
    "masterType": 0,
    "name": "kony.ui.UserWidgetInstance",
    "parent": "flxMainContainer",
    "pf": "frmChangeInterestPayoutTerms",
    "responsiveData": {},
    "retaincontentalignment": false,
    "retainflexpositionproperties": false,
    "retainflowhorizontalalignment": false,
    "snapgridsize": 10,
    "snaptogrid": true,
    "sourceUserWidget": "gfa2cf89659d4a20bcd9887a4293aceb",
    "spa": {},
    "spaan": {},
    "spaandroidtablet": {},
    "spabb": {},
    "spaip": {},
    "spaipad": {},
    "spamobile": {},
    "spatablet": {},
    "spawindowstablet": {},
    "spawinphone8": {},
    "tabrcandroid": {},
    "vizProps": {
        "hidewidgethierarchy": false
    },
    "wType": "UserWidgetInstance",
    "windows10": {},
    "windows8": {},
    "winphone10": {},
    "winphone8": {},
    "zindex": 1
}