{
    "@class": "com.kony.gen.viz.model.component.KVizButton",
    "DNDConfig": null,
    "_height_": {
        "type": "string",
        "value": "40dp"
    },
    "_margin_": [
        6,
        6,
        6,
        6
    ],
    "_padding_": [
        0,
        0,
        0,
        0
    ],
    "_right_": {
        "type": "string",
        "value": "90dp"
    },
    "_skin_": "s05131f8a06f4add8ee379ecb995cbd6",
    "_text_": "",
    "_top_": {
        "type": "string",
        "value": "0dp"
    },
    "_width_": {
        "type": "string",
        "value": "25dp"
    },
    "canUpdateUI": true,
    "containerweight": 100,
    "contentalignment": 5,
    "disabledSkins": {
        "focusSkin": "sb47e4be03c74bcc8599b34b76f24950"
    },
    "displaytext": true,
    "id": "btnPrev",
    "info": null,
    "iscustomlayout": false,
    "isvisible": true,
    "kuid": "dc6b8511a6404882889bcc204c0207b9",
    "name": "kony.ui.Button",
    "parent": "flxPagination",
    "pf": "frmDepositWithdrawal",
    "retaincontentalignment": false,
    "retainflexpositionproperties": false,
    "wType": "Button",
    "zindex": 1
}