{
    "@class": "com.kony.gen.viz.model.component.KVizCustom",
    "DNDConfig": null,
    "_height_": {
        "type": "string",
        "value": "56dp"
    },
    "_left_": {
        "type": "string",
        "value": "120dp"
    },
    "_margin_": [
        0,
        0,
        0,
        0
    ],
    "_padding_": [
        0,
        0,
        0,
        0
    ],
    "_top_": {
        "type": "string",
        "value": "195dp"
    },
    "_width_": {
        "type": "string",
        "value": "304dp"
    },
    "android": {
        "render": false
    },
    "androidwearos": {
        "render": false
    },
    "canUpdateUI": true,
    "clipbounds": true,
    "containerweight": 0,
    "customProperties": {
        "dense": true,
        "disabled": false,
        "disabledDates": "",
        "disabledDays": "",
        "displayFormat": "",
        "firstDayOfWeek": 0,
        "hideHeader": false,
        "iconButtonTrailingAriaLabel": "Open date calendar",
        "labelText": "Withdrawal Date",
        "max": "",
        "min": "1900-01-01",
        "showWeekNumber": false,
        "value": "",
        "weekLabel": "Wk"
    },
    "cwEvents": [
        "valueChanged"
    ],
    "cwid": "cwfec5353029634671b5a44b7a745ad774",
    "desktopweb": {
        "zIndex": 10
    },
    "id": "cusDatePickerWithdrawalDate",
    "info": null,
    "ipad": {
        "render": false
    },
    "iphone": {
        "render": false
    },
    "iscustomlayout": false,
    "isvisible": true,
    "kiosk": {
        "render": false
    },
    "kuid": "gdc1e80bf01e489b92e38f9a9f006dcd",
    "name": "uuxDatePicker-kony.ui",
    "nameSpaceIndex": 0,
    "parent": "flxFundWithdrawalWrapper",
    "pf": "frmDepositWithdrawal",
    "platformKey": "spa",
    "retaincontentalignment": false,
    "retainflexpositionproperties": false,
    "tabrcandroid": {
        "render": false
    },
    "wType": "TPW",
    "watchos": {
        "render": false
    },
    "widgetIndex": 6,
    "windows10": {
        "render": false
    },
    "windows8": {
        "render": false
    },
    "winphone10": {
        "render": false
    },
    "winphone8": {
        "render": false
    },
    "zindex": 10
}