{
    "@class": "com.kony.gen.viz.model.component.KVizCustom",
    "DNDConfig": null,
    "_height_": {
        "type": "string",
        "value": "40dp"
    },
    "_left_": {
        "type": "string",
        "value": "44dp"
    },
    "_margin_": [
        0,
        0,
        0,
        0
    ],
    "_padding_": [
        0,
        0,
        0,
        0
    ],
    "_top_": {
        "type": "string",
        "value": "0dp"
    },
    "_width_": {
        "type": "string",
        "value": "70%"
    },
    "android": {
        "render": false
    },
    "androidwearos": {
        "render": false
    },
    "canUpdateUI": true,
    "clipbounds": true,
    "containerweight": 0,
    "customProperties": {
        "labelText": "",
        "options": {
            "selectedValue": ""
        },
        "stacked": false,
        "value": "1"
    },
    "cwEvents": [
        "onRadioChange"
    ],
    "cwid": "cwd89592cb512944138b29050137e19020",
    "desktopweb": {
        "zIndex": "auto"
    },
    "id": "cusRadioWithdrawalType",
    "info": null,
    "ipad": {
        "render": false
    },
    "iphone": {
        "render": false
    },
    "iscustomlayout": false,
    "isvisible": true,
    "kiosk": {
        "render": false
    },
    "kuid": "e9a08dfe14e24d7c9f9c8c032c2035a2",
    "name": "uuxRadioGroup-kony.ui",
    "nameSpaceIndex": 0,
    "parent": "flxWithdrawType",
    "pf": "frmDepositWithdrawal",
    "platformKey": "spa",
    "retaincontentalignment": false,
    "retainflexpositionproperties": false,
    "tabrcandroid": {
        "render": false
    },
    "wType": "TPW",
    "watchos": {
        "render": false
    },
    "widgetIndex": 16,
    "windows10": {
        "render": false
    },
    "windows8": {
        "render": false
    },
    "winphone10": {
        "render": false
    },
    "winphone8": {
        "render": false
    },
    "zindex": 1
}