{
    "DNDConfig": null,
    "_height_": {
        "type": "string",
        "value": "48dp"
    },
    "_margin_": [
        0,
        0,
        0,
        0
    ],
    "_orientation_": 6,
    "_padding_": [
        0,
        0,
        0,
        0
    ],
    "_percent_": true,
    "_skin_": "se31956b9efb4cdeb803f81ffb1335e2",
    "_top_": {
        "type": "string",
        "value": "24dp"
    },
    "_width_": {
        "type": "string",
        "value": "80%"
    },
    "allboxes": [],
    "autogrowmode": 0,
    "canUpdateUI": true,
    "centerx": {
        "type": "string",
        "value": "50%"
    },
    "children": [
        "lblBilldetailsPrincipalText",
        "lblBilldetailsCurrency1",
        "lblBilldetailsPrincipalAmount",
        "lblHiddenValue1"
    ],
    "clipbounds": true,
    "containerweight": 100,
    "enablescrolling": true,
    "id": "flxBillDetailsPrincipal",
    "info": null,
    "iscustomlayout": false,
    "isvisible": true,
    "kuid": "i8ea731a9bd3483595216a4cb571da1a",
    "layouttype": 2,
    "name": "kony.ui.FlexContainer",
    "parent": "flxViewBillDetailsPopupWrapper",
    "pf": "frmDepositWithdrawal",
    "retaincontentalignment": false,
    "retainflexpositionproperties": false,
    "retainflowhorizontalalignment": false,
    "snapgridsize": 10,
    "snaptogrid": true,
    "wType": "FlexContainer",
    "widgetalignment": 1,
    "zindex": 1
}