{
    "@class": "com.kony.gen.viz.model.component.KVizUserWidget",
    "DNDConfig": null,
    "_children_": [],
    "_height_": {
        "type": "string",
        "value": "100%"
    },
    "_left_": {
        "type": "string",
        "value": "0dp"
    },
    "_margin_": [
        0,
        0,
        0,
        0
    ],
    "_orientation_": 1,
    "_padding_": [
        0,
        0,
        0,
        0
    ],
    "_percent_": true,
    "_skin_": "s3aa03e400d24e82984a1d00a7845d23",
    "_top_": {
        "type": "string",
        "value": "0dp"
    },
    "_width_": {
        "type": "string",
        "value": "100%"
    },
    "areflexpropsreferenced": false,
    "autogrowmode": 0,
    "canUpdateUI": true,
    "clipbounds": true,
    "containerweight": 0,
    "dataDiffs": {
        "SegmentPopupCopy": {
            "__events__": {},
            "__info__": {
                "isRoot": true,
                "kuid": "a8519dc68e00426787568260a5077462",
                "srcKUID": "uaed4ce62723462d8ff49d7c1a1ff8b8",
                "wType": "FlexContainer"
            },
            "autogrowMode": {
                "Default": 0
            },
            "height": {
                "Default": {
                    "type": "string",
                    "value": "100%"
                }
            },
            "isVisible": false,
            "responsiveData": {}
        },
        "btnCancel": {
            "__events__": {},
            "__info__": {
                "kuid": "h450845323824dc195d6394cd916f0ab",
                "srcKUID": "u2d57c5a21e3403da87f9be0cfe3519d",
                "wType": "Button"
            }
        },
        "btnProceed": {
            "__events__": {},
            "__info__": {
                "kuid": "e0886c066e484e39843a3806630698a4",
                "srcKUID": "ua572dfdb2cb4e29ba03ae1900197fca",
                "wType": "Button"
            }
        },
        "flxFooter": {
            "__events__": {},
            "__info__": {
                "kuid": "d3f31ee2087b42948da7306ae17c978d",
                "srcKUID": "u722559241f148c2aad21b2877ba8869",
                "wType": "FlexContainer"
            }
        },
        "flxPopup": {
            "__events__": {},
            "__info__": {
                "kuid": "f6637df4856f4068a4ce68f2abdd021f",
                "srcKUID": "ub172c0287d84a5bb87e643fb87d0327",
                "wType": "FlexContainer"
            },
            "centerX": {
                "Default": {
                    "type": "string",
                    "value": "50%"
                }
            },
            "centerY": {
                "Default": {
                    "type": "string",
                    "value": "50%"
                }
            },
            "left": {
                "Default": {
                    "type": "string",
                    "value": ""
                }
            },
            "responsiveData": {},
            "top": {
                "Default": {
                    "type": "string",
                    "value": ""
                }
            }
        },
        "flxPopupHeader": {
            "__events__": {},
            "__info__": {
                "kuid": "e726e97e47244190b79a53f3e4c8e4c5",
                "srcKUID": "u3c4d89c1c044739b7deb2be6dcb166e",
                "wType": "FlexContainer"
            }
        },
        "flxPopupMessage": {
            "__events__": {},
            "__info__": {
                "kuid": "j94f65fa36174c7380e8362ce3913cca",
                "srcKUID": "ue1bdbf97aa54798a610f6077890268f",
                "wType": "FlexContainer"
            }
        },
        "imgClose": {
            "__events__": {},
            "__info__": {
                "kuid": "ac0c8f8f5a6944b0bfefa3c3fb1befdb",
                "srcKUID": "ua7be549b2be4e7d8ad145552def98b6",
                "wType": "Image"
            },
            "src": "ico_close_1.png"
        },
        "lblPaymentInfo": {
            "__events__": {},
            "__info__": {
                "kuid": "g66131ebbc19430cbefc11f871a90b76",
                "srcKUID": "u77dc0a8626348adb1d7b23a2bd499a0",
                "wType": "Label"
            }
        },
        "segOverride": {
            "__events__": {},
            "__info__": {
                "kuid": "a6c846f564bc4f9297d126cd4957e73f",
                "srcKUID": "u39f045b49764182a6573d2a7f096953",
                "wType": "Segment"
            }
        }
    },
    "enablescrolling": true,
    "id": "OverrideSegmentPopup",
    "info": null,
    "iscustomlayout": false,
    "isdatareferenced": false,
    "isvisible": false,
    "kuid": "a8519dc68e00426787568260a5077462",
    "layouttype": 2,
    "masterType": 0,
    "name": "kony.ui.UserWidgetInstance",
    "parent": "frmDepositWithdrawal",
    "pf": "frmDepositWithdrawal",
    "retaincontentalignment": false,
    "retainflexpositionproperties": false,
    "retainflowhorizontalalignment": false,
    "snapgridsize": 10,
    "snaptogrid": true,
    "sourceUserWidget": "uaed4ce62723462d8ff49d7c1a1ff8b8",
    "wType": "UserWidgetInstance"
}