{
    "@class": "com.kony.gen.viz.model.component.KVizButton",
    "DNDConfig": null,
    "_height_": {
        "type": "string",
        "value": "30px"
    },
    "_margin_": [
        6,
        6,
        6,
        6
    ],
    "_padding_": [
        0,
        0,
        0,
        0
    ],
    "_right_": {
        "type": "string",
        "value": "20px"
    },
    "_skin_": "sa7e5956505c4b858266b0ca4ade413e",
    "_text_": "+ Add Client",
    "_top_": {
        "type": "string",
        "value": "0dp"
    },
    "_width_": {
        "type": "string",
        "value": "110px"
    },
    "canUpdateUI": true,
    "centery": {
        "type": "string",
        "value": "50%"
    },
    "containerweight": 100,
    "contentalignment": 5,
    "displaytext": true,
    "focusskin": "s4f100417a6a49b0ab2c7b0ac0b43d73",
    "id": "btnClient",
    "ide_onClick": "AS_Button_e134d42ca44545aca51e429edef42c0e",
    "info": null,
    "iscustomlayout": false,
    "isvisible": true,
    "kuid": "f748a4ce0d354e05b9214f7e4a457a6e",
    "name": "kony.ui.Button",
    "parent": "flxCntnr4",
    "pf": "frmDashboard",
    "retaincontentalignment": false,
    "retainflexpositionproperties": false,
    "wType": "Button",
    "zindex": 1
}