{
    "@class": "com.kony.gen.viz.model.component.KVizButton",
    "DNDConfig": null,
    "_height_": {
        "type": "string",
        "value": "30px"
    },
    "_left_": {
        "type": "string",
        "value": "50%"
    },
    "_margin_": [
        6,
        6,
        6,
        6
    ],
    "_padding_": [
        2,
        0,
        0,
        0
    ],
    "_skin_": "s38ffe26b5ac42ce8e96509c4a7269ba",
    "_text_": "Filter",
    "_top_": {
        "type": "string",
        "value": "0dp"
    },
    "_width_": {
        "type": "string",
        "value": "80px"
    },
    "canUpdateUI": true,
    "centery": {
        "type": "string",
        "value": "50%"
    },
    "containerweight": 100,
    "contentalignment": 5,
    "displaytext": true,
    "focusskin": "s4f100417a6a49b0ab2c7b0ac0b43d73",
    "id": "btnFilter",
    "info": null,
    "iscustomlayout": false,
    "isvisible": true,
    "kuid": "j2f94cb8cf4a43e68b4c7bf542d1cb2a",
    "name": "kony.ui.Button",
    "paddinginpixel": false,
    "parent": "flxCntnr4",
    "pf": "frmDashboard",
    "retaincontentalignment": false,
    "retainflexpositionproperties": false,
    "wType": "Button",
    "zindex": 1
}