{
    "DNDConfig": null,
    "_bottom_": {
        "type": "string",
        "value": "40px"
    },
    "_height_": {
        "type": "string",
        "value": "200px"
    },
    "_left_": {
        "type": "string",
        "value": "0dp"
    },
    "_margin_": [
        0,
        0,
        0,
        0
    ],
    "_orientation_": 6,
    "_padding_": [
        0,
        0,
        0,
        0
    ],
    "_percent_": true,
    "_skin_": "se31956b9efb4cdeb803f81ffb1335e2",
    "_top_": {
        "type": "string",
        "value": "0dp"
    },
    "_width_": {
        "type": "string",
        "value": "100%"
    },
    "allboxes": [],
    "autogrowmode": 0,
    "canUpdateUI": true,
    "children": [
        "flxAHIN",
        "flxgrpProFee"
    ],
    "clipbounds": false,
    "containerweight": 100,
    "enablescrolling": true,
    "id": "FlxInfo",
    "info": null,
    "iscustomlayout": false,
    "isvisible": true,
    "kuid": "g0e064a5fbef47c2b417f6d687f33a5c",
    "layouttype": 2,
    "name": "kony.ui.FlexContainer",
    "parent": "flxCenterActivities",
    "pf": "frmDashboard",
    "retaincontentalignment": false,
    "retainflexpositionproperties": false,
    "retainflowhorizontalalignment": false,
    "snapgridsize": 10,
    "snaptogrid": true,
    "wType": "FlexContainer",
    "widgetalignment": 1,
    "zindex": 1
}