{
    "DNDConfig": null,
    "_bottom_": {
        "type": "string",
        "value": "8px"
    },
    "_height_": {
        "type": "string",
        "value": "1px"
    },
    "_left_": {
        "type": "string",
        "value": "-100%"
    },
    "_margin_": [
        0,
        0,
        0,
        0
    ],
    "_orientation_": 6,
    "_padding_": [
        0,
        0,
        0,
        0
    ],
    "_percent_": true,
    "_skin_": "sa64edfa3c3445f4a26dfb6297aa90fe",
    "_width_": {
        "type": "string",
        "value": "100%"
    },
    "allboxes": [],
    "autogrowmode": 0,
    "canUpdateUI": true,
    "children": [],
    "clipbounds": true,
    "containerweight": 100,
    "enablescrolling": true,
    "id": "flxseparatotline",
    "info": null,
    "iscustomlayout": false,
    "isvisible": true,
    "kuid": "i8abc3ab293543dd9231425f7bdc9efa",
    "layouttype": 2,
    "name": "kony.ui.FlexContainer",
    "parent": "flxCntnr6",
    "pf": "frmDashboard",
    "retaincontentalignment": false,
    "retainflexpositionproperties": false,
    "retainflowhorizontalalignment": false,
    "snapgridsize": 10,
    "snaptogrid": true,
    "wType": "FlexContainer",
    "widgetalignment": 1,
    "zindex": 1
}