{
    "@class": "com.kony.gen.viz.model.component.KVizTextBox2",
    "DNDConfig": null,
    "_height_": {
        "type": "string",
        "value": "40px"
    },
    "_left_": {
        "type": "string",
        "value": "4px"
    },
    "_margin_": [
        0,
        0,
        0,
        0
    ],
    "_padding_": [
        10,
        0,
        0,
        0
    ],
    "_placeholder_": "Search Customer",
    "_right_": {
        "type": "string",
        "value": "4px"
    },
    "_skin_": "sed55ebea0164c6280ee46b956179cf4",
    "_text_": "",
    "autocapitalize": "none",
    "autocomplete": false,
    "autocorrect": false,
    "autofilter": false,
    "canUpdateUI": true,
    "centery": {
        "type": "string",
        "value": "50%"
    },
    "containerheight": "",
    "containerheightmode": 1,
    "containerweight": 100,
    "contentalignment": 4,
    "focusskin": "s39d5999ad9949079e927609b4366407",
    "id": "txtField1",
    "info": null,
    "iscustomlayout": false,
    "isvisible": true,
    "keyboardtype": "A",
    "kuid": "ae15acff093c43f2ba1c054e4c08918f",
    "mode": "A",
    "name": "kony.ui.TextBox2",
    "paddinginpixel": false,
    "parent": "flxSearch",
    "pf": "frmDashboard",
    "placeholderskin": "s10546fc77e34e4aaffa4e4ca91568c1",
    "retaincontentalignment": false,
    "retainflexpositionproperties": false,
    "securetextentry": false,
    "textinputmode": "A",
    "tooltip": "",
    "viewtype": "default",
    "wType": "TextField",
    "zindex": 1
}