{
    "@class": "com.kony.gen.viz.model.component.KVizButton",
    "DNDConfig": null,
    "_height_": {
        "type": "string",
        "value": "40dp"
    },
    "_left_": {
        "type": "string",
        "value": "24dp"
    },
    "_margin_": [
        6,
        6,
        6,
        6
    ],
    "_padding_": [
        0,
        0,
        0,
        0
    ],
    "_skin_": "sf3b55bbee9a424f918dcc4c9a8b9891",
    "_text_": "Yes",
    "_top_": {
        "type": "number",
        "value": "12"
    },
    "_width_": {
        "type": "string",
        "value": "177dp"
    },
    "canUpdateUI": true,
    "containerweight": 100,
    "contentalignment": 5,
    "disabledSkins": {
        "focusSkin": "sb47e4be03c74bcc8599b34b76f24950"
    },
    "displaytext": true,
    "focusskin": null,
    "id": "btnProceed",
    "info": null,
    "iscustomlayout": false,
    "isvisible": true,
    "kuid": "fa7ef604a33040d9ae2498b049d99e77",
    "name": "kony.ui.Button",
    "parent": "flxFooter",
    "pf": "userwidgetmodel",
    "retaincontentalignment": false,
    "retainflexpositionproperties": false,
    "wType": "Button",
    "zindex": 1
}