{
    "@class": "com.kony.gen.viz.model.container.KVizSegment2",
    "DNDConfig": null,
    "_data_": [
        {},
        {},
        {},
        {},
        {},
        {},
        {},
        {},
        {},
        {}
    ],
    "_height_": {
        "type": "string",
        "value": "160dp"
    },
    "_indicator_": "none",
    "_left_": {
        "type": "string",
        "value": "0dp"
    },
    "_margin_": [
        0,
        0,
        0,
        0
    ],
    "_orientation_": 2,
    "_padding_": [
        0,
        0,
        0,
        0
    ],
    "_top_": {
        "type": "string",
        "value": "0dp"
    },
    "_width_": {
        "type": "string",
        "value": "100%"
    },
    "autogrowmode": 0,
    "canUpdateUI": true,
    "containerweight": 100,
    "counter": "09",
    "desktop": {
        "_data_": [
            {
                "lblInfo": {
                    "@class": "com.viz.ide.model.segment.SimpleTextSegmentData",
                    "text": "Label"
                },
                "lblSerial": {
                    "@class": "com.viz.ide.model.segment.SimpleTextSegmentData",
                    "text": "1"
                }
            },
            {
                "lblInfo": {
                    "@class": "com.viz.ide.model.segment.SimpleTextSegmentData",
                    "text": "Label"
                },
                "lblSerial": {
                    "@class": "com.viz.ide.model.segment.SimpleTextSegmentData",
                    "text": "1"
                }
            },
            {
                "lblInfo": {
                    "@class": "com.viz.ide.model.segment.SimpleTextSegmentData",
                    "text": "Label"
                },
                "lblSerial": {
                    "@class": "com.viz.ide.model.segment.SimpleTextSegmentData",
                    "text": "1"
                }
            },
            {
                "lblInfo": {
                    "@class": "com.viz.ide.model.segment.SimpleTextSegmentData",
                    "text": "Label"
                },
                "lblSerial": {
                    "@class": "com.viz.ide.model.segment.SimpleTextSegmentData",
                    "text": "1"
                }
            },
            {
                "lblInfo": {
                    "@class": "com.viz.ide.model.segment.SimpleTextSegmentData",
                    "text": "Label"
                },
                "lblSerial": {
                    "@class": "com.viz.ide.model.segment.SimpleTextSegmentData",
                    "text": "1"
                }
            },
            {
                "lblInfo": {
                    "@class": "com.viz.ide.model.segment.SimpleTextSegmentData",
                    "text": "Label"
                },
                "lblSerial": {
                    "@class": "com.viz.ide.model.segment.SimpleTextSegmentData",
                    "text": "1"
                }
            },
            {
                "lblInfo": {
                    "@class": "com.viz.ide.model.segment.SimpleTextSegmentData",
                    "text": "Label"
                },
                "lblSerial": {
                    "@class": "com.viz.ide.model.segment.SimpleTextSegmentData",
                    "text": "1"
                }
            },
            {
                "lblInfo": {
                    "@class": "com.viz.ide.model.segment.SimpleTextSegmentData",
                    "text": "Label"
                },
                "lblSerial": {
                    "@class": "com.viz.ide.model.segment.SimpleTextSegmentData",
                    "text": "1"
                }
            },
            {
                "lblInfo": {
                    "@class": "com.viz.ide.model.segment.SimpleTextSegmentData",
                    "text": "Label"
                },
                "lblSerial": {
                    "@class": "com.viz.ide.model.segment.SimpleTextSegmentData",
                    "text": "1"
                }
            },
            {
                "lblInfo": {
                    "@class": "com.viz.ide.model.segment.SimpleTextSegmentData",
                    "text": "Label"
                },
                "lblSerial": {
                    "@class": "com.viz.ide.model.segment.SimpleTextSegmentData",
                    "text": "1"
                }
            }
        ],
        "rowTemplateId": "dd45c759dcc04aff9fc37e8757a23bc8",
        "rowtemplate": "flxOverrideTemplate",
        "widgetdatamap": {
            "flxOverrideTemplate": "flxOverrideTemplate",
            "lblInfo": "lblInfo",
            "lblSerial": "lblSerial"
        }
    },
    "disabledSkins": {
        "rowFocusSkin": "s3f353c057a14ca8a8d6fa6caf39f59a"
    },
    "focusedindex": null,
    "focuseditem": null,
    "groupcells": false,
    "hasSections": false,
    "id": "segOverride",
    "info": null,
    "ipad": {
        "psp": {
            "indicator": "rowselect"
        }
    },
    "iphone": {
        "psp": {
            "indicator": "rowselect"
        }
    },
    "iscustomlayout": false,
    "isvisible": true,
    "kuid": "d9af6985e2124b3c922a644898d291a6",
    "masterdata": {},
    "name": "kony.ui.SegmentedUI2",
    "needpageindicator": true,
    "pageoffdotimage": "pageoffdot.png",
    "pageondotimage": "pageondot.png",
    "paginationconfig": {
        "position": "bottom"
    },
    "parent": "flxPopupMessage",
    "pf": "userwidgetmodel",
    "retaincontentalignment": false,
    "retainflexpositionproperties": false,
    "retainselection": false,
    "rowcounter": 9,
    "rowfocusskin": null,
    "rowskin": "s5344ea37b3f40f7877699e4eafbf3dc",
    "rowtemplate": null,
    "screenlevelwidget": false,
    "seccounter": 0,
    "sectionheaderskin": "s67dfc97c181442ebeb45ecca8ba0dc8",
    "selectedRows": null,
    "selectedState": false,
    "selectedindex": null,
    "selectedindices": null,
    "selecteditems": null,
    "selectedsectionindex": 0,
    "selectionbehavior": "default",
    "separatorcolor": "aaaaaa00",
    "separatorrequired": true,
    "separatorthickness": 0,
    "showscrollbars": false,
    "viewtype": "tableview",
    "vizProps": {},
    "wType": "Segment",
    "widgetalignment": 5,
    "widgetdatamap": {
        "flxOverrideTemplate": "flxOverrideTemplate",
        "lblInfo": "lblInfo",
        "lblSerial": "lblSerial"
    },
    "zindex": 1
}