{
    "@class": "com.kony.gen.viz.model.component.KVizButton",
    "DNDConfig": null,
    "_height_": {
        "type": "string",
        "value": "78dp"
    },
    "_left_": {
        "type": "string",
        "value": "500dp"
    },
    "_margin_": [
        6,
        6,
        6,
        6
    ],
    "_padding_": [
        0,
        0,
        0,
        0
    ],
    "_skin_": "se70c04c9f2c4eed9c7017e77a060c0e",
    "_text_": "Loans3",
    "_top_": {
        "type": "string",
        "value": "-20dp"
    },
    "_width_": {
        "type": "string",
        "value": "80dp"
    },
    "canUpdateUI": true,
    "containerweight": 100,
    "contentalignment": 5,
    "displaytext": true,
    "focusskin": "sb47e4be03c74bcc8599b34b76f24950",
    "id": "btn3",
    "ide_onClick": "AS_Button_ace1a119952d49ef92013db01378fdd8",
    "info": null,
    "iscustomlayout": false,
    "isvisible": false,
    "kuid": "e815cd7d09d8469a903551b25886bc26",
    "name": "kony.ui.Button",
    "parent": "flxA",
    "pf": "frmCustomerAccountsDetails",
    "retaincontentalignment": false,
    "retainflexpositionproperties": false,
    "wType": "Button",
    "zindex": 4
}