{
    "DNDConfig": null,
    "_height_": {
        "type": "string",
        "value": "280px"
    },
    "_left_": {
        "type": "string",
        "value": "0dp"
    },
    "_margin_": [
        0,
        0,
        0,
        0
    ],
    "_orientation_": 6,
    "_padding_": [
        0,
        0,
        0,
        0
    ],
    "_percent_": true,
    "_skin_": "se31956b9efb4cdeb803f81ffb1335e2",
    "_top_": {
        "type": "string",
        "value": "0dp"
    },
    "_width_": {
        "type": "string",
        "value": "100%"
    },
    "allboxes": [],
    "autogrowmode": 0,
    "canUpdateUI": true,
    "children": [
        "lblPayAmountOpted",
        "lblSkipCount",
        "FlexGroup0ebdf2b48369b42",
        "flxRevisedPayment",
        "FlexGroup0cf7faee0a5394b"
    ],
    "clipbounds": true,
    "containerweight": 100,
    "enablescrolling": true,
    "id": "FlxCurrentPaymentDetailss",
    "info": null,
    "iscustomlayout": false,
    "isvisible": true,
    "kuid": "ib367c398eff4a899513ca1bcb164a7d",
    "layouttype": 2,
    "name": "kony.ui.FlexContainer",
    "parent": "flxPaymentholidaydetails",
    "pf": "frmCustomerAccountsDetails",
    "retaincontentalignment": false,
    "retainflexpositionproperties": false,
    "retainflowhorizontalalignment": false,
    "snapgridsize": 10,
    "snaptogrid": true,
    "wType": "FlexContainer",
    "widgetalignment": 1
}