{
    "DNDConfig": null,
    "_height_": {
        "type": "string",
        "value": "60dp"
    },
    "_left_": {
        "type": "string",
        "value": "26dp"
    },
    "_margin_": [
        0,
        0,
        0,
        0
    ],
    "_orientation_": 6,
    "_padding_": [
        0,
        0,
        0,
        0
    ],
    "_percent_": true,
    "_right_": {
        "type": "string",
        "value": "12dp"
    },
    "_skin_": "s4cbe373052f4a4c88880c85df6cbde4",
    "_top_": {
        "type": "string",
        "value": "0dp"
    },
    "_width_": {
        "type": "string",
        "value": "96%"
    },
    "allboxes": [],
    "autogrowmode": 0,
    "canUpdateUI": true,
    "centerx": {
        "type": "string",
        "value": "50%"
    },
    "children": [
        "lblHeaderAN",
        "lblHeaderAccountType",
        "CopylblCCY0e6ced7b9287d45",
        "lblClearedBalance",
        "lblLockedAnalysis",
        "lblAvailableLimit",
        "lblAccountServices1",
        "lblServiceField"
    ],
    "clipbounds": true,
    "containerweight": 100,
    "enablescrolling": true,
    "id": "flxHdr123",
    "info": null,
    "isTemplate": true,
    "iscustomlayout": false,
    "isvisible": false,
    "kuid": "ec25b88669334b25ad5428c8d17ba6d6",
    "layouttype": 3,
    "name": "kony.ui.FlexContainer",
    "parent": "flxA",
    "pf": "frmCustomerAccountsDetails",
    "retaincontentalignment": false,
    "retainflexpositionproperties": false,
    "retainflowhorizontalalignment": false,
    "snapgridsize": 10,
    "snaptogrid": true,
    "wType": "FlexContainer",
    "widgetalignment": 1
}