{
    "DNDConfig": null,
    "_height_": {
        "type": "string",
        "value": "600dp"
    },
    "_margin_": [
        0,
        0,
        0,
        0
    ],
    "_orientation_": 6,
    "_padding_": [
        0,
        0,
        0,
        0
    ],
    "_percent_": true,
    "_skin_": "sa69b2f1c1374bd5a22306d27d404e5e",
    "_top_": {
        "type": "string",
        "value": "0dp"
    },
    "_width_": {
        "type": "string",
        "value": "96%"
    },
    "allboxes": [],
    "autogrowmode": 0,
    "canUpdateUI": true,
    "centerx": {
        "type": "string",
        "value": "50%"
    },
    "children": [
        "flxbgBlue",
        "FlxCurrentPaymentDetailss",
        "flxgraphNew",
        "FlxDAteRecalculate"
    ],
    "clipbounds": false,
    "containerweight": 100,
    "enablescrolling": true,
    "id": "flxPaymentholidaydetails",
    "info": null,
    "iscustomlayout": false,
    "isvisible": false,
    "kuid": "ic09d84af39d4e47a92ba576efa8a5e4",
    "layouttype": 4,
    "name": "kony.ui.FlexContainer",
    "parent": "flxA",
    "pf": "frmCustomerAccountsDetails",
    "retaincontentalignment": false,
    "retainflexpositionproperties": false,
    "retainflowhorizontalalignment": false,
    "snapgridsize": 10,
    "snaptogrid": true,
    "wType": "FlexContainer",
    "widgetalignment": 1,
    "zindex": 3
}