{
    "DNDConfig": null,
    "_height_": {
        "type": "string",
        "value": "100%"
    },
    "_margin_": [
        0,
        0,
        0,
        0
    ],
    "_orientation_": 6,
    "_padding_": [
        0,
        0,
        0,
        0
    ],
    "_percent_": true,
    "_right_": {
        "type": "string",
        "value": "0px"
    },
    "_skin_": "se31956b9efb4cdeb803f81ffb1335e2",
    "_top_": {
        "type": "string",
        "value": "0dp"
    },
    "_width_": {
        "type": "string",
        "value": "30%"
    },
    "allboxes": [],
    "autogrowmode": 0,
    "canUpdateUI": true,
    "children": [
        "CopylblHdr0a3090f5f761f40",
        "CopylblPayAmount0b55780c4d73f4a",
        "lblRevisedAmount",
        "CopylblNext0c7292d40e0f34b",
        "lblRevisedNextPayDate",
        "CopylblMaturityDate0e4afbbf0dd9b43",
        "lblRevisedMaturityPayDate",
        "CopyImage0b2391a8e094642",
        "btnRevisedPopop"
    ],
    "clipbounds": true,
    "containerweight": 100,
    "enablescrolling": true,
    "id": "flxRevisedPayment",
    "info": null,
    "iscustomlayout": false,
    "isvisible": true,
    "kuid": "a1a8da0c8c184985aee971653a547d86",
    "layouttype": 2,
    "name": "kony.ui.FlexContainer",
    "parent": "FlxCurrentPaymentDetailss",
    "pf": "frmCustomerAccountsDetails",
    "retaincontentalignment": false,
    "retainflexpositionproperties": false,
    "retainflowhorizontalalignment": false,
    "snapgridsize": 10,
    "snaptogrid": true,
    "wType": "FlexContainer",
    "widgetalignment": 1
}