{
    "DNDConfig": null,
    "_height_": {
        "type": "ref",
        "value": "preferred"
    },
    "_margin_": [
        0,
        0,
        0,
        0
    ],
    "_orientation_": 6,
    "_padding_": [
        0,
        0,
        0,
        0
    ],
    "_percent_": true,
    "_skin_": "s9c2c33c226e4de68998e15c1dc138ea",
    "_width_": {
        "type": "string",
        "value": "30%"
    },
    "allboxes": [],
    "autogrowmode": 1,
    "canUpdateUI": true,
    "centerx": {
        "type": "string",
        "value": "20%"
    },
    "centery": {
        "type": "string",
        "value": "50%"
    },
    "children": [
        "Copyflxheader0e3f2de0659b74f",
        "FlexGroup0d0971cfba59745",
        "flxScroll",
        "flxrow6",
        "flxbuttons"
    ],
    "clipbounds": false,
    "containerweight": 100,
    "desktopweb": {
        "blockedUISkin": "s2dd0338c1434564a69bb2dc48168daf"
    },
    "disabledSkins": {},
    "enablescrolling": true,
    "id": "flxRevisedPaymentSchedule",
    "ide_onClick": "AS_FlexContainer_ab6d8347e9d34e51be52659b51069f8c",
    "info": null,
    "iscustomlayout": false,
    "isvisible": true,
    "kuid": "cd4dd3839cea4c42811c3583a0ee9021",
    "layouttype": 4,
    "name": "kony.ui.FlexContainer",
    "parent": "flxUpcomingPaymentWrapper",
    "pf": "frmCustomerAccountsDetails",
    "retaincontentalignment": false,
    "retainflexpositionproperties": false,
    "retainflowhorizontalalignment": false,
    "snapgridsize": 10,
    "snaptogrid": true,
    "wType": "FlexContainer",
    "widgetalignment": 1,
    "zindex": 1
}