{
    "DNDConfig": null,
    "_height_": {
        "type": "string",
        "value": "40px"
    },
    "_left_": {
        "type": "string",
        "value": "160dp"
    },
    "_margin_": [
        0,
        0,
        0,
        0
    ],
    "_orientation_": 6,
    "_padding_": [
        0,
        0,
        0,
        0
    ],
    "_percent_": true,
    "_skin_": "sb07618808c443af9e3b9c7a2e4c06d4",
    "_top_": {
        "type": "string",
        "value": "20px"
    },
    "_width_": {
        "type": "string",
        "value": "220dp"
    },
    "allboxes": [],
    "autogrowmode": 0,
    "canUpdateUI": true,
    "children": [
        "Calendar0hdacae9433e24c",
        "lblDefhu"
    ],
    "clipbounds": true,
    "containerweight": 100,
    "desktopweb": {
        "blockedUISkin": "s97ae1ea3fbc413a901754b7fb05ce4b"
    },
    "disabledSkins": {},
    "enablescrolling": true,
    "id": "flxStartDate",
    "ide_onClick": "AS_FlexContainer_g2809bbe77944fa0b6d45d67a47e84b4",
    "info": null,
    "iscustomlayout": false,
    "isvisible": true,
    "kuid": "i3c0ba9010d6426293fbea5686b2d215",
    "layouttype": 2,
    "name": "kony.ui.FlexContainer",
    "parent": "FlxDAteRecalculate",
    "pf": "frmCustomerAccountsDetails",
    "retaincontentalignment": false,
    "retainflexpositionproperties": false,
    "retainflowhorizontalalignment": false,
    "snapgridsize": 10,
    "snaptogrid": true,
    "wType": "FlexContainer",
    "widgetalignment": 1,
    "zindex": 7
}