{
    "@class": "com.kony.gen.viz.model.container.KVizSegment2",
    "DNDConfig": null,
    "_data_": [
        [
            {
                "lblAccountServices": {
                    "@class": "com.viz.ide.model.segment.SimpleTextSegmentData",
                    "text": "Account Services"
                },
                "lblAvailableLimit": {
                    "@class": "com.viz.ide.model.segment.SimpleTextSegmentData",
                    "text": "Available Limit "
                },
                "lblCCY": {
                    "@class": "com.viz.ide.model.segment.SimpleTextSegmentData",
                    "text": "CCY"
                },
                "lblClearedBalance": {
                    "@class": "com.viz.ide.model.segment.SimpleTextSegmentData",
                    "text": "Ledger\\Cleared Balance"
                },
                "lblHeaderAN": {
                    "@class": "com.viz.ide.model.segment.SimpleTextSegmentData",
                    "text": "Account type"
                },
                "lblHeaderAccountType": {
                    "@class": "com.viz.ide.model.segment.SimpleTextSegmentData",
                    "text": "Account Number"
                },
                "lblLockedAnalysis": {
                    "@class": "com.viz.ide.model.segment.SimpleTextSegmentData",
                    "text": "Locked Amount"
                }
            },
            [
                {
                    "CopylblAccountServices0e295999fcf744a": {
                        "@class": "com.viz.ide.model.segment.SimpleTextSegmentData",
                        "text": "Account Services"
                    },
                    "lblAccountServices": {
                        "@class": "com.viz.ide.model.segment.SimpleTextSegmentData",
                        "text": "Services"
                    },
                    "lblAvailable": {
                        "@class": "com.viz.ide.model.segment.SimpleTextSegmentData",
                        "text": "0"
                    },
                    "lblAvailableLimit": {
                        "@class": "com.viz.ide.model.segment.SimpleTextSegmentData",
                        "text": "3136"
                    },
                    "lblCCY": {
                        "@class": "com.viz.ide.model.segment.SimpleTextSegmentData",
                        "text": "EUR"
                    },
                    "lblClearedBalance": {
                        "@class": "com.viz.ide.model.segment.SimpleTextSegmentData",
                        "text": "12854"
                    },
                    "lblHeaderAN": {
                        "@class": "com.viz.ide.model.segment.SimpleTextSegmentData",
                        "text": "50005411"
                    },
                    "lblHeaderAccountType": {
                        "@class": "com.viz.ide.model.segment.SimpleTextSegmentData",
                        "text": "Regular Savings "
                    },
                    "lblLockedAnalysis": {
                        "@class": "com.viz.ide.model.segment.SimpleTextSegmentData",
                        "text": "Locked Amount"
                    },
                    "lstBox": {
                        "@class": "com.viz.ide.model.segment.CheckableSegmentData",
                        "masterData": [
                            [
                                "lb1",
                                "Services"
                            ],
                            [
                                "lb2",
                                "Services"
                            ],
                            [
                                "lb3",
                                "Services"
                            ]
                        ],
                        "selectedKey": null,
                        "selectedKeys": null
                    }
                },
                {
                    "CopylblAccountServices0e295999fcf744a": {
                        "@class": "com.viz.ide.model.segment.SimpleTextSegmentData",
                        "text": "Account Services"
                    },
                    "lblAccountServices": {
                        "@class": "com.viz.ide.model.segment.SimpleTextSegmentData",
                        "text": "Services"
                    },
                    "lblAvailable": {
                        "@class": "com.viz.ide.model.segment.SimpleTextSegmentData",
                        "text": "0"
                    },
                    "lblAvailableLimit": {
                        "@class": "com.viz.ide.model.segment.SimpleTextSegmentData",
                        "text": "3136"
                    },
                    "lblCCY": {
                        "@class": "com.viz.ide.model.segment.SimpleTextSegmentData",
                        "text": "EUR"
                    },
                    "lblClearedBalance": {
                        "@class": "com.viz.ide.model.segment.SimpleTextSegmentData",
                        "text": "12854"
                    },
                    "lblHeaderAN": {
                        "@class": "com.viz.ide.model.segment.SimpleTextSegmentData",
                        "text": "50005411"
                    },
                    "lblHeaderAccountType": {
                        "@class": "com.viz.ide.model.segment.SimpleTextSegmentData",
                        "text": "Regular Savings "
                    },
                    "lblLockedAnalysis": {
                        "@class": "com.viz.ide.model.segment.SimpleTextSegmentData",
                        "text": "Locked Amount"
                    },
                    "lstBox": {
                        "@class": "com.viz.ide.model.segment.CheckableSegmentData",
                        "masterData": [
                            [
                                "lb1",
                                "Services"
                            ],
                            [
                                "lb2",
                                "Services"
                            ],
                            [
                                "lb3",
                                "Services"
                            ]
                        ],
                        "selectedKey": null,
                        "selectedKeys": null
                    }
                },
                {
                    "CopylblAccountServices0e295999fcf744a": {
                        "@class": "com.viz.ide.model.segment.SimpleTextSegmentData",
                        "text": "Account Services"
                    },
                    "lblAccountServices": {
                        "@class": "com.viz.ide.model.segment.SimpleTextSegmentData",
                        "text": "Services"
                    },
                    "lblAvailable": {
                        "@class": "com.viz.ide.model.segment.SimpleTextSegmentData",
                        "text": "0"
                    },
                    "lblAvailableLimit": {
                        "@class": "com.viz.ide.model.segment.SimpleTextSegmentData",
                        "text": "3136"
                    },
                    "lblCCY": {
                        "@class": "com.viz.ide.model.segment.SimpleTextSegmentData",
                        "text": "EUR"
                    },
                    "lblClearedBalance": {
                        "@class": "com.viz.ide.model.segment.SimpleTextSegmentData",
                        "text": "12854"
                    },
                    "lblHeaderAN": {
                        "@class": "com.viz.ide.model.segment.SimpleTextSegmentData",
                        "text": "50005411"
                    },
                    "lblHeaderAccountType": {
                        "@class": "com.viz.ide.model.segment.SimpleTextSegmentData",
                        "text": "Regular Savings "
                    },
                    "lblLockedAnalysis": {
                        "@class": "com.viz.ide.model.segment.SimpleTextSegmentData",
                        "text": "Locked Amount"
                    },
                    "lstBox": {
                        "@class": "com.viz.ide.model.segment.CheckableSegmentData",
                        "masterData": [
                            [
                                "lb1",
                                "Services"
                            ],
                            [
                                "lb2",
                                "Services"
                            ],
                            [
                                "lb3",
                                "Services"
                            ]
                        ],
                        "selectedKey": null,
                        "selectedKeys": null
                    }
                },
                {
                    "CopylblAccountServices0e295999fcf744a": {
                        "@class": "com.viz.ide.model.segment.SimpleTextSegmentData",
                        "text": "Account Services"
                    },
                    "lblAccountServices": {
                        "@class": "com.viz.ide.model.segment.SimpleTextSegmentData",
                        "text": "Services"
                    },
                    "lblAvailable": {
                        "@class": "com.viz.ide.model.segment.SimpleTextSegmentData",
                        "text": "0"
                    },
                    "lblAvailableLimit": {
                        "@class": "com.viz.ide.model.segment.SimpleTextSegmentData",
                        "text": "3136"
                    },
                    "lblCCY": {
                        "@class": "com.viz.ide.model.segment.SimpleTextSegmentData",
                        "text": "EUR"
                    },
                    "lblClearedBalance": {
                        "@class": "com.viz.ide.model.segment.SimpleTextSegmentData",
                        "text": "12854"
                    },
                    "lblHeaderAN": {
                        "@class": "com.viz.ide.model.segment.SimpleTextSegmentData",
                        "text": "50005411"
                    },
                    "lblHeaderAccountType": {
                        "@class": "com.viz.ide.model.segment.SimpleTextSegmentData",
                        "text": "Regular Savings "
                    },
                    "lblLockedAnalysis": {
                        "@class": "com.viz.ide.model.segment.SimpleTextSegmentData",
                        "text": "Locked Amount"
                    },
                    "lstBox": {
                        "@class": "com.viz.ide.model.segment.CheckableSegmentData",
                        "masterData": [
                            [
                                "lb1",
                                "Services"
                            ],
                            [
                                "lb2",
                                "Services"
                            ],
                            [
                                "lb3",
                                "Services"
                            ]
                        ],
                        "selectedKey": null,
                        "selectedKeys": null
                    }
                },
                {
                    "CopylblAccountServices0e295999fcf744a": {
                        "@class": "com.viz.ide.model.segment.SimpleTextSegmentData",
                        "text": "Account Services"
                    },
                    "lblAccountServices": {
                        "@class": "com.viz.ide.model.segment.SimpleTextSegmentData",
                        "text": "Services"
                    },
                    "lblAvailable": {
                        "@class": "com.viz.ide.model.segment.SimpleTextSegmentData",
                        "text": "0"
                    },
                    "lblAvailableLimit": {
                        "@class": "com.viz.ide.model.segment.SimpleTextSegmentData",
                        "text": "3136"
                    },
                    "lblCCY": {
                        "@class": "com.viz.ide.model.segment.SimpleTextSegmentData",
                        "text": "EUR"
                    },
                    "lblClearedBalance": {
                        "@class": "com.viz.ide.model.segment.SimpleTextSegmentData",
                        "text": "12854"
                    },
                    "lblHeaderAN": {
                        "@class": "com.viz.ide.model.segment.SimpleTextSegmentData",
                        "text": "50005411"
                    },
                    "lblHeaderAccountType": {
                        "@class": "com.viz.ide.model.segment.SimpleTextSegmentData",
                        "text": "Regular Savings "
                    },
                    "lblLockedAnalysis": {
                        "@class": "com.viz.ide.model.segment.SimpleTextSegmentData",
                        "text": "Locked Amount"
                    },
                    "lstBox": {
                        "@class": "com.viz.ide.model.segment.CheckableSegmentData",
                        "masterData": [
                            [
                                "lb1",
                                "Services"
                            ],
                            [
                                "lb2",
                                "Services"
                            ],
                            [
                                "lb3",
                                "Services"
                            ]
                        ],
                        "selectedKey": null,
                        "selectedKeys": null
                    }
                },
                {
                    "CopylblAccountServices0e295999fcf744a": {
                        "@class": "com.viz.ide.model.segment.SimpleTextSegmentData",
                        "text": "Account Services"
                    },
                    "lblAccountServices": {
                        "@class": "com.viz.ide.model.segment.SimpleTextSegmentData",
                        "text": "Services"
                    },
                    "lblAvailable": {
                        "@class": "com.viz.ide.model.segment.SimpleTextSegmentData",
                        "text": "0"
                    },
                    "lblAvailableLimit": {
                        "@class": "com.viz.ide.model.segment.SimpleTextSegmentData",
                        "text": "3136"
                    },
                    "lblCCY": {
                        "@class": "com.viz.ide.model.segment.SimpleTextSegmentData",
                        "text": "EUR"
                    },
                    "lblClearedBalance": {
                        "@class": "com.viz.ide.model.segment.SimpleTextSegmentData",
                        "text": "12854"
                    },
                    "lblHeaderAN": {
                        "@class": "com.viz.ide.model.segment.SimpleTextSegmentData",
                        "text": "50005411"
                    },
                    "lblHeaderAccountType": {
                        "@class": "com.viz.ide.model.segment.SimpleTextSegmentData",
                        "text": "Regular Savings "
                    },
                    "lblLockedAnalysis": {
                        "@class": "com.viz.ide.model.segment.SimpleTextSegmentData",
                        "text": "Locked Amount"
                    },
                    "lstBox": {
                        "@class": "com.viz.ide.model.segment.CheckableSegmentData",
                        "masterData": [
                            [
                                "lb1",
                                "Services"
                            ],
                            [
                                "lb2",
                                "Services"
                            ],
                            [
                                "lb3",
                                "Services"
                            ]
                        ],
                        "selectedKey": null,
                        "selectedKeys": null
                    }
                },
                {
                    "CopylblAccountServices0e295999fcf744a": {
                        "@class": "com.viz.ide.model.segment.SimpleTextSegmentData",
                        "text": "Account Services"
                    },
                    "lblAccountServices": {
                        "@class": "com.viz.ide.model.segment.SimpleTextSegmentData",
                        "text": "Services"
                    },
                    "lblAvailable": {
                        "@class": "com.viz.ide.model.segment.SimpleTextSegmentData",
                        "text": "0"
                    },
                    "lblAvailableLimit": {
                        "@class": "com.viz.ide.model.segment.SimpleTextSegmentData",
                        "text": "3136"
                    },
                    "lblCCY": {
                        "@class": "com.viz.ide.model.segment.SimpleTextSegmentData",
                        "text": "EUR"
                    },
                    "lblClearedBalance": {
                        "@class": "com.viz.ide.model.segment.SimpleTextSegmentData",
                        "text": "12854"
                    },
                    "lblHeaderAN": {
                        "@class": "com.viz.ide.model.segment.SimpleTextSegmentData",
                        "text": "50005411"
                    },
                    "lblHeaderAccountType": {
                        "@class": "com.viz.ide.model.segment.SimpleTextSegmentData",
                        "text": "Regular Savings "
                    },
                    "lblLockedAnalysis": {
                        "@class": "com.viz.ide.model.segment.SimpleTextSegmentData",
                        "text": "Locked Amount"
                    },
                    "lstBox": {
                        "@class": "com.viz.ide.model.segment.CheckableSegmentData",
                        "masterData": [
                            [
                                "lb1",
                                "Services"
                            ],
                            [
                                "lb2",
                                "Services"
                            ],
                            [
                                "lb3",
                                "Services"
                            ]
                        ],
                        "selectedKey": null,
                        "selectedKeys": null
                    }
                },
                {
                    "CopylblAccountServices0e295999fcf744a": {
                        "@class": "com.viz.ide.model.segment.SimpleTextSegmentData",
                        "text": "Account Services"
                    },
                    "lblAccountServices": {
                        "@class": "com.viz.ide.model.segment.SimpleTextSegmentData",
                        "text": "Services"
                    },
                    "lblAvailable": {
                        "@class": "com.viz.ide.model.segment.SimpleTextSegmentData",
                        "text": "0"
                    },
                    "lblAvailableLimit": {
                        "@class": "com.viz.ide.model.segment.SimpleTextSegmentData",
                        "text": "3136"
                    },
                    "lblCCY": {
                        "@class": "com.viz.ide.model.segment.SimpleTextSegmentData",
                        "text": "EUR"
                    },
                    "lblClearedBalance": {
                        "@class": "com.viz.ide.model.segment.SimpleTextSegmentData",
                        "text": "12854"
                    },
                    "lblHeaderAN": {
                        "@class": "com.viz.ide.model.segment.SimpleTextSegmentData",
                        "text": "50005411"
                    },
                    "lblHeaderAccountType": {
                        "@class": "com.viz.ide.model.segment.SimpleTextSegmentData",
                        "text": "Regular Savings "
                    },
                    "lblLockedAnalysis": {
                        "@class": "com.viz.ide.model.segment.SimpleTextSegmentData",
                        "text": "Locked Amount"
                    },
                    "lstBox": {
                        "@class": "com.viz.ide.model.segment.CheckableSegmentData",
                        "masterData": [
                            [
                                "lb1",
                                "Services"
                            ],
                            [
                                "lb2",
                                "Services"
                            ],
                            [
                                "lb3",
                                "Services"
                            ]
                        ],
                        "selectedKey": null,
                        "selectedKeys": null
                    }
                },
                {
                    "CopylblAccountServices0e295999fcf744a": {
                        "@class": "com.viz.ide.model.segment.SimpleTextSegmentData",
                        "text": "Account Services"
                    },
                    "lblAccountServices": {
                        "@class": "com.viz.ide.model.segment.SimpleTextSegmentData",
                        "text": "Services"
                    },
                    "lblAvailable": {
                        "@class": "com.viz.ide.model.segment.SimpleTextSegmentData",
                        "text": "0"
                    },
                    "lblAvailableLimit": {
                        "@class": "com.viz.ide.model.segment.SimpleTextSegmentData",
                        "text": "3136"
                    },
                    "lblCCY": {
                        "@class": "com.viz.ide.model.segment.SimpleTextSegmentData",
                        "text": "EUR"
                    },
                    "lblClearedBalance": {
                        "@class": "com.viz.ide.model.segment.SimpleTextSegmentData",
                        "text": "12854"
                    },
                    "lblHeaderAN": {
                        "@class": "com.viz.ide.model.segment.SimpleTextSegmentData",
                        "text": "50005411"
                    },
                    "lblHeaderAccountType": {
                        "@class": "com.viz.ide.model.segment.SimpleTextSegmentData",
                        "text": "Regular Savings "
                    },
                    "lblLockedAnalysis": {
                        "@class": "com.viz.ide.model.segment.SimpleTextSegmentData",
                        "text": "Locked Amount"
                    },
                    "lstBox": {
                        "@class": "com.viz.ide.model.segment.CheckableSegmentData",
                        "masterData": [
                            [
                                "lb1",
                                "Services"
                            ],
                            [
                                "lb2",
                                "Services"
                            ],
                            [
                                "lb3",
                                "Services"
                            ]
                        ],
                        "selectedKey": null,
                        "selectedKeys": null
                    }
                },
                {
                    "CopylblAccountServices0e295999fcf744a": {
                        "@class": "com.viz.ide.model.segment.SimpleTextSegmentData",
                        "text": "Account Services"
                    },
                    "lblAccountServices": {
                        "@class": "com.viz.ide.model.segment.SimpleTextSegmentData",
                        "text": "Services"
                    },
                    "lblAvailable": {
                        "@class": "com.viz.ide.model.segment.SimpleTextSegmentData",
                        "text": "0"
                    },
                    "lblAvailableLimit": {
                        "@class": "com.viz.ide.model.segment.SimpleTextSegmentData",
                        "text": "3136"
                    },
                    "lblCCY": {
                        "@class": "com.viz.ide.model.segment.SimpleTextSegmentData",
                        "text": "EUR"
                    },
                    "lblClearedBalance": {
                        "@class": "com.viz.ide.model.segment.SimpleTextSegmentData",
                        "text": "12854"
                    },
                    "lblHeaderAN": {
                        "@class": "com.viz.ide.model.segment.SimpleTextSegmentData",
                        "text": "50005411"
                    },
                    "lblHeaderAccountType": {
                        "@class": "com.viz.ide.model.segment.SimpleTextSegmentData",
                        "text": "Regular Savings "
                    },
                    "lblLockedAnalysis": {
                        "@class": "com.viz.ide.model.segment.SimpleTextSegmentData",
                        "text": "Locked Amount"
                    },
                    "lstBox": {
                        "@class": "com.viz.ide.model.segment.CheckableSegmentData",
                        "masterData": [
                            [
                                "lb1",
                                "Services"
                            ],
                            [
                                "lb2",
                                "Services"
                            ],
                            [
                                "lb3",
                                "Services"
                            ]
                        ],
                        "selectedKey": null,
                        "selectedKeys": null
                    }
                }
            ]
        ],
        [
            {
                "lblAccountServices": {
                    "@class": "com.viz.ide.model.segment.SimpleTextSegmentData",
                    "text": "Account Services"
                },
                "lblAvailableLimit": {
                    "@class": "com.viz.ide.model.segment.SimpleTextSegmentData",
                    "text": "Available Limit "
                },
                "lblCCY": {
                    "@class": "com.viz.ide.model.segment.SimpleTextSegmentData",
                    "text": "CCY"
                },
                "lblClearedBalance": {
                    "@class": "com.viz.ide.model.segment.SimpleTextSegmentData",
                    "text": "Ledger\\Cleared Balance"
                },
                "lblHeaderAN": {
                    "@class": "com.viz.ide.model.segment.SimpleTextSegmentData",
                    "text": "Account type"
                },
                "lblHeaderAccountType": {
                    "@class": "com.viz.ide.model.segment.SimpleTextSegmentData",
                    "text": "Account Number"
                },
                "lblLockedAnalysis": {
                    "@class": "com.viz.ide.model.segment.SimpleTextSegmentData",
                    "text": "Locked Amount"
                }
            },
            [
                {
                    "CopylblAccountServices0e295999fcf744a": {
                        "@class": "com.viz.ide.model.segment.SimpleTextSegmentData",
                        "text": "Account Services"
                    },
                    "lblAccountServices": {
                        "@class": "com.viz.ide.model.segment.SimpleTextSegmentData",
                        "text": "Services"
                    },
                    "lblAvailable": {
                        "@class": "com.viz.ide.model.segment.SimpleTextSegmentData",
                        "text": "0"
                    },
                    "lblAvailableLimit": {
                        "@class": "com.viz.ide.model.segment.SimpleTextSegmentData",
                        "text": "3136"
                    },
                    "lblCCY": {
                        "@class": "com.viz.ide.model.segment.SimpleTextSegmentData",
                        "text": "EUR"
                    },
                    "lblClearedBalance": {
                        "@class": "com.viz.ide.model.segment.SimpleTextSegmentData",
                        "text": "12854"
                    },
                    "lblHeaderAN": {
                        "@class": "com.viz.ide.model.segment.SimpleTextSegmentData",
                        "text": "50005411"
                    },
                    "lblHeaderAccountType": {
                        "@class": "com.viz.ide.model.segment.SimpleTextSegmentData",
                        "text": "Regular Savings "
                    },
                    "lblLockedAnalysis": {
                        "@class": "com.viz.ide.model.segment.SimpleTextSegmentData",
                        "text": "Locked Amount"
                    },
                    "lstBox": {
                        "@class": "com.viz.ide.model.segment.CheckableSegmentData",
                        "masterData": [
                            [
                                "lb1",
                                "Services"
                            ],
                            [
                                "lb2",
                                "Services"
                            ],
                            [
                                "lb3",
                                "Services"
                            ]
                        ],
                        "selectedKey": null,
                        "selectedKeys": null
                    }
                },
                {
                    "CopylblAccountServices0e295999fcf744a": {
                        "@class": "com.viz.ide.model.segment.SimpleTextSegmentData",
                        "text": "Account Services"
                    },
                    "lblAccountServices": {
                        "@class": "com.viz.ide.model.segment.SimpleTextSegmentData",
                        "text": "Services"
                    },
                    "lblAvailable": {
                        "@class": "com.viz.ide.model.segment.SimpleTextSegmentData",
                        "text": "0"
                    },
                    "lblAvailableLimit": {
                        "@class": "com.viz.ide.model.segment.SimpleTextSegmentData",
                        "text": "3136"
                    },
                    "lblCCY": {
                        "@class": "com.viz.ide.model.segment.SimpleTextSegmentData",
                        "text": "EUR"
                    },
                    "lblClearedBalance": {
                        "@class": "com.viz.ide.model.segment.SimpleTextSegmentData",
                        "text": "12854"
                    },
                    "lblHeaderAN": {
                        "@class": "com.viz.ide.model.segment.SimpleTextSegmentData",
                        "text": "50005411"
                    },
                    "lblHeaderAccountType": {
                        "@class": "com.viz.ide.model.segment.SimpleTextSegmentData",
                        "text": "Regular Savings "
                    },
                    "lblLockedAnalysis": {
                        "@class": "com.viz.ide.model.segment.SimpleTextSegmentData",
                        "text": "Locked Amount"
                    },
                    "lstBox": {
                        "@class": "com.viz.ide.model.segment.CheckableSegmentData",
                        "masterData": [
                            [
                                "lb1",
                                "Services"
                            ],
                            [
                                "lb2",
                                "Services"
                            ],
                            [
                                "lb3",
                                "Services"
                            ]
                        ],
                        "selectedKey": null,
                        "selectedKeys": null
                    }
                },
                {
                    "CopylblAccountServices0e295999fcf744a": {
                        "@class": "com.viz.ide.model.segment.SimpleTextSegmentData",
                        "text": "Account Services"
                    },
                    "lblAccountServices": {
                        "@class": "com.viz.ide.model.segment.SimpleTextSegmentData",
                        "text": "Services"
                    },
                    "lblAvailable": {
                        "@class": "com.viz.ide.model.segment.SimpleTextSegmentData",
                        "text": "0"
                    },
                    "lblAvailableLimit": {
                        "@class": "com.viz.ide.model.segment.SimpleTextSegmentData",
                        "text": "3136"
                    },
                    "lblCCY": {
                        "@class": "com.viz.ide.model.segment.SimpleTextSegmentData",
                        "text": "EUR"
                    },
                    "lblClearedBalance": {
                        "@class": "com.viz.ide.model.segment.SimpleTextSegmentData",
                        "text": "12854"
                    },
                    "lblHeaderAN": {
                        "@class": "com.viz.ide.model.segment.SimpleTextSegmentData",
                        "text": "50005411"
                    },
                    "lblHeaderAccountType": {
                        "@class": "com.viz.ide.model.segment.SimpleTextSegmentData",
                        "text": "Regular Savings "
                    },
                    "lblLockedAnalysis": {
                        "@class": "com.viz.ide.model.segment.SimpleTextSegmentData",
                        "text": "Locked Amount"
                    },
                    "lstBox": {
                        "@class": "com.viz.ide.model.segment.CheckableSegmentData",
                        "masterData": [
                            [
                                "lb1",
                                "Services"
                            ],
                            [
                                "lb2",
                                "Services"
                            ],
                            [
                                "lb3",
                                "Services"
                            ]
                        ],
                        "selectedKey": null,
                        "selectedKeys": null
                    }
                },
                {
                    "CopylblAccountServices0e295999fcf744a": {
                        "@class": "com.viz.ide.model.segment.SimpleTextSegmentData",
                        "text": "Account Services"
                    },
                    "lblAccountServices": {
                        "@class": "com.viz.ide.model.segment.SimpleTextSegmentData",
                        "text": "Services"
                    },
                    "lblAvailable": {
                        "@class": "com.viz.ide.model.segment.SimpleTextSegmentData",
                        "text": "0"
                    },
                    "lblAvailableLimit": {
                        "@class": "com.viz.ide.model.segment.SimpleTextSegmentData",
                        "text": "3136"
                    },
                    "lblCCY": {
                        "@class": "com.viz.ide.model.segment.SimpleTextSegmentData",
                        "text": "EUR"
                    },
                    "lblClearedBalance": {
                        "@class": "com.viz.ide.model.segment.SimpleTextSegmentData",
                        "text": "12854"
                    },
                    "lblHeaderAN": {
                        "@class": "com.viz.ide.model.segment.SimpleTextSegmentData",
                        "text": "50005411"
                    },
                    "lblHeaderAccountType": {
                        "@class": "com.viz.ide.model.segment.SimpleTextSegmentData",
                        "text": "Regular Savings "
                    },
                    "lblLockedAnalysis": {
                        "@class": "com.viz.ide.model.segment.SimpleTextSegmentData",
                        "text": "Locked Amount"
                    },
                    "lstBox": {
                        "@class": "com.viz.ide.model.segment.CheckableSegmentData",
                        "masterData": [
                            [
                                "lb1",
                                "Services"
                            ],
                            [
                                "lb2",
                                "Services"
                            ],
                            [
                                "lb3",
                                "Services"
                            ]
                        ],
                        "selectedKey": null,
                        "selectedKeys": null
                    }
                },
                {
                    "CopylblAccountServices0e295999fcf744a": {
                        "@class": "com.viz.ide.model.segment.SimpleTextSegmentData",
                        "text": "Account Services"
                    },
                    "lblAccountServices": {
                        "@class": "com.viz.ide.model.segment.SimpleTextSegmentData",
                        "text": "Services"
                    },
                    "lblAvailable": {
                        "@class": "com.viz.ide.model.segment.SimpleTextSegmentData",
                        "text": "0"
                    },
                    "lblAvailableLimit": {
                        "@class": "com.viz.ide.model.segment.SimpleTextSegmentData",
                        "text": "3136"
                    },
                    "lblCCY": {
                        "@class": "com.viz.ide.model.segment.SimpleTextSegmentData",
                        "text": "EUR"
                    },
                    "lblClearedBalance": {
                        "@class": "com.viz.ide.model.segment.SimpleTextSegmentData",
                        "text": "12854"
                    },
                    "lblHeaderAN": {
                        "@class": "com.viz.ide.model.segment.SimpleTextSegmentData",
                        "text": "50005411"
                    },
                    "lblHeaderAccountType": {
                        "@class": "com.viz.ide.model.segment.SimpleTextSegmentData",
                        "text": "Regular Savings "
                    },
                    "lblLockedAnalysis": {
                        "@class": "com.viz.ide.model.segment.SimpleTextSegmentData",
                        "text": "Locked Amount"
                    },
                    "lstBox": {
                        "@class": "com.viz.ide.model.segment.CheckableSegmentData",
                        "masterData": [
                            [
                                "lb1",
                                "Services"
                            ],
                            [
                                "lb2",
                                "Services"
                            ],
                            [
                                "lb3",
                                "Services"
                            ]
                        ],
                        "selectedKey": null,
                        "selectedKeys": null
                    }
                },
                {
                    "CopylblAccountServices0e295999fcf744a": {
                        "@class": "com.viz.ide.model.segment.SimpleTextSegmentData",
                        "text": "Account Services"
                    },
                    "lblAccountServices": {
                        "@class": "com.viz.ide.model.segment.SimpleTextSegmentData",
                        "text": "Services"
                    },
                    "lblAvailable": {
                        "@class": "com.viz.ide.model.segment.SimpleTextSegmentData",
                        "text": "0"
                    },
                    "lblAvailableLimit": {
                        "@class": "com.viz.ide.model.segment.SimpleTextSegmentData",
                        "text": "3136"
                    },
                    "lblCCY": {
                        "@class": "com.viz.ide.model.segment.SimpleTextSegmentData",
                        "text": "EUR"
                    },
                    "lblClearedBalance": {
                        "@class": "com.viz.ide.model.segment.SimpleTextSegmentData",
                        "text": "12854"
                    },
                    "lblHeaderAN": {
                        "@class": "com.viz.ide.model.segment.SimpleTextSegmentData",
                        "text": "50005411"
                    },
                    "lblHeaderAccountType": {
                        "@class": "com.viz.ide.model.segment.SimpleTextSegmentData",
                        "text": "Regular Savings "
                    },
                    "lblLockedAnalysis": {
                        "@class": "com.viz.ide.model.segment.SimpleTextSegmentData",
                        "text": "Locked Amount"
                    },
                    "lstBox": {
                        "@class": "com.viz.ide.model.segment.CheckableSegmentData",
                        "masterData": [
                            [
                                "lb1",
                                "Services"
                            ],
                            [
                                "lb2",
                                "Services"
                            ],
                            [
                                "lb3",
                                "Services"
                            ]
                        ],
                        "selectedKey": null,
                        "selectedKeys": null
                    }
                },
                {
                    "CopylblAccountServices0e295999fcf744a": {
                        "@class": "com.viz.ide.model.segment.SimpleTextSegmentData",
                        "text": "Account Services"
                    },
                    "lblAccountServices": {
                        "@class": "com.viz.ide.model.segment.SimpleTextSegmentData",
                        "text": "Services"
                    },
                    "lblAvailable": {
                        "@class": "com.viz.ide.model.segment.SimpleTextSegmentData",
                        "text": "0"
                    },
                    "lblAvailableLimit": {
                        "@class": "com.viz.ide.model.segment.SimpleTextSegmentData",
                        "text": "3136"
                    },
                    "lblCCY": {
                        "@class": "com.viz.ide.model.segment.SimpleTextSegmentData",
                        "text": "EUR"
                    },
                    "lblClearedBalance": {
                        "@class": "com.viz.ide.model.segment.SimpleTextSegmentData",
                        "text": "12854"
                    },
                    "lblHeaderAN": {
                        "@class": "com.viz.ide.model.segment.SimpleTextSegmentData",
                        "text": "50005411"
                    },
                    "lblHeaderAccountType": {
                        "@class": "com.viz.ide.model.segment.SimpleTextSegmentData",
                        "text": "Regular Savings "
                    },
                    "lblLockedAnalysis": {
                        "@class": "com.viz.ide.model.segment.SimpleTextSegmentData",
                        "text": "Locked Amount"
                    },
                    "lstBox": {
                        "@class": "com.viz.ide.model.segment.CheckableSegmentData",
                        "masterData": [
                            [
                                "lb1",
                                "Services"
                            ],
                            [
                                "lb2",
                                "Services"
                            ],
                            [
                                "lb3",
                                "Services"
                            ]
                        ],
                        "selectedKey": null,
                        "selectedKeys": null
                    }
                },
                {
                    "CopylblAccountServices0e295999fcf744a": {
                        "@class": "com.viz.ide.model.segment.SimpleTextSegmentData",
                        "text": "Account Services"
                    },
                    "lblAccountServices": {
                        "@class": "com.viz.ide.model.segment.SimpleTextSegmentData",
                        "text": "Services"
                    },
                    "lblAvailable": {
                        "@class": "com.viz.ide.model.segment.SimpleTextSegmentData",
                        "text": "0"
                    },
                    "lblAvailableLimit": {
                        "@class": "com.viz.ide.model.segment.SimpleTextSegmentData",
                        "text": "3136"
                    },
                    "lblCCY": {
                        "@class": "com.viz.ide.model.segment.SimpleTextSegmentData",
                        "text": "EUR"
                    },
                    "lblClearedBalance": {
                        "@class": "com.viz.ide.model.segment.SimpleTextSegmentData",
                        "text": "12854"
                    },
                    "lblHeaderAN": {
                        "@class": "com.viz.ide.model.segment.SimpleTextSegmentData",
                        "text": "50005411"
                    },
                    "lblHeaderAccountType": {
                        "@class": "com.viz.ide.model.segment.SimpleTextSegmentData",
                        "text": "Regular Savings "
                    },
                    "lblLockedAnalysis": {
                        "@class": "com.viz.ide.model.segment.SimpleTextSegmentData",
                        "text": "Locked Amount"
                    },
                    "lstBox": {
                        "@class": "com.viz.ide.model.segment.CheckableSegmentData",
                        "masterData": [
                            [
                                "lb1",
                                "Services"
                            ],
                            [
                                "lb2",
                                "Services"
                            ],
                            [
                                "lb3",
                                "Services"
                            ]
                        ],
                        "selectedKey": null,
                        "selectedKeys": null
                    }
                },
                {
                    "CopylblAccountServices0e295999fcf744a": {
                        "@class": "com.viz.ide.model.segment.SimpleTextSegmentData",
                        "text": "Account Services"
                    },
                    "lblAccountServices": {
                        "@class": "com.viz.ide.model.segment.SimpleTextSegmentData",
                        "text": "Services"
                    },
                    "lblAvailable": {
                        "@class": "com.viz.ide.model.segment.SimpleTextSegmentData",
                        "text": "0"
                    },
                    "lblAvailableLimit": {
                        "@class": "com.viz.ide.model.segment.SimpleTextSegmentData",
                        "text": "3136"
                    },
                    "lblCCY": {
                        "@class": "com.viz.ide.model.segment.SimpleTextSegmentData",
                        "text": "EUR"
                    },
                    "lblClearedBalance": {
                        "@class": "com.viz.ide.model.segment.SimpleTextSegmentData",
                        "text": "12854"
                    },
                    "lblHeaderAN": {
                        "@class": "com.viz.ide.model.segment.SimpleTextSegmentData",
                        "text": "50005411"
                    },
                    "lblHeaderAccountType": {
                        "@class": "com.viz.ide.model.segment.SimpleTextSegmentData",
                        "text": "Regular Savings "
                    },
                    "lblLockedAnalysis": {
                        "@class": "com.viz.ide.model.segment.SimpleTextSegmentData",
                        "text": "Locked Amount"
                    },
                    "lstBox": {
                        "@class": "com.viz.ide.model.segment.CheckableSegmentData",
                        "masterData": [
                            [
                                "lb1",
                                "Services"
                            ],
                            [
                                "lb2",
                                "Services"
                            ],
                            [
                                "lb3",
                                "Services"
                            ]
                        ],
                        "selectedKey": null,
                        "selectedKeys": null
                    }
                },
                {
                    "CopylblAccountServices0e295999fcf744a": {
                        "@class": "com.viz.ide.model.segment.SimpleTextSegmentData",
                        "text": "Account Services"
                    },
                    "lblAccountServices": {
                        "@class": "com.viz.ide.model.segment.SimpleTextSegmentData",
                        "text": "Services"
                    },
                    "lblAvailable": {
                        "@class": "com.viz.ide.model.segment.SimpleTextSegmentData",
                        "text": "0"
                    },
                    "lblAvailableLimit": {
                        "@class": "com.viz.ide.model.segment.SimpleTextSegmentData",
                        "text": "3136"
                    },
                    "lblCCY": {
                        "@class": "com.viz.ide.model.segment.SimpleTextSegmentData",
                        "text": "EUR"
                    },
                    "lblClearedBalance": {
                        "@class": "com.viz.ide.model.segment.SimpleTextSegmentData",
                        "text": "12854"
                    },
                    "lblHeaderAN": {
                        "@class": "com.viz.ide.model.segment.SimpleTextSegmentData",
                        "text": "50005411"
                    },
                    "lblHeaderAccountType": {
                        "@class": "com.viz.ide.model.segment.SimpleTextSegmentData",
                        "text": "Regular Savings "
                    },
                    "lblLockedAnalysis": {
                        "@class": "com.viz.ide.model.segment.SimpleTextSegmentData",
                        "text": "Locked Amount"
                    },
                    "lstBox": {
                        "@class": "com.viz.ide.model.segment.CheckableSegmentData",
                        "masterData": [
                            [
                                "lb1",
                                "Services"
                            ],
                            [
                                "lb2",
                                "Services"
                            ],
                            [
                                "lb3",
                                "Services"
                            ]
                        ],
                        "selectedKey": null,
                        "selectedKeys": null
                    }
                }
            ]
        ]
    ],
    "_height_": {
        "type": "string",
        "value": "240dp"
    },
    "_indicator_": "none",
    "_left_": {
        "type": "string",
        "value": "0dp"
    },
    "_margin_": [
        0,
        0,
        0,
        0
    ],
    "_orientation_": 2,
    "_padding_": [
        0,
        0,
        0,
        0
    ],
    "_top_": {
        "type": "string",
        "value": "0dp"
    },
    "_width_": {
        "type": "string",
        "value": "100.00%"
    },
    "autogrowmode": 0,
    "canUpdateUI": true,
    "containerweight": 100,
    "counter": "19",
    "focusedindex": null,
    "focuseditem": null,
    "groupcells": false,
    "hasSections": true,
    "id": "segMin",
    "info": null,
    "ipad": {
        "psp": {
            "indicator": "rowselect"
        }
    },
    "iphone": {
        "psp": {
            "indicator": "rowselect"
        }
    },
    "iscustomlayout": false,
    "isvisible": true,
    "kuid": "b5d63dced89a4c5bbc7fe50df3fb00ec",
    "masterdata": {},
    "name": "kony.ui.SegmentedUI2",
    "needpageindicator": true,
    "pageoffdotimage": "pageoffdot.png",
    "pageondotimage": "pageondot.png",
    "paginationconfig": {
        "position": "bottom"
    },
    "parent": "flxCntnr2",
    "pf": "frmCustomerAccountsDetails",
    "retaincontentalignment": false,
    "retainflexpositionproperties": false,
    "retainselection": false,
    "rowTemplateId": "e9b898515b58472fb0b209fbb81dce72",
    "rowcounter": 9,
    "rowfocusskin": "s3f353c057a14ca8a8d6fa6caf39f59a",
    "rowskin": "s5344ea37b3f40f7877699e4eafbf3dc",
    "rowtemplate": "cpyFlxTemp",
    "screenlevelwidget": false,
    "seccounter": 1,
    "sectionHeaderTemplateId": "h7de109d404741a39345c04de6b76214",
    "sectionheaderskin": "s67dfc97c181442ebeb45ecca8ba0dc8",
    "sectionheadertemplate": "flxTemp2",
    "selectedRows": null,
    "selectedState": false,
    "selectedindex": null,
    "selectedindices": null,
    "selecteditems": null,
    "selectedsectionindex": 0,
    "selectionbehavior": "default",
    "separatorcolor": "aaaaaa00",
    "separatorrequired": true,
    "separatorthickness": 1,
    "showscrollbars": false,
    "viewtype": "tableview",
    "vizProps": {},
    "wType": "Segment",
    "widgetalignment": 5,
    "widgetdatamap": {
        "CopylblAccountServices0e295999fcf744a": "CopylblAccountServices0e295999fcf744a",
        "cpyFlxTemp": "cpyFlxTemp",
        "flxTemp2": "flxTemp2",
        "lblAccountServices": "lblAccountServices",
        "lblAvailable": "lblAvailable",
        "lblAvailableLimit": "lblAvailableLimit",
        "lblCCY": "lblCCY",
        "lblClearedBalance": "lblClearedBalance",
        "lblHeaderAN": "lblHeaderAN",
        "lblHeaderAccountType": "lblHeaderAccountType",
        "lblLockedAnalysis": "lblLockedAnalysis",
        "lstBox": "lstBox"
    },
    "zindex": 1
}