{
    "@class": "com.kony.gen.viz.model.container.KVizSegment2",
    "DNDConfig": null,
    "_data_": [
        {
            "btnSelect1": {
                "@class": "com.viz.ide.model.segment.SimpleTextSegmentData",
                "text": ""
            },
            "chxBox": {
                "@class": "com.viz.ide.model.segment.CheckableSegmentData",
                "masterData": [
                    [
                        "cbg1",
                        "1"
                    ]
                ],
                "selectedKeys": [
                    "cbg1"
                ]
            },
            "lblAmount1": {
                "@class": "com.viz.ide.model.segment.SimpleTextSegmentData",
                "text": ""
            },
            "lblArrow": {
                "@class": "com.viz.ide.model.segment.SimpleTextSegmentData",
                "text": ""
            },
            "lblDate1": {
                "@class": "com.viz.ide.model.segment.SimpleTextSegmentData",
                "text": ""
            }
        }
    ],
    "_height_": {
        "type": "string",
        "value": "100%"
    },
    "_indicator_": "none",
    "_left_": {
        "type": "string",
        "value": "20dp"
    },
    "_margin_": [
        0,
        0,
        0,
        0
    ],
    "_orientation_": 2,
    "_padding_": [
        0,
        0,
        0,
        0
    ],
    "_top_": {
        "type": "string",
        "value": "0dp"
    },
    "_width_": {
        "type": "string",
        "value": "90.69%"
    },
    "autogrowmode": 0,
    "canUpdateUI": true,
    "containerweight": 100,
    "counter": "00",
    "disabledSkins": {
        "rowFocusSkin": "s3f353c057a14ca8a8d6fa6caf39f59a"
    },
    "focusedindex": null,
    "focuseditem": null,
    "groupcells": false,
    "hasSections": false,
    "id": "segSkipPayments",
    "ide_onRowClick": "AS_Segment_d31979feaacb48c186acdbe0dc2b7de5",
    "info": null,
    "ipad": {
        "psp": {
            "indicator": "rowselect"
        }
    },
    "iphone": {
        "psp": {
            "indicator": "rowselect"
        }
    },
    "iscustomlayout": false,
    "isvisible": true,
    "kuid": "h84367ac940649e1b933b46b779be5af",
    "masterdata": {},
    "name": "kony.ui.SegmentedUI2",
    "needpageindicator": true,
    "pageoffdotimage": "pageoffdot.png",
    "pageondotimage": "pageondot.png",
    "paginationconfig": {
        "position": "bottom"
    },
    "parent": "flxScroll",
    "pf": "frmCustomerAccountsDetails",
    "retaincontentalignment": false,
    "retainflexpositionproperties": false,
    "retainselection": false,
    "rowTemplateId": "f1e441fca0514d54b3debd3668ec47bb",
    "rowcounter": 0,
    "rowskin": "s5344ea37b3f40f7877699e4eafbf3dc",
    "rowtemplate": "flxrow1",
    "screenlevelwidget": false,
    "seccounter": 0,
    "sectionheaderskin": "s67dfc97c181442ebeb45ecca8ba0dc8",
    "selectedRows": null,
    "selectedState": false,
    "selectedindex": null,
    "selectedindices": null,
    "selecteditems": null,
    "selectedsectionindex": 0,
    "selectionbehavior": "default",
    "separatorrequired": false,
    "showscrollbars": false,
    "viewtype": "tableview",
    "vizProps": {},
    "wType": "Segment",
    "widgetalignment": 5,
    "widgetdatamap": {
        "btnSelect1": "btnSelect1",
        "chxBox": "chxBox",
        "flxrow1": "flxrow1",
        "lblAmount1": "lblAmount1",
        "lblArrow": "lblArrow",
        "lblDate1": "lblDate1"
    },
    "zindex": 3
}