{
    "com.amazonaws.auth.AWS4Signer": "DEBUG",
    "com.amazonaws.http.AmazonHttpClient": "DEBUG",
    "com.amazonaws.http.HttpClientFactory$LocationHeaderNotRequiredRedirectStrategy": "DEBUG",
    "com.amazonaws.http.IdleConnectionReaper": "DEBUG",
    "com.amazonaws.latency": "DEBUG",
    "com.amazonaws.request": "DEBUG",
    "com.amazonaws.services.s3.AmazonS3Client": "DEBUG",
    "com.amazonaws.services.s3.internal.S3MetadataResponseHandler": "DEBUG",
    "com.amazonaws.services.s3.internal.S3Signer": "DEBUG",
    "com.amazonaws.services.s3.internal.ServiceUtils": "DEBUG",
    "com.amazonaws.services.s3.model.transform.XmlResponsesSaxParser": "DEBUG",
    "com.amazonaws.transform.SimpleTypeStaxUnmarshallers": "DEBUG",
    "com.amazonaws.util.BinaryUtils": "DEBUG",
    "com.amazonaws.util.VersionInfoUtils": "DEBUG",
    "com.kony": "DEBUG",
    "com.kony.web.filter.KonySPADetailsFilter": "DEBUG",
    "com.konylabs": "DEBUG",
    "com.konylabs.devicecentral.api.DeviceCentralAccess": "DEBUG",
    "com.konylabs.devicecentral.api.apiimpl.DCAConsumerAPIImpl": "DEBUG",
    "com.konylabs.devicecentral.cache.DBCacheManager": "DEBUG",
    "com.konylabs.devicecentral.client.ClientAPI": "DEBUG",
    "com.konylabs.middleware.cloud.CustomMetricsServlet": "DEBUG",
    "com.konylabs.middleware.cloud.LoadApplications": "DEBUG",
    "com.konylabs.middleware.cloud.SessionTrackingServlet": "DEBUG",
    "com.konylabs.middleware.cloud.SubscribeSNSEndpoints": "DEBUG",
    "com.konylabs.middleware.common.Config": "DEBUG",
    "com.konylabs.middleware.common.InterceptorFilter": "DEBUG",
    "com.konylabs.middleware.common.MemCacheDCFilter": "DEBUG",
    "com.konylabs.middleware.common.MiddlewareMemCacheDCFilter": "DEBUG",
    "com.konylabs.middleware.common.MiddlewareValidationListener": "DEBUG",
    "com.konylabs.middleware.common.SNSSubscriptionListener": "DEBUG",
    "com.konylabs.middleware.common.XSSFilter": "DEBUG",
    "com.konylabs.middleware.connectors.ConnectorUtils": "DEBUG",
    "com.konylabs.middleware.connectors.logservice.SQSLogService": "DEBUG",
    "com.konylabs.middleware.controller.impl.DataControllerImpl": "DEBUG",
    "com.konylabs.middleware.entry.MWServlet": "DEBUG",
    "com.konylabs.middleware.notifications.SNSSubscriptionServlet": "DEBUG",
    "com.konylabs.middleware.registry.impl.KonyApplicationRegistry": "DEBUG",
    "com.konylabs.middleware.registry.impl.KonyRegistryDBManager": "DEBUG",
    "com.konylabs.middleware.utilities.ConfigUtility": "DEBUG",
    "org.apache.http.client.protocol.RequestAddCookies": "DEBUG",
    "org.apache.http.client.protocol.RequestAuthCache": "DEBUG",
    "org.apache.http.client.protocol.RequestClientConnControl": "DEBUG",
    "org.apache.http.client.protocol.RequestProxyAuthentication": "DEBUG",
    "org.apache.http.client.protocol.RequestTargetAuthentication": "DEBUG",
    "org.apache.http.client.protocol.ResponseProcessCookies": "DEBUG",
    "org.apache.http.headers": "DEBUG",
    "org.apache.http.impl.client.DefaultHttpClient": "DEBUG",
    "org.apache.http.impl.client.ProxyAuthenticationStrategy": "DEBUG",
    "org.apache.http.impl.client.TargetAuthenticationStrategy": "DEBUG",
    "org.apache.http.impl.conn.DefaultClientConnection": "DEBUG",
    "org.apache.http.impl.conn.DefaultClientConnectionOperator": "DEBUG",
    "org.apache.http.impl.conn.DefaultHttpResponseParser": "DEBUG",
    "org.apache.http.impl.conn.IdleConnectionHandler": "DEBUG",
    "org.apache.http.impl.conn.PoolingClientConnectionManager": "DEBUG",
    "org.apache.http.impl.conn.tsccm.ConnPoolByRoute": "DEBUG",
    "org.apache.http.impl.conn.tsccm.RouteSpecificPool": "DEBUG",
    "org.apache.http.impl.conn.tsccm.ThreadSafeClientConnManager": "DEBUG",
    "org.apache.http.wire": "DEBUG",
    "com.konylabs.middleware.connectors.BaseConnector": "DEBUG",
    "com.konylabs.middleware.connectors.sap.SAPConnector": "DEBUG",
    "com.konylabs.middleware.connectors.siebel.SiebelConnector": "DEBUG",
    "com.konylabs.middleware.connectors.CompositeConnector": "DEBUG",
    "com.konylabs.middleware.connectors.LoopingConnector": "DEBUG",
    "com.konylabs.middleware.connectors.JavaConnector": "DEBUG",
    "com.konylabs.middleware.connectors.JavaConnector2": "DEBUG",
    "com.konylabs.middleware.connectors.io.ServiceInputHandler": "DEBUG",
    "com.konylabs.middleware.connectors.io.ServiceOutputHandler": "DEBUG",
    "com.konylabs.middleware.connectors.json.JSONOutputHandler": "DEBUG",
    "com.konylabs.middleware.common.DefaultDataProvider": "DEBUG",
    "com.konylabs.middleware.utilities.MiddlewareUtils": "DEBUG",
    "com.konylabs.middleware.services.ServiceDelegate": "DEBUG"
}