{
    "@class": "com.kony.gen.viz.model.component.KVizUserWidget",
    "DNDConfig": null,
    "_children_": [],
    "_height_": {
        "type": "string",
        "value": "235dp"
    },
    "_left_": {
        "type": "string",
        "value": "0dp"
    },
    "_margin_": [
        0,
        0,
        0,
        0
    ],
    "_orientation_": 1,
    "_padding_": [
        0,
        0,
        0,
        0
    ],
    "_percent_": true,
    "_skin_": "sc3152e84f124ba89897dc36dd3dbc9e",
    "_top_": {
        "type": "string",
        "value": "0dp"
    },
    "_width_": {
        "type": "string",
        "value": "100%"
    },
    "areflexpropsreferenced": false,
    "autogrowmode": 0,
    "canUpdateUI": true,
    "centerx": {
        "type": "string",
        "value": "50%"
    },
    "clipbounds": false,
    "containerweight": 0,
    "dataDiffs": {
        "AccountList": {
            "__events__": {},
            "__info__": {
                "isRoot": true,
                "kuid": "i72c797aefe04a84950913582c5b53d0",
                "srcKUID": "cbb7b673c99b462696ec92c15e5adcd7",
                "wType": "FlexContainer"
            },
            "autogrowMode": {
                "Default": 0
            },
            "height": {
                "Default": {
                    "type": "string",
                    "value": "235dp"
                }
            },
            "isVisible": true,
            "responsiveData": {},
            "width": {
                "Default": {
                    "type": "string",
                    "value": "100%"
                }
            }
        },
        "flxHeader": {
            "__events__": {},
            "__info__": {
                "kuid": "c63235a2a3c14d5796fac89afe6d8f61",
                "srcKUID": "f1c09a8c62eb47cc84c394d39ae9df23",
                "wType": "FlexContainer"
            }
        },
        "lblAccNo": {
            "__events__": {},
            "__info__": {
                "kuid": "c233b184909340d2b1f14fd3a6f45d96",
                "srcKUID": "b284f18f988f4b9babfebd3517890b56",
                "wType": "Label"
            }
        },
        "lblBalance": {
            "__events__": {},
            "__info__": {
                "kuid": "hba5826091754e72bda3ea2a7f37bfec",
                "srcKUID": "b8cb8c84a7ff422caeab094fdfd63b0c",
                "wType": "Label"
            }
        },
        "lblNoAccounts": {
            "__events__": {},
            "__info__": {
                "kuid": "eb4311cb7e0047b7a1501aaee8fac1fb",
                "srcKUID": "c328608af89d4eeda7651cddb7a99e3a",
                "wType": "Label"
            }
        },
        "lblType": {
            "__events__": {},
            "__info__": {
                "kuid": "gc35ee7770f14e76a6b838ffe07a463d",
                "srcKUID": "ef7d6421dce34f5aaf8e3acf81214474",
                "wType": "Label"
            }
        },
        "segAccountList": {
            "__events__": {},
            "__info__": {
                "kuid": "c6b35dd69d4640d8aed496d3c8c6776f",
                "srcKUID": "f2669e646d954ea49668ed564a010b7c",
                "wType": "Segment"
            },
            "autogrowMode": {
                "Default": 0
            },
            "height": {
                "Default": {
                    "type": "string",
                    "value": "190dp"
                }
            },
            "responsiveData": {},
            "top": {
                "Default": {
                    "type": "string",
                    "value": "40dp"
                }
            }
        }
    },
    "enablescrolling": true,
    "id": "AccountList",
    "info": null,
    "iscustomlayout": false,
    "isdatareferenced": false,
    "issegmentchild": false,
    "isvisible": true,
    "kuid": "i72c797aefe04a84950913582c5b53d0",
    "layouttype": 2,
    "masterType": 0,
    "name": "kony.ui.UserWidgetInstance",
    "parent": "flxPayinComp",
    "pf": "frmLoanCreation",
    "retaincontentalignment": false,
    "retainflexpositionproperties": false,
    "retainflowhorizontalalignment": false,
    "snapgridsize": 10,
    "snaptogrid": true,
    "sourceUserWidget": "cbb7b673c99b462696ec92c15e5adcd7",
    "wType": "UserWidgetInstance",
    "zindex": 10
}