{
    "@class": "com.kony.gen.viz.model.component.KVizCustom",
    "DNDConfig": null,
    "_height_": {
        "type": "string",
        "value": "50px"
    },
    "_left_": {
        "type": "string",
        "value": "-600px"
    },
    "_margin_": [
        0,
        0,
        0,
        0
    ],
    "_padding_": [
        0,
        0,
        0,
        0
    ],
    "_top_": {
        "type": "string",
        "value": "510dp"
    },
    "_width_": {
        "type": "string",
        "value": "225dp"
    },
    "android": {
        "render": false
    },
    "androidwearos": {
        "render": false
    },
    "canUpdateUI": true,
    "containerweight": 0,
    "customProperties": {
        "clicked": "",
        "dense": "",
        "disabled": false,
        "labelText": "Pay-in Account",
        "options": "",
        "readonly": false,
        "value": ""
    },
    "cwEvents": [
        "valueChanged",
        "clicked"
    ],
    "cwid": "cwd0a630f070364623a54eee2878c290cc",
    "id": "custPayIn",
    "info": null,
    "ipad": {
        "render": false
    },
    "iphone": {
        "render": false
    },
    "iscustomlayout": false,
    "isvisible": false,
    "kiosk": {
        "render": false
    },
    "kuid": "e4188dc44a2a4070ae43818a679c2f09",
    "name": "uuxDropdown-kony.ui",
    "nameSpaceIndex": 0,
    "parent": "FlexContainer0d8781aeee9e447",
    "pf": "frmLoanCreation",
    "platformKey": "spa",
    "retaincontentalignment": false,
    "retainflexpositionproperties": false,
    "tabrcandroid": {
        "render": false
    },
    "wType": "TPW",
    "watchos": {
        "render": false
    },
    "widgetIndex": 7,
    "windows10": {
        "render": false
    },
    "windows8": {
        "render": false
    },
    "winphone10": {
        "render": false
    },
    "winphone8": {
        "render": false
    },
    "zindex": 1
}