{
    "@class": "com.kony.gen.viz.model.component.KVizCustom",
    "DNDConfig": null,
    "_height_": {
        "type": "string",
        "value": "55dp"
    },
    "_margin_": [
        0,
        0,
        0,
        0
    ],
    "_padding_": [
        0,
        0,
        0,
        0
    ],
    "_right_": {
        "type": "string",
        "value": "3dp"
    },
    "_top_": {
        "type": "string",
        "value": "122dp"
    },
    "_width_": {
        "type": "string",
        "value": "303dp"
    },
    "android": {
        "render": false
    },
    "androidwearos": {
        "render": false
    },
    "canUpdateUI": true,
    "clipbounds": false,
    "containerweight": 0,
    "customProperties": {
        "clicked": "",
        "dense": "dense",
        "disabled": false,
        "labelText": "Currency",
        "options": "",
        "readonly": false,
        "validateRequired": "required",
        "value": ""
    },
    "cwEvents": [
        "valueChanged",
        "clicked"
    ],
    "cwid": "cwd0a630f070364623a54eee2878c290cc",
    "desktopweb": {
        "zIndex": "auto"
    },
    "id": "custCurrency",
    "info": null,
    "ipad": {
        "render": false
    },
    "iphone": {
        "render": false
    },
    "iscustomlayout": false,
    "isvisible": true,
    "kiosk": {
        "render": false
    },
    "kuid": "c237cb23f9414f7897f23de8421996b1",
    "name": "uuxDropdown-kony.ui",
    "nameSpaceIndex": 0,
    "parent": "flxRightpart",
    "pf": "frmLoanCreation",
    "platformKey": "spa",
    "retaincontentalignment": false,
    "retainflexpositionproperties": false,
    "tabrcandroid": {
        "render": false
    },
    "wType": "TPW",
    "watchos": {
        "render": false
    },
    "widgetIndex": 7,
    "windows10": {
        "render": false
    },
    "windows8": {
        "render": false
    },
    "winphone10": {
        "render": false
    },
    "winphone8": {
        "render": false
    },
    "zindex": 4
}