{
    "DNDConfig": null,
    "_height_": {
        "type": "string",
        "value": "530dp"
    },
    "_left_": {
        "type": "string",
        "value": "-210%"
    },
    "_margin_": [
        0,
        0,
        0,
        0
    ],
    "_orientation_": 6,
    "_padding_": [
        0,
        0,
        0,
        0
    ],
    "_percent_": true,
    "_skin_": "se31956b9efb4cdeb803f81ffb1335e2",
    "_top_": {
        "type": "number",
        "value": "30"
    },
    "_width_": {
        "type": "string",
        "value": "105%"
    },
    "allboxes": [],
    "autogrowmode": 0,
    "canUpdateUI": true,
    "children": [],
    "clipbounds": true,
    "containerweight": 100,
    "enablescrolling": true,
    "id": "flxClickEnable",
    "info": null,
    "iscustomlayout": false,
    "isvisible": false,
    "kuid": "cb10b53781a8444683b958829b920841",
    "layouttype": 2,
    "name": "kony.ui.FlexContainer",
    "parent": "flxLoanCreationTab",
    "pf": "frmLoanCreation",
    "retaincontentalignment": false,
    "retainflexpositionproperties": false,
    "retainflowhorizontalalignment": false,
    "snapgridsize": 10,
    "snaptogrid": true,
    "wType": "FlexContainer",
    "widgetalignment": 1,
    "zindex": 1
}