{
    "DNDConfig": null,
    "_height_": {
        "type": "string",
        "value": "65px"
    },
    "_left_": {
        "type": "string",
        "value": "122dp"
    },
    "_margin_": [
        0,
        0,
        0,
        0
    ],
    "_orientation_": 6,
    "_padding_": [
        0,
        0,
        0,
        0
    ],
    "_percent_": true,
    "_skin_": "se31956b9efb4cdeb803f81ffb1335e2",
    "_top_": {
        "type": "string",
        "value": "0dp"
    },
    "_width_": {
        "type": "string",
        "value": "550dp"
    },
    "allboxes": [],
    "autogrowmode": 0,
    "canUpdateUI": true,
    "children": [
        "flxStep1",
        "flxArrow",
        "flxLoanSpecifies"
    ],
    "clipbounds": true,
    "containerweight": 100,
    "desktopweb": {
        "zIndex": "auto"
    },
    "enablescrolling": true,
    "id": "flxLoanSteps",
    "info": null,
    "iscustomlayout": false,
    "isvisible": true,
    "kuid": "c61a6cb44c9142d9986ebdd811f3b255",
    "layouttype": 3,
    "name": "kony.ui.FlexContainer",
    "parent": "flxNewLoanTitles",
    "pf": "frmLoanCreation",
    "retaincontentalignment": false,
    "retainflexpositionproperties": false,
    "retainflowhorizontalalignment": false,
    "snapgridsize": 10,
    "snaptogrid": true,
    "wType": "FlexContainer",
    "widgetalignment": 1,
    "zindex": 1
}