{
    "DNDConfig": null,
    "_height_": {
        "type": "ref",
        "value": "preferred"
    },
    "_left_": {
        "type": "string",
        "value": "0"
    },
    "_margin_": [
        0,
        0,
        0,
        0
    ],
    "_orientation_": 6,
    "_padding_": [
        0,
        0,
        0,
        0
    ],
    "_percent_": true,
    "_skin_": "se31956b9efb4cdeb803f81ffb1335e2",
    "_top_": {
        "type": "string",
        "value": "0"
    },
    "_width_": {
        "type": "string",
        "value": "100%"
    },
    "allboxes": [],
    "autogrowmode": 1,
    "canUpdateUI": true,
    "children": [
        "flxLoansTitle",
        "flxLoanSteps"
    ],
    "clipbounds": true,
    "containerweight": 100,
    "desktopweb": {
        "centerX": "",
        "centerY": "",
        "maxHeight": "",
        "maxWidth": "",
        "minHeight": "",
        "minWidth": "",
        "right": "",
        "zIndex": 1
    },
    "enablescrolling": true,
    "id": "flxNewLoanTitles",
    "info": null,
    "iscustomlayout": false,
    "isvisible": true,
    "kuid": "ee069e2c67394ca58101710a680a600d",
    "layouttype": 3,
    "name": "kony.ui.FlexContainer",
    "parent": "flxTopWrapper",
    "pf": "frmLoanCreation",
    "retaincontentalignment": false,
    "retainflexpositionproperties": false,
    "retainflowhorizontalalignment": false,
    "snapgridsize": 10,
    "snaptogrid": true,
    "wType": "FlexContainer",
    "widgetalignment": 1,
    "zindex": 1
}