{
    "DNDConfig": null,
    "_height_": {
        "type": "string",
        "value": "100%"
    },
    "_left_": {
        "type": "string",
        "value": "0"
    },
    "_margin_": [
        0,
        0,
        0,
        0
    ],
    "_orientation_": 6,
    "_padding_": [
        0,
        0,
        0,
        0
    ],
    "_percent_": true,
    "_skin_": "se31956b9efb4cdeb803f81ffb1335e2",
    "_top_": {
        "type": "string",
        "value": "0"
    },
    "_width_": {
        "type": "string",
        "value": "100%"
    },
    "allboxes": [],
    "autogrowmode": 0,
    "canUpdateUI": true,
    "children": [
        "custLoanAmountUSD",
        "custLoanAmountEUR",
        "custLoanTerm",
        "custMaturityDate",
        "custMatDate",
        "custPrincipalInterest",
        "custPenaltyInterest",
        "custRepaymentFrequencyold",
        "custRepaymentFrequency",
        "custLimitID",
        "flxpayOutSearch",
        "flxpayInSearch",
        "tbxPayOutAccount1",
        "flxpayout1",
        "tbxPayInAccount1",
        "tbxPayOutAccount",
        "tbxPayInAccount",
        "flxPayinComp",
        "flxPayoutComp"
    ],
    "clipbounds": false,
    "containerweight": 100,
    "desktopweb": {
        "zIndex": 1
    },
    "enablescrolling": true,
    "id": "flxRow1",
    "info": null,
    "iscustomlayout": false,
    "isvisible": true,
    "kuid": "cfdfb25d2fa843848fef51b407e368f3",
    "layouttype": 2,
    "name": "kony.ui.FlexContainer",
    "parent": "frmLoanSpecifiesTab",
    "pf": "frmLoanCreation",
    "retaincontentalignment": false,
    "retainflexpositionproperties": false,
    "retainflowhorizontalalignment": false,
    "snapgridsize": 10,
    "snaptogrid": true,
    "wType": "FlexContainer",
    "widgetalignment": 1,
    "zindex": 1
}