{
    "DNDConfig": null,
    "_height_": {
        "type": "string",
        "value": "146.15%"
    },
    "_left_": {
        "type": "string",
        "value": "0"
    },
    "_margin_": [
        0,
        0,
        0,
        0
    ],
    "_orientation_": 6,
    "_padding_": [
        0,
        0,
        0,
        0
    ],
    "_percent_": true,
    "_skin_": "se31956b9efb4cdeb803f81ffb1335e2",
    "_top_": {
        "type": "string",
        "value": "-25dp"
    },
    "_width_": {
        "type": "string",
        "value": "140px"
    },
    "allboxes": [],
    "autogrowmode": 0,
    "canUpdateUI": true,
    "children": [
        "flxStepClick",
        "Label0f0949fa7b1ca45"
    ],
    "clipbounds": true,
    "containerweight": 100,
    "enablescrolling": true,
    "id": "flxStep1",
    "info": null,
    "iscustomlayout": false,
    "isvisible": true,
    "kuid": "ced8913dae3748faac3f5cae7de5e2fa",
    "layouttype": 3,
    "name": "kony.ui.FlexContainer",
    "parent": "flxLoanSteps",
    "pf": "frmLoanCreation",
    "retaincontentalignment": false,
    "retainflexpositionproperties": false,
    "retainflowhorizontalalignment": false,
    "snapgridsize": 10,
    "snaptogrid": true,
    "wType": "FlexContainer",
    "widgetalignment": 1
}