{
    "DNDConfig": null,
    "_bottom_": {
        "type": "string",
        "value": "20dp"
    },
    "_height_": {
        "type": "string",
        "value": "230dp"
    },
    "_left_": {
        "type": "string",
        "value": "0dp"
    },
    "_margin_": [
        0,
        0,
        0,
        0
    ],
    "_orientation_": 6,
    "_padding_": [
        0,
        0,
        0,
        0
    ],
    "_percent_": true,
    "_skin_": "se31956b9efb4cdeb803f81ffb1335e2",
    "_top_": {
        "type": "string",
        "value": "103dp"
    },
    "_width_": {
        "type": "string",
        "value": "1100dp"
    },
    "allboxes": [],
    "autogrowmode": 0,
    "canUpdateUI": true,
    "centerx": {
        "type": "string",
        "value": "50%"
    },
    "children": [
        "flxRow1"
    ],
    "clipbounds": false,
    "containerweight": 100,
    "desktopweb": {
        "zIndex": "auto"
    },
    "enablescrolling": true,
    "id": "frmLoanSpecifiesTab",
    "info": null,
    "iscustomlayout": false,
    "isvisible": true,
    "kuid": "d9c08fb9868a46cbb7dcc5ab35cf1d67",
    "layouttype": 3,
    "name": "kony.ui.FlexContainer",
    "parent": "flxTopWrapper",
    "pf": "frmLoanCreation",
    "retaincontentalignment": false,
    "retainflexpositionproperties": false,
    "retainflowhorizontalalignment": false,
    "snapgridsize": 10,
    "snaptogrid": true,
    "wType": "FlexContainer",
    "widgetalignment": 1,
    "zindex": 2
}