{
    "@class": "com.kony.gen.viz.model.component.KVizUserWidget",
    "DNDConfig": null,
    "_children_": [],
    "_height_": {
        "type": "string",
        "value": "100%"
    },
    "_left_": {
        "type": "string",
        "value": "0dp"
    },
    "_margin_": [
        0,
        0,
        0,
        0
    ],
    "_orientation_": 1,
    "_padding_": [
        0,
        0,
        0,
        0
    ],
    "_percent_": true,
    "_skin_": "s4e043b98564449d8a4a73daad362f53",
    "_top_": {
        "type": "string",
        "value": "0dp"
    },
    "_width_": {
        "type": "string",
        "value": "100%"
    },
    "areflexpropsreferenced": false,
    "autogrowmode": 0,
    "canUpdateUI": true,
    "clipbounds": true,
    "containerweight": 0,
    "dataDiffs": {
        "CopyflxBck0c8bd2742893248": {
            "__events__": {},
            "__info__": {
                "kuid": "b92e77a6d3da4259b73a072e9f210ae4",
                "srcKUID": "b16577411ad64ef0b69155d86f981147",
                "wType": "FlexContainer"
            }
        },
        "CopylblBack0j2de3a34459746": {
            "__events__": {},
            "__info__": {
                "kuid": "g566fe784db442a58e7482dc0bae6a9b",
                "srcKUID": "hf555ed03dd84c5c8b001d806fabf496",
                "wType": "Label"
            }
        },
        "CopylblBackArrow0a405d8ec3e4d46": {
            "__events__": {},
            "__info__": {
                "kuid": "a863e81b7d8343e78c9e6ecb84d4ee75",
                "srcKUID": "c2729d6470df4bec9bb2f0566aaffa17",
                "wType": "Label"
            }
        },
        "FlexContainer0da2ffc32184b42": {
            "__events__": {},
            "__info__": {
                "kuid": "f627193b0040487ebbd9061197c2661c",
                "srcKUID": "h903dd1667de48baa27598a189677899",
                "wType": "FlexContainer"
            }
        },
        "FlexGroup0b337f90c7acb4e": {
            "__events__": {},
            "__info__": {
                "kuid": "df193c45f2b64757880f036f348bd4b6",
                "srcKUID": "fce876425ac54b2789772f60a15ba407",
                "wType": "FlexContainer"
            }
        },
        "Label0e9ea2d0c21b54f": {
            "__events__": {},
            "__info__": {
                "kuid": "d104ae34810240dfb61f1152f921dc34",
                "srcKUID": "i1d367cc36854ce6951d66f4288b5992",
                "wType": "Label"
            }
        },
        "PlayCircleDark": {
            "__events__": {},
            "__info__": {
                "kuid": "j9a593894ee74a1f80477508cb46c215",
                "srcKUID": "hbbef4873ddd4d2c845f4c02d70d9e63",
                "wType": "Label"
            }
        },
        "brw": {
            "__events__": {},
            "__info__": {
                "kuid": "fb47f628eb5d492199d9b080d9e03415",
                "srcKUID": "a71f40f28f42470baf7df31c0de8224f",
                "wType": "Browser"
            }
        },
        "btn1": {
            "__events__": {},
            "__info__": {
                "kuid": "c2f13a4050234ab08154cd28c83d6811",
                "srcKUID": "gf03b7ec227d4252a8f10adb8fc5a29e",
                "wType": "Button"
            }
        },
        "btn2": {
            "__events__": {},
            "__info__": {
                "kuid": "e6526cdf59b645f09d54775865866365",
                "srcKUID": "b93e1896a97e46d994a5dd2137e47642",
                "wType": "Button"
            }
        },
        "btn3": {
            "__events__": {},
            "__info__": {
                "kuid": "b94c1f4c01a8443f91f52478e0512bfb",
                "srcKUID": "g19387348c33490eb3a459606ac61572",
                "wType": "Button"
            }
        },
        "btn4": {
            "__events__": {},
            "__info__": {
                "kuid": "af45477f8a174507a52d52c35308e608",
                "srcKUID": "j7114c0fedba464eba63b5f0df2121e9",
                "wType": "Button"
            }
        },
        "btn5": {
            "__events__": {},
            "__info__": {
                "kuid": "b79b7cf859104c02984cdae75514d3c7",
                "srcKUID": "c1b425151e7c4005be4f6b1b2e6665d1",
                "wType": "Button"
            }
        },
        "btn6": {
            "__events__": {},
            "__info__": {
                "kuid": "a3a5458031354c91ac37d7069e2fa6fa",
                "srcKUID": "f7160577513945aaaa8a7da41819af25",
                "wType": "Button"
            }
        },
        "btn7": {
            "__events__": {},
            "__info__": {
                "kuid": "eb3c98461eaa40b0a68e2dd354fe180e",
                "srcKUID": "bef38e3da76f493b994a1907df8a9d20",
                "wType": "Button"
            }
        },
        "btn8": {
            "__events__": {},
            "__info__": {
                "kuid": "b0f8429d44204123ad8527e5dbd5e072",
                "srcKUID": "dc48bac4051f4069a07b2e9515777c97",
                "wType": "Button"
            }
        },
        "btnAccount": {
            "__events__": {},
            "__info__": {
                "kuid": "bd317e21242c48afaa37ef0d28bee027",
                "srcKUID": "f9e7593e31214141aa727f3de5d9b8fd",
                "wType": "Button"
            }
        },
        "btnBackShowMore": {
            "__events__": {},
            "__info__": {
                "kuid": "ddbe5ac1f4de4ee0b742f2cae3b453aa",
                "srcKUID": "c7e165ebb99642dca78371e584d3cf69",
                "wType": "Button"
            }
        },
        "btnBckType": {
            "__events__": {},
            "__info__": {
                "kuid": "e0bdf8b396c94aaf9c8422377b36de1d",
                "srcKUID": "fb7c1bdb2c1a4921a9eba28b2d339160",
                "wType": "Button"
            }
        },
        "btnClearTxt": {
            "__events__": {},
            "__info__": {
                "kuid": "fa58385e95b445829ee3962ea1c9f1fb",
                "srcKUID": "c305fdbd3745481b847747a394cb2091",
                "wType": "Button"
            }
        },
        "btnCloseHelp": {
            "__events__": {},
            "__info__": {
                "kuid": "h2acfe1d11924e8d88e6debe7a2fbe1a",
                "srcKUID": "i18a7a701189415c9f194aa7e4e8a7fe",
                "wType": "Button"
            }
        },
        "btnCloseVideo": {
            "__events__": {},
            "__info__": {
                "kuid": "d1dd2d179091424f92f613b9bdf74968",
                "srcKUID": "ccb1e540ebd942d29b2f8b3e8b63c15a",
                "wType": "Button"
            }
        },
        "btnDeposit": {
            "__events__": {},
            "__info__": {
                "kuid": "a73246b4e9fc4bdc83698f40ef64d016",
                "srcKUID": "b98862c630a14eed8baef0a86ec78c7d",
                "wType": "Button"
            }
        },
        "btnHomeHelp": {
            "__events__": {},
            "__info__": {
                "kuid": "cdec476413294e0b9c43ae070e3a2b60",
                "srcKUID": "i6791d96aab54846a3f762c9ddd25a10",
                "wType": "Button"
            }
        },
        "btnLoan": {
            "__events__": {},
            "__info__": {
                "kuid": "e8aecec3967249d1badcaafb386ada72",
                "srcKUID": "g96fe633ec7846a78b3e819e622b34d5",
                "wType": "Button"
            }
        },
        "btnMoreQues": {
            "__events__": {},
            "__info__": {
                "kuid": "b8b2bd37293f4faeb9099b8115427030",
                "srcKUID": "j24494575d2a4c2996b8a11c8e044fcf",
                "wType": "Button"
            }
        },
        "btnPlus1": {
            "__events__": {},
            "__info__": {
                "kuid": "a3d2324ad751468bae44d2a46d50a9e9",
                "srcKUID": "ade01b4e13f84d9ba2a388af7d79a8a3",
                "wType": "Button"
            }
        },
        "btnPlus2": {
            "__events__": {},
            "__info__": {
                "kuid": "b508ebfb477145bab5c0f256ee14ce8e",
                "srcKUID": "ide2a591e4074e6eb1d5d4b18e9e904e",
                "wType": "Button"
            }
        },
        "btnPlus3": {
            "__events__": {},
            "__info__": {
                "kuid": "hdd0034704b94a04b4c68297db0e8d0d",
                "srcKUID": "ca1ecc271d9f4f2f991827d9705fc50f",
                "wType": "Button"
            }
        },
        "btnPlus4": {
            "__events__": {},
            "__info__": {
                "kuid": "ad4e5d7840734b7c87bcbc0a7d3af6dd",
                "srcKUID": "ac1c6f2f035a442e9144c2d076cd2ba7",
                "wType": "Button"
            }
        },
        "btnShowMore": {
            "__events__": {},
            "__info__": {
                "kuid": "f1a5d0f5306b47f2b4592bf41c50f69d",
                "srcKUID": "f550a677a3764b5bb9f4f3a83930a9f6",
                "wType": "Button"
            }
        },
        "btnVideo": {
            "__events__": {},
            "__info__": {
                "kuid": "b3c92030e77f40769d090b8a0428fda6",
                "srcKUID": "a5778429f0b1450da48aa6dd90e5f891",
                "wType": "Button"
            }
        },
        "clearSearch": {
            "__events__": {},
            "__info__": {
                "kuid": "cc62710bb9a04116a15e4d7410fbd227",
                "srcKUID": "d5b67cabc602484093e63b8bc30977f2",
                "wType": "Label"
            }
        },
        "clearTxtBxSearch": {
            "__events__": {},
            "__info__": {
                "kuid": "debf21a9e6c54c40a05b6c652c6e6198",
                "srcKUID": "ec79be511d124c3393d9e3901c6628e8",
                "wType": "Label"
            }
        },
        "cusBackIcon": {
            "__events__": {},
            "__info__": {
                "kuid": "b9bdf96f8fa845e9b2d9ba2585cd8024",
                "srcKUID": "bcf684a9b65b471fa13be469d4cd008b",
                "wType": "Label"
            }
        },
        "flx1": {
            "__events__": {},
            "__info__": {
                "kuid": "bbda3d1c89f14487b35419c48f134def",
                "srcKUID": "a0bfb497c3984392b4a69540803595ef",
                "wType": "FlexContainer"
            }
        },
        "flx2": {
            "__events__": {},
            "__info__": {
                "kuid": "ce9bc9363a0f40169025f8c376d24310",
                "srcKUID": "e1bc79ed2e17420c9329ab9862dda505",
                "wType": "FlexContainer"
            }
        },
        "flx3": {
            "__events__": {},
            "__info__": {
                "kuid": "a54bd6b2b607405bab1c15513c0e5e5c",
                "srcKUID": "e06f68df0dff47f5aea0915f446763ab",
                "wType": "FlexContainer"
            }
        },
        "flx4": {
            "__events__": {},
            "__info__": {
                "kuid": "gb12b6734aab4b3aa81e2aafe48d24cb",
                "srcKUID": "i040b70fe33b4686b2adbe96ac59d4f3",
                "wType": "FlexContainer"
            }
        },
        "flx5": {
            "__events__": {},
            "__info__": {
                "kuid": "f0f240ee4c494fc98a78f2d42cb01ac2",
                "srcKUID": "ba4a2bd51d06431db01a951404c33781",
                "wType": "FlexContainer"
            }
        },
        "flx6": {
            "__events__": {},
            "__info__": {
                "kuid": "he2c716b900a4116987391064e1adfcb",
                "srcKUID": "b130bb72adea4f09875a6eda8c55be14",
                "wType": "FlexContainer"
            }
        },
        "flx7": {
            "__events__": {},
            "__info__": {
                "kuid": "c2d46d76e47b47f39fc5c4491b12091f",
                "srcKUID": "b11bad47fb294dc5840f249a1b5f1906",
                "wType": "FlexContainer"
            }
        },
        "flx8": {
            "__events__": {},
            "__info__": {
                "kuid": "a4f97f06837a4cfda0fed9c744f20a4b",
                "srcKUID": "bad38a5e97ce4193b687e896aa3944ac",
                "wType": "FlexContainer"
            }
        },
        "flxAccount": {
            "__events__": {},
            "__info__": {
                "kuid": "i9d2029bcb664aaea69a7518ac469b24",
                "srcKUID": "aaaec0ea0c204ddd861a3161b53b3d83",
                "wType": "FlexContainer"
            }
        },
        "flxAns1": {
            "__events__": {},
            "__info__": {
                "kuid": "fc766051b6aa4518bf895111f7ab5e7d",
                "srcKUID": "b7e31d8e21af4278a8e59adc5fc6acf1",
                "wType": "FlexContainer"
            }
        },
        "flxAns2": {
            "__events__": {},
            "__info__": {
                "kuid": "f77c89673287429d87e2db544004fcf0",
                "srcKUID": "b489098c53ee4c7e9249a8e348c5df26",
                "wType": "FlexContainer"
            }
        },
        "flxBack": {
            "__events__": {},
            "__info__": {
                "kuid": "b4d4da49191e41beb02245b8977e59a9",
                "srcKUID": "g4cea0cac8c54dbd893d0896f90da17a",
                "wType": "FlexContainer"
            }
        },
        "flxBackAns": {
            "__events__": {},
            "__info__": {
                "kuid": "g31bef01dc364390b59417114bd5a58f",
                "srcKUID": "fcd55cc74304478284b321950493c37c",
                "wType": "FlexContainer"
            }
        },
        "flxBck": {
            "__events__": {},
            "__info__": {
                "kuid": "bd709932fa0c4f678dfba2af68af4795",
                "srcKUID": "be9f04b77e314f9db3721cd02d646046",
                "wType": "FlexContainer"
            }
        },
        "flxBckArrow": {
            "__events__": {},
            "__info__": {
                "kuid": "ae9aa4deb6d94c318c86a46986647df3",
                "srcKUID": "cc449c9de12c4e569037a55673fa6b55",
                "wType": "FlexContainer"
            }
        },
        "flxBckType": {
            "__events__": {},
            "__info__": {
                "kuid": "bc5e3db07dc64e1abfe508e1b98de41a",
                "srcKUID": "c2ba4182760e4600a31e3670c358dc41",
                "wType": "FlexContainer"
            }
        },
        "flxBottom": {
            "__events__": {},
            "__info__": {
                "kuid": "eec615a5a6ad458ba7623ec9c8cb1961",
                "srcKUID": "i57540e2b2a142119b5bbd0e4ab73200",
                "wType": "FlexContainer"
            }
        },
        "flxBreadcrum": {
            "__events__": {},
            "__info__": {
                "kuid": "b9868e40c6234ebc8df662331bfb3e01",
                "srcKUID": "f9af58e989cb4baead77a0cdc5598ab9",
                "wType": "FlexContainer"
            }
        },
        "flxBrw": {
            "__events__": {},
            "__info__": {
                "kuid": "ec8289c4b3b540c384ab5bfbda95dc20",
                "srcKUID": "e89130c9e32a430f9bcad3459116eb6e",
                "wType": "FlexContainer"
            }
        },
        "flxClose": {
            "__events__": {},
            "__info__": {
                "kuid": "a3e4112bf01d4efe970ef935053f1100",
                "srcKUID": "ca321916379940b3bfb45710c7e7a74e",
                "wType": "FlexContainer"
            }
        },
        "flxCloseHelp": {
            "__events__": {},
            "__info__": {
                "kuid": "g49a0f27eb834271a602821413135d44",
                "srcKUID": "d9419379d1734dab907a6131c78a2721",
                "wType": "FlexContainer"
            }
        },
        "flxDeposits": {
            "__events__": {},
            "__info__": {
                "kuid": "j6ca175930494e5fa2f7f6d643e02a45",
                "srcKUID": "f7025196d4514de3a9f3f09db659b9b4",
                "wType": "FlexContainer"
            }
        },
        "flxDesc": {
            "__events__": {},
            "__info__": {
                "kuid": "bddb7e7f6d174bd19edd7e5166327701",
                "srcKUID": "a71b80c6c201477a8d232adde99b07c8",
                "wType": "FlexScrollContainer"
            }
        },
        "flxDesc1": {
            "__events__": {},
            "__info__": {
                "kuid": "i9127f8fdb0a424f9c34142004c37b8e",
                "srcKUID": "de55147eb8284035b234ce7a36eab198",
                "wType": "FlexContainer"
            }
        },
        "flxDesc2": {
            "__events__": {},
            "__info__": {
                "kuid": "c77f724765c746b2876b873fd8779545",
                "srcKUID": "b364975898c448cdad3f93859c6ea65d",
                "wType": "FlexContainer"
            }
        },
        "flxDesc3": {
            "__events__": {},
            "__info__": {
                "kuid": "f3836de792d144ce996d0f466df1ddab",
                "srcKUID": "e15201dbff194e2e958f620777f04a42",
                "wType": "FlexContainer"
            }
        },
        "flxDescHeader2": {
            "__events__": {},
            "__info__": {
                "kuid": "f41b69a6c5224236b66c1b8cceb11acb",
                "srcKUID": "cd19bc8590d843cba0480b9a9c56735a",
                "wType": "FlexContainer"
            }
        },
        "flxDescHeader3": {
            "__events__": {},
            "__info__": {
                "kuid": "f3a7e7a75679443db09a798d2dc21ccf",
                "srcKUID": "ef2fc08b77384c08a2ad866737bca11a",
                "wType": "FlexContainer"
            }
        },
        "flxDescType1": {
            "__events__": {},
            "__info__": {
                "kuid": "j21d5974913b4ca3a4a04a86f5b18210",
                "srcKUID": "c8dfd7163586439294bd41a9e2a5ff63",
                "wType": "FlexContainer"
            }
        },
        "flxDescType2": {
            "__events__": {},
            "__info__": {
                "kuid": "eacd5ab4999349adb1ce43b45620b8cd",
                "srcKUID": "f859acf1485c4197bbeb281e4482eb02",
                "wType": "FlexContainer"
            }
        },
        "flxDescType3": {
            "__events__": {},
            "__info__": {
                "kuid": "c30fbdca29ee4ba4923753874d145493",
                "srcKUID": "ia544ffc23224366acf72e3716e439a6",
                "wType": "FlexContainer"
            }
        },
        "flxDescType4": {
            "__events__": {},
            "__info__": {
                "kuid": "af7f06910ab244ec9ec07cad031f8974",
                "srcKUID": "g6f6f861418f44e6adeac9a9c20e495a",
                "wType": "FlexContainer"
            }
        },
        "flxExpand1": {
            "__events__": {},
            "__info__": {
                "kuid": "bc8400488248466999254e2e38d224c3",
                "srcKUID": "b36ec4747b694ff7bf9d217313873c75",
                "wType": "FlexContainer"
            }
        },
        "flxExpand2": {
            "__events__": {},
            "__info__": {
                "kuid": "f073b6e9ebe5469baf0044bcd6bacf66",
                "srcKUID": "d72c68e704a346648b0dbb5f24bf9e0e",
                "wType": "FlexContainer"
            }
        },
        "flxExpand3": {
            "__events__": {},
            "__info__": {
                "kuid": "f7e98a3aafe34ddfb21c95d5ab32ced5",
                "srcKUID": "df42118b2dd743258295227000fab538",
                "wType": "FlexContainer"
            }
        },
        "flxExpand4": {
            "__events__": {},
            "__info__": {
                "kuid": "j44c3446700b43229b50d33ba14ae203",
                "srcKUID": "d5f13bf2256b41d3ac9f8501a6499c8a",
                "wType": "FlexContainer"
            }
        },
        "flxFAQ": {
            "__events__": {},
            "__info__": {
                "kuid": "a7bdfd8169ef41769efbe1b570e19201",
                "srcKUID": "b8d09475252f43d0ae581e3ee22732f7",
                "wType": "FlexContainer"
            }
        },
        "flxHeader": {
            "__events__": {},
            "__info__": {
                "kuid": "i7277d0a5665425989efd870aac0d118",
                "srcKUID": "dda40f5444384e05bd31df5586e09659",
                "wType": "FlexContainer"
            }
        },
        "flxHelpGroup": {
            "__events__": {},
            "__info__": {
                "kuid": "c7b826bafb8449c5b9d2716adc1882db",
                "srcKUID": "b026eb2fdf514268b9c59bc70041b149",
                "wType": "FlexContainer"
            }
        },
        "flxHelpHome": {
            "__events__": {},
            "__info__": {
                "kuid": "d0b56b9c3b6a4d5a9edb0b5eaf538fb1",
                "srcKUID": "f8894ced966e4176ac152c460a16d078",
                "wType": "FlexContainer"
            }
        },
        "flxLeft": {
            "__events__": {},
            "__info__": {
                "kuid": "df8159a3a16b4583b8c2f7aa8770a6be",
                "srcKUID": "aff2d17996804d8190a87030295eb836",
                "wType": "FlexContainer"
            }
        },
        "flxLoan": {
            "__events__": {},
            "__info__": {
                "kuid": "f50bd9cc8875456c8f52a2c3f5b2ab27",
                "srcKUID": "ed2b8e77161e42749458f58139524002",
                "wType": "FlexContainer"
            }
        },
        "flxLoanHome": {
            "__events__": {},
            "__info__": {
                "kuid": "c404a5c0ebdb416bb14bd93b18505df4",
                "srcKUID": "cf0de250c9fb4f91b573f7aee70ff57a",
                "wType": "FlexContainer"
            }
        },
        "flxMain": {
            "__events__": {},
            "__info__": {
                "kuid": "g74872d92a15446e97c2f122473d9071",
                "srcKUID": "edc31f77fb9b4fa2807e7246f98688f8",
                "wType": "FlexContainer"
            }
        },
        "flxOptions": {
            "__events__": {},
            "__info__": {
                "kuid": "f1c416fc7ac748a083447a8535563bea",
                "srcKUID": "ba27426a42a7450daa9c1149b09ba883",
                "wType": "FlexContainer"
            }
        },
        "flxOptions2": {
            "__events__": {},
            "__info__": {
                "kuid": "dfabe6a6f3764559865762f0fbc80f45",
                "srcKUID": "a6561fc38ef945c696d41c7e94237989",
                "wType": "FlexContainer"
            }
        },
        "flxPlayVideo": {
            "__events__": {},
            "__info__": {
                "kuid": "j216e36a4da14c41a4bce4d0a36299c8",
                "srcKUID": "c8be0376565c46ddb12cfcecea789266",
                "wType": "FlexContainer"
            }
        },
        "flxQues": {
            "__events__": {},
            "__info__": {
                "kuid": "c05f7b8e71994a17a735f9c9f3509b5b",
                "srcKUID": "b3313ededb8641a8ba2ec9456aa5fce1",
                "wType": "FlexContainer"
            }
        },
        "flxQues1": {
            "__events__": {},
            "__info__": {
                "kuid": "b45b2e7ce7a84304a2b1e84e07334166",
                "srcKUID": "i16361d2a2c3482fbab82abf34e0105e",
                "wType": "FlexContainer"
            }
        },
        "flxQues2": {
            "__events__": {},
            "__info__": {
                "kuid": "a0f23ab3e0dc4d119da33bd72f7dfb59",
                "srcKUID": "h59f7992372c48fdb4a6e729be05343e",
                "wType": "FlexContainer"
            }
        },
        "flxRight": {
            "__events__": {},
            "__info__": {
                "kuid": "f89ec70340b446dd9d6dafe40c43d510",
                "srcKUID": "b048fa0e16df45ed98495f445cdc77d9",
                "wType": "FlexContainer"
            }
        },
        "flxSearch": {
            "__events__": {},
            "__info__": {
                "kuid": "ebbdc6303bc74c55b512db445c63b26e",
                "srcKUID": "a4ad2b5851c140798c699f30d83e5922",
                "wType": "FlexContainer"
            }
        },
        "flxSearchResult": {
            "__events__": {},
            "__info__": {
                "kuid": "f90ce4d4a0824348a5e65ba4d3ab5df5",
                "srcKUID": "fd9bf5e18c5341229d01ca66f9080d78",
                "wType": "FlexContainer"
            }
        },
        "flxSeg": {
            "__events__": {},
            "__info__": {
                "kuid": "cefcb05f37a245cbb65bd2fce9b9f34f",
                "srcKUID": "i5df22fbbdc9499da4cea87aa52903e9",
                "wType": "FlexContainer"
            }
        },
        "flxSeparator": {
            "__events__": {},
            "__info__": {
                "kuid": "ef0bffbdf97e41468901c914a6fa8c63",
                "srcKUID": "a65262a100b3484a8c59afdf2937b887",
                "wType": "FlexContainer"
            }
        },
        "flxSeparator1": {
            "__events__": {},
            "__info__": {
                "kuid": "d71c53d5c0e74568912a80ef04eedb8f",
                "srcKUID": "d71721d3e671480b85ac0798048399bc",
                "wType": "FlexContainer"
            }
        },
        "flxSeparator2": {
            "__events__": {},
            "__info__": {
                "kuid": "g9a264ee38ea4e039a6e52bf5904e21e",
                "srcKUID": "id6eb87e507c4475b63c7787625ce39b",
                "wType": "FlexContainer"
            }
        },
        "flxSeparator3": {
            "__events__": {},
            "__info__": {
                "kuid": "d9444c5c81714ee6a9049dbfeeea84b5",
                "srcKUID": "f7f295b9a2e64e96aab50961fef790e5",
                "wType": "FlexContainer"
            }
        },
        "flxSeparator4": {
            "__events__": {},
            "__info__": {
                "kuid": "d38a962cc9ed40a2a75f48d623679875",
                "srcKUID": "d900e79d05234530868fce776015fbce",
                "wType": "FlexContainer"
            }
        },
        "flxSeparator5": {
            "__events__": {},
            "__info__": {
                "kuid": "gd1b002f43124a599869b0c2308d2be7",
                "srcKUID": "ee45b60a6001476793b66433336a2889",
                "wType": "FlexContainer"
            }
        },
        "flxSeparator6": {
            "__events__": {},
            "__info__": {
                "kuid": "ebfc51f986354e539021cc33e1fabe1c",
                "srcKUID": "gec0ca0f8f7e43ec9007fcf1207942fa",
                "wType": "FlexContainer"
            }
        },
        "flxSeparator7": {
            "__events__": {},
            "__info__": {
                "kuid": "hd3f191339ea4966bf62a0b1ba6ff78e",
                "srcKUID": "b5346b7944524e6d8c3dac7c37c54269",
                "wType": "FlexContainer"
            }
        },
        "flxSeparator8": {
            "__events__": {},
            "__info__": {
                "kuid": "d1e2829414b7404bb0b9184f7be8eaf6",
                "srcKUID": "c8906c555203487fad3bb1dc986f3cd8",
                "wType": "FlexContainer"
            }
        },
        "flxSeparator9": {
            "__events__": {},
            "__info__": {
                "kuid": "eb59e6cd6e634dbfa988e26e84b6446d",
                "srcKUID": "b7f3ccf8eaeb46abb63a872ad1108e65",
                "wType": "FlexContainer"
            }
        },
        "flxServiceType": {
            "__events__": {},
            "__info__": {
                "kuid": "bbf14ab8db7d42bfbed88601ff41510d",
                "srcKUID": "b3b28e084d7b41b4b83322526324e6a8",
                "wType": "FlexContainer"
            }
        },
        "flxServices": {
            "__events__": {},
            "__info__": {
                "kuid": "f7a02fda80df45ec8e705ccba7a72f54",
                "srcKUID": "c016e66338364214b74a7461d9848d2d",
                "wType": "FlexContainer"
            }
        },
        "flxThumbnail": {
            "__events__": {},
            "__info__": {
                "kuid": "a304e646399e4d2eb17a90400abbfa39",
                "srcKUID": "a3b1803b4d4d4e2785bdef5e6dd2f964",
                "wType": "FlexContainer"
            }
        },
        "flxTop": {
            "__events__": {},
            "__info__": {
                "kuid": "e2cdb900dcf24daaaabdd4472fe5e264",
                "srcKUID": "ga3af34ef52f46e5a7a1605b0bf8e376",
                "wType": "FlexContainer"
            }
        },
        "flxTypes": {
            "__events__": {},
            "__info__": {
                "kuid": "j65d08d6b0f443dd9adb908a054683d6",
                "srcKUID": "f35a0eb455c141e1a4d6efc5d43897b0",
                "wType": "FlexContainer"
            }
        },
        "flxVideoHeader": {
            "__events__": {},
            "__info__": {
                "kuid": "hc937b451ac54448b6bae298116e907b",
                "srcKUID": "f217a1e1d1af4bd68f0db20b8ab36d62",
                "wType": "FlexContainer"
            }
        },
        "help": {
            "__events__": {},
            "__info__": {
                "isRoot": true,
                "kuid": "be8e52da617b491390a6d27d093d2041",
                "srcKUID": "i643b92ec19747a8a19d0206aa4e7dfd",
                "wType": "FlexContainer"
            },
            "isVisible": false,
            "responsiveData": {}
        },
        "imgClearSearch": {
            "__events__": {},
            "__info__": {
                "kuid": "e7af80f7f0e141fd85209cb6c1d85b45",
                "srcKUID": "f4a067ad50494fcf9f5dfc3be078ff02",
                "wType": "Image"
            }
        },
        "imgHelp": {
            "__events__": {},
            "__info__": {
                "kuid": "f453dff32ea84d399764bde6125ef25b",
                "srcKUID": "i227efa189b94f3cba993d40a231401a",
                "wType": "Image"
            }
        },
        "lbl1": {
            "__events__": {},
            "__info__": {
                "kuid": "eec6cb69ace54dcab702f862faf4129d",
                "srcKUID": "d3509ce36f9e4898bd95157609d83193",
                "wType": "Label"
            }
        },
        "lbl2": {
            "__events__": {},
            "__info__": {
                "kuid": "ead47557456c4a0eb2039f765ea3a456",
                "srcKUID": "g035c358ae3a40e2a7a0366a5666b095",
                "wType": "Label"
            }
        },
        "lbl3": {
            "__events__": {},
            "__info__": {
                "kuid": "h6e37c45b51e451c9711cc508f0e3b91",
                "srcKUID": "ee5313e1acb84d7c98e771e5199ebf16",
                "wType": "Label"
            }
        },
        "lbl4": {
            "__events__": {},
            "__info__": {
                "kuid": "jdee1fd37ebb45078379f23cc8d622ba",
                "srcKUID": "i33f05e82aeb404bae061e09b9a4c032",
                "wType": "Label"
            }
        },
        "lbl5": {
            "__events__": {},
            "__info__": {
                "kuid": "j1f6baa5b959419fb4f6325b2f24c192",
                "srcKUID": "i16ddf3e513248938ccabcb86227dff0",
                "wType": "Label"
            }
        },
        "lbl6": {
            "__events__": {},
            "__info__": {
                "kuid": "f9893a5435f0422194aa37495cd7680f",
                "srcKUID": "c78cae81e7db4c2997465d9b2a316c3c",
                "wType": "Label"
            }
        },
        "lbl7": {
            "__events__": {},
            "__info__": {
                "kuid": "ada6aebd831d4009be4c063183d00c87",
                "srcKUID": "fdddfe4f6ae54acd9d2f24cef1480edd",
                "wType": "Label"
            }
        },
        "lblAccount": {
            "__events__": {},
            "__info__": {
                "kuid": "j17cef29c5604d74886d757309523103",
                "srcKUID": "gcb11ef9112f4aaf83dedf081949f218",
                "wType": "Label"
            }
        },
        "lblBack": {
            "__events__": {},
            "__info__": {
                "kuid": "eee1ef842c144e8c918cb46ed5a5223f",
                "srcKUID": "af42efb5c9734f35a86479e12082d7c9",
                "wType": "Label"
            }
        },
        "lblBackArrow": {
            "__events__": {},
            "__info__": {
                "kuid": "f7fdbfd9487c4a08805d596c039cef17",
                "srcKUID": "i7e4d3fe76064489897ad754ba1436dc",
                "wType": "Label"
            }
        },
        "lblBreadBoardSplashValue": {
            "__events__": {},
            "__info__": {
                "kuid": "b1c2dee155204cc88cca96792e87fcef",
                "srcKUID": "d9392996140e41dc9047b3de22c0535e",
                "wType": "Label"
            }
        },
        "lblBreadBoardSplashValue1": {
            "__events__": {},
            "__info__": {
                "kuid": "e1e0f66043454cb7b1cb38890aae6dbb",
                "srcKUID": "a8753db037664f35a09cb871bc0f296e",
                "wType": "Label"
            }
        },
        "lblCLose": {
            "__events__": {},
            "__info__": {
                "kuid": "ae2d60e21d9249a98a42dded03361863",
                "srcKUID": "a014c0d9739f414d9f9f05c5a1a8bf69",
                "wType": "Label"
            }
        },
        "lblCloseVideo": {
            "__events__": {},
            "__info__": {
                "kuid": "d1aec5c1c4a64b1081723acdd7fef1df",
                "srcKUID": "d43553c48af5450ba14840aad780e774",
                "wType": "Label"
            }
        },
        "lblDeposit": {
            "__events__": {},
            "__info__": {
                "kuid": "hc3c1c0f9c514ae6b20a9b24fb50caae",
                "srcKUID": "c3b2ca8b86984ba58226493879af811f",
                "wType": "Label"
            }
        },
        "lblDesc1": {
            "__events__": {},
            "__info__": {
                "kuid": "fda03d82154144b09da2e405c4d496cd",
                "srcKUID": "eb41c26584474f49839c8cea12417259",
                "wType": "Label"
            }
        },
        "lblDescHeader2": {
            "__events__": {},
            "__info__": {
                "kuid": "e4e851ea19394ef89a6f1e03e1ebdb52",
                "srcKUID": "b5baf206b8464b4fba2e02ec2ff69888",
                "wType": "Label"
            }
        },
        "lblDescHeader3": {
            "__events__": {},
            "__info__": {
                "kuid": "d46ccc920f134f858bea904a107f5ee8",
                "srcKUID": "e91aa104975a4dab9c88374817aadce4",
                "wType": "Label"
            }
        },
        "lblDescType1": {
            "__events__": {},
            "__info__": {
                "kuid": "dafdebeed7c24a49b8d32a54052cae67",
                "srcKUID": "g61a30d608d94984bff052fe7a75d5e2",
                "wType": "Label"
            }
        },
        "lblDescType2": {
            "__events__": {},
            "__info__": {
                "kuid": "e69e222e75724e78a49f1c37035ba8d8",
                "srcKUID": "i06779772e5546f287996e47a1156cc7",
                "wType": "Label"
            }
        },
        "lblDescType3": {
            "__events__": {},
            "__info__": {
                "kuid": "bddee108d1a34502a47189148a04d6d5",
                "srcKUID": "j6f4c4f9894f44fe84c9162133f9e7eb",
                "wType": "Label"
            }
        },
        "lblDescType4": {
            "__events__": {},
            "__info__": {
                "kuid": "fac6b8340c344800a3d947cf869c923b",
                "srcKUID": "e8815ac2be7a4e23911c11e2cc745e50",
                "wType": "Label"
            }
        },
        "lblHelp": {
            "__events__": {},
            "__info__": {
                "kuid": "ie78326939224d9f9f9a1d6cf0c55c63",
                "srcKUID": "c60e7721576e4bce9af8c5a0bf066e28",
                "wType": "Label"
            }
        },
        "lblHelpBig": {
            "__events__": {},
            "__info__": {
                "kuid": "i8ecf7eec1d34aa693c0463dfeb5dc7e",
                "srcKUID": "hb4e3cec82214761a188a1c8387481a9",
                "wType": "Label"
            }
        },
        "lblHi": {
            "__events__": {},
            "__info__": {
                "kuid": "f6986ed2bbbf45679fe61b0578e1eada",
                "srcKUID": "ba14537be17d47fcb5e47c0a0f94be78",
                "wType": "Label"
            }
        },
        "lblLoan": {
            "__events__": {},
            "__info__": {
                "kuid": "cf118ae96d6b49368e2c21d67bef9648",
                "srcKUID": "jb61888820914473bb0d8b812e54aa98",
                "wType": "Label"
            }
        },
        "lblLoanServices": {
            "__events__": {},
            "__info__": {
                "kuid": "f45190ed5ce94fa88bae7edc22c96af0",
                "srcKUID": "ja7646bccdcc4a42bcfe7c658e46f3ad",
                "wType": "Button"
            }
        },
        "lblNoData": {
            "__events__": {},
            "__info__": {
                "kuid": "a7f61a07d6074c92af80a2677fdfeaba",
                "srcKUID": "cd2176c2df61427cb905124d4c92fab2",
                "wType": "Label"
            }
        },
        "lblPath": {
            "__events__": {},
            "__info__": {
                "kuid": "b7e51dd1928a42cfaa7113b4366a750f",
                "srcKUID": "a8dfafdc1a4d4acb961014a59df368c9",
                "wType": "Label"
            }
        },
        "lblQues1": {
            "__events__": {},
            "__info__": {
                "kuid": "df45de36eb2a43fa9bd52f30636dda19",
                "srcKUID": "cb6f936cf02945fc9e4a428dcb292d88",
                "wType": "Label"
            }
        },
        "lblQues2": {
            "__events__": {},
            "__info__": {
                "kuid": "fd5cbb46285349fb8512ad8b6473f0c5",
                "srcKUID": "ia9ef851cabb492ba83249268b865363",
                "wType": "Label"
            }
        },
        "lblResult": {
            "__events__": {},
            "__info__": {
                "kuid": "fccb675bfef94e339c88ed41ca2a28c4",
                "srcKUID": "a2287e54ffac4f9ea760a2dfdb84b834",
                "wType": "Label"
            }
        },
        "lblSearchIcon": {
            "__events__": {},
            "__info__": {
                "kuid": "eaae2081fbd64103931db01d965e4ded",
                "srcKUID": "j9598771545e4a9e9b36f2743bc662af",
                "wType": "Label"
            }
        },
        "lblSlash": {
            "__events__": {},
            "__info__": {
                "kuid": "ab538523b08541f1b639577bc9088d30",
                "srcKUID": "cde106359f19405c818b784bdd9847fe",
                "wType": "Label"
            }
        },
        "lblType": {
            "__events__": {},
            "__info__": {
                "kuid": "a872a10304f946179f9c5d09b07ee0a1",
                "srcKUID": "b2a41d31f8224e2ea24fe828c518f342",
                "wType": "Label"
            }
        },
        "lblVideoPath": {
            "__events__": {},
            "__info__": {
                "kuid": "ab0157129a4f43458b5b9ff9d542018b",
                "srcKUID": "i4ecdcd46ac14fd0b3e3f014336565a8",
                "wType": "Label"
            }
        },
        "lstCategories": {
            "__events__": {},
            "__info__": {
                "kuid": "a1ac8308793a42c4ba572d3eea54f33c",
                "srcKUID": "fdb0776ac7e6402c987b030b0c2b699b",
                "wType": "ListBox"
            }
        },
        "plus1": {
            "__events__": {},
            "__info__": {
                "kuid": "je196202654a41bbbffbd31502979c9f",
                "srcKUID": "bbfd7a95280a4bde99a7434f3c488e53",
                "wType": "Label"
            }
        },
        "plus2": {
            "__events__": {},
            "__info__": {
                "kuid": "gee3e9fa55674bc4a3ddee775fac6fd3",
                "srcKUID": "a1d1685e5635469a8b07f4c0af156710",
                "wType": "Label"
            }
        },
        "plus3": {
            "__events__": {},
            "__info__": {
                "kuid": "ded04ba8a72c470ea31fa78ab75c3215",
                "srcKUID": "bf69cfac4b28433dab6f5a00758301cb",
                "wType": "Label"
            }
        },
        "plus4": {
            "__events__": {},
            "__info__": {
                "kuid": "df4856ac06324409ade72e9dccbee0e5",
                "srcKUID": "f08e0fbf4bc14c6cbb569f861ddcca36",
                "wType": "Label"
            }
        },
        "plus5": {
            "__events__": {},
            "__info__": {
                "kuid": "cf5817f124ce4c34a8c5f68a2cb296a8",
                "srcKUID": "c635d227d8544e0c85417f75e148b139",
                "wType": "Label"
            }
        },
        "plus6": {
            "__events__": {},
            "__info__": {
                "kuid": "hb5305f8cbc74ffcb970e4ad0333c9ba",
                "srcKUID": "f54fb970b6774bd2a49e59c358732426",
                "wType": "Label"
            }
        },
        "rtx1": {
            "__events__": {},
            "__info__": {
                "kuid": "cf7a4c2516ac40d3a4670500bf29b38d",
                "srcKUID": "d7748b2e7f544c169d7ab366bab4eefd",
                "wType": "RichText"
            }
        },
        "rtx2": {
            "__events__": {},
            "__info__": {
                "kuid": "ic573bb6e58143febff852781ad39528",
                "srcKUID": "a0af20ffdb8549c7bdcfe8b884cdc696",
                "wType": "RichText"
            }
        },
        "rtx3": {
            "__events__": {},
            "__info__": {
                "kuid": "a54299d88faa4af6b44f6409d95beaac",
                "srcKUID": "f8414a33a79b4607bf06610c3b723de6",
                "wType": "RichText"
            }
        },
        "rtx4": {
            "__events__": {},
            "__info__": {
                "kuid": "ea415fb74df64720a4d01e9ca3214d39",
                "srcKUID": "debb7ffca0cf468b8692f8b44dbb7ebd",
                "wType": "RichText"
            }
        },
        "rtxAns1": {
            "__events__": {},
            "__info__": {
                "kuid": "ba86f0c367fd4ef988e2a45d8aa1482c",
                "srcKUID": "f675d12d064140628a8e1c834e7942af",
                "wType": "RichText"
            }
        },
        "rtxAns2": {
            "__events__": {},
            "__info__": {
                "kuid": "f756497df581484ab38d428a1f099b19",
                "srcKUID": "caaf177d270c4f4fb452ee87c1ae46df",
                "wType": "RichText"
            }
        },
        "rtxSelected": {
            "__events__": {},
            "__info__": {
                "kuid": "h341b450a5aa41018d8604cb5bac32eb",
                "srcKUID": "e1aefa0a2ea74c4a830633e87c133eb3",
                "wType": "RichText"
            }
        },
        "rtxShow2": {
            "__events__": {},
            "__info__": {
                "kuid": "d107d2b1b65143079d409643970ae22f",
                "srcKUID": "b63bf04d14564b7f9fb88149b7fa0dae",
                "wType": "RichText"
            }
        },
        "rtxShow3": {
            "__events__": {},
            "__info__": {
                "kuid": "a956db1e955541ae9819a45bfae09cbb",
                "srcKUID": "g1639a2b25b140199804ab85c752f967",
                "wType": "RichText"
            }
        },
        "rtxType": {
            "__events__": {},
            "__info__": {
                "kuid": "a9a3db2633c941ed8ec1b9c9bfb3297d",
                "srcKUID": "be50cc1d0df54b4a989bdc8881351e07",
                "wType": "RichText"
            }
        },
        "seg1": {
            "__events__": {},
            "__info__": {
                "kuid": "fce6acaa00df4b279275abedddaeebbf",
                "srcKUID": "a5f67ffc497242809217564a4dfaff76",
                "wType": "Segment"
            }
        },
        "segQues": {
            "__events__": {},
            "__info__": {
                "kuid": "ce16ba1a70774bc49d3e67446f8e66ca",
                "srcKUID": "e043e3df04fb49c497ef0db96bed707d",
                "wType": "Segment"
            }
        },
        "segSearch": {
            "__events__": {},
            "__info__": {
                "kuid": "ac0028624a4f4096a02d10de05ba31f4",
                "srcKUID": "b3b9b207ea3043de85c736dde199c688",
                "wType": "FlexContainer"
            }
        },
        "segServiceTypes": {
            "__events__": {},
            "__info__": {
                "kuid": "a095a364ec3e4765800deb3096912d58",
                "srcKUID": "db3a15118c504dd7b720c7fb76a49c6f",
                "wType": "Segment"
            }
        },
        "txtPartialText": {
            "__events__": {},
            "__info__": {
                "kuid": "b6325b2acd314afb84066ce83fbf6cd0",
                "srcKUID": "d409d95d749148e89bfc5b9f67de71a0",
                "wType": "TextField"
            }
        }
    },
    "enablescrolling": true,
    "id": "help",
    "info": null,
    "iscustomlayout": false,
    "isdatareferenced": false,
    "isvisible": false,
    "kuid": "be8e52da617b491390a6d27d093d2041",
    "layouttype": 2,
    "masterType": 0,
    "name": "kony.ui.UserWidgetInstance",
    "parent": "frmLoanCreation",
    "pf": "frmLoanCreation",
    "retaincontentalignment": false,
    "retainflexpositionproperties": false,
    "retainflowhorizontalalignment": false,
    "snapgridsize": 10,
    "snaptogrid": true,
    "sourceUserWidget": "i643b92ec19747a8a19d0206aa4e7dfd",
    "wType": "UserWidgetInstance",
    "zindex": 1
}