{
    "@class": "com.kony.gen.viz.model.component.KVizUserWidget",
    "DNDConfig": null,
    "_children_": [],
    "_height_": {
        "type": "string",
        "value": "100%"
    },
    "_left_": {
        "type": "string",
        "value": "0dp"
    },
    "_margin_": [
        0,
        0,
        0,
        0
    ],
    "_orientation_": 1,
    "_padding_": [
        0,
        0,
        0,
        0
    ],
    "_percent_": true,
    "_skin_": "s66b71299e1344d1aa5c47a23adcbde4",
    "_top_": {
        "type": "string",
        "value": "0dp"
    },
    "_width_": {
        "type": "string",
        "value": "100%"
    },
    "areflexpropsreferenced": false,
    "autogrowmode": 0,
    "canUpdateUI": true,
    "clipbounds": true,
    "containerweight": 0,
    "dataDiffs": {
        "FlexContainer0a2679d5179ca43": {
            "__events__": {},
            "__info__": {
                "kuid": "e9eb986a807142eab1f13926d57f8eb3",
                "srcKUID": "bd3b38ed98434f3997c228e394898640",
                "wType": "FlexContainer"
            }
        },
        "FlexContainer0d49b88e8783340": {
            "__events__": {},
            "__info__": {
                "kuid": "g10fc9525eb54ddc9d9bdf81737ba4e8",
                "srcKUID": "c15f73fdd5f74a098e58eb16a6fb75b8",
                "wType": "FlexContainer"
            }
        },
        "FlexContainer0d563d2dda18c41": {
            "__events__": {},
            "__info__": {
                "kuid": "dd20ff5d143f419bb7fb1039c5904886",
                "srcKUID": "f01659c3c8ea4a8085a198dea0b3861f",
                "wType": "FlexContainer"
            }
        },
        "FlexContainer0e3c37c0e40204d": {
            "__events__": {},
            "__info__": {
                "kuid": "cb414d010d784b179c0c0575b362ab03",
                "srcKUID": "h733b1376f384d4692f0a952102fc862",
                "wType": "FlexContainer"
            }
        },
        "FlexContainer0h7f6ad36bea740": {
            "__events__": {},
            "__info__": {
                "kuid": "f093aaffb78f4b7b919544737fb69d9d",
                "srcKUID": "d3c54e8ba8b5444da49dcc189f07031f",
                "wType": "FlexContainer"
            }
        },
        "flxInnerSearch": {
            "__events__": {},
            "__info__": {
                "kuid": "g07cbc8e345a4a65b49b0c7b351e2e6f",
                "srcKUID": "c6daa685750e4d40ab257f5fa39059c6",
                "wType": "FlexContainer"
            },
            "autogrowMode": {
                "Default": 0
            },
            "height": {
                "Default": {
                    "type": "string",
                    "value": "400dp"
                }
            },
            "responsiveData": {}
        },
        "flxPopUpClose": {
            "__events__": {},
            "__info__": {
                "kuid": "a09baf8c577a4e54a809168ca1665651",
                "srcKUID": "f405407e34b54c68b0e1cf25d2d5d438",
                "wType": "FlexContainer"
            }
        },
        "flxsegheaderPayout": {
            "__events__": {},
            "__info__": {
                "kuid": "e598170cfda7405da3ab37e808534369",
                "srcKUID": "f8bc034663eb422db1aa92a05960f450",
                "wType": "FlexContainer"
            }
        },
        "imgClose": {
            "__events__": {},
            "__info__": {
                "kuid": "i66ac32f609a442d8b2a9ec20d7eb9a6",
                "srcKUID": "d150180124964aa685e3fe653fb1af87",
                "wType": "Button"
            }
        },
        "imgClose1": {
            "__events__": {},
            "__info__": {
                "kuid": "bef523a777c9484ab73a162b7c23dd0c",
                "srcKUID": "b30d3b0783df4183930b2c30044f5eff",
                "wType": "Image"
            },
            "src": "ico_close.png"
        },
        "imgSrc": {
            "__events__": {},
            "__info__": {
                "kuid": "f0060a967b104ac09d778ff103955cd1",
                "srcKUID": "fa1a1fea84a047c5b522f4ede0e20955",
                "wType": "Button"
            }
        },
        "imgSrc1": {
            "__events__": {},
            "__info__": {
                "kuid": "c1a75c76b9e44f25b3ca781ecc66a0e6",
                "srcKUID": "a8b50cffb9a74b33851f99529d0b9c3f",
                "wType": "Image"
            },
            "src": "search.png"
        },
        "lblAccountIdhead": {
            "__events__": {},
            "__info__": {
                "kuid": "j10d4faaa7b041b2a6260ec9c3b0f4e6",
                "srcKUID": "f310807741e64590921161fe1b9d29f1",
                "wType": "Label"
            }
        },
        "lblBalance": {
            "__events__": {},
            "__info__": {
                "kuid": "c0f765df6696444cae93f2a6c6edc1a0",
                "srcKUID": "a4afd6c8f33144219c809c2ae9b3e908",
                "wType": "Label"
            }
        },
        "lblCurreny": {
            "__events__": {},
            "__info__": {
                "kuid": "c5da3823bd3446deb419917f91d05bad",
                "srcKUID": "j88f0ce969de49069aea9b9ed19d88a8",
                "wType": "Label"
            }
        },
        "lblCustomerIdhead": {
            "__events__": {},
            "__info__": {
                "kuid": "f31476f4568443b29d6088053931cfa7",
                "srcKUID": "a8f404018e284dba8074e8592ebf376f",
                "wType": "Label"
            }
        },
        "lblProductName": {
            "__events__": {},
            "__info__": {
                "kuid": "j4b28006602048a6a8db207adafe7de6",
                "srcKUID": "e462fb0f7c4d4ae1bf4bb0e1468c931b",
                "wType": "Label"
            }
        },
        "lblsearchHeading": {
            "__events__": {},
            "__info__": {
                "kuid": "h3c1e813e0b7464ab44cefdbceec425c",
                "srcKUID": "f0138f2619184dfab821d640197e1a54",
                "wType": "Label"
            }
        },
        "popupPayinPayout": {
            "__events__": {},
            "__info__": {
                "isRoot": true,
                "kuid": "ae1052ce7ca343738c7db5559f59a75c",
                "srcKUID": "acc696de6aa54aec83fc92e420ee2973",
                "wType": "FlexContainer"
            },
            "autogrowMode": {
                "Default": 0
            },
            "centerX": {
                "Default": {
                    "type": "string",
                    "value": "50%"
                }
            },
            "centerY": {
                "Default": {
                    "type": "string",
                    "value": "50%"
                }
            },
            "height": {
                "Default": {
                    "type": "string",
                    "value": "100%"
                }
            },
            "left": {
                "Default": {
                    "type": "string",
                    "value": "0dp"
                }
            },
            "responsiveData": {},
            "width": {
                "Default": {
                    "type": "string",
                    "value": "100%"
                }
            }
        },
        "segPayinPayout": {
            "__events__": {},
            "__info__": {
                "kuid": "gf4f4199453d41c896fd9c7e9681a7c5",
                "srcKUID": "j4e6cf8c614c4b378a9f8a478c4d12a6",
                "wType": "Segment"
            }
        },
        "txtSearchBox": {
            "__events__": {},
            "__info__": {
                "kuid": "ae67de7bb4e24c9881e67226c854c4fd",
                "srcKUID": "c44da17b1ac74b4ab6a57b290abec4d3",
                "wType": "TextField"
            }
        }
    },
    "enablescrolling": true,
    "id": "popupPayinPayout",
    "info": null,
    "iscustomlayout": false,
    "isdatareferenced": false,
    "issegmentchild": false,
    "isvisible": true,
    "kuid": "ae1052ce7ca343738c7db5559f59a75c",
    "layouttype": 4,
    "masterType": 0,
    "name": "kony.ui.UserWidgetInstance",
    "parent": "FlexContainer0c8da61cffdb244",
    "pf": "frmLoanCreation",
    "retaincontentalignment": false,
    "retainflexpositionproperties": false,
    "retainflowhorizontalalignment": false,
    "snapgridsize": 10,
    "snaptogrid": true,
    "sourceUserWidget": "acc696de6aa54aec83fc92e420ee2973",
    "wType": "UserWidgetInstance"
}