{
    "@class": "com.kony.gen.viz.model.component.KVizUserWidget",
    "DNDConfig": null,
    "_children_": [],
    "_height_": {
        "type": "string",
        "value": "100%"
    },
    "_left_": {
        "type": "string",
        "value": "0dp"
    },
    "_margin_": [
        0,
        0,
        0,
        0
    ],
    "_orientation_": 1,
    "_padding_": [
        0,
        0,
        0,
        0
    ],
    "_percent_": true,
    "_skin_": "sf77f521dbc14d00b8925cd197f74352",
    "_top_": {
        "type": "string",
        "value": "0dp"
    },
    "_width_": {
        "type": "string",
        "value": "100%"
    },
    "canUpdateUI": true,
    "containerweight": 0,
    "data": {
        "isVisible1": false
    },
    "id": "ProgressIndicator",
    "info": null,
    "iscustomlayout": false,
    "isvisible": true,
    "kuid": "b588b54aa4314694bbd4e0dbe367bafc",
    "masterType": 1,
    "name": "kony.ui.UserWidgetInstance",
    "parent": "frmLoanCreation",
    "pf": "frmLoanCreation",
    "retaincontentalignment": false,
    "retainflexpositionproperties": false,
    "retainflowhorizontalalignment": false,
    "sourceUserWidget": "fc29a495bd5a472a9f863bcc192be592",
    "wType": "UserWidgetInstance",
    "zindex": 20
}