{
    "@class": "com.kony.gen.viz.model.component.KVizUserWidget",
    "DNDConfig": null,
    "_children_": [],
    "_height_": {
        "type": "string",
        "value": "100%"
    },
    "_margin_": [
        0,
        0,
        0,
        0
    ],
    "_orientation_": 1,
    "_padding_": [
        0,
        0,
        0,
        0
    ],
    "_percent_": true,
    "_skin_": "sf77f521dbc14d00b8925cd197f74352",
    "_top_": {
        "type": "string",
        "value": "0dp"
    },
    "_width_": {
        "type": "string",
        "value": "100%"
    },
    "android": {},
    "androidwearos": {},
    "areflexpropsreferenced": false,
    "autogrowmode": 0,
    "canUpdateUI": true,
    "centerx": {
        "type": "string",
        "value": "50%"
    },
    "centery": {
        "type": "string",
        "value": "50%"
    },
    "clipbounds": true,
    "containerweight": 0,
    "dataDiffs": {
        "RevisedPaymentSchedule": {
            "__events__": {},
            "__info__": {
                "isRoot": true,
                "kuid": "ec3f194db3ed4b27bcf5081e1b24383b",
                "srcKUID": "d910d6ca6839460492184cb3a5f678f9",
                "wType": "FlexContainer"
            },
            "isVisible": false,
            "responsiveData": {}
        },
        "btnNext": {
            "__events__": {},
            "__info__": {
                "kuid": "ia7ebf05d9ba4ae3857e827a13bc4ebc",
                "srcKUID": "hc7a7112c04049858ec32411c40edfde",
                "wType": "Button"
            },
            "responsiveData": {}
        },
        "btnPrev": {
            "__events__": {},
            "__info__": {
                "kuid": "g3a35d2463bc443bb6e61e25e24f3d34",
                "srcKUID": "ad41c6301f9348c7bbb325b4a3b3c279",
                "wType": "Button"
            }
        },
        "flxPagination": {
            "__events__": {},
            "__info__": {
                "kuid": "g7e51a14cb494ff9b9fac5691462273f",
                "srcKUID": "de4e1c898a1e4cc39bb0e6079edf34a0",
                "wType": "FlexContainer"
            }
        },
        "flxRevisedPayment": {
            "__events__": {},
            "__info__": {
                "kuid": "c432346f7d4a495da43a7a43c9f58bf3",
                "srcKUID": "g6a8d18a6828449d8acc49424abdc555",
                "wType": "FlexContainer"
            }
        },
        "flxRevisedPaymentDetails": {
            "__events__": {},
            "__info__": {
                "kuid": "cd7f033406194123ace5cabfc62893c0",
                "srcKUID": "e00eb8b6e90d4d969ee99d2381642ac1",
                "wType": "FlexContainer"
            }
        },
        "flxRevisedPaymentSchedule": {
            "__events__": {},
            "__info__": {
                "kuid": "a6181d404c424a71960d0fec06e4336b",
                "srcKUID": "f712bbf003c2411e93a3471218bca306",
                "wType": "FlexContainer"
            }
        },
        "flxRevisedPmtHeader": {
            "__events__": {},
            "__info__": {
                "kuid": "h8f6edad66e24347b242b382579e43a1",
                "srcKUID": "b0b64719ce4843b185aa6a3a19bd0b35",
                "wType": "FlexContainer"
            }
        },
        "imgClose": {
            "__events__": {},
            "__info__": {
                "kuid": "ec7d86f708f24c3789da89d8a1e0cb73",
                "srcKUID": "f9c6226efb51489682a794e1a2d3c553",
                "wType": "Button"
            }
        },
        "imgClose1": {
            "__events__": {},
            "__info__": {
                "kuid": "j4876f0646a642aab3be59fd1b01b464",
                "srcKUID": "baf49339fde540f8884580e0bdfbf37c",
                "wType": "Image"
            },
            "src": "ico_close.png"
        },
        "imgPrint": {
            "__events__": {},
            "__info__": {
                "kuid": "bd44b9a919824cc5be7d8ba098b27a63",
                "srcKUID": "d83daefe75d047328f42be36671dba6c",
                "wType": "Image"
            },
            "isVisible": false,
            "responsiveData": {},
            "src": "ico_print.png"
        },
        "lblAmount": {
            "__events__": {},
            "__info__": {
                "kuid": "e55afaafee69426893da269d0390198d",
                "srcKUID": "ff3d84ffacab4d62b91531f59e134e13",
                "wType": "Label"
            }
        },
        "lblInterest": {
            "__events__": {},
            "__info__": {
                "kuid": "gc849f951dea43a3a5c7611de818a41f",
                "srcKUID": "g7275c737d9f4210beb882255949b508",
                "wType": "Label"
            }
        },
        "lblPaymentDate": {
            "__events__": {},
            "__info__": {
                "kuid": "b1e976b4f9cc4946a85f1c1f141e9d4a",
                "srcKUID": "a2b1ff0a83794411a4d3cec5137e6e84",
                "wType": "Label"
            }
        },
        "lblPrincipal": {
            "__events__": {},
            "__info__": {
                "kuid": "b26c418aae03485083668d5059d1e382",
                "srcKUID": "df559625a22c47ca9370676393d0eb73",
                "wType": "Label"
            }
        },
        "lblRevisedPayment": {
            "__events__": {},
            "__info__": {
                "kuid": "c28f8d60f7654fc89c2c7754a14ddb89",
                "srcKUID": "i992aabeb7a744118c5469548edca99b",
                "wType": "Label"
            },
            "responsiveData": {},
            "text": "Payment Schedule"
        },
        "lblRowPerPageNumber": {
            "__events__": {},
            "__info__": {
                "kuid": "dc6f243d278e466e9c56c659af0765d9",
                "srcKUID": "c62b7bdae881480abf8d1541fc41ed79",
                "wType": "Label"
            }
        },
        "lblSearchPage": {
            "__events__": {},
            "__info__": {
                "kuid": "hbb310f8084242a090929a4c4f1d59b3",
                "srcKUID": "e056a4d2dea448f6bb5401974999874c",
                "wType": "Label"
            }
        },
        "lblTax": {
            "__events__": {},
            "__info__": {
                "kuid": "d6a0812cbf774e288a4d5e72e422b997",
                "srcKUID": "j4499cecb27c4c17932aecd68809a4d3",
                "wType": "Label"
            }
        },
        "lblTotoutstanding": {
            "__events__": {},
            "__info__": {
                "kuid": "bcb870fcec2f496eb64c1e430a044a9a",
                "srcKUID": "j280551d4db245a6945d839450efa42a",
                "wType": "Label"
            }
        },
        "segRevised": {
            "__events__": {},
            "__info__": {
                "kuid": "dd3ace3916764b398ffb724f78365bb9",
                "srcKUID": "i30d8089a6904102ba3fa6f7106b2c3f",
                "wType": "Segment"
            }
        }
    },
    "desktopweb": {},
    "enablescrolling": true,
    "id": "RevisedPaymentSchedule",
    "info": null,
    "ipad": {},
    "iphone": {},
    "iscustomlayout": false,
    "isdatareferenced": false,
    "isvisible": false,
    "kiosk": {},
    "kuid": "ec3f194db3ed4b27bcf5081e1b24383b",
    "layouttype": 2,
    "masterType": 0,
    "name": "kony.ui.UserWidgetInstance",
    "parent": "frmLoanCreation",
    "pf": "frmLoanCreation",
    "responsiveData": {},
    "retaincontentalignment": false,
    "retainflexpositionproperties": false,
    "retainflowhorizontalalignment": false,
    "snapgridsize": 10,
    "snaptogrid": true,
    "sourceUserWidget": "d910d6ca6839460492184cb3a5f678f9",
    "spa": {},
    "spaan": {},
    "spaandroidtablet": {},
    "spabb": {},
    "spaip": {},
    "spaipad": {},
    "spamobile": {},
    "spatablet": {},
    "spawindowstablet": {},
    "spawinphone8": {},
    "tabrcandroid": {},
    "vizProps": {
        "hidewidgethierarchy": false
    },
    "wType": "UserWidgetInstance",
    "windows10": {},
    "windows8": {},
    "winphone10": {},
    "winphone8": {},
    "zindex": 1
}