{
    "@class": "com.kony.gen.viz.model.container.KVizSegment2",
    "DNDConfig": null,
    "_data_": [
        {
            "lblBenLabel": {
                "@class": "com.viz.ide.model.segment.SimpleTextSegmentData",
                "text": "Label"
            },
            "lblBenLabel1": {
                "@class": "com.viz.ide.model.segment.SimpleTextSegmentData",
                "text": "Label"
            },
            "lblRole": {
                "@class": "com.viz.ide.model.segment.ComplexTextSegmentData",
                "text": ""
            },
            "lblRole1": {
                "@class": "com.viz.ide.model.segment.ComplexTextSegmentData",
                "text": ""
            }
        },
        {
            "lblBenLabel": {
                "@class": "com.viz.ide.model.segment.SimpleTextSegmentData",
                "text": "Label"
            },
            "lblBenLabel1": {
                "@class": "com.viz.ide.model.segment.SimpleTextSegmentData",
                "text": "Label"
            },
            "lblRole": {
                "@class": "com.viz.ide.model.segment.ComplexTextSegmentData",
                "text": ""
            },
            "lblRole1": {
                "@class": "com.viz.ide.model.segment.ComplexTextSegmentData",
                "text": ""
            }
        },
        {
            "lblBenLabel": {
                "@class": "com.viz.ide.model.segment.SimpleTextSegmentData",
                "text": "Label"
            },
            "lblBenLabel1": {
                "@class": "com.viz.ide.model.segment.SimpleTextSegmentData",
                "text": "Label"
            },
            "lblRole": {
                "@class": "com.viz.ide.model.segment.ComplexTextSegmentData",
                "text": ""
            },
            "lblRole1": {
                "@class": "com.viz.ide.model.segment.ComplexTextSegmentData",
                "text": ""
            }
        },
        {
            "lblBenLabel": {
                "@class": "com.viz.ide.model.segment.SimpleTextSegmentData",
                "text": "Label"
            },
            "lblBenLabel1": {
                "@class": "com.viz.ide.model.segment.SimpleTextSegmentData",
                "text": "Label"
            },
            "lblRole": {
                "@class": "com.viz.ide.model.segment.ComplexTextSegmentData",
                "text": ""
            },
            "lblRole1": {
                "@class": "com.viz.ide.model.segment.ComplexTextSegmentData",
                "text": ""
            }
        },
        {
            "lblBenLabel": {
                "@class": "com.viz.ide.model.segment.SimpleTextSegmentData",
                "text": "Label"
            },
            "lblBenLabel1": {
                "@class": "com.viz.ide.model.segment.SimpleTextSegmentData",
                "text": "Label"
            },
            "lblRole": {
                "@class": "com.viz.ide.model.segment.ComplexTextSegmentData",
                "text": ""
            },
            "lblRole1": {
                "@class": "com.viz.ide.model.segment.ComplexTextSegmentData",
                "text": ""
            }
        },
        {
            "lblBenLabel": {
                "@class": "com.viz.ide.model.segment.SimpleTextSegmentData",
                "text": "Label"
            },
            "lblBenLabel1": {
                "@class": "com.viz.ide.model.segment.SimpleTextSegmentData",
                "text": "Label"
            },
            "lblRole": {
                "@class": "com.viz.ide.model.segment.ComplexTextSegmentData",
                "text": ""
            },
            "lblRole1": {
                "@class": "com.viz.ide.model.segment.ComplexTextSegmentData",
                "text": ""
            }
        },
        {
            "lblBenLabel": {
                "@class": "com.viz.ide.model.segment.SimpleTextSegmentData",
                "text": "Label"
            },
            "lblBenLabel1": {
                "@class": "com.viz.ide.model.segment.SimpleTextSegmentData",
                "text": "Label"
            },
            "lblRole": {
                "@class": "com.viz.ide.model.segment.ComplexTextSegmentData",
                "text": ""
            },
            "lblRole1": {
                "@class": "com.viz.ide.model.segment.ComplexTextSegmentData",
                "text": ""
            }
        },
        {
            "lblBenLabel": {
                "@class": "com.viz.ide.model.segment.SimpleTextSegmentData",
                "text": "Label"
            },
            "lblBenLabel1": {
                "@class": "com.viz.ide.model.segment.SimpleTextSegmentData",
                "text": "Label"
            },
            "lblRole": {
                "@class": "com.viz.ide.model.segment.ComplexTextSegmentData",
                "text": ""
            },
            "lblRole1": {
                "@class": "com.viz.ide.model.segment.ComplexTextSegmentData",
                "text": ""
            }
        },
        {
            "lblBenLabel": {
                "@class": "com.viz.ide.model.segment.SimpleTextSegmentData",
                "text": "Label"
            },
            "lblBenLabel1": {
                "@class": "com.viz.ide.model.segment.SimpleTextSegmentData",
                "text": "Label"
            },
            "lblRole": {
                "@class": "com.viz.ide.model.segment.ComplexTextSegmentData",
                "text": ""
            },
            "lblRole1": {
                "@class": "com.viz.ide.model.segment.ComplexTextSegmentData",
                "text": ""
            }
        },
        {
            "lblBenLabel": {
                "@class": "com.viz.ide.model.segment.SimpleTextSegmentData",
                "text": "Label"
            },
            "lblBenLabel1": {
                "@class": "com.viz.ide.model.segment.SimpleTextSegmentData",
                "text": "Label"
            },
            "lblRole": {
                "@class": "com.viz.ide.model.segment.ComplexTextSegmentData",
                "text": ""
            },
            "lblRole1": {
                "@class": "com.viz.ide.model.segment.ComplexTextSegmentData",
                "text": ""
            }
        }
    ],
    "_height_": {
        "type": "ref",
        "value": "preferred"
    },
    "_indicator_": "none",
    "_left_": {
        "type": "string",
        "value": "0"
    },
    "_margin_": [
        0,
        0,
        0,
        0
    ],
    "_orientation_": 2,
    "_padding_": [
        0,
        0,
        0,
        0
    ],
    "_top_": {
        "type": "string",
        "value": "0"
    },
    "_width_": {
        "type": "string",
        "value": "100%"
    },
    "autogrowmode": 1,
    "canUpdateUI": true,
    "containerweight": 100,
    "counter": "09",
    "focusedindex": null,
    "focuseditem": null,
    "groupcells": false,
    "hasSections": false,
    "id": "segAddRow",
    "info": null,
    "ipad": {
        "psp": {
            "indicator": "rowselect"
        }
    },
    "iphone": {
        "psp": {
            "indicator": "rowselect"
        }
    },
    "iscustomlayout": false,
    "isvisible": false,
    "kuid": "c86db81fe79742e792be0f8c7f170c9b",
    "masterdata": {},
    "name": "kony.ui.SegmentedUI2",
    "needpageindicator": true,
    "pageoffdotimage": "pageoffdot.png",
    "pageondotimage": "pageondot.png",
    "paginationconfig": {
        "position": "bottom"
    },
    "parent": "flxBenRow",
    "pf": "frmLoanCreation",
    "retaincontentalignment": false,
    "retainflexpositionproperties": false,
    "retainselection": false,
    "rowTemplateId": "e943e167890c4e50a96effbc297bd16a",
    "rowcounter": 9,
    "rowfocusskin": "s3f353c057a14ca8a8d6fa6caf39f59a",
    "rowskin": "s5344ea37b3f40f7877699e4eafbf3dc",
    "rowtemplate": "flxAddRowWrap",
    "screenlevelwidget": false,
    "seccounter": 0,
    "sectionheaderskin": "s67dfc97c181442ebeb45ecca8ba0dc8",
    "selectedRows": null,
    "selectedState": false,
    "selectedindex": null,
    "selectedindices": null,
    "selecteditems": null,
    "selectedsectionindex": 0,
    "selectionbehavior": "default",
    "separatorcolor": "ffffff00",
    "separatorrequired": true,
    "separatorthickness": 15,
    "showscrollbars": false,
    "viewtype": "tableview",
    "vizProps": {},
    "wType": "Segment",
    "widgetalignment": 5,
    "widgetdatamap": {
        "flxAddRowWrap": "flxAddRowWrap",
        "flxBenName": "flxBenName",
        "flxBenRole": "flxBenRole",
        "flxImgClicks": "flxImgClicks",
        "flxImgClicks1": "flxImgClicks1",
        "lblBenLabel": "lblBenLabel",
        "lblBenLabel1": "lblBenLabel1",
        "lblRole": "lblRole",
        "lblRole1": "lblRole1"
    }
}