{
    "@class": "com.kony.gen.viz.model.component.KVizUserWidget",
    "DNDConfig": null,
    "_children_": [],
    "_height_": {
        "type": "string",
        "value": "100%"
    },
    "_left_": {
        "type": "string",
        "value": "0dp"
    },
    "_margin_": [
        0,
        0,
        0,
        0
    ],
    "_orientation_": 1,
    "_padding_": [
        0,
        0,
        0,
        0
    ],
    "_percent_": true,
    "_skin_": "sf77f521dbc14d00b8925cd197f74352",
    "_top_": {
        "type": "string",
        "value": "0dp"
    },
    "_width_": {
        "type": "string",
        "value": "100%"
    },
    "android": {},
    "androidwearos": {},
    "areflexpropsreferenced": false,
    "autogrowmode": 0,
    "canUpdateUI": true,
    "clipbounds": true,
    "containerweight": 0,
    "dataDiffs": {
        "SegmentPopup": {
            "__events__": {},
            "__info__": {
                "isRoot": true,
                "kuid": "e1ae216ca3824e04994e08a12fc5b684",
                "srcKUID": "eb5542d4860349a4b1b3eb34a2c29d69",
                "wType": "FlexContainer"
            },
            "autogrowMode": {
                "Default": 0
            },
            "height": {
                "Default": {
                    "type": "string",
                    "value": "100%"
                }
            },
            "isVisible": false,
            "responsiveData": {},
            "right": {
                "Default": {
                    "type": "string",
                    "value": ""
                }
            },
            "width": {
                "Default": {
                    "type": "string",
                    "value": "100%"
                }
            }
        },
        "btnCancel": {
            "__events__": {},
            "__info__": {
                "kuid": "c22376b8da7c4d5d951f4bfe10930510",
                "srcKUID": "j3364e8b9ed747ab8d3d09eeb8cf42b2",
                "wType": "Button"
            }
        },
        "btnProceed": {
            "__events__": {},
            "__info__": {
                "kuid": "de336c3015214c0bb9e617c0b2ab76ed",
                "srcKUID": "fa7ef604a33040d9ae2498b049d99e77",
                "wType": "Button"
            }
        },
        "flxFooter": {
            "__events__": {},
            "__info__": {
                "kuid": "b75c958aa5904a0fa61d32474bdd73ce",
                "srcKUID": "c96349bcaa6d4b85bb8a30f632cf5b05",
                "wType": "FlexContainer"
            }
        },
        "flxPopup": {
            "__events__": {},
            "__info__": {
                "kuid": "d55544eb31664086858daba6b5f8d70e",
                "srcKUID": "gf79454354cf45e5983f5c19be951e1e",
                "wType": "FlexContainer"
            },
            "centerX": {
                "Default": {
                    "type": "string",
                    "value": "50%"
                }
            },
            "centerY": {
                "Default": {
                    "type": "string",
                    "value": "50%"
                }
            },
            "left": {
                "Default": {
                    "type": "string",
                    "value": ""
                }
            },
            "responsiveData": {},
            "top": {
                "Default": {
                    "type": "string",
                    "value": ""
                }
            }
        },
        "flxPopupHeader": {
            "__events__": {},
            "__info__": {
                "kuid": "ad9ba69873244ef1a5e4cd9c9b32e9ce",
                "srcKUID": "eb333858bf814117bf4b0bc634ca4ffb",
                "wType": "FlexContainer"
            }
        },
        "flxPopupMessage": {
            "__events__": {},
            "__info__": {
                "kuid": "f679fa8af90a416c907fb503d2732056",
                "srcKUID": "efc11098121046dabeceef21e8bf585d",
                "wType": "FlexContainer"
            }
        },
        "imgClose": {
            "__events__": {},
            "__info__": {
                "kuid": "j377297fd4df4bde97e7ccaa6a1d9973",
                "srcKUID": "e04f19662a874fabb18c3d7092f29cc4",
                "wType": "Image"
            },
            "src": "ico_close.png"
        },
        "lblPaymentInfo": {
            "__events__": {},
            "__info__": {
                "kuid": "h5734037c9da4ad891c3204600735809",
                "srcKUID": "jfe2e47f228e4984abf0cd755e907b08",
                "wType": "Label"
            }
        },
        "segOverride": {
            "__events__": {},
            "__info__": {
                "kuid": "d8fe6edc9bfe4364ad5bfa88bfa238ac",
                "srcKUID": "d9af6985e2124b3c922a644898d291a6",
                "wType": "Segment"
            },
            "isVisible": true,
            "responsiveData": {}
        }
    },
    "desktopweb": {},
    "enablescrolling": true,
    "id": "SegmentPopup",
    "info": null,
    "ipad": {},
    "iphone": {},
    "iscustomlayout": false,
    "isdatareferenced": false,
    "issegmentchild": false,
    "isvisible": false,
    "kiosk": {},
    "kuid": "e1ae216ca3824e04994e08a12fc5b684",
    "layouttype": 2,
    "masterType": 0,
    "name": "kony.ui.UserWidgetInstance",
    "parent": "frmLoanCreation",
    "pf": "frmLoanCreation",
    "responsiveData": {},
    "retaincontentalignment": false,
    "retainflexpositionproperties": false,
    "retainflowhorizontalalignment": false,
    "snapgridsize": 10,
    "snaptogrid": true,
    "sourceUserWidget": "eb5542d4860349a4b1b3eb34a2c29d69",
    "spa": {},
    "spaan": {},
    "spaandroidtablet": {},
    "spabb": {},
    "spaip": {},
    "spaipad": {},
    "spamobile": {},
    "spatablet": {},
    "spawindowstablet": {},
    "spawinphone8": {},
    "tabrcandroid": {},
    "vizProps": {
        "hidewidgethierarchy": false
    },
    "wType": "UserWidgetInstance",
    "windows10": {},
    "windows8": {},
    "winphone10": {},
    "winphone8": {}
}