{
    "@class": "com.kony.gen.viz.model.component.KVizTextBox2",
    "DNDConfig": null,
    "_height_": {
        "type": "string",
        "value": "56dp"
    },
    "_left_": {
        "type": "string",
        "value": "329dp"
    },
    "_margin_": [
        0,
        0,
        0,
        0
    ],
    "_padding_": [
        1,
        0,
        0,
        0
    ],
    "_placeholder_": "PayIn",
    "_skin_": "sf6f795c41fd472e943f10fa2fd18ada",
    "_text_": "",
    "_top_": {
        "type": "string",
        "value": "188dp"
    },
    "_width_": {
        "type": "string",
        "value": "233dp"
    },
    "autocapitalize": "none",
    "autocomplete": false,
    "autocorrect": false,
    "autofilter": false,
    "canUpdateUI": true,
    "containerheight": "",
    "containerheightmode": 1,
    "containerweight": 100,
    "contentalignment": 4,
    "focusskin": "scc016aaa0ba4fa09efe65775d4e659c",
    "id": "tbxPayInAccount1",
    "info": null,
    "iscustomlayout": false,
    "isvisible": false,
    "keyboardtype": "A",
    "kuid": "cb073fcaa903413c8cf6b4f74b6117ee",
    "mode": "A",
    "name": "kony.ui.TextBox2",
    "paddinginpixel": false,
    "parent": "flxRow1",
    "pf": "frmLoanCreation",
    "placeholderskin": "s10546fc77e34e4aaffa4e4ca91568c1",
    "retaincontentalignment": false,
    "retainflexpositionproperties": false,
    "securetextentry": false,
    "textinputmode": "A",
    "tooltip": "",
    "viewtype": "default",
    "wType": "TextField",
    "zindex": 1
}