{
    "@class": "com.kony.gen.viz.model.component.KVizCustom",
    "DNDConfig": null,
    "_height_": {
        "type": "string",
        "value": "24px"
    },
    "_left_": {
        "type": "string",
        "value": "0"
    },
    "_margin_": [
        0,
        0,
        0,
        0
    ],
    "_padding_": [
        0,
        0,
        0,
        0
    ],
    "_top_": {
        "type": "string",
        "value": "0"
    },
    "_width_": {
        "type": "string",
        "value": "24px"
    },
    "android": {
        "render": false
    },
    "androidwearos": {
        "render": false
    },
    "canUpdateUI": true,
    "centerx": {
        "type": "string",
        "value": "50%"
    },
    "centery": {
        "type": "string",
        "value": "50%"
    },
    "containerweight": 0,
    "customProperties": {
        "color": " temenos-primary",
        "iconName": "flag",
        "size": "small"
    },
    "cwEvents": [],
    "cwid": "cwbfbd2ef4374d48f8bcb461fbf317d5ef",
    "id": "TPWFlag2",
    "info": null,
    "ipad": {
        "render": false
    },
    "iphone": {
        "render": false
    },
    "iscustomlayout": false,
    "isvisible": true,
    "kiosk": {
        "render": false
    },
    "kuid": "g8b02605d1314cc1afe3dfeb8740c438",
    "name": "uuxIcon-kony.ui",
    "nameSpaceIndex": 0,
    "parent": "flxStepClick2",
    "pf": "frmLoanCreation",
    "platformKey": "spa",
    "retaincontentalignment": false,
    "retainflexpositionproperties": false,
    "tabrcandroid": {
        "render": false
    },
    "wType": "TPW",
    "watchos": {
        "render": false
    },
    "widgetIndex": 9,
    "windows10": {
        "render": false
    },
    "windows8": {
        "render": false
    },
    "winphone10": {
        "render": false
    },
    "winphone8": {
        "render": false
    }
}