{
  "background_color": "ffffff",
  "bg_type": "one",
  "border_color": "ffffffff",
  "desktopweb": {
    "bottom_left_border_color": "ffffffff",
    "bottom_right_border_color": "ffffffff",
    "isCustomCSSEnabled": false,
    "isForked": true,
    "top_left_border_color": "ffffffff",
    "top_right_border_color": "ffffffff"
  },
  "isDefaultSkin": false,
  "kuid": "sf044e92f9904e76bf08c4ffe4087849",
  "spaan": {
    "bottom_left_border_color": "ffffffff",
    "bottom_right_border_color": "ffffffff",
    "isCustomCSSEnabled": false,
    "isForked": true,
    "top_left_border_color": "ffffffff",
    "top_right_border_color": "ffffffff"
  },
  "spaandroidtablet": {
    "bottom_left_border_color": "ffffffff",
    "bottom_right_border_color": "ffffffff",
    "isCustomCSSEnabled": false,
    "isForked": true,
    "top_left_border_color": "ffffffff",
    "top_right_border_color": "ffffffff"
  },
  "spaip": {
    "bottom_left_border_color": "ffffffff",
    "bottom_right_border_color": "ffffffff",
    "isCustomCSSEnabled": false,
    "isForked": true,
    "top_left_border_color": "ffffffff",
    "top_right_border_color": "ffffffff"
  },
  "spaipad": {
    "bottom_left_border_color": "ffffffff",
    "bottom_right_border_color": "ffffffff",
    "isCustomCSSEnabled": false,
    "isForked": true,
    "top_left_border_color": "ffffffff",
    "top_right_border_color": "ffffffff"
  },
  "spawindowstablet": {
    "bottom_left_border_color": "ffffffff",
    "bottom_right_border_color": "ffffffff",
    "isCustomCSSEnabled": false,
    "isForked": true,
    "top_left_border_color": "ffffffff",
    "top_right_border_color": "ffffffff"
  },
  "spawinphone8": {
    "bottom_left_border_color": "ffffffff",
    "bottom_right_border_color": "ffffffff",
    "isCustomCSSEnabled": false,
    "isForked": true,
    "top_left_border_color": "ffffffff",
    "top_right_border_color": "ffffffff"
  },
  "wType": "Form"
}