{
    "android": {
        "font_color": "575757ff",
        "font_name": "Helvetica",
        "font_size": 33,
        "font_style": "normal",
        "font_weight": "normal",
        "isForked": true,
        "text_shadow": {
            "br": 0,
            "color": "000000",
            "opacity": 1,
            "x": 0,
            "y": 0
        }
    },
    "androidwearos": {
        "font_color": "575757ff",
        "font_name": "Helvetica",
        "font_size": 43,
        "font_style": "normal",
        "font_weight": "normal",
        "isForked": true,
        "text_shadow": {
            "br": 0,
            "color": "000000",
            "opacity": 1,
            "x": 0,
            "y": 0
        }
    },
    "background_color": "00000000",
    "bg_type": "one",
    "border_color": "424242ff",
    "border_style": "plain",
    "border_type": 0,
    "border_width": 0,
    "delinkedPltfrms": {
        "androidwear": [],
        "desktop": [
            "desktopweb"
        ],
        "mobile": [],
        "tablet": [],
        "watch": []
    },
    "desktopweb": {
        "border_type": 0,
        "bottom_left_border_color": "805fffff",
        "bottom_left_border_radius": "5",
        "bottom_left_border_style": "rc",
        "bottom_left_border_width": "5",
        "bottom_right_border_color": "d6d0d6ff",
        "bottom_right_border_radius": "5",
        "bottom_right_border_style": "rc",
        "bottom_right_border_width": "1",
        "font_color": "575757ff",
        "font_name": "Roboto-Regular",
        "font_size": 88,
        "font_style": "normal",
        "font_weight": "normal",
        "isCustomCSSEnabled": false,
        "isForked": true,
        "text_shadow": {
            "br": 0,
            "color": "000000",
            "opacity": 1,
            "x": 0,
            "y": 0
        },
        "top_left_border_color": "d6d0d6ff",
        "top_left_border_radius": "5",
        "top_left_border_style": "rc",
        "top_left_border_width": "1",
        "top_right_border_color": "d6d0d6ff",
        "top_right_border_radius": "5",
        "top_right_border_style": "rc",
        "top_right_border_width": "1"
    },
    "fontSizeInPx": true,
    "font_color": "575757ff",
    "font_name": "iphoneSystem",
    "font_size": 88,
    "font_style": "normal",
    "font_weight": "normal",
    "ipad": {
        "font_color": "575757ff",
        "font_name": "Helvetica",
        "font_size": 43,
        "isForked": true,
        "text_shadow": {
            "br": 0,
            "color": "000000",
            "opacity": 1,
            "x": 0,
            "y": 0
        }
    },
    "iphone": {
        "font_color": "575757ff",
        "font_name": "Helvetica",
        "font_size": 41,
        "isForked": true,
        "text_shadow": {
            "br": 0,
            "color": "000000",
            "opacity": 1,
            "x": 0,
            "y": 0
        }
    },
    "isDefaultSkin": false,
    "kiosk": {
        "font_color": "575757ff",
        "font_size": 75,
        "font_style": "normal",
        "font_weight": "normal",
        "isForked": true
    },
    "kuid": "s1bf27427d6e4080913af7a4bc13fa20",
    "spaan": {
        "border_type": 0,
        "bottom_left_border_color": "18ed6aff",
        "bottom_left_border_radius": "5",
        "bottom_left_border_style": "rc",
        "bottom_left_border_width": "2",
        "bottom_right_border_color": "d6d0d6ff",
        "bottom_right_border_radius": "5",
        "bottom_right_border_style": "rc",
        "bottom_right_border_width": "1",
        "font_color": "575757ff",
        "font_name": "Helvetica",
        "font_size": 80,
        "font_style": "normal",
        "font_weight": "normal",
        "isForked": true,
        "text_shadow": {
            "br": 0,
            "color": "000000",
            "opacity": 1,
            "x": 0,
            "y": 0
        },
        "top_left_border_color": "d6d0d6ff",
        "top_left_border_radius": "5",
        "top_left_border_style": "rc",
        "top_left_border_width": "1",
        "top_right_border_color": "d6d0d6ff",
        "top_right_border_radius": "5",
        "top_right_border_style": "rc",
        "top_right_border_width": "1"
    },
    "spaandroidtablet": {
        "border_type": 0,
        "bottom_left_border_color": "18ed6aff",
        "bottom_left_border_radius": "5",
        "bottom_left_border_style": "rc",
        "bottom_left_border_width": "2",
        "bottom_right_border_color": "d6d0d6ff",
        "bottom_right_border_radius": "5",
        "bottom_right_border_style": "rc",
        "bottom_right_border_width": "1",
        "font_color": "575757ff",
        "font_name": "Helvetica",
        "font_size": 67,
        "font_style": "normal",
        "font_weight": "normal",
        "isForked": true,
        "text_shadow": {
            "br": 0,
            "color": "000000",
            "opacity": 1,
            "x": 0,
            "y": 0
        },
        "top_left_border_color": "d6d0d6ff",
        "top_left_border_radius": "5",
        "top_left_border_style": "rc",
        "top_left_border_width": "1",
        "top_right_border_color": "d6d0d6ff",
        "top_right_border_radius": "5",
        "top_right_border_style": "rc",
        "top_right_border_width": "1"
    },
    "spaip": {
        "border_type": 0,
        "bottom_left_border_color": "18ed6aff",
        "bottom_left_border_radius": "5",
        "bottom_left_border_style": "rc",
        "bottom_left_border_width": "2",
        "bottom_right_border_color": "d6d0d6ff",
        "bottom_right_border_radius": "5",
        "bottom_right_border_style": "rc",
        "bottom_right_border_width": "1",
        "font_color": "575757ff",
        "font_name": "Helvetica",
        "font_size": 77,
        "font_style": "normal",
        "font_weight": "normal",
        "isForked": true,
        "text_shadow": {
            "br": 0,
            "color": "000000",
            "opacity": 1,
            "x": 0,
            "y": 0
        },
        "top_left_border_color": "d6d0d6ff",
        "top_left_border_radius": "5",
        "top_left_border_style": "rc",
        "top_left_border_width": "1",
        "top_right_border_color": "d6d0d6ff",
        "top_right_border_radius": "5",
        "top_right_border_style": "rc",
        "top_right_border_width": "1"
    },
    "spaipad": {
        "border_type": 0,
        "bottom_left_border_color": "18ed6aff",
        "bottom_left_border_radius": "5",
        "bottom_left_border_style": "rc",
        "bottom_left_border_width": "2",
        "bottom_right_border_color": "d6d0d6ff",
        "bottom_right_border_radius": "5",
        "bottom_right_border_style": "rc",
        "bottom_right_border_width": "1",
        "font_color": "575757ff",
        "font_name": "Helvetica",
        "font_size": 71,
        "font_style": "normal",
        "font_weight": "normal",
        "isForked": true,
        "text_shadow": {
            "br": 0,
            "color": "000000",
            "opacity": 1,
            "x": 0,
            "y": 0
        },
        "top_left_border_color": "d6d0d6ff",
        "top_left_border_radius": "5",
        "top_left_border_style": "rc",
        "top_left_border_width": "1",
        "top_right_border_color": "d6d0d6ff",
        "top_right_border_radius": "5",
        "top_right_border_style": "rc",
        "top_right_border_width": "1"
    },
    "spawindowstablet": {
        "border_type": 0,
        "bottom_left_border_color": "18ed6aff",
        "bottom_left_border_radius": "5",
        "bottom_left_border_style": "rc",
        "bottom_left_border_width": "2",
        "bottom_right_border_color": "d6d0d6ff",
        "bottom_right_border_radius": "5",
        "bottom_right_border_style": "rc",
        "bottom_right_border_width": "1",
        "font_color": "575757ff",
        "font_name": "Helvetica",
        "font_size": 71,
        "font_style": "normal",
        "font_weight": "normal",
        "isForked": true,
        "text_shadow": {
            "br": 0,
            "color": "000000",
            "opacity": 1,
            "x": 0,
            "y": 0
        },
        "top_left_border_color": "d6d0d6ff",
        "top_left_border_radius": "5",
        "top_left_border_style": "rc",
        "top_left_border_width": "1",
        "top_right_border_color": "d6d0d6ff",
        "top_right_border_radius": "5",
        "top_right_border_style": "rc",
        "top_right_border_width": "1"
    },
    "spawinphone8": {
        "border_type": 0,
        "bottom_left_border_color": "18ed6aff",
        "bottom_left_border_radius": "5",
        "bottom_left_border_style": "rc",
        "bottom_left_border_width": "2",
        "bottom_right_border_color": "d6d0d6ff",
        "bottom_right_border_radius": "5",
        "bottom_right_border_style": "rc",
        "bottom_right_border_width": "1",
        "font_color": "575757ff",
        "font_name": "Helvetica",
        "font_size": 100,
        "font_style": "normal",
        "font_weight": "normal",
        "isForked": true,
        "text_shadow": {
            "br": 0,
            "color": "000000",
            "opacity": 1,
            "x": 0,
            "y": 0
        },
        "top_left_border_color": "d6d0d6ff",
        "top_left_border_radius": "5",
        "top_left_border_style": "rc",
        "top_left_border_width": "1",
        "top_right_border_color": "d6d0d6ff",
        "top_right_border_radius": "5",
        "top_right_border_style": "rc",
        "top_right_border_width": "1"
    },
    "tabrcandroid": {
        "font_color": "575757ff",
        "font_name": "Helvetica",
        "font_size": 71,
        "font_style": "normal",
        "font_weight": "normal",
        "isForked": true,
        "text_shadow": {
            "br": 0,
            "color": "000000",
            "opacity": 1,
            "x": 0,
            "y": 0
        }
    },
    "wType": "Label",
    "watchos": {
        "font_color": "575757ff",
        "font_name": "Helvetica",
        "font_size": 43,
        "font_weight": "normal",
        "isForked": true
    },
    "windows8": {
        "font_color": "575757ff",
        "font_name": "None",
        "font_size": 29,
        "font_style": "normal",
        "font_weight": "normal",
        "isForked": true
    },
    "winphone8": {
        "font_color": "575757ff",
        "font_name": "None",
        "font_size": 40,
        "font_style": "normal",
        "font_weight": "normal",
        "isForked": true
    }
}