{
  "android": {
    "font_name": "default",
    "font_size": 78,
    "isForked": false
  },
  "androidwearos": {
    "font_name": "default",
    "font_size": 100,
    "isForked": false
  },
  "background_color": "00000000",
  "bg_type": "one",
  "border_color": "424242ff",
  "border_style": "plain",
  "border_type": 0,
  "border_width": 0,
  "desktopweb": {
    "font_name": "Roboto-Medium",
    "font_size": 175,
    "isForked": false
  },
  "fontSizeInPx": true,
  "font_color": "333333ff",
  "font_name": "iphoneSystem",
  "font_size": 175,
  "font_style": "normal",
  "font_weight": "normal",
  "ipad": {
    "font_name": "System",
    "font_size": 100,
    "isForked": false
  },
  "iphone": {
    "font_name": "System",
    "font_size": 97,
    "isForked": false
  },
  "isDefaultSkin": false,
  "kiosk": {
    "font_name": "None",
    "font_size": 175,
    "isForked": false
  },
  "kuid": "sbd1a6fb14184f01a1d4fc0e4c7ab1eb",
  "spaan": {
    "font_name": "Helvetica",
    "font_size": 187,
    "isForked": false
  },
  "spaandroidtablet": {
    "font_name": "Helvetica",
    "font_size": 156,
    "isForked": false
  },
  "spaip": {
    "font_name": "Helvetica",
    "font_size": 180,
    "isForked": false
  },
  "spaipad": {
    "font_name": "Helvetica",
    "font_size": 165,
    "isForked": false
  },
  "spawindowstablet": {
    "font_name": "Helvetica",
    "font_size": 165,
    "isForked": false
  },
  "spawinphone8": {
    "font_name": "Helvetica",
    "font_size": 233,
    "isForked": false
  },
  "tabrcandroid": {
    "font_name": "default",
    "font_size": 166,
    "isForked": false
  },
  "wType": "Label",
  "watchos": {
    "font_name": "System",
    "font_size": 100,
    "isForked": false
  },
  "windows8": {
    "font_name": "None",
    "font_size": 68,
    "isForked": false
  },
  "winphone8": {
    "font_name": "None",
    "font_size": 93,
    "isForked": false
  }
}