{
  "android": {
    "background_color": "ffffff00",
    "bg_type": "one",
    "font_name": "default",
    "isForked": true
  },
  "androidwearos": {
    "background_color": "ffffff00",
    "bg_type": "one",
    "font_name": "default",
    "isForked": true
  },
  "background_gradient_bottom_color": "f2f4f7ff",
  "background_gradient_top_color": "cbe3f8ff",
  "background_style": "vg",
  "bg_type": "two",
  "border_color": "cbe3f8ff",
  "border_style": "plain",
  "border_type": 0,
  "border_width": 1,
  "delinkedPltfrms": {
    "androidwear": [],
    "desktop": [
      "desktopweb"
    ],
    "mobile": [],
    "tablet": [],
    "watch": []
  },
  "desktopweb": {
    "background_color": "ffffffff",
    "bg_type": "one",
    "border_type": 0,
    "bottom_left_border_color": "000000ff",
    "bottom_left_border_style": "plain",
    "bottom_left_border_width": "0",
    "bottom_right_border_color": "000000ff",
    "bottom_right_border_style": "plain",
    "bottom_right_border_width": "0",
    "font_name": "Helvetica",
    "isForked": true,
    "top_left_border_color": "cce3f7ff",
    "top_left_border_style": "plain",
    "top_left_border_width": "0",
    "top_right_border_color": "000000ff",
    "top_right_border_style": "plain",
    "top_right_border_width": "0"
  },
  "ipad": {
    "background_color": "ffffff00",
    "bg_type": "one",
    "font_name": "System",
    "isForked": true
  },
  "iphone": {
    "background_color": "ffffff00",
    "bg_type": "one",
    "font_name": "System",
    "isForked": true
  },
  "isDefaultSkin": false,
  "kiosk": {
    "background_color": "ffffff00",
    "bg_type": "one",
    "font_name": "None",
    "isForked": true
  },
  "kuid": "s651a344f87543758be7bb77165d1ebe",
  "spaan": {
    "background_color": "ffffff00",
    "bg_type": "one",
    "border_type": 0,
    "bottom_left_border_color": "000000ff",
    "bottom_left_border_style": "plain",
    "bottom_left_border_width": "1",
    "bottom_right_border_color": "000000ff",
    "bottom_right_border_style": "plain",
    "bottom_right_border_width": "1",
    "font_name": "Helvetica",
    "isForked": true,
    "top_left_border_color": "cde4f700",
    "top_left_border_style": "plain",
    "top_left_border_width": "0",
    "top_right_border_color": "000000ff",
    "top_right_border_style": "plain",
    "top_right_border_width": "1"
  },
  "spaandroidtablet": {
    "background_color": "ffffff00",
    "bg_type": "one",
    "border_type": 0,
    "bottom_left_border_color": "000000ff",
    "bottom_left_border_style": "plain",
    "bottom_left_border_width": "1",
    "bottom_right_border_color": "000000ff",
    "bottom_right_border_style": "plain",
    "bottom_right_border_width": "1",
    "font_name": "Helvetica",
    "isForked": true,
    "top_left_border_color": "cde4f700",
    "top_left_border_style": "plain",
    "top_left_border_width": "0",
    "top_right_border_color": "000000ff",
    "top_right_border_style": "plain",
    "top_right_border_width": "1"
  },
  "spaip": {
    "background_color": "ffffff00",
    "bg_type": "one",
    "border_type": 0,
    "bottom_left_border_color": "000000ff",
    "bottom_left_border_style": "plain",
    "bottom_left_border_width": "1",
    "bottom_right_border_color": "000000ff",
    "bottom_right_border_style": "plain",
    "bottom_right_border_width": "1",
    "font_name": "Helvetica",
    "isForked": true,
    "top_left_border_color": "cde4f700",
    "top_left_border_style": "plain",
    "top_left_border_width": "0",
    "top_right_border_color": "000000ff",
    "top_right_border_style": "plain",
    "top_right_border_width": "1"
  },
  "spaipad": {
    "background_color": "ffffff00",
    "bg_type": "one",
    "border_type": 0,
    "bottom_left_border_color": "000000ff",
    "bottom_left_border_style": "plain",
    "bottom_left_border_width": "1",
    "bottom_right_border_color": "000000ff",
    "bottom_right_border_style": "plain",
    "bottom_right_border_width": "1",
    "font_name": "Helvetica",
    "isForked": true,
    "top_left_border_color": "cde4f700",
    "top_left_border_style": "plain",
    "top_left_border_width": "0",
    "top_right_border_color": "000000ff",
    "top_right_border_style": "plain",
    "top_right_border_width": "1"
  },
  "spawindowstablet": {
    "background_color": "ffffff00",
    "bg_type": "one",
    "border_type": 0,
    "bottom_left_border_color": "000000ff",
    "bottom_left_border_style": "plain",
    "bottom_left_border_width": "1",
    "bottom_right_border_color": "000000ff",
    "bottom_right_border_style": "plain",
    "bottom_right_border_width": "1",
    "font_name": "Helvetica",
    "isForked": true,
    "top_left_border_color": "cde4f700",
    "top_left_border_style": "plain",
    "top_left_border_width": "0",
    "top_right_border_color": "000000ff",
    "top_right_border_style": "plain",
    "top_right_border_width": "1"
  },
  "spawinphone8": {
    "background_color": "ffffff00",
    "bg_type": "one",
    "border_type": 0,
    "bottom_left_border_color": "000000ff",
    "bottom_left_border_style": "plain",
    "bottom_left_border_width": "1",
    "bottom_right_border_color": "000000ff",
    "bottom_right_border_style": "plain",
    "bottom_right_border_width": "1",
    "font_name": "Helvetica",
    "isForked": true,
    "top_left_border_color": "cde4f700",
    "top_left_border_style": "plain",
    "top_left_border_width": "0",
    "top_right_border_color": "000000ff",
    "top_right_border_style": "plain",
    "top_right_border_width": "1"
  },
  "tabrcandroid": {
    "background_color": "ffffff00",
    "bg_type": "one",
    "font_name": "default",
    "isForked": true
  },
  "wType": "FlexContainer",
  "watchos": {
    "font_name": "System"
  },
  "windows8": {
    "background_color": "ffffff00",
    "bg_type": "one",
    "font_name": "None",
    "isForked": true
  },
  "winphone8": {
    "background_color": "ffffff00",
    "bg_type": "one",
    "font_name": "None",
    "isForked": true
  }
}