{
    "android": {
        "font_name": "default",
        "font_size": 33,
        "isForked": false
    },
    "androidwearos": {
        "font_name": "default",
        "font_size": 43,
        "isForked": false
    },
    "background_color": "f2f2f296",
    "bg_type": "one",
    "border_color": "f2f2f2ff",
    "border_radius": 16,
    "border_style": "custom",
    "border_type": 0,
    "border_width": 1,
    "desktopweb": {
        "font_name": "Roboto-Regular",
        "font_size": 75,
        "isForked": false
    },
    "fontSizeInPx": true,
    "font_color": "333333ff",
    "font_name": "iphoneSystem",
    "font_size": 75,
    "font_style": "normal",
    "font_weight": "normal",
    "ipad": {
        "font_name": "System",
        "font_size": 43,
        "isForked": false
    },
    "iphone": {
        "font_name": "System",
        "font_size": 41,
        "isForked": false
    },
    "isDefaultSkin": false,
    "kiosk": {
        "font_name": "None",
        "font_size": 75,
        "isForked": false
    },
    "kuid": "s127bcc7297d41b6ba7b27ffb0f96bcd",
    "spaan": {
        "font_name": "Helvetica",
        "font_size": 80,
        "isForked": false
    },
    "spaandroidtablet": {
        "font_name": "Helvetica",
        "font_size": 67,
        "isForked": false
    },
    "spaip": {
        "font_name": "Helvetica",
        "font_size": 77,
        "isForked": false
    },
    "spaipad": {
        "font_name": "Helvetica",
        "font_size": 71,
        "isForked": false
    },
    "spawindowstablet": {
        "font_name": "Helvetica",
        "font_size": 71,
        "isForked": false
    },
    "spawinphone8": {
        "font_name": "Helvetica",
        "font_size": 100,
        "isForked": false
    },
    "tabrcandroid": {
        "font_name": "default",
        "font_size": 71,
        "isForked": false
    },
    "wType": "TextField",
    "watchos": {
        "font_name": "System",
        "font_size": 43,
        "isForked": false
    },
    "windows8": {
        "font_name": "None",
        "font_size": 29,
        "isForked": false
    },
    "winphone8": {
        "font_name": "None",
        "font_size": 40,
        "isForked": false
    }
}