{
    "android": {
        "background_color": "f4f8f4ff",
        "bg_type": "one",
        "font_name": "default",
        "isForked": true
    },
    "androidwearos": {
        "background_color": "f4f8f4ff",
        "bg_type": "one",
        "font_name": "default",
        "isForked": true
    },
    "background_color": "00000000",
    "bg_type": "one",
    "border_color": "000000ff",
    "border_style": "plain",
    "border_type": 0,
    "border_width": 0,
    "desktopweb": {
        "background_color": "f4f8f4ff",
        "bg_type": "one",
        "border_type": 0,
        "bottom_left_border_color": "2c8631ff",
        "bottom_left_border_style": "plain",
        "bottom_left_border_width": "3",
        "bottom_right_border_color": "000000ff",
        "bottom_right_border_style": "plain",
        "bottom_right_border_width": 0,
        "font_name": "Helvetica",
        "isForked": true,
        "top_left_border_color": "000000ff",
        "top_left_border_style": "plain",
        "top_left_border_width": "0",
        "top_right_border_color": "000000ff",
        "top_right_border_style": "plain",
        "top_right_border_width": 0
    },
    "ipad": {
        "background_color": "f4f8f4ff",
        "bg_type": "one",
        "font_name": "System",
        "isForked": true
    },
    "iphone": {
        "background_color": "f4f8f4ff",
        "bg_type": "one",
        "font_name": "System",
        "isForked": true
    },
    "isDefaultSkin": false,
    "kiosk": {
        "background_color": "f4f8f4ff",
        "bg_type": "one",
        "font_name": "None",
        "isForked": true
    },
    "kuid": "sf4fed930574437ea244ee62593ddf74",
    "spaan": {
        "background_color": "f4f8f4ff",
        "bg_type": "one",
        "border_type": 0,
        "bottom_left_border_color": "2c8631ff",
        "bottom_left_border_style": "plain",
        "bottom_left_border_width": "3",
        "bottom_right_border_color": "000000ff",
        "bottom_right_border_style": "plain",
        "bottom_right_border_width": 0,
        "font_name": "Helvetica",
        "isForked": true,
        "top_left_border_color": "000000ff",
        "top_left_border_style": "plain",
        "top_left_border_width": "0",
        "top_right_border_color": "000000ff",
        "top_right_border_style": "plain",
        "top_right_border_width": 0
    },
    "spaandroidtablet": {
        "background_color": "f4f8f4ff",
        "bg_type": "one",
        "border_type": 0,
        "bottom_left_border_color": "2c8631ff",
        "bottom_left_border_style": "plain",
        "bottom_left_border_width": "3",
        "bottom_right_border_color": "000000ff",
        "bottom_right_border_style": "plain",
        "bottom_right_border_width": 0,
        "font_name": "Helvetica",
        "isForked": true,
        "top_left_border_color": "000000ff",
        "top_left_border_style": "plain",
        "top_left_border_width": "0",
        "top_right_border_color": "000000ff",
        "top_right_border_style": "plain",
        "top_right_border_width": 0
    },
    "spaip": {
        "background_color": "f4f8f4ff",
        "bg_type": "one",
        "border_type": 0,
        "bottom_left_border_color": "2c8631ff",
        "bottom_left_border_style": "plain",
        "bottom_left_border_width": "3",
        "bottom_right_border_color": "000000ff",
        "bottom_right_border_style": "plain",
        "bottom_right_border_width": 0,
        "font_name": "Helvetica",
        "isForked": true,
        "top_left_border_color": "000000ff",
        "top_left_border_style": "plain",
        "top_left_border_width": "0",
        "top_right_border_color": "000000ff",
        "top_right_border_style": "plain",
        "top_right_border_width": 0
    },
    "spaipad": {
        "background_color": "f4f8f4ff",
        "bg_type": "one",
        "border_type": 0,
        "bottom_left_border_color": "2c8631ff",
        "bottom_left_border_style": "plain",
        "bottom_left_border_width": "3",
        "bottom_right_border_color": "000000ff",
        "bottom_right_border_style": "plain",
        "bottom_right_border_width": 0,
        "font_name": "Helvetica",
        "isForked": true,
        "top_left_border_color": "000000ff",
        "top_left_border_style": "plain",
        "top_left_border_width": "0",
        "top_right_border_color": "000000ff",
        "top_right_border_style": "plain",
        "top_right_border_width": 0
    },
    "spawindowstablet": {
        "background_color": "f4f8f4ff",
        "bg_type": "one",
        "border_type": 0,
        "bottom_left_border_color": "2c8631ff",
        "bottom_left_border_style": "plain",
        "bottom_left_border_width": "3",
        "bottom_right_border_color": "000000ff",
        "bottom_right_border_style": "plain",
        "bottom_right_border_width": 0,
        "font_name": "Helvetica",
        "isForked": true,
        "top_left_border_color": "000000ff",
        "top_left_border_style": "plain",
        "top_left_border_width": "0",
        "top_right_border_color": "000000ff",
        "top_right_border_style": "plain",
        "top_right_border_width": 0
    },
    "spawinphone8": {
        "background_color": "f4f8f4ff",
        "bg_type": "one",
        "border_type": 0,
        "bottom_left_border_color": "2c8631ff",
        "bottom_left_border_style": "plain",
        "bottom_left_border_width": "3",
        "bottom_right_border_color": "000000ff",
        "bottom_right_border_style": "plain",
        "bottom_right_border_width": 0,
        "font_name": "Helvetica",
        "isForked": true,
        "top_left_border_color": "000000ff",
        "top_left_border_style": "plain",
        "top_left_border_width": "0",
        "top_right_border_color": "000000ff",
        "top_right_border_style": "plain",
        "top_right_border_width": 0
    },
    "tabrcandroid": {
        "background_color": "f4f8f4ff",
        "bg_type": "one",
        "font_name": "default",
        "isForked": true
    },
    "wType": "FlexContainer",
    "watchos": {
        "font_name": "System"
    },
    "windows8": {
        "background_color": "f4f8f4ff",
        "bg_type": "one",
        "font_name": "None",
        "isForked": true
    },
    "winphone8": {
        "background_color": "f4f8f4ff",
        "bg_type": "one",
        "font_name": "None",
        "isForked": true
    }
}