{
  "android": {
    "font_color": "575757ff",
    "font_name": "Helvetica",
    "font_size": 39,
    "font_style": "normal",
    "font_weight": "normal",
    "isForked": true,
    "text_shadow": {
      "br": 0,
      "color": "000000",
      "opacity": 1,
      "x": 0,
      "y": 0
    }
  },
  "androidwearos": {
    "font_color": "575757ff",
    "font_name": "Helvetica",
    "font_size": 50,
    "font_style": "normal",
    "font_weight": "normal",
    "isForked": true,
    "text_shadow": {
      "br": 0,
      "color": "000000",
      "opacity": 1,
      "x": 0,
      "y": 0
    }
  },
  "background_color": "00000000",
  "bg_type": "one",
  "border_color": "424242ff",
  "border_style": "plain",
  "border_type": 0,
  "border_width": 0,
  "delinkedPltfrms": {
    "androidwear": [],
    "desktop": [],
    "mobile": [],
    "tablet": [],
    "watch": []
  },
  "desktopweb": {
    "border_type": 0,
    "bottom_left_border_color": "424242ff",
    "bottom_left_border_style": "plain",
    "bottom_left_border_width": 0,
    "bottom_right_border_color": "424242ff",
    "bottom_right_border_style": "plain",
    "bottom_right_border_width": 0,
    "font_color": "575757ff",
    "font_name": "Roboto-Regular",
    "font_size": 88,
    "font_style": "normal",
    "font_weight": "normal",
    "isForked": true,
    "text_shadow": {
      "br": 0,
      "color": "000000",
      "opacity": 1,
      "x": 0,
      "y": 0
    },
    "top_left_border_color": "424242ff",
    "top_left_border_style": "plain",
    "top_left_border_width": 0,
    "top_right_border_color": "424242ff",
    "top_right_border_style": "plain",
    "top_right_border_width": 0
  },
  "fontSizeInPx": true,
  "font_color": "575757ff",
  "font_name": "iphoneSystem",
  "font_size": 88,
  "font_style": "normal",
  "font_weight": "normal",
  "ipad": {
    "font_color": "575757ff",
    "font_name": "Helvetica",
    "font_size": 50,
    "isForked": true,
    "text_shadow": {
      "br": 0,
      "color": "000000",
      "opacity": 1,
      "x": 0,
      "y": 0
    }
  },
  "iphone": {
    "font_color": "575757ff",
    "font_name": "Helvetica",
    "font_size": 48,
    "isForked": true,
    "text_shadow": {
      "br": 0,
      "color": "000000",
      "opacity": 1,
      "x": 0,
      "y": 0
    }
  },
  "isDefaultSkin": false,
  "kuid": "s98da313ae2b4ecf90c11f889e140299",
  "spaan": {
    "border_type": 0,
    "bottom_left_border_color": "424242ff",
    "bottom_left_border_style": "plain",
    "bottom_left_border_width": 0,
    "bottom_right_border_color": "424242ff",
    "bottom_right_border_style": "plain",
    "bottom_right_border_width": 0,
    "font_color": "575757ff",
    "font_name": "Helvetica",
    "font_size": 93,
    "font_style": "normal",
    "font_weight": "normal",
    "isForked": true,
    "text_shadow": {
      "br": 0,
      "color": "000000",
      "opacity": 1,
      "x": 0,
      "y": 0
    },
    "top_left_border_color": "424242ff",
    "top_left_border_style": "plain",
    "top_left_border_width": 0,
    "top_right_border_color": "424242ff",
    "top_right_border_style": "plain",
    "top_right_border_width": 0
  },
  "spaandroidtablet": {
    "border_type": 0,
    "bottom_left_border_color": "424242ff",
    "bottom_left_border_style": "plain",
    "bottom_left_border_width": 0,
    "bottom_right_border_color": "424242ff",
    "bottom_right_border_style": "plain",
    "bottom_right_border_width": 0,
    "font_color": "575757ff",
    "font_name": "Helvetica",
    "font_size": 78,
    "font_style": "normal",
    "font_weight": "normal",
    "isForked": true,
    "text_shadow": {
      "br": 0,
      "color": "000000",
      "opacity": 1,
      "x": 0,
      "y": 0
    },
    "top_left_border_color": "424242ff",
    "top_left_border_style": "plain",
    "top_left_border_width": 0,
    "top_right_border_color": "424242ff",
    "top_right_border_style": "plain",
    "top_right_border_width": 0
  },
  "spaip": {
    "border_type": 0,
    "bottom_left_border_color": "424242ff",
    "bottom_left_border_style": "plain",
    "bottom_left_border_width": 0,
    "bottom_right_border_color": "424242ff",
    "bottom_right_border_style": "plain",
    "bottom_right_border_width": 0,
    "font_color": "575757ff",
    "font_name": "Helvetica",
    "font_size": 90,
    "font_style": "normal",
    "font_weight": "normal",
    "isForked": true,
    "text_shadow": {
      "br": 0,
      "color": "000000",
      "opacity": 1,
      "x": 0,
      "y": 0
    },
    "top_left_border_color": "424242ff",
    "top_left_border_style": "plain",
    "top_left_border_width": 0,
    "top_right_border_color": "424242ff",
    "top_right_border_style": "plain",
    "top_right_border_width": 0
  },
  "spaipad": {
    "border_type": 0,
    "bottom_left_border_color": "424242ff",
    "bottom_left_border_style": "plain",
    "bottom_left_border_width": 0,
    "bottom_right_border_color": "424242ff",
    "bottom_right_border_style": "plain",
    "bottom_right_border_width": 0,
    "font_color": "575757ff",
    "font_name": "Helvetica",
    "font_size": 82,
    "font_style": "normal",
    "font_weight": "normal",
    "isForked": true,
    "text_shadow": {
      "br": 0,
      "color": "000000",
      "opacity": 1,
      "x": 0,
      "y": 0
    },
    "top_left_border_color": "424242ff",
    "top_left_border_style": "plain",
    "top_left_border_width": 0,
    "top_right_border_color": "424242ff",
    "top_right_border_style": "plain",
    "top_right_border_width": 0
  },
  "spawindowstablet": {
    "border_type": 0,
    "bottom_left_border_color": "424242ff",
    "bottom_left_border_style": "plain",
    "bottom_left_border_width": 0,
    "bottom_right_border_color": "424242ff",
    "bottom_right_border_style": "plain",
    "bottom_right_border_width": 0,
    "font_color": "575757ff",
    "font_name": "Helvetica",
    "font_size": 82,
    "font_style": "normal",
    "font_weight": "normal",
    "isForked": true,
    "text_shadow": {
      "br": 0,
      "color": "000000",
      "opacity": 1,
      "x": 0,
      "y": 0
    },
    "top_left_border_color": "424242ff",
    "top_left_border_style": "plain",
    "top_left_border_width": 0,
    "top_right_border_color": "424242ff",
    "top_right_border_style": "plain",
    "top_right_border_width": 0
  },
  "spawinphone8": {
    "border_type": 0,
    "bottom_left_border_color": "424242ff",
    "bottom_left_border_style": "plain",
    "bottom_left_border_width": 0,
    "bottom_right_border_color": "424242ff",
    "bottom_right_border_style": "plain",
    "bottom_right_border_width": 0,
    "font_color": "575757ff",
    "font_name": "Helvetica",
    "font_size": 117,
    "font_style": "normal",
    "font_weight": "normal",
    "isForked": true,
    "text_shadow": {
      "br": 0,
      "color": "000000",
      "opacity": 1,
      "x": 0,
      "y": 0
    },
    "top_left_border_color": "424242ff",
    "top_left_border_style": "plain",
    "top_left_border_width": 0,
    "top_right_border_color": "424242ff",
    "top_right_border_style": "plain",
    "top_right_border_width": 0
  },
  "tabrcandroid": {
    "font_color": "575757ff",
    "font_name": "Helvetica",
    "font_size": 83,
    "font_style": "normal",
    "font_weight": "normal",
    "isForked": true,
    "text_shadow": {
      "br": 0,
      "color": "000000",
      "opacity": 1,
      "x": 0,
      "y": 0
    }
  },
  "wType": "Label",
  "watchos": {
    "font_color": "575757ff",
    "font_name": "Helvetica",
    "font_size": 50,
    "font_weight": "normal",
    "isForked": true
  },
  "windows8": {
    "font_color": "575757ff",
    "font_name": "None",
    "font_size": 34,
    "font_style": "normal",
    "font_weight": "normal",
    "isForked": true
  },
  "winphone8": {
    "font_color": "575757ff",
    "font_name": "None",
    "font_size": 47,
    "font_style": "normal",
    "font_weight": "normal",
    "isForked": true
  }
}