{
  "android": {
    "background_color": "ddd5ffff",
    "bg_type": "one",
    "font_name": "default",
    "font_size": 33,
    "isForked": true
  },
  "androidwearos": {
    "background_color": "ddd5ffff",
    "bg_type": "one",
    "font_name": "default",
    "font_size": 43,
    "isForked": true
  },
  "background_color": "fffaff00",
  "bg_type": "one",
  "border_color": "ffffffff",
  "border_style": "rc",
  "border_type": 0,
  "border_width": 1,
  "desktopweb": {
    "background_color": "ddd5ffff",
    "bg_type": "one",
    "border_type": 0,
    "bottom_left_border_color": "dcd5ffff",
    "bottom_left_border_radius": "30",
    "bottom_left_border_style": "rc",
    "bottom_left_border_width": 1,
    "bottom_right_border_color": "dcd5ffff",
    "bottom_right_border_radius": "30",
    "bottom_right_border_style": "rc",
    "bottom_right_border_width": 1,
    "font_name": "Roboto-Medium",
    "font_size": 75,
    "isCustomCSSEnabled": false,
    "isForked": true,
    "top_left_border_color": "dcd5ffff",
    "top_left_border_radius": "30",
    "top_left_border_style": "rc",
    "top_left_border_width": 1,
    "top_right_border_color": "dcd5ffff",
    "top_right_border_radius": "30",
    "top_right_border_style": "rc",
    "top_right_border_width": 1
  },
  "fontSizeInPx": true,
  "font_color": "000000ff",
  "font_name": "iphoneSystem",
  "font_size": 100,
  "font_style": "normal",
  "font_weight": "normal",
  "ipad": {
    "background_color": "ddd5ffff",
    "bg_type": "one",
    "font_name": "System",
    "font_size": 43,
    "isForked": true
  },
  "iphone": {
    "background_color": "ddd5ffff",
    "bg_type": "one",
    "font_name": "System",
    "font_size": 41,
    "isForked": true
  },
  "isDefaultSkin": false,
  "kiosk": {
    "background_color": "ddd5ffff",
    "bg_type": "one",
    "font_name": "SourceSansPro-SemiBold",
    "font_size": 75,
    "isForked": true
  },
  "kuid": "saaa58369bb04f34ab5fc5588c0167b5",
  "spaan": {
    "background_color": "ddd5ffff",
    "bg_type": "one",
    "border_type": 0,
    "bottom_left_border_color": "dcd5ffff",
    "bottom_left_border_radius": "30",
    "bottom_left_border_style": "rc",
    "bottom_left_border_width": 1,
    "bottom_right_border_color": "dcd5ffff",
    "bottom_right_border_radius": "30",
    "bottom_right_border_style": "rc",
    "bottom_right_border_width": 1,
    "font_name": "Helvetica",
    "font_size": 80,
    "isCustomCSSEnabled": false,
    "isForked": true,
    "top_left_border_color": "dcd5ffff",
    "top_left_border_radius": "30",
    "top_left_border_style": "rc",
    "top_left_border_width": 1,
    "top_right_border_color": "dcd5ffff",
    "top_right_border_radius": "30",
    "top_right_border_style": "rc",
    "top_right_border_width": 1
  },
  "spaandroidtablet": {
    "background_color": "ddd5ffff",
    "bg_type": "one",
    "border_type": 0,
    "bottom_left_border_color": "dcd5ffff",
    "bottom_left_border_radius": "30",
    "bottom_left_border_style": "rc",
    "bottom_left_border_width": 1,
    "bottom_right_border_color": "dcd5ffff",
    "bottom_right_border_radius": "30",
    "bottom_right_border_style": "rc",
    "bottom_right_border_width": 1,
    "font_name": "Helvetica",
    "font_size": 67,
    "isCustomCSSEnabled": false,
    "isForked": true,
    "top_left_border_color": "dcd5ffff",
    "top_left_border_radius": "30",
    "top_left_border_style": "rc",
    "top_left_border_width": 1,
    "top_right_border_color": "dcd5ffff",
    "top_right_border_radius": "30",
    "top_right_border_style": "rc",
    "top_right_border_width": 1
  },
  "spaip": {
    "background_color": "ddd5ffff",
    "bg_type": "one",
    "border_type": 0,
    "bottom_left_border_color": "dcd5ffff",
    "bottom_left_border_radius": "30",
    "bottom_left_border_style": "rc",
    "bottom_left_border_width": 1,
    "bottom_right_border_color": "dcd5ffff",
    "bottom_right_border_radius": "30",
    "bottom_right_border_style": "rc",
    "bottom_right_border_width": 1,
    "font_name": "Helvetica",
    "font_size": 77,
    "isCustomCSSEnabled": false,
    "isForked": true,
    "top_left_border_color": "dcd5ffff",
    "top_left_border_radius": "30",
    "top_left_border_style": "rc",
    "top_left_border_width": 1,
    "top_right_border_color": "dcd5ffff",
    "top_right_border_radius": "30",
    "top_right_border_style": "rc",
    "top_right_border_width": 1
  },
  "spaipad": {
    "background_color": "ddd5ffff",
    "bg_type": "one",
    "border_type": 0,
    "bottom_left_border_color": "dcd5ffff",
    "bottom_left_border_radius": "30",
    "bottom_left_border_style": "rc",
    "bottom_left_border_width": 1,
    "bottom_right_border_color": "dcd5ffff",
    "bottom_right_border_radius": "30",
    "bottom_right_border_style": "rc",
    "bottom_right_border_width": 1,
    "font_name": "Helvetica",
    "font_size": 71,
    "isCustomCSSEnabled": false,
    "isForked": true,
    "top_left_border_color": "dcd5ffff",
    "top_left_border_radius": "30",
    "top_left_border_style": "rc",
    "top_left_border_width": 1,
    "top_right_border_color": "dcd5ffff",
    "top_right_border_radius": "30",
    "top_right_border_style": "rc",
    "top_right_border_width": 1
  },
  "spawindowstablet": {
    "background_color": "ddd5ffff",
    "bg_type": "one",
    "border_type": 0,
    "bottom_left_border_color": "dcd5ffff",
    "bottom_left_border_radius": "30",
    "bottom_left_border_style": "rc",
    "bottom_left_border_width": 1,
    "bottom_right_border_color": "dcd5ffff",
    "bottom_right_border_radius": "30",
    "bottom_right_border_style": "rc",
    "bottom_right_border_width": 1,
    "font_name": "Helvetica",
    "font_size": 71,
    "isCustomCSSEnabled": false,
    "isForked": true,
    "top_left_border_color": "dcd5ffff",
    "top_left_border_radius": "30",
    "top_left_border_style": "rc",
    "top_left_border_width": 1,
    "top_right_border_color": "dcd5ffff",
    "top_right_border_radius": "30",
    "top_right_border_style": "rc",
    "top_right_border_width": 1
  },
  "spawinphone8": {
    "background_color": "ddd5ffff",
    "bg_type": "one",
    "border_type": 0,
    "bottom_left_border_color": "dcd5ffff",
    "bottom_left_border_radius": "30",
    "bottom_left_border_style": "rc",
    "bottom_left_border_width": 1,
    "bottom_right_border_color": "dcd5ffff",
    "bottom_right_border_radius": "30",
    "bottom_right_border_style": "rc",
    "bottom_right_border_width": 1,
    "font_name": "Helvetica",
    "font_size": 100,
    "isCustomCSSEnabled": false,
    "isForked": true,
    "top_left_border_color": "dcd5ffff",
    "top_left_border_radius": "30",
    "top_left_border_style": "rc",
    "top_left_border_width": 1,
    "top_right_border_color": "dcd5ffff",
    "top_right_border_radius": "30",
    "top_right_border_style": "rc",
    "top_right_border_width": 1
  },
  "tabrcandroid": {
    "background_color": "ddd5ffff",
    "bg_type": "one",
    "font_name": "default",
    "font_size": 71,
    "isForked": true
  },
  "wType": "Button",
  "watchos": {
    "background_color": "ddd5ffff",
    "bg_type": "one",
    "font_name": "System",
    "font_size": 43,
    "isForked": true
  },
  "windows8": {
    "background_color": "ddd5ffff",
    "bg_type": "one",
    "font_name": "None",
    "font_size": 29,
    "isForked": true
  },
  "winphone8": {
    "background_color": "ddd5ffff",
    "bg_type": "one",
    "font_name": "None",
    "font_size": 40,
    "isForked": true
  }
}