{
  "android": {
    "font_name": "default"
  },
  "androidwearos": {
    "font_name": "default"
  },
  "background_color": "00000000",
  "bg_type": "one",
  "border_color": "979797ff",
  "border_style": "plain",
  "border_type": 0,
  "border_width": 1,
  "desktopweb": {
    "bottom_left_border_color": "979797ff",
    "bottom_left_border_style": "plain",
    "bottom_left_border_width": "0",
    "bottom_right_border_color": "979797ff",
    "bottom_right_border_style": "plain",
    "bottom_right_border_width": "0",
    "font_name": "Helvetica",
    "isForked": true,
    "top_left_border_color": "979797ff",
    "top_left_border_style": "plain",
    "top_left_border_width": 1,
    "top_right_border_color": "979797ff",
    "top_right_border_style": "plain",
    "top_right_border_width": "0"
  },
  "ipad": {
    "font_name": "System"
  },
  "iphone": {
    "font_name": "System"
  },
  "isDefaultSkin": false,
  "kiosk": {
    "font_name": "None"
  },
  "kuid": "se24ddb2d1484c0890b53617d6cb6f5d",
  "spaan": {
    "bottom_left_border_color": "979797ff",
    "bottom_left_border_style": "plain",
    "bottom_left_border_width": "0",
    "bottom_right_border_color": "979797ff",
    "bottom_right_border_style": "plain",
    "bottom_right_border_width": "0",
    "font_name": "Helvetica",
    "isForked": true,
    "top_left_border_color": "979797ff",
    "top_left_border_style": "plain",
    "top_left_border_width": 1,
    "top_right_border_color": "979797ff",
    "top_right_border_style": "plain",
    "top_right_border_width": "0"
  },
  "spaandroidtablet": {
    "bottom_left_border_color": "979797ff",
    "bottom_left_border_style": "plain",
    "bottom_left_border_width": "0",
    "bottom_right_border_color": "979797ff",
    "bottom_right_border_style": "plain",
    "bottom_right_border_width": "0",
    "font_name": "Helvetica",
    "isForked": true,
    "top_left_border_color": "979797ff",
    "top_left_border_style": "plain",
    "top_left_border_width": 1,
    "top_right_border_color": "979797ff",
    "top_right_border_style": "plain",
    "top_right_border_width": "0"
  },
  "spaip": {
    "bottom_left_border_color": "979797ff",
    "bottom_left_border_style": "plain",
    "bottom_left_border_width": "0",
    "bottom_right_border_color": "979797ff",
    "bottom_right_border_style": "plain",
    "bottom_right_border_width": "0",
    "font_name": "Helvetica",
    "isForked": true,
    "top_left_border_color": "979797ff",
    "top_left_border_style": "plain",
    "top_left_border_width": 1,
    "top_right_border_color": "979797ff",
    "top_right_border_style": "plain",
    "top_right_border_width": "0"
  },
  "spaipad": {
    "bottom_left_border_color": "979797ff",
    "bottom_left_border_style": "plain",
    "bottom_left_border_width": "0",
    "bottom_right_border_color": "979797ff",
    "bottom_right_border_style": "plain",
    "bottom_right_border_width": "0",
    "font_name": "Helvetica",
    "isForked": true,
    "top_left_border_color": "979797ff",
    "top_left_border_style": "plain",
    "top_left_border_width": 1,
    "top_right_border_color": "979797ff",
    "top_right_border_style": "plain",
    "top_right_border_width": "0"
  },
  "spawindowstablet": {
    "bottom_left_border_color": "979797ff",
    "bottom_left_border_style": "plain",
    "bottom_left_border_width": "0",
    "bottom_right_border_color": "979797ff",
    "bottom_right_border_style": "plain",
    "bottom_right_border_width": "0",
    "font_name": "Helvetica",
    "isForked": true,
    "top_left_border_color": "979797ff",
    "top_left_border_style": "plain",
    "top_left_border_width": 1,
    "top_right_border_color": "979797ff",
    "top_right_border_style": "plain",
    "top_right_border_width": "0"
  },
  "spawinphone8": {
    "bottom_left_border_color": "979797ff",
    "bottom_left_border_style": "plain",
    "bottom_left_border_width": "0",
    "bottom_right_border_color": "979797ff",
    "bottom_right_border_style": "plain",
    "bottom_right_border_width": "0",
    "font_name": "Helvetica",
    "isForked": true,
    "top_left_border_color": "979797ff",
    "top_left_border_style": "plain",
    "top_left_border_width": 1,
    "top_right_border_color": "979797ff",
    "top_right_border_style": "plain",
    "top_right_border_width": "0"
  },
  "tabrcandroid": {
    "font_name": "default"
  },
  "wType": "FlexContainer",
  "watchos": {
    "font_name": "System"
  },
  "windows8": {
    "font_name": "None"
  },
  "winphone8": {
    "font_name": "None"
  }
}