{
  "android": {
    "background_color": "ffffffe5",
    "bg_type": "one",
    "font_name": "default",
    "isForked": true
  },
  "androidwearos": {
    "background_color": "ffffffe5",
    "bg_type": "one",
    "font_name": "default",
    "isForked": true
  },
  "background_color": "00000000",
  "bg_type": "one",
  "border_color": "000000ff",
  "border_style": "plain",
  "border_type": 0,
  "border_width": 0,
  "desktopweb": {
    "background_color": "ffffffe5",
    "bg_type": "one",
    "border_type": 0,
    "bottom_left_border_color": "dcd5ffff",
    "bottom_left_border_style": "plain",
    "bottom_left_border_width": "1",
    "bottom_right_border_color": "dcd5ffff",
    "bottom_right_border_style": "plain",
    "bottom_right_border_width": "1",
    "font_name": "Helvetica",
    "isForked": true,
    "top_left_border_color": "dcd5ffff",
    "top_left_border_style": "plain",
    "top_left_border_width": "1",
    "top_right_border_color": "dcd5ffff",
    "top_right_border_style": "plain",
    "top_right_border_width": "1"
  },
  "ipad": {
    "background_color": "ffffffe5",
    "bg_type": "one",
    "font_name": "System",
    "isForked": true
  },
  "iphone": {
    "background_color": "ffffffe5",
    "bg_type": "one",
    "font_name": "System",
    "isForked": true
  },
  "isDefaultSkin": false,
  "kiosk": {
    "background_color": "ffffffe5",
    "bg_type": "one",
    "font_name": "None",
    "isForked": true
  },
  "kuid": "sc2aa6db3e6e4c6180cb485020c304a2",
  "spaan": {
    "background_color": "ffffffe5",
    "bg_type": "one",
    "border_type": 0,
    "bottom_left_border_color": "dcd5ffff",
    "bottom_left_border_style": "plain",
    "bottom_left_border_width": "1",
    "bottom_right_border_color": "dcd5ffff",
    "bottom_right_border_style": "plain",
    "bottom_right_border_width": "1",
    "font_name": "Helvetica",
    "isForked": true,
    "top_left_border_color": "dcd5ffff",
    "top_left_border_style": "plain",
    "top_left_border_width": "1",
    "top_right_border_color": "dcd5ffff",
    "top_right_border_style": "plain",
    "top_right_border_width": "1"
  },
  "spaandroidtablet": {
    "background_color": "ffffffe5",
    "bg_type": "one",
    "border_type": 0,
    "bottom_left_border_color": "dcd5ffff",
    "bottom_left_border_style": "plain",
    "bottom_left_border_width": "1",
    "bottom_right_border_color": "dcd5ffff",
    "bottom_right_border_style": "plain",
    "bottom_right_border_width": "1",
    "font_name": "Helvetica",
    "isForked": true,
    "top_left_border_color": "dcd5ffff",
    "top_left_border_style": "plain",
    "top_left_border_width": "1",
    "top_right_border_color": "dcd5ffff",
    "top_right_border_style": "plain",
    "top_right_border_width": "1"
  },
  "spaip": {
    "background_color": "ffffffe5",
    "bg_type": "one",
    "border_type": 0,
    "bottom_left_border_color": "dcd5ffff",
    "bottom_left_border_style": "plain",
    "bottom_left_border_width": "1",
    "bottom_right_border_color": "dcd5ffff",
    "bottom_right_border_style": "plain",
    "bottom_right_border_width": "1",
    "font_name": "Helvetica",
    "isForked": true,
    "top_left_border_color": "dcd5ffff",
    "top_left_border_style": "plain",
    "top_left_border_width": "1",
    "top_right_border_color": "dcd5ffff",
    "top_right_border_style": "plain",
    "top_right_border_width": "1"
  },
  "spaipad": {
    "background_color": "ffffffe5",
    "bg_type": "one",
    "border_type": 0,
    "bottom_left_border_color": "dcd5ffff",
    "bottom_left_border_style": "plain",
    "bottom_left_border_width": "1",
    "bottom_right_border_color": "dcd5ffff",
    "bottom_right_border_style": "plain",
    "bottom_right_border_width": "1",
    "font_name": "Helvetica",
    "isForked": true,
    "top_left_border_color": "dcd5ffff",
    "top_left_border_style": "plain",
    "top_left_border_width": "1",
    "top_right_border_color": "dcd5ffff",
    "top_right_border_style": "plain",
    "top_right_border_width": "1"
  },
  "spawindowstablet": {
    "background_color": "ffffffe5",
    "bg_type": "one",
    "border_type": 0,
    "bottom_left_border_color": "dcd5ffff",
    "bottom_left_border_style": "plain",
    "bottom_left_border_width": "1",
    "bottom_right_border_color": "dcd5ffff",
    "bottom_right_border_style": "plain",
    "bottom_right_border_width": "1",
    "font_name": "Helvetica",
    "isForked": true,
    "top_left_border_color": "dcd5ffff",
    "top_left_border_style": "plain",
    "top_left_border_width": "1",
    "top_right_border_color": "dcd5ffff",
    "top_right_border_style": "plain",
    "top_right_border_width": "1"
  },
  "spawinphone8": {
    "background_color": "ffffffe5",
    "bg_type": "one",
    "border_type": 0,
    "bottom_left_border_color": "dcd5ffff",
    "bottom_left_border_style": "plain",
    "bottom_left_border_width": "1",
    "bottom_right_border_color": "dcd5ffff",
    "bottom_right_border_style": "plain",
    "bottom_right_border_width": "1",
    "font_name": "Helvetica",
    "isForked": true,
    "top_left_border_color": "dcd5ffff",
    "top_left_border_style": "plain",
    "top_left_border_width": "1",
    "top_right_border_color": "dcd5ffff",
    "top_right_border_style": "plain",
    "top_right_border_width": "1"
  },
  "tabrcandroid": {
    "background_color": "ffffffe5",
    "bg_type": "one",
    "font_name": "default",
    "isForked": true
  },
  "wType": "FlexContainer",
  "watchos": {
    "font_name": "System"
  },
  "windows8": {
    "background_color": "ffffffe5",
    "bg_type": "one",
    "font_name": "None",
    "isForked": true
  },
  "winphone8": {
    "background_color": "ffffffe5",
    "bg_type": "one",
    "font_name": "None",
    "isForked": true
  }
}