{
  "android": {
    "background_color": "94019400",
    "bg_type": "one",
    "font_color": "000000ff",
    "font_name": "default",
    "font_size": 56,
    "font_weight": "normal",
    "isForked": true,
    "text_shadow": {
      "br": 0,
      "color": "000000",
      "nm": 0,
      "x": 0,
      "y": 0
    }
  },
  "androidwearos": {
    "background_color": "94019400",
    "bg_type": "one",
    "font_color": "000000ff",
    "font_name": "default",
    "font_size": 71,
    "font_weight": "normal",
    "isForked": true
  },
  "background_color": "00000000",
  "bg_type": "one",
  "border_color": "424242ff",
  "border_style": "plain",
  "border_type": 0,
  "border_width": 0,
  "desktopweb": {
    "background_color": "94019400",
    "bg_type": "one",
    "font_color": "000000ff",
    "font_name": "Roboto-Medium",
    "font_size": 125,
    "font_weight": "normal",
    "isForked": true,
    "shadow": {
      "br": 0,
      "color": "000000",
      "inner": false,
      "nm": 0,
      "x": 0,
      "y": 0
    },
    "text_shadow": {
      "br": 0,
      "color": "000000",
      "nm": 0,
      "x": 0,
      "y": 0
    }
  },
  "fontSizeInPx": true,
  "font_color": "000000ff",
  "font_name": "Helvetica",
  "font_size": 160,
  "font_style": "normal",
  "font_weight": "normal",
  "ipad": {
    "background_color": "94019400",
    "bg_type": "one",
    "font_color": "000000ff",
    "font_name": "System-Bold",
    "font_size": 71,
    "isForked": true,
    "shadow": {
      "br": 0,
      "color": "000000",
      "inner": false,
      "nm": 0,
      "x": 0,
      "y": 0
    },
    "text_shadow": {
      "br": 0,
      "color": "000000",
      "nm": 0,
      "x": 0,
      "y": 0
    }
  },
  "iphone": {
    "background_color": "94019400",
    "bg_type": "one",
    "font_color": "000000ff",
    "font_name": "System-Bold",
    "font_size": 69,
    "isForked": true,
    "shadow": {
      "br": 0,
      "color": "000000",
      "inner": false,
      "nm": 0,
      "x": 0,
      "y": 0
    },
    "text_shadow": {
      "br": 0,
      "color": "000000",
      "nm": 0,
      "x": 0,
      "y": 0
    }
  },
  "isDefaultSkin": false,
  "kiosk": {
    "background_color": "94019400",
    "bg_type": "one",
    "font_color": "000000ff",
    "font_name": "SourceSansPro-SemiBold",
    "font_size": 125,
    "font_weight": "normal",
    "isForked": true
  },
  "kuid": "s1cf27a7aae24d84a8b7dba4dccede71",
  "spaan": {
    "background_color": "94019400",
    "bg_type": "one",
    "font_color": "000000ff",
    "font_name": "Helvetica",
    "font_size": 133,
    "font_weight": "normal",
    "isForked": true,
    "shadow": {
      "br": 0,
      "color": "000000",
      "inner": false,
      "nm": 0,
      "x": 0,
      "y": 0
    },
    "text_shadow": {
      "br": 0,
      "color": "000000",
      "nm": 0,
      "x": 0,
      "y": 0
    }
  },
  "spaandroidtablet": {
    "background_color": "94019400",
    "bg_type": "one",
    "font_color": "000000ff",
    "font_name": "Helvetica",
    "font_size": 111,
    "font_weight": "normal",
    "isForked": true,
    "shadow": {
      "br": 0,
      "color": "000000",
      "inner": false,
      "nm": 0,
      "x": 0,
      "y": 0
    },
    "text_shadow": {
      "br": 0,
      "color": "000000",
      "nm": 0,
      "x": 0,
      "y": 0
    }
  },
  "spaip": {
    "background_color": "94019400",
    "bg_type": "one",
    "font_color": "000000ff",
    "font_name": "Helvetica",
    "font_size": 129,
    "font_weight": "normal",
    "isForked": true,
    "shadow": {
      "br": 0,
      "color": "000000",
      "inner": false,
      "nm": 0,
      "x": 0,
      "y": 0
    },
    "text_shadow": {
      "br": 0,
      "color": "000000",
      "nm": 0,
      "x": 0,
      "y": 0
    }
  },
  "spaipad": {
    "background_color": "94019400",
    "bg_type": "one",
    "font_color": "000000ff",
    "font_name": "Helvetica",
    "font_size": 118,
    "font_weight": "normal",
    "isForked": true,
    "shadow": {
      "br": 0,
      "color": "000000",
      "inner": false,
      "nm": 0,
      "x": 0,
      "y": 0
    },
    "text_shadow": {
      "br": 0,
      "color": "000000",
      "nm": 0,
      "x": 0,
      "y": 0
    }
  },
  "spawindowstablet": {
    "background_color": "94019400",
    "bg_type": "one",
    "font_color": "000000ff",
    "font_name": "Helvetica",
    "font_size": 118,
    "font_weight": "normal",
    "isForked": true,
    "shadow": {
      "br": 0,
      "color": "000000",
      "inner": false,
      "nm": 0,
      "x": 0,
      "y": 0
    },
    "text_shadow": {
      "br": 0,
      "color": "000000",
      "nm": 0,
      "x": 0,
      "y": 0
    }
  },
  "spawinphone8": {
    "background_color": "94019400",
    "bg_type": "one",
    "font_color": "000000ff",
    "font_name": "Helvetica",
    "font_size": 167,
    "font_weight": "normal",
    "isForked": true,
    "shadow": {
      "br": 0,
      "color": "000000",
      "inner": false,
      "nm": 0,
      "x": 0,
      "y": 0
    },
    "text_shadow": {
      "br": 0,
      "color": "000000",
      "nm": 0,
      "x": 0,
      "y": 0
    }
  },
  "tabrcandroid": {
    "background_color": "94019400",
    "bg_type": "one",
    "font_color": "000000ff",
    "font_name": "default",
    "font_size": 119,
    "font_weight": "normal",
    "isForked": true,
    "text_shadow": {
      "br": 0,
      "color": "000000",
      "nm": 0,
      "x": 0,
      "y": 0
    }
  },
  "wType": "Label",
  "watchos": {
    "font_color": "000000ff",
    "font_name": "System",
    "font_size": 71,
    "font_weight": "normal",
    "isForked": true
  },
  "windows8": {
    "background_color": "94019400",
    "bg_type": "one",
    "font_color": "000000ff",
    "font_name": "SourceSansPro-SemiBold",
    "font_size": 49,
    "font_weight": "normal",
    "isForked": true
  },
  "winphone8": {
    "background_color": "94019400",
    "bg_type": "one",
    "font_color": "000000ff",
    "font_name": "SourceSansPro-SemiBold",
    "font_size": 67,
    "font_weight": "normal",
    "isForked": true
  }
}