{
  "android": {
    "font_name": "default",
    "font_size": 44,
    "isForked": false
  },
  "androidwearos": {
    "font_name": "default",
    "font_size": 57,
    "isForked": false
  },
  "background_color": "00000000",
  "bg_type": "one",
  "border_color": "424242ff",
  "border_style": "plain",
  "border_type": 0,
  "border_width": 0,
  "desktopweb": {
    "font_name": "Roboto-Regular",
    "font_size": 100,
    "isForked": false
  },
  "fontSizeInPx": true,
  "font_color": "434343ff",
  "font_name": "iphoneSystem",
  "font_size": 100,
  "font_style": "normal",
  "font_weight": "normal",
  "ipad": {
    "font_name": "System",
    "font_size": 57,
    "isForked": false
  },
  "iphone": {
    "font_name": "System",
    "font_size": 55,
    "isForked": false
  },
  "isDefaultSkin": false,
  "kiosk": {
    "font_name": "None",
    "font_size": 100,
    "isForked": false
  },
  "kuid": "s17ac8edaa884db998089f9fed3f6d47",
  "spaan": {
    "font_name": "Helvetica",
    "font_size": 107,
    "isForked": false
  },
  "spaandroidtablet": {
    "font_name": "Helvetica",
    "font_size": 89,
    "isForked": false
  },
  "spaip": {
    "font_name": "Helvetica",
    "font_size": 103,
    "isForked": false
  },
  "spaipad": {
    "font_name": "Helvetica",
    "font_size": 94,
    "isForked": false
  },
  "spawindowstablet": {
    "font_name": "Helvetica",
    "font_size": 94,
    "isForked": false
  },
  "spawinphone8": {
    "font_name": "Helvetica",
    "font_size": 133,
    "isForked": false
  },
  "tabrcandroid": {
    "font_name": "default",
    "font_size": 95,
    "isForked": false
  },
  "wType": "Label",
  "watchos": {
    "font_name": "System",
    "font_size": 57,
    "isForked": false
  },
  "windows8": {
    "font_name": "None",
    "font_size": 39,
    "isForked": false
  },
  "winphone8": {
    "font_name": "None",
    "font_size": 53,
    "isForked": false
  }
}