{
  "android": {
    "font_name": "default",
    "font_size": 89,
    "isForked": false
  },
  "androidwearos": {
    "font_name": "default",
    "font_size": 114,
    "isForked": false
  },
  "background_color": "00000000",
  "bg_type": "one",
  "border_color": "424242ff",
  "border_style": "plain",
  "border_type": 0,
  "border_width": 0,
  "desktopweb": {
    "font_name": "Helvetica",
    "font_size": 200,
    "isForked": false
  },
  "fontSizeInPx": true,
  "font_color": "333333ff",
  "font_name": "iphoneSystem",
  "font_size": 200,
  "font_style": "normal",
  "font_weight": "normal",
  "ipad": {
    "font_name": "System",
    "font_size": 114,
    "isForked": false
  },
  "iphone": {
    "font_name": "System",
    "font_size": 110,
    "isForked": false
  },
  "isDefaultSkin": false,
  "kiosk": {
    "font_name": "None",
    "font_size": 200,
    "isForked": false
  },
  "kuid": "sb1b964de78c42e19ca17f1555ca5e93",
  "spaan": {
    "font_name": "Helvetica",
    "font_size": 213,
    "isForked": false
  },
  "spaandroidtablet": {
    "font_name": "Helvetica",
    "font_size": 178,
    "isForked": false
  },
  "spaip": {
    "font_name": "Helvetica",
    "font_size": 206,
    "isForked": false
  },
  "spaipad": {
    "font_name": "Helvetica",
    "font_size": 188,
    "isForked": false
  },
  "spawindowstablet": {
    "font_name": "Helvetica",
    "font_size": 188,
    "isForked": false
  },
  "spawinphone8": {
    "font_name": "Helvetica",
    "font_size": 267,
    "isForked": false
  },
  "tabrcandroid": {
    "font_name": "default",
    "font_size": 190,
    "isForked": false
  },
  "wType": "Label",
  "watchos": {
    "font_name": "System",
    "font_size": 114,
    "isForked": false
  },
  "windows8": {
    "font_name": "None",
    "font_size": 78,
    "isForked": false
  },
  "winphone8": {
    "font_name": "None",
    "font_size": 107,
    "isForked": false
  }
}