{
    "@class": "com.kony.gen.viz.model.component.KVizButton",
    "DNDConfig": null,
    "_height_": {
        "type": "string",
        "value": "50dp"
    },
    "_left_": {
        "type": "string",
        "value": ""
    },
    "_margin_": [
        6,
        6,
        6,
        6
    ],
    "_padding_": [
        0,
        0,
        0,
        0
    ],
    "_right_": {
        "type": "string",
        "value": "40dp"
    },
    "_skin_": "se70c04c9f2c4eed9c7017e77a060c0e",
    "_text_": "Logout",
    "_top_": {
        "type": "string",
        "value": "28dp"
    },
    "_width_": {
        "type": "string",
        "value": "120dp"
    },
    "canUpdateUI": true,
    "containerweight": 100,
    "contentalignment": 5,
    "disabledSkins": {
        "focusSkin": "sb69968d4b37424bb69c3e21ab36f009"
    },
    "displaytext": true,
    "focusskin": "sb47e4be03c74bcc8599b34b76f24950",
    "id": "btnLogin",
    "ide_onClick": "AS_Button_f7d6636ce9024e80972538ae6063f036",
    "info": null,
    "iscustomlayout": false,
    "isvisible": true,
    "kuid": "h3d62dc649b247dd96cd1ff06d1c0713",
    "name": "kony.ui.Button",
    "parent": "flxheader",
    "pf": "frmDashboardLending",
    "responsiveData": {
        "b1": {
            "focusSkin": "sb69968d4b37424bb69c3e21ab36f009",
            "height": {
                "type": "string",
                "value": "40dp"
            },
            "skin": "s59f06fd41d94e7da6e2f6b8fd9e8307"
        }
    },
    "retaincontentalignment": false,
    "retainflexpositionproperties": false,
    "wType": "Button",
    "zindex": 1
}