{
    "@class": "com.kony.gen.viz.model.component.KVizButton",
    "DNDConfig": null,
    "_height_": {
        "type": "string",
        "value": "30dp"
    },
    "_margin_": [
        6,
        6,
        6,
        6
    ],
    "_padding_": [
        0,
        0,
        0,
        0
    ],
    "_right_": {
        "type": "string",
        "value": "45dp"
    },
    "_skin_": "s07b82a7625349c08bf2870c9ec9a905",
    "_text_": "O",
    "_top_": {
        "type": "string",
        "value": "5dp"
    },
    "_width_": {
        "type": "number",
        "value": "30"
    },
    "canUpdateUI": true,
    "containerweight": 100,
    "contentalignment": 5,
    "disabledSkins": {
        "focusSkin": "sb47e4be03c74bcc8599b34b76f24950"
    },
    "displaytext": true,
    "id": "btnPrevLoan",
    "info": null,
    "iscustomlayout": false,
    "isvisible": true,
    "kuid": "e4be53c6b65a49fb8596c8bc1cf02e25",
    "name": "kony.ui.Button",
    "parent": "flxPaginationLoan",
    "pf": "frmDashboardLending",
    "retaincontentalignment": false,
    "retainflexpositionproperties": false,
    "wType": "Button",
    "zindex": 1
}