{
    "DNDConfig": null,
    "_height_": {
        "type": "string",
        "value": "1030dp"
    },
    "_left_": {
        "type": "string",
        "value": "1%"
    },
    "_margin_": [
        0,
        0,
        0,
        0
    ],
    "_orientation_": 6,
    "_padding_": [
        0,
        0,
        0,
        0
    ],
    "_percent_": true,
    "_skin_": "se31956b9efb4cdeb803f81ffb1335e2",
    "_top_": {
        "type": "string",
        "value": "0dp"
    },
    "_width_": {
        "type": "string",
        "value": "64%"
    },
    "allboxes": [],
    "autogrowmode": 0,
    "canUpdateUI": true,
    "children": [
        "lblClientActivities",
        "flxClientActivities",
        "lblLoansheading",
        "flxLoanMaturing7Days",
        "FlxInfo"
    ],
    "clipbounds": false,
    "containerweight": 100,
    "enablescrolling": true,
    "id": "flxCenterActivities",
    "info": null,
    "iscustomlayout": false,
    "isvisible": true,
    "kuid": "b86a8ece45a44e4896bdf65bea5373f4",
    "layouttype": 4,
    "name": "kony.ui.FlexContainer",
    "parent": "flxmain",
    "pf": "frmDashboardLending",
    "retaincontentalignment": false,
    "retainflexpositionproperties": false,
    "retainflowhorizontalalignment": false,
    "snapgridsize": 10,
    "snaptogrid": true,
    "wType": "FlexContainer",
    "widgetalignment": 1
}