{
    "DNDConfig": null,
    "_height_": {
        "type": "string",
        "value": "50px"
    },
    "_left_": {
        "type": "string",
        "value": "17dp"
    },
    "_margin_": [
        0,
        0,
        0,
        0
    ],
    "_orientation_": 6,
    "_padding_": [
        0,
        0,
        0,
        0
    ],
    "_percent_": true,
    "_skin_": "s3810afdc1304c679cfa4f593c7fce66",
    "_top_": {
        "type": "string",
        "value": "10dp"
    },
    "_width_": {
        "type": "string",
        "value": "95%"
    },
    "allboxes": [],
    "autogrowmode": 0,
    "canUpdateUI": true,
    "children": [
        "btnPending",
        "lblPendingCnt",
        "btnNew",
        "lblNewCnt",
        "lblNew",
        "btnCompleted",
        "lblCompletedcnt",
        "btnCancel",
        "lblCanelCnt",
        "btnAll",
        "lblall",
        "flxseparatotline",
        "flxselected"
    ],
    "clipbounds": true,
    "containerweight": 100,
    "enablescrolling": true,
    "id": "flxCntnr6",
    "info": null,
    "iscustomlayout": false,
    "isvisible": true,
    "kuid": "c4e58a06b33443fe9aa96beda98ff43c",
    "layouttype": 2,
    "name": "kony.ui.FlexContainer",
    "parent": "flxClientActivities",
    "pf": "frmDashboardLending",
    "retaincontentalignment": false,
    "retainflexpositionproperties": false,
    "retainflowhorizontalalignment": false,
    "snapgridsize": 10,
    "snaptogrid": true,
    "wType": "FlexContainer",
    "widgetalignment": 1,
    "zindex": 1
}