{
    "DNDConfig": null,
    "_height_": {
        "type": "string",
        "value": "500dp"
    },
    "_margin_": [
        0,
        0,
        0,
        0
    ],
    "_orientation_": 6,
    "_padding_": [
        0,
        0,
        0,
        0
    ],
    "_percent_": true,
    "_skin_": "sb3f67de93a645198f1135a437c4774d",
    "_width_": {
        "type": "string",
        "value": "72%"
    },
    "allboxes": [],
    "autogrowmode": 0,
    "canUpdateUI": true,
    "centerx": {
        "type": "string",
        "value": "50%"
    },
    "centery": {
        "type": "string",
        "value": "50%"
    },
    "children": [
        "flxHeaderInfo",
        "flxGraphPopup",
        "flxOutstandingError"
    ],
    "clipbounds": true,
    "containerweight": 100,
    "enablescrolling": true,
    "id": "flxInnerGraph",
    "info": null,
    "iscustomlayout": false,
    "isvisible": true,
    "kuid": "a0dce7678b754a46b11a963254d62907",
    "layouttype": 2,
    "name": "kony.ui.FlexContainer",
    "parent": "flxGraphwrapper",
    "pf": "frmDashboardLending",
    "retaincontentalignment": false,
    "retainflexpositionproperties": false,
    "retainflowhorizontalalignment": false,
    "snapgridsize": 10,
    "snaptogrid": true,
    "wType": "FlexContainer",
    "widgetalignment": 1,
    "zindex": 1
}