{
    "DNDConfig": null,
    "_height_": {
        "type": "string",
        "value": "320dp"
    },
    "_left_": {
        "type": "string",
        "value": "0"
    },
    "_margin_": [
        0,
        0,
        0,
        0
    ],
    "_orientation_": 6,
    "_padding_": [
        0,
        0,
        0,
        0
    ],
    "_percent_": true,
    "_skin_": "s94c213359384cff954d64fb6fbeb90e",
    "_top_": {
        "type": "number",
        "value": "20"
    },
    "_width_": {
        "type": "string",
        "value": "100%"
    },
    "allboxes": [],
    "autogrowmode": 0,
    "canUpdateUI": true,
    "children": [
        "flxLoanHead",
        "flxborder5",
        "segLoan7Days",
        "lblNoRecords1",
        "flxPaginationLoan"
    ],
    "clipbounds": true,
    "containerweight": 100,
    "enablescrolling": true,
    "id": "flxLoanMaturing7Days",
    "info": null,
    "iscustomlayout": false,
    "isvisible": true,
    "kuid": "b72ddc96da6b4d0cb85368a8d0916fe3",
    "layouttype": 4,
    "name": "kony.ui.FlexContainer",
    "parent": "flxCenterActivities",
    "pf": "frmDashboardLending",
    "retaincontentalignment": false,
    "retainflexpositionproperties": false,
    "retainflowhorizontalalignment": false,
    "snapgridsize": 10,
    "snaptogrid": true,
    "wType": "FlexContainer",
    "widgetalignment": 1
}