{
    "DNDConfig": null,
    "_height_": {
        "type": "string",
        "value": "1000dp"
    },
    "_margin_": [
        0,
        0,
        0,
        0
    ],
    "_orientation_": 6,
    "_padding_": [
        0,
        0,
        0,
        0
    ],
    "_percent_": true,
    "_right_": {
        "type": "string",
        "value": "14px"
    },
    "_skin_": "se31956b9efb4cdeb803f81ffb1335e2",
    "_top_": {
        "type": "string",
        "value": "20dp"
    },
    "_width_": {
        "type": "string",
        "value": "94%"
    },
    "allboxes": [],
    "autogrowmode": 0,
    "canUpdateUI": true,
    "children": [
        "flxLeftMenu",
        "flxCenterActivities",
        "flxRightGraphs"
    ],
    "clipbounds": false,
    "containerweight": 100,
    "enablescrolling": true,
    "id": "flxmain",
    "info": null,
    "iscustomlayout": false,
    "isvisible": true,
    "kuid": "c7f28f63da234b538fbc791b4a7bb63d",
    "layouttype": 3,
    "name": "kony.ui.FlexContainer",
    "parent": "flxWrapper",
    "pf": "frmDashboardLending",
    "retaincontentalignment": false,
    "retainflexpositionproperties": false,
    "retainflowhorizontalalignment": false,
    "snapgridsize": 10,
    "snaptogrid": true,
    "wType": "FlexContainer",
    "widgetalignment": 1
}