{
    "@class": "com.kony.gen.viz.model.component.KVizUserWidget",
    "DNDConfig": null,
    "_children_": [],
    "_height_": {
        "type": "string",
        "value": "100%"
    },
    "_left_": {
        "type": "string",
        "value": "0dp"
    },
    "_margin_": [
        0,
        0,
        0,
        0
    ],
    "_orientation_": 1,
    "_padding_": [
        0,
        0,
        0,
        0
    ],
    "_percent_": true,
    "_skin_": "s1fbee0079be4b289a93edf917d3e8d0",
    "_top_": {
        "type": "string",
        "value": "0dp"
    },
    "_width_": {
        "type": "string",
        "value": "100%"
    },
    "areflexpropsreferenced": false,
    "autogrowmode": 0,
    "canUpdateUI": true,
    "clipbounds": true,
    "containerweight": 0,
    "dataDiffs": {
        "Button0jc4a46cb137845": {
            "__events__": {},
            "__info__": {
                "kuid": "afc80407c556495aa8852c62346b5a88",
                "srcKUID": "id83e22cb19b464dbbe246817b1fd13e",
                "wType": "Button"
            }
        },
        "Image0ca71114746d849": {
            "__events__": {},
            "__info__": {
                "kuid": "j6e46c3e2f41476ea1de6d5d956b8b3e",
                "srcKUID": "c5b33abae70e4b0abfed5c57c2dd10f1",
                "wType": "Image"
            }
        },
        "brw": {
            "__events__": {},
            "__info__": {
                "kuid": "a84885378e134bbcaadeb2dc9565c160",
                "srcKUID": "c91036e5762e47bbb2d3b83e0fba079d",
                "wType": "Browser"
            }
        },
        "btnExplorer": {
            "__events__": {},
            "__info__": {
                "kuid": "ad0db6feb2404fc6813147e45adaa56d",
                "srcKUID": "jd3f05b1a56d4d329f08f67062731f3b",
                "wType": "Button"
            }
        },
        "cusBackIcon": {
            "__events__": {},
            "__info__": {
                "kuid": "f2f78932293b4a3b8fd35bd620744232",
                "srcKUID": "a4e351b95bee4aabb64a9e262d58a4a0",
                "wType": "Label"
            }
        },
        "flx1": {
            "__events__": {},
            "__info__": {
                "kuid": "i15e854a0b4940ff95f38e8477d2a624",
                "srcKUID": "a3d178333fbc4d88aad5d75a03269b09",
                "wType": "FlexContainer"
            }
        },
        "flx2": {
            "__events__": {},
            "__info__": {
                "kuid": "bfcd7444119945d89053c36b2d5d3018",
                "srcKUID": "c649d1e43ec6432eb71cc7f31acbbcdf",
                "wType": "FlexContainer"
            }
        },
        "flx3": {
            "__events__": {},
            "__info__": {
                "kuid": "c8e6c3b4643b47419e8cd63f468ab519",
                "srcKUID": "ae5807e3252f40fcac0f2d0775607a20",
                "wType": "FlexContainer"
            }
        },
        "flxBack": {
            "__events__": {},
            "__info__": {
                "kuid": "id2a7bb9521d43bcac3409fc24e70b97",
                "srcKUID": "i1393f4fdfb44d5c99e9fa7c19d3e4a4",
                "wType": "FlexContainer"
            }
        },
        "flxBck": {
            "__events__": {},
            "__info__": {
                "kuid": "e317d8fe0e5b4d36a4fc122ae770eb2c",
                "srcKUID": "adc399f92cd2468585c9d362a1cf8210",
                "wType": "FlexContainer"
            }
        },
        "flxBreadcrum": {
            "__events__": {},
            "__info__": {
                "kuid": "c2efd78f95c945448a5cfceb3d25fd5d",
                "srcKUID": "bb111a40d0614715a20587a0d66e0aaf",
                "wType": "FlexContainer"
            }
        },
        "flxClose": {
            "__events__": {},
            "__info__": {
                "kuid": "j8485898b7334c46af9d8e327e5d5fb6",
                "srcKUID": "fdf6dc091a684181bc0a721caadfaced",
                "wType": "FlexContainer"
            }
        },
        "flxMain": {
            "__events__": {},
            "__info__": {
                "kuid": "bbb3670cdd4848db895b33073e3078f8",
                "srcKUID": "e92c5d911f2f471784e33e7a8b487ecc",
                "wType": "FlexContainer"
            }
        },
        "flxOptions": {
            "__events__": {},
            "__info__": {
                "kuid": "i4f070e3cb1b4d6c990b5080efbfcb8d",
                "srcKUID": "daf6903e59874ee4a51347fea69f9e9e",
                "wType": "FlexContainer"
            }
        },
        "flxOptions2": {
            "__events__": {},
            "__info__": {
                "kuid": "ce4fe95af3724e7386b2f5c57a843c35",
                "srcKUID": "eed4fbd758cb4e35a66c45e02cf1cae9",
                "wType": "FlexContainer"
            }
        },
        "flxTop": {
            "__events__": {},
            "__info__": {
                "kuid": "ifdf217ff3194addb66543762aab032c",
                "srcKUID": "fc4d572cc32f4b3787673b7aac443a10",
                "wType": "FlexContainer"
            }
        },
        "flxVideo": {
            "__events__": {},
            "__info__": {
                "kuid": "f63f740d08774f18b9e5b4345b98dfa1",
                "srcKUID": "b4cfb6f8414743fbba4ee5f298d08be7",
                "wType": "FlexContainer"
            }
        },
        "helpCenter": {
            "__events__": {},
            "__info__": {
                "isRoot": true,
                "kuid": "a1f7efc0413746caabab509e2be977f1",
                "srcKUID": "g0daaef3cdc641a99922b74b1a906c2c",
                "wType": "FlexContainer"
            },
            "isVisible": false,
            "responsiveData": {}
        },
        "lbl1": {
            "__events__": {},
            "__info__": {
                "kuid": "j2d974599b2d429eb43c1ca03148dce5",
                "srcKUID": "d63debdfdb1b4d678778a51ea1720608",
                "wType": "Label"
            }
        },
        "lbl2": {
            "__events__": {},
            "__info__": {
                "kuid": "ad413f6bb37841e9a268ff70a69188c2",
                "srcKUID": "i5702936db274047b2023cd91e6698cd",
                "wType": "Label"
            }
        },
        "lbl3": {
            "__events__": {},
            "__info__": {
                "kuid": "he3a5a81195f4417bdf2fbfb2886343f",
                "srcKUID": "g22a31a6563247febef25052edfd6b9f",
                "wType": "Label"
            }
        },
        "lbl4": {
            "__events__": {},
            "__info__": {
                "kuid": "ifbc3a3528214360a73f395872e60dfa",
                "srcKUID": "i58596cb19974954b7e77bc91239b932",
                "wType": "Label"
            }
        },
        "lbl5": {
            "__events__": {},
            "__info__": {
                "kuid": "ede24562fd5d4f13bdc2fad1a7958b61",
                "srcKUID": "de6b8b1abcb54cbd9194a1238e3c2ace",
                "wType": "Label"
            }
        },
        "lbl6": {
            "__events__": {},
            "__info__": {
                "kuid": "c6b5dca9dc6c442ca7829a47594d686f",
                "srcKUID": "a170062307614da1bdd491f8a266e43d",
                "wType": "Label"
            }
        },
        "lblBreadBoardSplashValue1": {
            "__events__": {},
            "__info__": {
                "kuid": "af3a3d6334ef4ce4b5ba2cfe8d6f298f",
                "srcKUID": "c3b481c2df634f318be3a91c3452db1d",
                "wType": "Label"
            }
        },
        "lblCLose": {
            "__events__": {},
            "__info__": {
                "kuid": "bc707309099d4fed8b5c817dbb2688e6",
                "srcKUID": "b49d9fb403324888bac8527a22725f26",
                "wType": "Label"
            }
        },
        "lblDesc": {
            "__events__": {},
            "__info__": {
                "kuid": "cefc17199c9949d99a413964ec60c4c3",
                "srcKUID": "a3efd7834bcc426d86cd45f3af7f0ee4",
                "wType": "Label"
            }
        },
        "lblPath": {
            "__events__": {},
            "__info__": {
                "kuid": "b471bc24f84a4e219e0b2098eaa5e3a0",
                "srcKUID": "f86337bc2eaf4754a9ddd1980daf553d",
                "wType": "Label"
            }
        },
        "lblQues": {
            "__events__": {},
            "__info__": {
                "kuid": "f8c71de14eae4044a9408d3ee127d367",
                "srcKUID": "ga5cd4889b3c4834978c8df01ab7c59f",
                "wType": "Label"
            }
        },
        "lblSelected": {
            "__events__": {},
            "__info__": {
                "kuid": "f70ee8a3b968449d881767b9f685d634",
                "srcKUID": "hd5d508e2e47404ca56f75b528e9db98",
                "wType": "Label"
            }
        },
        "lblThumbnailDesc": {
            "__events__": {},
            "__info__": {
                "kuid": "f4cfa4d305104ce39d764e3b9503b57a",
                "srcKUID": "b8d6fb6f3a054b398bdcb459aa4948b1",
                "wType": "Label"
            }
        },
        "rtxSelected": {
            "__events__": {},
            "__info__": {
                "kuid": "i4f2c24c82f24e8099e45c98307cd242",
                "srcKUID": "e0ea81da80be4698b7b68082daaa453a",
                "wType": "RichText"
            }
        }
    },
    "enablescrolling": true,
    "id": "helpCenter",
    "info": null,
    "iscustomlayout": false,
    "isdatareferenced": false,
    "isvisible": false,
    "kuid": "a1f7efc0413746caabab509e2be977f1",
    "layouttype": 2,
    "masterType": 0,
    "name": "kony.ui.UserWidgetInstance",
    "parent": "frmDashboardLending",
    "pf": "frmDashboardLending",
    "retaincontentalignment": false,
    "retainflexpositionproperties": false,
    "retainflowhorizontalalignment": false,
    "snapgridsize": 10,
    "snaptogrid": true,
    "sourceUserWidget": "g0daaef3cdc641a99922b74b1a906c2c",
    "wType": "UserWidgetInstance",
    "zindex": 10
}