{
    "@class": "com.kony.gen.viz.model.component.KVizUserWidget",
    "DNDConfig": null,
    "_children_": [],
    "_height_": {
        "type": "string",
        "value": "100%"
    },
    "_left_": {
        "type": "string",
        "value": "0dp"
    },
    "_margin_": [
        0,
        0,
        0,
        0
    ],
    "_orientation_": 1,
    "_padding_": [
        0,
        0,
        0,
        0
    ],
    "_percent_": true,
    "_skin_": "s4e043b98564449d8a4a73daad362f53",
    "_top_": {
        "type": "string",
        "value": "0dp"
    },
    "_width_": {
        "type": "string",
        "value": "100%"
    },
    "areflexpropsreferenced": false,
    "autogrowmode": 0,
    "canUpdateUI": true,
    "clipbounds": true,
    "containerweight": 0,
    "dataDiffs": {
        "CopyflxBck0c8bd2742893248": {
            "__events__": {},
            "__info__": {
                "kuid": "dc71c08baa4a445f9c5b9f6aa2038ed2",
                "srcKUID": "b16577411ad64ef0b69155d86f981147",
                "wType": "FlexContainer"
            }
        },
        "CopylblBack0j2de3a34459746": {
            "__events__": {},
            "__info__": {
                "kuid": "fd128c7fe7c14a1ca0653aed93c1ae84",
                "srcKUID": "hf555ed03dd84c5c8b001d806fabf496",
                "wType": "Label"
            }
        },
        "CopylblBackArrow0a405d8ec3e4d46": {
            "__events__": {},
            "__info__": {
                "kuid": "f918e363003d4bab885abc24e46a765a",
                "srcKUID": "c2729d6470df4bec9bb2f0566aaffa17",
                "wType": "Label"
            }
        },
        "FlexContainer0da2ffc32184b42": {
            "__events__": {},
            "__info__": {
                "kuid": "ef8bfbc188f3420d9795d7615c6737ab",
                "srcKUID": "h903dd1667de48baa27598a189677899",
                "wType": "FlexContainer"
            }
        },
        "FlexGroup0b337f90c7acb4e": {
            "__events__": {},
            "__info__": {
                "kuid": "i22d5640b41641608ae437d4f4a02908",
                "srcKUID": "fce876425ac54b2789772f60a15ba407",
                "wType": "FlexContainer"
            }
        },
        "Label0e9ea2d0c21b54f": {
            "__events__": {},
            "__info__": {
                "kuid": "b2c7ee5a9272447faae968e2eb1e002d",
                "srcKUID": "i1d367cc36854ce6951d66f4288b5992",
                "wType": "Label"
            }
        },
        "PlayCircleDark": {
            "__events__": {},
            "__info__": {
                "kuid": "c8bfa7571139496eba085465a32d7b0e",
                "srcKUID": "hbbef4873ddd4d2c845f4c02d70d9e63",
                "wType": "Label"
            }
        },
        "brw": {
            "__events__": {},
            "__info__": {
                "kuid": "b78666a21a4d4b53934fd4de7d7328c9",
                "srcKUID": "a71f40f28f42470baf7df31c0de8224f",
                "wType": "Browser"
            }
        },
        "btn1": {
            "__events__": {},
            "__info__": {
                "kuid": "j3485e8227624ef7b8b92b136827ccff",
                "srcKUID": "gf03b7ec227d4252a8f10adb8fc5a29e",
                "wType": "Button"
            }
        },
        "btn2": {
            "__events__": {},
            "__info__": {
                "kuid": "ebf1eb937e0b4350bd44ec8e3eeceabe",
                "srcKUID": "b93e1896a97e46d994a5dd2137e47642",
                "wType": "Button"
            }
        },
        "btn3": {
            "__events__": {},
            "__info__": {
                "kuid": "ee68ac362969434592e267f88742e4c8",
                "srcKUID": "g19387348c33490eb3a459606ac61572",
                "wType": "Button"
            }
        },
        "btn4": {
            "__events__": {},
            "__info__": {
                "kuid": "bc610b040c614520a730c7e3e98a476d",
                "srcKUID": "j7114c0fedba464eba63b5f0df2121e9",
                "wType": "Button"
            }
        },
        "btn5": {
            "__events__": {},
            "__info__": {
                "kuid": "e2ee1cdc6c854134aa65bb6d70156b4e",
                "srcKUID": "c1b425151e7c4005be4f6b1b2e6665d1",
                "wType": "Button"
            }
        },
        "btn6": {
            "__events__": {},
            "__info__": {
                "kuid": "d7a51766e77f4fc38a00f449301ecc87",
                "srcKUID": "f7160577513945aaaa8a7da41819af25",
                "wType": "Button"
            }
        },
        "btn7": {
            "__events__": {},
            "__info__": {
                "kuid": "f6897517c4134069b4c69bd1475d04ba",
                "srcKUID": "bef38e3da76f493b994a1907df8a9d20",
                "wType": "Button"
            }
        },
        "btn8": {
            "__events__": {},
            "__info__": {
                "kuid": "hb170e03d03147d2bec29a0f358cf8a7",
                "srcKUID": "dc48bac4051f4069a07b2e9515777c97",
                "wType": "Button"
            }
        },
        "btnAccount": {
            "__events__": {},
            "__info__": {
                "kuid": "g975e81bf57242299d384a8268451c93",
                "srcKUID": "f9e7593e31214141aa727f3de5d9b8fd",
                "wType": "Button"
            }
        },
        "btnBackShowMore": {
            "__events__": {},
            "__info__": {
                "kuid": "h6e06bed703b4691b4f16539117e24b6",
                "srcKUID": "c7e165ebb99642dca78371e584d3cf69",
                "wType": "Button"
            }
        },
        "btnBckType": {
            "__events__": {},
            "__info__": {
                "kuid": "fb233450be17494fb8492eec23155635",
                "srcKUID": "fb7c1bdb2c1a4921a9eba28b2d339160",
                "wType": "Button"
            }
        },
        "btnClearTxt": {
            "__events__": {},
            "__info__": {
                "kuid": "e4124edc489e42bca20680457b16580e",
                "srcKUID": "c305fdbd3745481b847747a394cb2091",
                "wType": "Button"
            }
        },
        "btnCloseHelp": {
            "__events__": {},
            "__info__": {
                "kuid": "a1f05b5448d84f11b0c9d305c346edd7",
                "srcKUID": "i18a7a701189415c9f194aa7e4e8a7fe",
                "wType": "Button"
            }
        },
        "btnCloseVideo": {
            "__events__": {},
            "__info__": {
                "kuid": "ec22657e62ea4adaa527560a1bfea8c8",
                "srcKUID": "ccb1e540ebd942d29b2f8b3e8b63c15a",
                "wType": "Button"
            }
        },
        "btnDeposit": {
            "__events__": {},
            "__info__": {
                "kuid": "bc60b30235204cb98f9a37fd19fa1320",
                "srcKUID": "b98862c630a14eed8baef0a86ec78c7d",
                "wType": "Button"
            }
        },
        "btnHomeHelp": {
            "__events__": {},
            "__info__": {
                "kuid": "j0ee6c2cb4cf471aa94ebadb18e4ab2d",
                "srcKUID": "i6791d96aab54846a3f762c9ddd25a10",
                "wType": "Button"
            }
        },
        "btnLoan": {
            "__events__": {},
            "__info__": {
                "kuid": "b1e7aa0508d44ab2bac686dc3bcf75af",
                "srcKUID": "g96fe633ec7846a78b3e819e622b34d5",
                "wType": "Button"
            }
        },
        "btnMoreQues": {
            "__events__": {},
            "__info__": {
                "kuid": "bbd83d28ac9d46929c7b56938fd21ca5",
                "srcKUID": "j24494575d2a4c2996b8a11c8e044fcf",
                "wType": "Button"
            }
        },
        "btnPlus1": {
            "__events__": {},
            "__info__": {
                "kuid": "d3fade2fc0db48c1be41937256f5cac7",
                "srcKUID": "ade01b4e13f84d9ba2a388af7d79a8a3",
                "wType": "Button"
            }
        },
        "btnPlus2": {
            "__events__": {},
            "__info__": {
                "kuid": "abfc117081ed464e8b58356072c221d8",
                "srcKUID": "ide2a591e4074e6eb1d5d4b18e9e904e",
                "wType": "Button"
            }
        },
        "btnPlus3": {
            "__events__": {},
            "__info__": {
                "kuid": "c086f3fb2ee7470eb3322643fb74411c",
                "srcKUID": "ca1ecc271d9f4f2f991827d9705fc50f",
                "wType": "Button"
            }
        },
        "btnPlus4": {
            "__events__": {},
            "__info__": {
                "kuid": "c08f66bf738346208d9a1bfe3400157f",
                "srcKUID": "ac1c6f2f035a442e9144c2d076cd2ba7",
                "wType": "Button"
            }
        },
        "btnShowMore": {
            "__events__": {},
            "__info__": {
                "kuid": "ee2c01ea361940b28d37d9487d7ee04c",
                "srcKUID": "f550a677a3764b5bb9f4f3a83930a9f6",
                "wType": "Button"
            }
        },
        "btnVideo": {
            "__events__": {},
            "__info__": {
                "kuid": "cf594f18357a4d0f918866d960505ee4",
                "srcKUID": "a5778429f0b1450da48aa6dd90e5f891",
                "wType": "Button"
            }
        },
        "clearSearch": {
            "__events__": {},
            "__info__": {
                "kuid": "af86798f3ab847fdbcbd4c150205db70",
                "srcKUID": "d5b67cabc602484093e63b8bc30977f2",
                "wType": "Label"
            }
        },
        "clearTxtBxSearch": {
            "__events__": {},
            "__info__": {
                "kuid": "cdfc7194262e447cb9ad4f022cad38de",
                "srcKUID": "ec79be511d124c3393d9e3901c6628e8",
                "wType": "Label"
            }
        },
        "cusBackIcon": {
            "__events__": {},
            "__info__": {
                "kuid": "bbad1264553f4c0b95a99e99fdc3f8ea",
                "srcKUID": "bcf684a9b65b471fa13be469d4cd008b",
                "wType": "Label"
            }
        },
        "flx1": {
            "__events__": {},
            "__info__": {
                "kuid": "c7b132e10f2e4dd09fb2f282b71f83e4",
                "srcKUID": "a0bfb497c3984392b4a69540803595ef",
                "wType": "FlexContainer"
            }
        },
        "flx2": {
            "__events__": {},
            "__info__": {
                "kuid": "i4d6eb7457894c62b0d8f5efd44044fd",
                "srcKUID": "e1bc79ed2e17420c9329ab9862dda505",
                "wType": "FlexContainer"
            }
        },
        "flx3": {
            "__events__": {},
            "__info__": {
                "kuid": "de63878676ee435e979f3ec3f9b66698",
                "srcKUID": "e06f68df0dff47f5aea0915f446763ab",
                "wType": "FlexContainer"
            }
        },
        "flx4": {
            "__events__": {},
            "__info__": {
                "kuid": "c6bc07505d5a4296b84d365db0251d07",
                "srcKUID": "i040b70fe33b4686b2adbe96ac59d4f3",
                "wType": "FlexContainer"
            }
        },
        "flx5": {
            "__events__": {},
            "__info__": {
                "kuid": "e22c2b02acff4f268f056a01b5cf45dc",
                "srcKUID": "ba4a2bd51d06431db01a951404c33781",
                "wType": "FlexContainer"
            }
        },
        "flx6": {
            "__events__": {},
            "__info__": {
                "kuid": "e923d5d65fa040ff86df3e1c7eaadcb5",
                "srcKUID": "b130bb72adea4f09875a6eda8c55be14",
                "wType": "FlexContainer"
            }
        },
        "flx7": {
            "__events__": {},
            "__info__": {
                "kuid": "i9a5644067ee4b039d8bd7e06411c219",
                "srcKUID": "b11bad47fb294dc5840f249a1b5f1906",
                "wType": "FlexContainer"
            }
        },
        "flx8": {
            "__events__": {},
            "__info__": {
                "kuid": "d65f83e8d6d445fea8a2a5f8bf4e4e47",
                "srcKUID": "bad38a5e97ce4193b687e896aa3944ac",
                "wType": "FlexContainer"
            }
        },
        "flxAccount": {
            "__events__": {},
            "__info__": {
                "kuid": "c1f021ca5a9f4c1491a2bb7302da9c21",
                "srcKUID": "aaaec0ea0c204ddd861a3161b53b3d83",
                "wType": "FlexContainer"
            }
        },
        "flxAns1": {
            "__events__": {},
            "__info__": {
                "kuid": "c9e8953838be42e5994031950ecdb2a6",
                "srcKUID": "b7e31d8e21af4278a8e59adc5fc6acf1",
                "wType": "FlexContainer"
            }
        },
        "flxAns2": {
            "__events__": {},
            "__info__": {
                "kuid": "f41e4fe07e444de6b618035e4a27545f",
                "srcKUID": "b489098c53ee4c7e9249a8e348c5df26",
                "wType": "FlexContainer"
            }
        },
        "flxBack": {
            "__events__": {},
            "__info__": {
                "kuid": "d49df4238bbc4bd3a33195539138f72e",
                "srcKUID": "g4cea0cac8c54dbd893d0896f90da17a",
                "wType": "FlexContainer"
            }
        },
        "flxBackAns": {
            "__events__": {},
            "__info__": {
                "kuid": "e4f387287d7c4e14a37515dbd3592d9f",
                "srcKUID": "fcd55cc74304478284b321950493c37c",
                "wType": "FlexContainer"
            }
        },
        "flxBck": {
            "__events__": {},
            "__info__": {
                "kuid": "b42b3e9cbafa467f8aa71e790bfd4a15",
                "srcKUID": "be9f04b77e314f9db3721cd02d646046",
                "wType": "FlexContainer"
            }
        },
        "flxBckArrow": {
            "__events__": {},
            "__info__": {
                "kuid": "c5400adc87c94db8aa5297d4d79d6a16",
                "srcKUID": "cc449c9de12c4e569037a55673fa6b55",
                "wType": "FlexContainer"
            }
        },
        "flxBckType": {
            "__events__": {},
            "__info__": {
                "kuid": "i6d8bf4adb6e4ebd88e4ef7f41bae054",
                "srcKUID": "c2ba4182760e4600a31e3670c358dc41",
                "wType": "FlexContainer"
            }
        },
        "flxBottom": {
            "__events__": {},
            "__info__": {
                "kuid": "dc1823c78e3a477a97f59705a6ff77ec",
                "srcKUID": "i57540e2b2a142119b5bbd0e4ab73200",
                "wType": "FlexContainer"
            }
        },
        "flxBreadcrum": {
            "__events__": {},
            "__info__": {
                "kuid": "d43ee3f75b32489aaeb196d009a569b1",
                "srcKUID": "f9af58e989cb4baead77a0cdc5598ab9",
                "wType": "FlexContainer"
            }
        },
        "flxBrw": {
            "__events__": {},
            "__info__": {
                "kuid": "g6b55548fc5647e6aa3687703c1643c5",
                "srcKUID": "e89130c9e32a430f9bcad3459116eb6e",
                "wType": "FlexContainer"
            }
        },
        "flxClose": {
            "__events__": {},
            "__info__": {
                "kuid": "ee9c12f859dc487eaf247c7fb59d8cdf",
                "srcKUID": "ca321916379940b3bfb45710c7e7a74e",
                "wType": "FlexContainer"
            }
        },
        "flxCloseHelp": {
            "__events__": {},
            "__info__": {
                "kuid": "b24c24629a114db5a9e61ec405d311d8",
                "srcKUID": "d9419379d1734dab907a6131c78a2721",
                "wType": "FlexContainer"
            }
        },
        "flxDeposits": {
            "__events__": {},
            "__info__": {
                "kuid": "ieb14a185bf64f2b993c0bf63323e80c",
                "srcKUID": "f7025196d4514de3a9f3f09db659b9b4",
                "wType": "FlexContainer"
            }
        },
        "flxDesc": {
            "__events__": {},
            "__info__": {
                "kuid": "a1fbd18a04124e67a6728a5e8344657a",
                "srcKUID": "a71b80c6c201477a8d232adde99b07c8",
                "wType": "FlexScrollContainer"
            }
        },
        "flxDesc1": {
            "__events__": {},
            "__info__": {
                "kuid": "d5636e49ba8b45a1b2819ab19fde3492",
                "srcKUID": "de55147eb8284035b234ce7a36eab198",
                "wType": "FlexContainer"
            }
        },
        "flxDesc2": {
            "__events__": {},
            "__info__": {
                "kuid": "c0853409bb68439da862c4fa275cf525",
                "srcKUID": "b364975898c448cdad3f93859c6ea65d",
                "wType": "FlexContainer"
            }
        },
        "flxDesc3": {
            "__events__": {},
            "__info__": {
                "kuid": "g4cfb23d31b742a282ec73ff3050730f",
                "srcKUID": "e15201dbff194e2e958f620777f04a42",
                "wType": "FlexContainer"
            }
        },
        "flxDescHeader2": {
            "__events__": {},
            "__info__": {
                "kuid": "f2c6ded8ed574777b280a5f8df40a69f",
                "srcKUID": "cd19bc8590d843cba0480b9a9c56735a",
                "wType": "FlexContainer"
            }
        },
        "flxDescHeader3": {
            "__events__": {},
            "__info__": {
                "kuid": "f98f8935ecab46b597239f7f8d2f1ce1",
                "srcKUID": "ef2fc08b77384c08a2ad866737bca11a",
                "wType": "FlexContainer"
            }
        },
        "flxDescType1": {
            "__events__": {},
            "__info__": {
                "kuid": "e1b9ebcce0cb4b29b54f86ab6d6572df",
                "srcKUID": "c8dfd7163586439294bd41a9e2a5ff63",
                "wType": "FlexContainer"
            }
        },
        "flxDescType2": {
            "__events__": {},
            "__info__": {
                "kuid": "c8df978ecb7e4987b142b4e8a1d630fc",
                "srcKUID": "f859acf1485c4197bbeb281e4482eb02",
                "wType": "FlexContainer"
            }
        },
        "flxDescType3": {
            "__events__": {},
            "__info__": {
                "kuid": "c66b7c6692884a2c8c986b53c3c543bd",
                "srcKUID": "ia544ffc23224366acf72e3716e439a6",
                "wType": "FlexContainer"
            }
        },
        "flxDescType4": {
            "__events__": {},
            "__info__": {
                "kuid": "f8da49d8fa4f4bf4855239957e503683",
                "srcKUID": "g6f6f861418f44e6adeac9a9c20e495a",
                "wType": "FlexContainer"
            }
        },
        "flxExpand1": {
            "__events__": {},
            "__info__": {
                "kuid": "j59c32f7f8374030aab8c5a66fa10145",
                "srcKUID": "b36ec4747b694ff7bf9d217313873c75",
                "wType": "FlexContainer"
            }
        },
        "flxExpand2": {
            "__events__": {},
            "__info__": {
                "kuid": "g268bdd5fc744f909c60ddc7cb3330e5",
                "srcKUID": "d72c68e704a346648b0dbb5f24bf9e0e",
                "wType": "FlexContainer"
            }
        },
        "flxExpand3": {
            "__events__": {},
            "__info__": {
                "kuid": "b697f72405e04dfba3236a644bc590c1",
                "srcKUID": "df42118b2dd743258295227000fab538",
                "wType": "FlexContainer"
            }
        },
        "flxExpand4": {
            "__events__": {},
            "__info__": {
                "kuid": "h9ad8676e56245dea02e9f0da3c8cf12",
                "srcKUID": "d5f13bf2256b41d3ac9f8501a6499c8a",
                "wType": "FlexContainer"
            }
        },
        "flxFAQ": {
            "__events__": {},
            "__info__": {
                "kuid": "c6be22f332f346a994fc90f5d4ece1bc",
                "srcKUID": "b8d09475252f43d0ae581e3ee22732f7",
                "wType": "FlexContainer"
            }
        },
        "flxHeader": {
            "__events__": {},
            "__info__": {
                "kuid": "id1c1779fa8a4260911ea2696bec5881",
                "srcKUID": "dda40f5444384e05bd31df5586e09659",
                "wType": "FlexContainer"
            }
        },
        "flxHelpGroup": {
            "__events__": {},
            "__info__": {
                "kuid": "c2a3c699719e431382e883b0a0ac10f5",
                "srcKUID": "b026eb2fdf514268b9c59bc70041b149",
                "wType": "FlexContainer"
            }
        },
        "flxHelpHome": {
            "__events__": {},
            "__info__": {
                "kuid": "b81680f2c54e4db9a8f78702ec297c24",
                "srcKUID": "f8894ced966e4176ac152c460a16d078",
                "wType": "FlexContainer"
            }
        },
        "flxLeft": {
            "__events__": {},
            "__info__": {
                "kuid": "i6e57e3278974c3aa99c7abf239f1803",
                "srcKUID": "aff2d17996804d8190a87030295eb836",
                "wType": "FlexContainer"
            }
        },
        "flxLoan": {
            "__events__": {},
            "__info__": {
                "kuid": "f92f97fdf09743ccaba633c659bc60d1",
                "srcKUID": "ed2b8e77161e42749458f58139524002",
                "wType": "FlexContainer"
            }
        },
        "flxLoanHome": {
            "__events__": {},
            "__info__": {
                "kuid": "a77d0b4077834a12851cfe2514386c9e",
                "srcKUID": "cf0de250c9fb4f91b573f7aee70ff57a",
                "wType": "FlexContainer"
            }
        },
        "flxMain": {
            "__events__": {},
            "__info__": {
                "kuid": "b16ed0aab41c406da2e1567ed5bd93b1",
                "srcKUID": "edc31f77fb9b4fa2807e7246f98688f8",
                "wType": "FlexContainer"
            }
        },
        "flxOptions": {
            "__events__": {},
            "__info__": {
                "kuid": "cdccbc4e376642aeb79118b8cd356ec8",
                "srcKUID": "ba27426a42a7450daa9c1149b09ba883",
                "wType": "FlexContainer"
            }
        },
        "flxOptions2": {
            "__events__": {},
            "__info__": {
                "kuid": "eea51004c0694b349ad0466649e31a74",
                "srcKUID": "a6561fc38ef945c696d41c7e94237989",
                "wType": "FlexContainer"
            }
        },
        "flxPlayVideo": {
            "__events__": {},
            "__info__": {
                "kuid": "c1485d20ee6a40c09696344137f9e6c8",
                "srcKUID": "c8be0376565c46ddb12cfcecea789266",
                "wType": "FlexContainer"
            }
        },
        "flxQues": {
            "__events__": {},
            "__info__": {
                "kuid": "d06d5ced9ea34626bde4729bf3c31791",
                "srcKUID": "b3313ededb8641a8ba2ec9456aa5fce1",
                "wType": "FlexContainer"
            }
        },
        "flxQues1": {
            "__events__": {},
            "__info__": {
                "kuid": "if216b018f2343caa97aa63c9c24f907",
                "srcKUID": "i16361d2a2c3482fbab82abf34e0105e",
                "wType": "FlexContainer"
            }
        },
        "flxQues2": {
            "__events__": {},
            "__info__": {
                "kuid": "hc4d090e13054d6ba620a61e0d909482",
                "srcKUID": "h59f7992372c48fdb4a6e729be05343e",
                "wType": "FlexContainer"
            }
        },
        "flxRight": {
            "__events__": {},
            "__info__": {
                "kuid": "c31b6057bbb84304a4be8f9230dc8538",
                "srcKUID": "b048fa0e16df45ed98495f445cdc77d9",
                "wType": "FlexContainer"
            }
        },
        "flxSearch": {
            "__events__": {},
            "__info__": {
                "kuid": "e1af3149fbc44ba886e58ce412af3d87",
                "srcKUID": "a4ad2b5851c140798c699f30d83e5922",
                "wType": "FlexContainer"
            }
        },
        "flxSearchResult": {
            "__events__": {},
            "__info__": {
                "kuid": "f4bc14336db54dd8b6fe7380e029cb81",
                "srcKUID": "fd9bf5e18c5341229d01ca66f9080d78",
                "wType": "FlexContainer"
            }
        },
        "flxSeg": {
            "__events__": {},
            "__info__": {
                "kuid": "f4bf0af62ca940919897227138c46d00",
                "srcKUID": "i5df22fbbdc9499da4cea87aa52903e9",
                "wType": "FlexContainer"
            }
        },
        "flxSeparator": {
            "__events__": {},
            "__info__": {
                "kuid": "d2e7c0adb7974be8a83a05735b830008",
                "srcKUID": "a65262a100b3484a8c59afdf2937b887",
                "wType": "FlexContainer"
            }
        },
        "flxSeparator1": {
            "__events__": {},
            "__info__": {
                "kuid": "ab01687b60404a6492118b400ffd8a71",
                "srcKUID": "d71721d3e671480b85ac0798048399bc",
                "wType": "FlexContainer"
            }
        },
        "flxSeparator2": {
            "__events__": {},
            "__info__": {
                "kuid": "ja0611969a854a868cb363446ee8ebea",
                "srcKUID": "id6eb87e507c4475b63c7787625ce39b",
                "wType": "FlexContainer"
            }
        },
        "flxSeparator3": {
            "__events__": {},
            "__info__": {
                "kuid": "eb6854bf9f3c44da94e77a59bdb9b24e",
                "srcKUID": "f7f295b9a2e64e96aab50961fef790e5",
                "wType": "FlexContainer"
            }
        },
        "flxSeparator4": {
            "__events__": {},
            "__info__": {
                "kuid": "i0f9c7b4169d4f64830ac658fb0e2a5c",
                "srcKUID": "d900e79d05234530868fce776015fbce",
                "wType": "FlexContainer"
            }
        },
        "flxSeparator5": {
            "__events__": {},
            "__info__": {
                "kuid": "g9ac40a303ad40288afa2aa968f943df",
                "srcKUID": "ee45b60a6001476793b66433336a2889",
                "wType": "FlexContainer"
            }
        },
        "flxSeparator6": {
            "__events__": {},
            "__info__": {
                "kuid": "hdf1a17cf24a4f00a138cef4233877c4",
                "srcKUID": "gec0ca0f8f7e43ec9007fcf1207942fa",
                "wType": "FlexContainer"
            }
        },
        "flxSeparator7": {
            "__events__": {},
            "__info__": {
                "kuid": "d7673e9e4025450e9f90479917bd1c19",
                "srcKUID": "b5346b7944524e6d8c3dac7c37c54269",
                "wType": "FlexContainer"
            }
        },
        "flxSeparator8": {
            "__events__": {},
            "__info__": {
                "kuid": "c233bd0e11534ea5a9c7484f3fbf9794",
                "srcKUID": "c8906c555203487fad3bb1dc986f3cd8",
                "wType": "FlexContainer"
            }
        },
        "flxSeparator9": {
            "__events__": {},
            "__info__": {
                "kuid": "a3ef5bd9115d4414961204de8599d9c2",
                "srcKUID": "b7f3ccf8eaeb46abb63a872ad1108e65",
                "wType": "FlexContainer"
            }
        },
        "flxServiceType": {
            "__events__": {},
            "__info__": {
                "kuid": "f2157c0353aa4d5d8b9f762be08f3085",
                "srcKUID": "b3b28e084d7b41b4b83322526324e6a8",
                "wType": "FlexContainer"
            }
        },
        "flxServices": {
            "__events__": {},
            "__info__": {
                "kuid": "f98f5f32d45a47e08622cc0df09aa85b",
                "srcKUID": "c016e66338364214b74a7461d9848d2d",
                "wType": "FlexContainer"
            }
        },
        "flxThumbnail": {
            "__events__": {},
            "__info__": {
                "kuid": "fc37564f831f4336b223781e6b4195cf",
                "srcKUID": "a3b1803b4d4d4e2785bdef5e6dd2f964",
                "wType": "FlexContainer"
            }
        },
        "flxTop": {
            "__events__": {},
            "__info__": {
                "kuid": "hd20d3a67bc14546bbbfec00a78295e0",
                "srcKUID": "ga3af34ef52f46e5a7a1605b0bf8e376",
                "wType": "FlexContainer"
            }
        },
        "flxTypes": {
            "__events__": {},
            "__info__": {
                "kuid": "c83f167cdc874757ab636a59805c11ba",
                "srcKUID": "f35a0eb455c141e1a4d6efc5d43897b0",
                "wType": "FlexContainer"
            }
        },
        "flxVideoHeader": {
            "__events__": {},
            "__info__": {
                "kuid": "e43a4b20752c4c96bfa7d2d684300513",
                "srcKUID": "f217a1e1d1af4bd68f0db20b8ab36d62",
                "wType": "FlexContainer"
            }
        },
        "help": {
            "__events__": {},
            "__info__": {
                "isRoot": true,
                "kuid": "d80903a3f0e94a1eb678cdc25e7ec1ef",
                "srcKUID": "i643b92ec19747a8a19d0206aa4e7dfd",
                "wType": "FlexContainer"
            },
            "isVisible": false,
            "responsiveData": {}
        },
        "imgClearSearch": {
            "__events__": {},
            "__info__": {
                "kuid": "d1eac7bff53d44b0b0d3daee134f8079",
                "srcKUID": "f4a067ad50494fcf9f5dfc3be078ff02",
                "wType": "Image"
            }
        },
        "imgHelp": {
            "__events__": {},
            "__info__": {
                "kuid": "da710b7636c04d9b9009f2bafb1ad30a",
                "srcKUID": "i227efa189b94f3cba993d40a231401a",
                "wType": "Image"
            }
        },
        "lbl1": {
            "__events__": {},
            "__info__": {
                "kuid": "f9d0d3706c634baeac6a323c9bb54875",
                "srcKUID": "d3509ce36f9e4898bd95157609d83193",
                "wType": "Label"
            }
        },
        "lbl2": {
            "__events__": {},
            "__info__": {
                "kuid": "bafd89df87964546bae5929b83a691fc",
                "srcKUID": "g035c358ae3a40e2a7a0366a5666b095",
                "wType": "Label"
            }
        },
        "lbl3": {
            "__events__": {},
            "__info__": {
                "kuid": "he8b2f3fdf5348d4a4c3f9b41e577f7f",
                "srcKUID": "ee5313e1acb84d7c98e771e5199ebf16",
                "wType": "Label"
            }
        },
        "lbl4": {
            "__events__": {},
            "__info__": {
                "kuid": "ddefa666248b4a0dbad487d9c5653b41",
                "srcKUID": "i33f05e82aeb404bae061e09b9a4c032",
                "wType": "Label"
            }
        },
        "lbl5": {
            "__events__": {},
            "__info__": {
                "kuid": "af1d0e8429114f54a442c9696d6ca155",
                "srcKUID": "i16ddf3e513248938ccabcb86227dff0",
                "wType": "Label"
            }
        },
        "lbl6": {
            "__events__": {},
            "__info__": {
                "kuid": "g6b151941c8d4755821c371a3c67a0b5",
                "srcKUID": "c78cae81e7db4c2997465d9b2a316c3c",
                "wType": "Label"
            }
        },
        "lbl7": {
            "__events__": {},
            "__info__": {
                "kuid": "c4075b7a34e4402fb871e5e3760f03fd",
                "srcKUID": "fdddfe4f6ae54acd9d2f24cef1480edd",
                "wType": "Label"
            }
        },
        "lblAccount": {
            "__events__": {},
            "__info__": {
                "kuid": "cc080dea8f174f738992b1d5aea8ed9a",
                "srcKUID": "gcb11ef9112f4aaf83dedf081949f218",
                "wType": "Label"
            }
        },
        "lblBack": {
            "__events__": {},
            "__info__": {
                "kuid": "b1958f8d025c4714ae3ceb9be1ddfb1c",
                "srcKUID": "af42efb5c9734f35a86479e12082d7c9",
                "wType": "Label"
            }
        },
        "lblBackArrow": {
            "__events__": {},
            "__info__": {
                "kuid": "i0fa063edeb848499daaf88e23d46939",
                "srcKUID": "i7e4d3fe76064489897ad754ba1436dc",
                "wType": "Label"
            }
        },
        "lblBreadBoardSplashValue": {
            "__events__": {},
            "__info__": {
                "kuid": "f00529bc387d448a8bb56d87e7ad861d",
                "srcKUID": "d9392996140e41dc9047b3de22c0535e",
                "wType": "Label"
            }
        },
        "lblBreadBoardSplashValue1": {
            "__events__": {},
            "__info__": {
                "kuid": "j11eca26d45c4beb97bbf8e516909c50",
                "srcKUID": "a8753db037664f35a09cb871bc0f296e",
                "wType": "Label"
            }
        },
        "lblCLose": {
            "__events__": {},
            "__info__": {
                "kuid": "f8b2b10e8bbc4ff7b990176c25bef695",
                "srcKUID": "a014c0d9739f414d9f9f05c5a1a8bf69",
                "wType": "Label"
            }
        },
        "lblCloseVideo": {
            "__events__": {},
            "__info__": {
                "kuid": "b8f439bb5ed14750b147e989af71c620",
                "srcKUID": "d43553c48af5450ba14840aad780e774",
                "wType": "Label"
            }
        },
        "lblDeposit": {
            "__events__": {},
            "__info__": {
                "kuid": "fe471a0702d1440fa3d6ef2e2d11c2e9",
                "srcKUID": "c3b2ca8b86984ba58226493879af811f",
                "wType": "Label"
            }
        },
        "lblDesc1": {
            "__events__": {},
            "__info__": {
                "kuid": "f61715f5264b48c7bbbab26d99409192",
                "srcKUID": "eb41c26584474f49839c8cea12417259",
                "wType": "Label"
            }
        },
        "lblDescHeader2": {
            "__events__": {},
            "__info__": {
                "kuid": "dab25d55974d4f4db40e9416dcde96fe",
                "srcKUID": "b5baf206b8464b4fba2e02ec2ff69888",
                "wType": "Label"
            }
        },
        "lblDescHeader3": {
            "__events__": {},
            "__info__": {
                "kuid": "e4c1f92460d44a4caf21ad80b8d7f1bf",
                "srcKUID": "e91aa104975a4dab9c88374817aadce4",
                "wType": "Label"
            }
        },
        "lblDescType1": {
            "__events__": {},
            "__info__": {
                "kuid": "jc44be4c39614b09818a60b808020c01",
                "srcKUID": "g61a30d608d94984bff052fe7a75d5e2",
                "wType": "Label"
            }
        },
        "lblDescType2": {
            "__events__": {},
            "__info__": {
                "kuid": "abcbd3e5e3dc4a34a7f94a0c1d2ca478",
                "srcKUID": "i06779772e5546f287996e47a1156cc7",
                "wType": "Label"
            }
        },
        "lblDescType3": {
            "__events__": {},
            "__info__": {
                "kuid": "b67f98e054fc4f4db8e1e172b11f03c4",
                "srcKUID": "j6f4c4f9894f44fe84c9162133f9e7eb",
                "wType": "Label"
            }
        },
        "lblDescType4": {
            "__events__": {},
            "__info__": {
                "kuid": "fda4415daf2f4c1abc80cee11b417ff9",
                "srcKUID": "e8815ac2be7a4e23911c11e2cc745e50",
                "wType": "Label"
            }
        },
        "lblHelp": {
            "__events__": {},
            "__info__": {
                "kuid": "a859af2bcea04e639c91efca7a4d550a",
                "srcKUID": "c60e7721576e4bce9af8c5a0bf066e28",
                "wType": "Label"
            }
        },
        "lblHelpBig": {
            "__events__": {},
            "__info__": {
                "kuid": "b953be58c6344a50b306329c1f0def60",
                "srcKUID": "hb4e3cec82214761a188a1c8387481a9",
                "wType": "Label"
            }
        },
        "lblHi": {
            "__events__": {},
            "__info__": {
                "kuid": "ec3b9b2fd02540e89aa4ff44c26dac9c",
                "srcKUID": "ba14537be17d47fcb5e47c0a0f94be78",
                "wType": "Label"
            }
        },
        "lblLoan": {
            "__events__": {},
            "__info__": {
                "kuid": "hc928a27d65f452cb7390996d2047481",
                "srcKUID": "jb61888820914473bb0d8b812e54aa98",
                "wType": "Label"
            }
        },
        "lblLoanServices": {
            "__events__": {},
            "__info__": {
                "kuid": "he81e7ac3a3146b98c5e6b968007938b",
                "srcKUID": "ja7646bccdcc4a42bcfe7c658e46f3ad",
                "wType": "Button"
            }
        },
        "lblNoData": {
            "__events__": {},
            "__info__": {
                "kuid": "d284caa8f838441288626516140e2229",
                "srcKUID": "cd2176c2df61427cb905124d4c92fab2",
                "wType": "Label"
            }
        },
        "lblPath": {
            "__events__": {},
            "__info__": {
                "kuid": "d75695b794634b1098e7fb9076bf5a43",
                "srcKUID": "a8dfafdc1a4d4acb961014a59df368c9",
                "wType": "Label"
            }
        },
        "lblQues1": {
            "__events__": {},
            "__info__": {
                "kuid": "abb689346abd48fd9606d530e23c66f1",
                "srcKUID": "cb6f936cf02945fc9e4a428dcb292d88",
                "wType": "Label"
            }
        },
        "lblQues2": {
            "__events__": {},
            "__info__": {
                "kuid": "eb8ce33368734a94b6b8424b5b6b72ff",
                "srcKUID": "ia9ef851cabb492ba83249268b865363",
                "wType": "Label"
            }
        },
        "lblResult": {
            "__events__": {},
            "__info__": {
                "kuid": "ee3e43a506484116aa5c835ec00c0590",
                "srcKUID": "a2287e54ffac4f9ea760a2dfdb84b834",
                "wType": "Label"
            }
        },
        "lblSearchIcon": {
            "__events__": {},
            "__info__": {
                "kuid": "f3a55e821fd44cdebce03b99813bbb98",
                "srcKUID": "j9598771545e4a9e9b36f2743bc662af",
                "wType": "Label"
            }
        },
        "lblSlash": {
            "__events__": {},
            "__info__": {
                "kuid": "ccfabe5ac02e4df28262012db3b1fd49",
                "srcKUID": "cde106359f19405c818b784bdd9847fe",
                "wType": "Label"
            }
        },
        "lblType": {
            "__events__": {},
            "__info__": {
                "kuid": "hb26481ccf2b41b7a9aaedd71f83d2e3",
                "srcKUID": "b2a41d31f8224e2ea24fe828c518f342",
                "wType": "Label"
            }
        },
        "lblVideoPath": {
            "__events__": {},
            "__info__": {
                "kuid": "ec57ef469f2442e9b2bb9ebf885f59ed",
                "srcKUID": "i4ecdcd46ac14fd0b3e3f014336565a8",
                "wType": "Label"
            }
        },
        "lstCategories": {
            "__events__": {},
            "__info__": {
                "kuid": "a024f62e04ea4eb482f3be50945e2e49",
                "srcKUID": "fdb0776ac7e6402c987b030b0c2b699b",
                "wType": "ListBox"
            }
        },
        "plus1": {
            "__events__": {},
            "__info__": {
                "kuid": "jf05b2af6c004487bf09a3403b0858a2",
                "srcKUID": "bbfd7a95280a4bde99a7434f3c488e53",
                "wType": "Label"
            }
        },
        "plus2": {
            "__events__": {},
            "__info__": {
                "kuid": "h0beccf3e18047e28abed1cd3e1f311f",
                "srcKUID": "a1d1685e5635469a8b07f4c0af156710",
                "wType": "Label"
            }
        },
        "plus3": {
            "__events__": {},
            "__info__": {
                "kuid": "fec7dc39533344f9bf20bbfd69ad9e67",
                "srcKUID": "bf69cfac4b28433dab6f5a00758301cb",
                "wType": "Label"
            }
        },
        "plus4": {
            "__events__": {},
            "__info__": {
                "kuid": "ja1aa2ce086044068fb8c1a5452b4286",
                "srcKUID": "f08e0fbf4bc14c6cbb569f861ddcca36",
                "wType": "Label"
            }
        },
        "plus5": {
            "__events__": {},
            "__info__": {
                "kuid": "d92288fa7b89458b9c4e4f10980adf26",
                "srcKUID": "c635d227d8544e0c85417f75e148b139",
                "wType": "Label"
            }
        },
        "plus6": {
            "__events__": {},
            "__info__": {
                "kuid": "d92057e40a5c44c39bfe39e568a90c71",
                "srcKUID": "f54fb970b6774bd2a49e59c358732426",
                "wType": "Label"
            }
        },
        "rtx1": {
            "__events__": {},
            "__info__": {
                "kuid": "aa89f26600c04e5eab0e3f9238209110",
                "srcKUID": "d7748b2e7f544c169d7ab366bab4eefd",
                "wType": "RichText"
            }
        },
        "rtx2": {
            "__events__": {},
            "__info__": {
                "kuid": "i2b29271952e4c5ca02648804d1e2f8f",
                "srcKUID": "a0af20ffdb8549c7bdcfe8b884cdc696",
                "wType": "RichText"
            }
        },
        "rtx3": {
            "__events__": {},
            "__info__": {
                "kuid": "a89010a0273a4110bfe58cdedd284311",
                "srcKUID": "f8414a33a79b4607bf06610c3b723de6",
                "wType": "RichText"
            }
        },
        "rtx4": {
            "__events__": {},
            "__info__": {
                "kuid": "dfc3ecc3806645348f86cee28656d2a4",
                "srcKUID": "debb7ffca0cf468b8692f8b44dbb7ebd",
                "wType": "RichText"
            }
        },
        "rtxAns1": {
            "__events__": {},
            "__info__": {
                "kuid": "ba92b2272ae847c0aea1db8ccad020ae",
                "srcKUID": "f675d12d064140628a8e1c834e7942af",
                "wType": "RichText"
            }
        },
        "rtxAns2": {
            "__events__": {},
            "__info__": {
                "kuid": "ab69fd58a83f4f7eae737e30abe68774",
                "srcKUID": "caaf177d270c4f4fb452ee87c1ae46df",
                "wType": "RichText"
            }
        },
        "rtxSelected": {
            "__events__": {},
            "__info__": {
                "kuid": "ea652db96b1a4d509e85ecefc0bf9244",
                "srcKUID": "e1aefa0a2ea74c4a830633e87c133eb3",
                "wType": "RichText"
            }
        },
        "rtxShow2": {
            "__events__": {},
            "__info__": {
                "kuid": "ff338cfa6e19438e9d041abe826c7fcc",
                "srcKUID": "b63bf04d14564b7f9fb88149b7fa0dae",
                "wType": "RichText"
            }
        },
        "rtxShow3": {
            "__events__": {},
            "__info__": {
                "kuid": "a51a9d4e80ea447eba207a80cfac2730",
                "srcKUID": "g1639a2b25b140199804ab85c752f967",
                "wType": "RichText"
            }
        },
        "rtxType": {
            "__events__": {},
            "__info__": {
                "kuid": "c8235bec1c5c438b8049620023238d9f",
                "srcKUID": "be50cc1d0df54b4a989bdc8881351e07",
                "wType": "RichText"
            }
        },
        "seg1": {
            "__events__": {},
            "__info__": {
                "kuid": "c7330036c562453f8dc03e2b5332cf6f",
                "srcKUID": "a5f67ffc497242809217564a4dfaff76",
                "wType": "Segment"
            }
        },
        "segQues": {
            "__events__": {},
            "__info__": {
                "kuid": "b433ca526f22457f9c03d080f32077a2",
                "srcKUID": "e043e3df04fb49c497ef0db96bed707d",
                "wType": "Segment"
            }
        },
        "segSearch": {
            "__events__": {},
            "__info__": {
                "kuid": "f517503b0c1e49adb860a6b404ef1f2a",
                "srcKUID": "b3b9b207ea3043de85c736dde199c688",
                "wType": "FlexContainer"
            }
        },
        "segServiceTypes": {
            "__events__": {},
            "__info__": {
                "kuid": "d7c4c0d570e84900af1726782f4d8f8c",
                "srcKUID": "db3a15118c504dd7b720c7fb76a49c6f",
                "wType": "Segment"
            }
        },
        "txtPartialText": {
            "__events__": {
                "desktopweb": {
                    "ide_onKeyUp": "AS_TextField_efbc02045cc9435b9277be510f5a2036"
                }
            },
            "__info__": {
                "kuid": "fdd0ae9de524440e891dc23156d0ef56",
                "srcKUID": "d409d95d749148e89bfc5b9f67de71a0",
                "wType": "TextField"
            }
        }
    },
    "enablescrolling": true,
    "id": "help",
    "info": null,
    "iscustomlayout": false,
    "isdatareferenced": false,
    "isvisible": false,
    "kuid": "d80903a3f0e94a1eb678cdc25e7ec1ef",
    "layouttype": 2,
    "masterType": 0,
    "name": "kony.ui.UserWidgetInstance",
    "parent": "frmDashboardLending",
    "pf": "frmDashboardLending",
    "retaincontentalignment": false,
    "retainflexpositionproperties": false,
    "retainflowhorizontalalignment": false,
    "snapgridsize": 10,
    "snaptogrid": true,
    "sourceUserWidget": "i643b92ec19747a8a19d0206aa4e7dfd",
    "wType": "UserWidgetInstance",
    "zindex": 10
}