{
    "@class": "com.kony.gen.viz.model.container.KVizSegment2",
    "DNDConfig": null,
    "_data_": [
        {
            "lblCustomerID": {
                "@class": "com.viz.ide.model.segment.SimpleTextSegmentData",
                "text": "101146"
            },
            "lblFirstName": {
                "@class": "com.viz.ide.model.segment.SimpleTextSegmentData",
                "text": "Rolf Gerieng"
            },
            "lblRm": {
                "@class": "com.viz.ide.model.segment.SimpleTextSegmentData",
                "text": "Rolf Gerieng"
            }
        },
        {
            "lblCustomerID": {
                "@class": "com.viz.ide.model.segment.SimpleTextSegmentData",
                "text": "101146"
            },
            "lblFirstName": {
                "@class": "com.viz.ide.model.segment.SimpleTextSegmentData",
                "text": "Rolf Gerieng"
            },
            "lblRm": {
                "@class": "com.viz.ide.model.segment.SimpleTextSegmentData",
                "text": "Rolf Gerieng"
            }
        },
        {
            "lblCustomerID": {
                "@class": "com.viz.ide.model.segment.SimpleTextSegmentData",
                "text": "101146"
            },
            "lblFirstName": {
                "@class": "com.viz.ide.model.segment.SimpleTextSegmentData",
                "text": "Rolf Gerieng"
            },
            "lblRm": {
                "@class": "com.viz.ide.model.segment.SimpleTextSegmentData",
                "text": "Rolf Gerieng"
            }
        },
        {
            "lblCustomerID": {
                "@class": "com.viz.ide.model.segment.SimpleTextSegmentData",
                "text": "101146"
            },
            "lblFirstName": {
                "@class": "com.viz.ide.model.segment.SimpleTextSegmentData",
                "text": "Rolf Gerieng"
            },
            "lblRm": {
                "@class": "com.viz.ide.model.segment.SimpleTextSegmentData",
                "text": "Rolf Gerieng"
            }
        },
        {
            "lblCustomerID": {
                "@class": "com.viz.ide.model.segment.SimpleTextSegmentData",
                "text": "101146"
            },
            "lblFirstName": {
                "@class": "com.viz.ide.model.segment.SimpleTextSegmentData",
                "text": "Rolf Gerieng"
            },
            "lblRm": {
                "@class": "com.viz.ide.model.segment.SimpleTextSegmentData",
                "text": "Rolf Gerieng"
            }
        },
        {
            "lblCustomerID": {
                "@class": "com.viz.ide.model.segment.SimpleTextSegmentData",
                "text": "101146"
            },
            "lblFirstName": {
                "@class": "com.viz.ide.model.segment.SimpleTextSegmentData",
                "text": "Rolf Gerieng"
            },
            "lblRm": {
                "@class": "com.viz.ide.model.segment.SimpleTextSegmentData",
                "text": "Rolf Gerieng"
            }
        },
        {
            "lblCustomerID": {
                "@class": "com.viz.ide.model.segment.SimpleTextSegmentData",
                "text": "101146"
            },
            "lblFirstName": {
                "@class": "com.viz.ide.model.segment.SimpleTextSegmentData",
                "text": "Rolf Gerieng"
            },
            "lblRm": {
                "@class": "com.viz.ide.model.segment.SimpleTextSegmentData",
                "text": "Rolf Gerieng"
            }
        },
        {
            "lblCustomerID": {
                "@class": "com.viz.ide.model.segment.SimpleTextSegmentData",
                "text": "101146"
            },
            "lblFirstName": {
                "@class": "com.viz.ide.model.segment.SimpleTextSegmentData",
                "text": "Rolf Gerieng"
            },
            "lblRm": {
                "@class": "com.viz.ide.model.segment.SimpleTextSegmentData",
                "text": "Rolf Gerieng"
            }
        },
        {
            "lblCustomerID": {
                "@class": "com.viz.ide.model.segment.SimpleTextSegmentData",
                "text": "101146"
            },
            "lblFirstName": {
                "@class": "com.viz.ide.model.segment.SimpleTextSegmentData",
                "text": "Rolf Gerieng"
            },
            "lblRm": {
                "@class": "com.viz.ide.model.segment.SimpleTextSegmentData",
                "text": "Rolf Gerieng"
            }
        },
        {
            "lblCustomerID": {
                "@class": "com.viz.ide.model.segment.SimpleTextSegmentData",
                "text": "101146"
            },
            "lblFirstName": {
                "@class": "com.viz.ide.model.segment.SimpleTextSegmentData",
                "text": "Rolf Gerieng"
            },
            "lblRm": {
                "@class": "com.viz.ide.model.segment.SimpleTextSegmentData",
                "text": "Rolf Gerieng"
            }
        }
    ],
    "_height_": {
        "type": "string",
        "value": "170dp"
    },
    "_indicator_": "none",
    "_left_": {
        "type": "string",
        "value": "0"
    },
    "_margin_": [
        0,
        0,
        0,
        0
    ],
    "_orientation_": 2,
    "_padding_": [
        0,
        0,
        0,
        0
    ],
    "_top_": {
        "type": "string",
        "value": "0"
    },
    "_width_": {
        "type": "string",
        "value": "100%"
    },
    "autogrowmode": 0,
    "canUpdateUI": true,
    "containerweight": 100,
    "counter": "09",
    "focusedindex": null,
    "focuseditem": null,
    "groupcells": false,
    "hasSections": false,
    "id": "segTopCustomer",
    "info": null,
    "ipad": {
        "psp": {
            "indicator": "rowselect"
        }
    },
    "iphone": {
        "psp": {
            "indicator": "rowselect"
        }
    },
    "iscustomlayout": false,
    "isvisible": true,
    "kuid": "e51e77436429418bbc5314df0968f27c",
    "masterdata": {},
    "name": "kony.ui.SegmentedUI2",
    "needpageindicator": true,
    "pageoffdotimage": "pageoffdot.png",
    "pageondotimage": "pageondot.png",
    "paginationconfig": {
        "position": "bottom"
    },
    "parent": "flxTopCustomer",
    "pf": "frmDashboardLending",
    "retaincontentalignment": false,
    "retainflexpositionproperties": false,
    "retainselection": false,
    "rowTemplateId": "j33d21e50170425c8d0ba4895727638e",
    "rowcounter": 9,
    "rowfocusskin": "s3f353c057a14ca8a8d6fa6caf39f59a",
    "rowskin": "s5344ea37b3f40f7877699e4eafbf3dc",
    "rowtemplate": "flxTopCust",
    "screenlevelwidget": false,
    "seccounter": 0,
    "sectionheaderskin": "s67dfc97c181442ebeb45ecca8ba0dc8",
    "selectedRows": null,
    "selectedState": false,
    "selectedindex": null,
    "selectedindices": null,
    "selecteditems": null,
    "selectedsectionindex": 0,
    "selectionbehavior": "default",
    "separatorcolor": "bcbfc22d",
    "separatorrequired": true,
    "separatorthickness": 1,
    "showscrollbars": false,
    "viewtype": "tableview",
    "vizProps": {},
    "wType": "Segment",
    "widgetalignment": 5,
    "widgetdatamap": {
        "flxCustomerWrap": "flxCustomerWrap",
        "flxTopCust": "flxTopCust",
        "lblCustomerID": "lblCustomerID",
        "lblFirstName": "lblFirstName",
        "lblRm": "lblRm"
    }
}