{
    "@class": "com.kony.gen.viz.model.component.KVizBrowser",
    "DNDConfig": null,
    "_height_": {
        "type": "string",
        "value": "660dp"
    },
    "_left_": {
        "type": "string",
        "value": "20dp"
    },
    "_margin_": [
        0,
        0,
        0,
        0
    ],
    "_padding_": [
        0,
        0,
        0,
        0
    ],
    "_top_": {
        "type": "string",
        "value": "20dp"
    },
    "_type_": 5,
    "_width_": {
        "type": "string",
        "value": "92%"
    },
    "androidwearos": {
        "render": false
    },
    "canUpdateUI": true,
    "containerweight": 69,
    "detecttelnumber": true,
    "enablenativecommunication": false,
    "htmlstring": "Browser",
    "id": "stackbarchart",
    "info": null,
    "iscustomlayout": false,
    "isvisible": false,
    "kuid": "f2e4650e87cd45f480e0b2b8f2230b20",
    "localurl": "w75b9c9b20724b719ce3aa5356aa4d71",
    "margininpixel": false,
    "method": "get",
    "name": "kony.ui.Browser",
    "paddinginpixel": false,
    "parent": "flxRightGraphs",
    "pf": "frmDashboardLending",
    "requesturlconfig": {
        "URL": "",
        "requestMethod": "get"
    },
    "retaincontentalignment": false,
    "retainflexpositionproperties": false,
    "screenlevelwidget": false,
    "url": "",
    "wType": "Browser",
    "zindex": 1
}