{
    "@class": "com.kony.gen.viz.model.component.KVizUserWidget",
    "DNDConfig": null,
    "_children_": [],
    "_height_": {
        "type": "string",
        "value": "100%"
    },
    "_left_": {
        "type": "string",
        "value": "0dp"
    },
    "_margin_": [
        0,
        0,
        0,
        0
    ],
    "_orientation_": 1,
    "_padding_": [
        0,
        0,
        0,
        0
    ],
    "_percent_": true,
    "_render_": true,
    "_skin_": "se31956b9efb4cdeb803f81ffb1335e2",
    "_top_": {
        "type": "string",
        "value": "0dp"
    },
    "_width_": {
        "type": "string",
        "value": "100%"
    },
    "canUpdateUI": true,
    "centerx": {
        "type": "string",
        "value": "50%"
    },
    "containerweight": 0,
    "data": {
        "canvasHeight": "",
        "canvasWidth": "",
        "datasetsArray": "[{\"label\":\"Personal Loans\",\"backgroundColor\":\"rgba(88, 37, 220, 0.2)\",\"pointBackgroundColor\" : \"#5825DC\",\"pointBorderColor\": \"#5825DC\",\"borderColor\": \"#5831D8\",\"borderWidth\": 1,\"data\":[10,11,9,8,7,6,10]},{\"label\":\"Mortgage Loans\",\"backgroundColor\":\"rgba(219, 102, 110, 0.2)\",\"pointBackgroundColor\" : \"#DB666E\",\"pointBorderColor\": \"#DB666E\",\"borderColor\": \"#DB666E\",\"borderWidth\": 1,\"data\":[8,4,4,5,9,6,4]}]",
        "lineAreaFill": true,
        "xlabelsArray": "[\"Day 1\", \"Day 2\", \"Day 3\", \"Day 4\", \"Day 5\", \"Day 6\", \"Day 7\"]"
    },
    "id": "tabPopupGraph",
    "info": null,
    "iscustomlayout": false,
    "issegmentchild": false,
    "isvisible": true,
    "kuid": "ffabc3f512f548baa2fd7ea64d2bbdae",
    "masterType": 1,
    "name": "kony.ui.UserWidgetInstance",
    "parent": "flxGraphCard",
    "pf": "frmDashboardLending",
    "retaincontentalignment": false,
    "retainflexpositionproperties": false,
    "retainflowhorizontalalignment": false,
    "sourceUserWidget": "j7c0acf137b8479ca74853dd93216c43",
    "wType": "UserWidgetInstance",
    "zindex": 1
}