{
    "@class": "com.kony.gen.viz.model.component.KVizCustom",
    "DNDConfig": null,
    "_height_": {
        "type": "string",
        "value": "34dp"
    },
    "_margin_": [
        0,
        0,
        0,
        0
    ],
    "_padding_": [
        0,
        0,
        0,
        0
    ],
    "_right_": {
        "type": "number",
        "value": "0"
    },
    "_top_": {
        "type": "number",
        "value": "1"
    },
    "_width_": {
        "type": "string",
        "value": "240dp"
    },
    "android": {
        "render": false
    },
    "androidwearos": {
        "render": false
    },
    "canUpdateUI": true,
    "centery": {
        "type": "string",
        "value": "50%"
    },
    "clipbounds": false,
    "containerweight": 0,
    "customProperties": {
        "": "",
        "onclickEvent": "",
        "options": "",
        "value": ""
    },
    "cwEvents": [
        "onclickEvent"
    ],
    "cwid": "cwc0ac15c4dc0c45bcbdd77d8e4f54c9cd",
    "id": "TPWDaysToggle1",
    "info": null,
    "ipad": {
        "render": false
    },
    "iphone": {
        "render": false
    },
    "iscustomlayout": false,
    "isvisible": true,
    "kiosk": {
        "render": false
    },
    "kuid": "jcf3ad831abd4a1f9ec99579cf115892",
    "name": "uuxButtonToggle-kony.ui",
    "nameSpaceIndex": 0,
    "parent": "flxRightCountSelection",
    "pf": "frmDashboardLending",
    "platformKey": "spa",
    "retaincontentalignment": false,
    "retainflexpositionproperties": false,
    "tabrcandroid": {
        "render": false
    },
    "wType": "TPW",
    "watchos": {
        "render": false
    },
    "widgetIndex": 3,
    "windows10": {
        "render": false
    },
    "windows8": {
        "render": false
    },
    "winphone10": {
        "render": false
    },
    "winphone8": {
        "render": false
    }
}