{
    "@class": "com.kony.gen.viz.model.component.KVizListBox",
    "DNDConfig": null,
    "_height_": {
        "type": "string",
        "value": "41dp"
    },
    "_left_": {
        "type": "string",
        "value": "5%"
    },
    "_margin_": [
        0,
        0,
        0,
        0
    ],
    "_padding_": [
        0,
        0,
        0,
        0
    ],
    "_placeholder_": "Please Select",
    "_skin_": "sddf77c1bb3e451292e5032bb17de594",
    "_top_": {
        "type": "string",
        "value": "0dp"
    },
    "_width_": {
        "type": "string",
        "value": "15%"
    },
    "canUpdateUI": true,
    "centery": {
        "type": "string",
        "value": "50.00%"
    },
    "containerId": true,
    "containerweight": 100,
    "contentalignment": 4,
    "disabledSkins": {
        "focusSkin": "s6459b4e1e854d2ebfa3bf2b0a69365f"
    },
    "groupcells": false,
    "id": "lblServices",
    "info": null,
    "iscustomlayout": false,
    "isvisible": true,
    "kuid": "a5eec81adf684f1790237dcd6c3b36aa",
    "masterdata": [
        [
            "select",
            "Please Select"
        ],
        [
            "loanService1",
            "Apply Payment Holiday"
        ],
        [
            "loanService2",
            "Change Interest"
        ],
        [
            "loanService3",
            "Disburse"
        ],
        [
            "loanService4",
            "Increase Principal"
        ],
        [
            "loanService5",
            "Payoff"
        ],
        [
            "loanService6",
            "Repay"
        ]
    ],
    "name": "kony.ui.ListBox",
    "paddinginpixel": false,
    "parent": "FlexContainer0e9ca59adb7ed43",
    "pf": "tempForLoansSegment",
    "retaincontentalignment": false,
    "retainflexpositionproperties": false,
    "selectedkey": "select",
    "selectedkeys": null,
    "selectedkeyvalue": [
        "select",
        "Please Select"
    ],
    "selectedkeyvalues": null,
    "size": 18,
    "viewconfig": {
        "toggleViewConfig": {
            "viewStyle": 0
        }
    },
    "viewtype": 0,
    "wType": "ListBox",
    "zindex": 1
}