{
    "@class": "com.kony.gen.viz.model.component.KVizButton",
    "DNDConfig": null,
    "_height_": {
        "type": "string",
        "value": "20dp"
    },
    "_left_": {
        "type": "string",
        "value": "25%"
    },
    "_margin_": [
        6,
        6,
        6,
        6
    ],
    "_padding_": [
        0,
        0,
        0,
        0
    ],
    "_skin_": "s222bab9a9db42668cf5c990d7ff79ae",
    "_text_": "",
    "_width_": {
        "type": "string",
        "value": "12%"
    },
    "canUpdateUI": true,
    "centery": {
        "type": "string",
        "value": "50%"
    },
    "containerId": true,
    "containerweight": 100,
    "contentalignment": 5,
    "displaytext": true,
    "focusskin": "s222bab9a9db42668cf5c990d7ff79ae",
    "id": "lblTitle",
    "ide_onClick": "AS_Button_f42c7b756fbe4e39b96d71ba572d6458",
    "info": null,
    "iscustomlayout": false,
    "isvisible": true,
    "kuid": "df57e5e8218f47748bbdc880298e1d21",
    "name": "kony.ui.Button",
    "parent": "FlexGroup0d7f2ca3295ba45",
    "pf": "CopysegData",
    "retaincontentalignment": false,
    "retainflexpositionproperties": false,
    "wType": "Button",
    "zindex": 1
}