{
    "customComponent": {
        "i18nSupported": true,
        "id": "cwb4a82a015ff9469e935ab797c7097da5",
        "isOverride": false,
        "konyWrapperFiles": [
            "resources/thirdpartywidgets/widgetwrapper/tp-UUXRuleDesignerInput-wrapper.js"
        ],
        "libraryFiles": [
            "resources/thirdpartywidgets/libtoimport/base.css",
            "resources/thirdpartywidgets/libtoimport/unified-ux-web.min.js"
        ],
        "libraryName": "libtoimport",
        "marginSupported": true,
        "name": "UUXRuleDesignerInput",
        "paddingSupported": true,
        "platformID": "0",
        "property": [
            {
                "categoryType": "Custom",
                "defaultValue": "",
                "exclude": false,
                "name": "labelText",
                "propertySelection": false,
                "type": "String",
                "uniqueID": "cwpa306f8b4d4544a12a3ec50177ce32c42",
                "value": ""
            },
            {
                "categoryType": "Custom",
                "defaultValue": false,
                "exclude": false,
                "name": "dense",
                "propertySelection": false,
                "type": "Boolean",
                "uniqueID": "cwpi47aee5c96a6420d857b17a7eb3778a7",
                "value": false
            },
            {
                "categoryType": "Custom",
                "defaultValue": false,
                "exclude": false,
                "name": "disabled",
                "propertySelection": false,
                "type": "Boolean",
                "uniqueID": "cwpdd2d2f3ec591434493320233cac7d926",
                "value": false
            },
            {
                "categoryType": "Custom",
                "defaultValue": false,
                "exclude": false,
                "name": "required",
                "propertySelection": false,
                "type": "Boolean",
                "uniqueID": "cwpf64786be5ca74333a74b6f680d05d924",
                "value": false
            },
            {
                "categoryType": "Custom",
                "defaultValue": "",
                "exclude": false,
                "name": "value",
                "propertySelection": false,
                "type": "String",
                "uniqueID": "cwpd4b339dbdfcd4d9a8f100107c330aef7",
                "value": ""
            },
            {
                "categoryType": "Custom",
                "defaultValue": true,
                "exclude": false,
                "name": "ruleValue",
                "propertySelection": false,
                "type": "Boolean",
                "uniqueID": "cwpb74e8af3caa84480a1bfe9deaa5f6c25",
                "value": true
            },
            {
                "categoryType": "Custom",
                "defaultValue": false,
                "exclude": false,
                "name": "ruleEditValuesOnly",
                "propertySelection": false,
                "type": "Boolean",
                "uniqueID": "cwpc91e382efb984081a0c9642c71ffdb56",
                "value": false
            },
            {
                "categoryType": "Custom",
                "defaultValue": "null",
                "exclude": false,
                "name": "rules",
                "optionsList": [],
                "propertySelection": false,
                "type": "List",
                "uniqueID": "cwpi31a4c7417b7437a92470eac63ad5647",
                "value": "null"
            },
            {
                "categoryType": "Custom",
                "defaultValue": "",
                "exclude": false,
                "name": "ruleSupportLevel",
                "propertySelection": false,
                "type": "String",
                "uniqueID": "cwpb19362b21208431aa3ad8452e119c34e",
                "value": ""
            },
            {
                "categoryType": "Custom",
                "defaultValue": "",
                "exclude": false,
                "name": "dialogLabel",
                "propertySelection": false,
                "type": "String",
                "uniqueID": "cwpj329c8fd34b24b5483fc6e11dc960ce9",
                "value": ""
            }
        ]
    }
}