{
    "@class": "com.kony.gen.viz.model.component.KVizUserWidget",
    "DNDConfig": null,
    "_children_": [],
    "_height_": {
        "type": "ref",
        "value": "preferred"
    },
    "_left_": {
        "type": "string",
        "value": "18dp"
    },
    "_margin_": [
        0,
        0,
        0,
        0
    ],
    "_orientation_": 1,
    "_padding_": [
        0,
        0,
        0,
        0
    ],
    "_percent_": true,
    "_skin_": "s25c0c493c444bd7b7e8537b3fd73877",
    "_top_": {
        "type": "string",
        "value": "16dp"
    },
    "_width_": {
        "type": "string",
        "value": "98%"
    },
    "canUpdateUI": true,
    "containerweight": 0,
    "data": {},
    "id": "ContractRequestDescription",
    "info": null,
    "iscustomlayout": false,
    "isvisible": true,
    "kuid": "a0b738e41bdf4926ab5604bc28d35519",
    "masterType": 1,
    "name": "kony.ui.UserWidgetInstance",
    "parent": "flxA",
    "pf": "frmCustomerAccountsDetails",
    "retaincontentalignment": false,
    "retainflexpositionproperties": false,
    "retainflowhorizontalalignment": false,
    "sourceUserWidget": "b87605d0e4d040deab600bab2f12cf82",
    "wType": "UserWidgetInstance",
    "zindex": 5
}