{
    "customComponent": {
        "i18nSupported": true,
        "id": "cwjd10bb654c4640db9978299903b4f9af",
        "isOverride": false,
        "konyWrapperFiles": [
            "resources/thirdpartywidgets/widgetwrapper/tp-uuxTextArea-wrapper.js"
        ],
        "libraryFiles": [
            "resources/thirdpartywidgets/libtoimport/base.css",
            "resources/thirdpartywidgets/libtoimport/unified-ux-web.min.js"
        ],
        "libraryName": "libtoimport",
        "marginSupported": true,
        "name": "uuxTextArea",
        "paddingSupported": true,
        "platformID": "0",
        "property": [
            {
                "categoryType": "Custom",
                "defaultValue": "",
                "exclude": false,
                "name": "labelText",
                "propertySelection": false,
                "type": "String",
                "uniqueID": "cwpa4827f1c24ba4d5aa5824a79fa79bd80",
                "value": ""
            },
            {
                "categoryType": "Custom",
                "defaultValue": "",
                "exclude": false,
                "name": "value",
                "propertySelection": false,
                "type": "String",
                "uniqueID": "cwpaa0c7b7c8b35471d831552c17aecc2e2",
                "value": ""
            },
            {
                "categoryType": "Custom",
                "defaultValue": "",
                "exclude": false,
                "name": "maxLength",
                "propertySelection": false,
                "type": "Number",
                "uniqueID": "cwpdb10527ae916449486d80ba94c1a7714",
                "value": ""
            },
            {
                "categoryType": "Event",
                "defaultValue": "",
                "exclude": false,
                "name": "valueChanged",
                "propertySelection": false,
                "type": "Event",
                "uniqueID": "cwpa958f440817647e7be481d74953b3c54",
                "value": ""
            },
            {
                "categoryType": "Custom",
                "defaultValue": "",
                "exclude": false,
                "name": "validationMessage",
                "propertySelection": false,
                "type": "String",
                "uniqueID": "cwpj43cefe5df554f8481079ee9cc010f28",
                "value": ""
            },
            {
                "categoryType": "Custom",
                "defaultValue": "",
                "exclude": false,
                "name": "validateRequired",
                "propertySelection": false,
                "type": "String",
                "uniqueID": "cwpee55f7d99ced4be9be631319e2d60143",
                "value": ""
            },
            {
                "categoryType": "Custom",
                "defaultValue": false,
                "exclude": false,
                "name": "disabled",
                "propertySelection": false,
                "type": "Boolean",
                "uniqueID": "cwpe80202510acf477289bdcfa9b8308d08",
                "value": false
            }
        ]
    }
}