{
  "operationConfig" : {
    "name" : "getAccounts7395",
    "type" : "MappedToBackend",
    "cachable" : false,
    "smsEnabled" : false,
    "security" : "authorized_app_user",
    "responseEncoding" : "UTF-8",
    "httpMethod" : "GET",
    "decodeResponseBody" : false,
    "odata" : [ {
      "id" : "$select",
      "dataType" : "string",
      "encode" : true,
      "accessType" : "readonly"
    }, {
      "id" : "$filter",
      "dataType" : "string",
      "encode" : true,
      "accessType" : "readonly"
    }, {
      "id" : "$orderby",
      "dataType" : "string",
      "encode" : true,
      "accessType" : "readonly"
    }, {
      "id" : "$top",
      "dataType" : "string",
      "encode" : true,
      "accessType" : "readonly"
    }, {
      "id" : "$skip",
      "dataType" : "string",
      "encode" : true,
      "accessType" : "readonly"
    }, {
      "id" : "$expand",
      "dataType" : "string",
      "encode" : true,
      "accessType" : "readonly"
    }, {
      "id" : "$batchsize",
      "dataType" : "string",
      "encode" : true,
      "accessType" : "readonly"
    }, {
      "id" : "$batchid",
      "dataType" : "string",
      "encode" : true,
      "accessType" : "readonly"
    } ],
    "oMapping" : "<?xml version=\"1.0\" encoding=\"UTF-8\" standalone=\"yes\"?>\n<mapper xmlns=\"http://www.kony.com/ns/mapper\">\n    <map inputpath=\"response_in\" outputpath=\"response_out\">\n        <map inputpath=\"error\" outputpath=\"getAccountsObject\">\n            <set-param inputpath=\"../body/categoryName\" outputpath=\"categoryName\"/>\n            <set-param inputpath=\"../body/productName\" outputpath=\"productName\"/>\n            <set-param inputpath=\"../body/customerName\" outputpath=\"customerName\"/>\n            <set-param inputpath=\"../body/availableBalance\" outputpath=\"availableBalance\"/>\n            <set-param inputpath=\"../body/accountId\" outputpath=\"accountId\"/>\n            <set-param inputpath=\"../body/availableLimit\" outputpath=\"availableLimit\"/>\n            <set-param inputpath=\"../body/availableFunds\" outputpath=\"availableFunds\"/>\n            <set-param inputpath=\"../body/workingBalance\" outputpath=\"workingBalance\"/>\n            <set-param inputpath=\"../body/onlineActualBalance\" outputpath=\"onlineActualBalance\"/>\n            <set-param inputpath=\"../body/customerId\" outputpath=\"customerId\"/>\n            <set-param inputpath=\"../body/currencyId\" outputpath=\"currencyId\"/>\n            <set-param inputpath=\"../body/openingDate\" outputpath=\"openingDate\"/>\n            <set-param inputpath=\"../body/categoryId\" outputpath=\"categoryId\"/>\n            <set-param inputpath=\"code\" outputpath=\"code\"/>\n            <set-param inputpath=\"message\" outputpath=\"message\"/>\n            <set-param inputpath=\"type\" outputpath=\"type\"/>\n        </map>\n    </map>\n</mapper>\n",
    "oVisualMappingData" : "{\"nodeDataArray\":[{\"isGroup\":true,\"key\":\"response_out\",\"text\":\"getAccountsObject\",\"xy\":\"762 660\"},{\"isGroup\":true,\"key\":\"response_in\",\"text\":\"FundsWithdrawal (1.0).getAccounts\",\"xy\":\"150 100\"}],\"linkDataArray\":[{\"category\":\"Mapping\",\"visible\":true,\"from\":\"source:error:code:\",\"to\":\"target:getAccountsObject:code:\",\"fromPort\":\"source:error:code:\",\"toPort\":\"target:getAccountsObject:code:\"},{\"category\":\"Mapping\",\"visible\":true,\"from\":\"source:error:message:\",\"to\":\"target:getAccountsObject:message:\",\"fromPort\":\"source:error:message:\",\"toPort\":\"target:getAccountsObject:message:\"},{\"category\":\"Mapping\",\"visible\":true,\"from\":\"source:error:type:\",\"to\":\"target:getAccountsObject:type:\",\"fromPort\":\"source:error:type:\",\"toPort\":\"target:getAccountsObject:type:\"},{\"category\":\"Mapping\",\"visible\":true,\"from\":\"source:body:accountId:\",\"to\":\"target:getAccountsObject:accountId:\",\"fromPort\":\"source:body:accountId:\",\"toPort\":\"target:getAccountsObject:accountId:\"},{\"category\":\"Mapping\",\"visible\":true,\"from\":\"source:body:availableBalance:\",\"to\":\"target:getAccountsObject:availableBalance:\",\"fromPort\":\"source:body:availableBalance:\",\"toPort\":\"target:getAccountsObject:availableBalance:\"},{\"category\":\"Mapping\",\"visible\":true,\"from\":\"source:body:availableLimit:\",\"to\":\"target:getAccountsObject:availableLimit:\",\"fromPort\":\"source:body:availableLimit:\",\"toPort\":\"target:getAccountsObject:availableLimit:\"},{\"category\":\"Mapping\",\"visible\":true,\"from\":\"source:body:categoryName:\",\"to\":\"target:getAccountsObject:categoryName:\",\"fromPort\":\"source:body:categoryName:\",\"toPort\":\"target:getAccountsObject:categoryName:\"},{\"category\":\"Mapping\",\"visible\":true,\"from\":\"source:body:currencyId:\",\"to\":\"target:getAccountsObject:currencyId:\",\"fromPort\":\"source:body:currencyId:\",\"toPort\":\"target:getAccountsObject:currencyId:\"},{\"category\":\"Mapping\",\"visible\":true,\"from\":\"source:body:customerName:\",\"to\":\"target:getAccountsObject:customerName:\",\"fromPort\":\"source:body:customerName:\",\"toPort\":\"target:getAccountsObject:customerName:\"},{\"category\":\"Mapping\",\"visible\":true,\"from\":\"source:body:onlineActualBalance:\",\"to\":\"target:getAccountsObject:onlineActualBalance:\",\"fromPort\":\"source:body:onlineActualBalance:\",\"toPort\":\"target:getAccountsObject:onlineActualBalance:\"},{\"category\":\"Mapping\",\"visible\":true,\"from\":\"source:body:productName:\",\"to\":\"target:getAccountsObject:productName:\",\"fromPort\":\"source:body:productName:\",\"toPort\":\"target:getAccountsObject:productName:\"},{\"category\":\"Mapping\",\"visible\":true,\"from\":\"source:body:workingBalance:\",\"to\":\"target:getAccountsObject:workingBalance:\",\"fromPort\":\"source:body:workingBalance:\",\"toPort\":\"target:getAccountsObject:workingBalance:\"},{\"category\":\"Mapping\",\"visible\":true,\"from\":\"source:body:availableFunds:\",\"to\":\"target:getAccountsObject:availableFunds:\",\"fromPort\":\"source:body:availableFunds:\",\"toPort\":\"target:getAccountsObject:availableFunds:\"},{\"category\":\"Mapping\",\"visible\":true,\"from\":\"source:body:customerId:\",\"to\":\"target:getAccountsObject:customerId:\",\"fromPort\":\"source:body:customerId:\",\"toPort\":\"target:getAccountsObject:customerId:\"},{\"category\":\"Mapping\",\"visible\":true,\"from\":\"source:body:openingDate:\",\"to\":\"target:getAccountsObject:openingDate:\",\"fromPort\":\"source:body:openingDate:\",\"toPort\":\"target:getAccountsObject:openingDate:\"},{\"category\":\"Mapping\",\"visible\":true,\"from\":\"source:body:categoryId:\",\"to\":\"target:getAccountsObject:categoryId:\",\"fromPort\":\"source:body:categoryId:\",\"toPort\":\"target:getAccountsObject:categoryId:\"}],\"blockCount\":{\"variableCount\":0},\"variableMap\":{},\"xmlMappingOverride\":false}",
    "applyCommonMapping" : false,
    "applyRequestCommonMapping" : true,
    "applyResponseCommonMapping" : false,
    "backendMeta" : {
      "serviceName" : "FundsWithdrawal",
      "serviceVersion" : "1.0",
      "operationName" : "getAccounts"
    },
    "relationshipHierarchyMapping" : {
      "children" : [ ],
      "name" : "getAccountsObject",
      "actions" : {
        "get" : true
      },
      "selected" : true
    },
    "requestXmlMappingOverride" : false,
    "responseXmlMappingOverride" : false
  }
}