{
    "@class": "com.kony.gen.viz.model.component.KVizUserWidget",
    "DNDConfig": null,
    "_children_": [],
    "_height_": {
        "type": "string",
        "value": "72dp"
    },
    "_left_": {
        "type": "string",
        "value": "5.50%"
    },
    "_margin_": [
        0,
        0,
        0,
        0
    ],
    "_orientation_": 1,
    "_padding_": [
        0,
        0,
        0,
        0
    ],
    "_percent_": true,
    "_skin_": "s67924bcdecb43b69aa7b14971e89709",
    "_top_": {
        "type": "string",
        "value": "0dp"
    },
    "_width_": {
        "type": "string",
        "value": "92%"
    },
    "areflexpropsreferenced": false,
    "autogrowmode": 0,
    "canUpdateUI": true,
    "clipbounds": true,
    "containerweight": 0,
    "dataDiffs": {
        "ErrorAllert": {
            "__events__": {},
            "__info__": {
                "isRoot": true,
                "kuid": "gbdd2337b43141dd9c232d687df69fc4",
                "srcKUID": "h8cb39ec838349b1afb7dc4d9766919c",
                "wType": "FlexContainer"
            },
            "isVisible": false,
            "left": {
                "Default": {
                    "type": "string",
                    "value": "5.50%"
                }
            },
            "responsiveData": {},
            "right": {
                "Default": {
                    "type": "string",
                    "value": ""
                }
            },
            "width": {
                "Default": {
                    "type": "string",
                    "value": "92%"
                }
            },
            "zIndex": {
                "Default": 10
            }
        },
        "FlexContainer0c96d2d6573ff47": {
            "__events__": {},
            "__info__": {
                "kuid": "e69276812c8740c294d06f942c168928",
                "srcKUID": "ad572ec02bbc48ebbb4f1dc768804969",
                "wType": "FlexContainer"
            }
        },
        "FlexContainer0dbccc9f9939044": {
            "__events__": {},
            "__info__": {
                "kuid": "e6bcb223222940dda61adb33803153d2",
                "srcKUID": "f59a8a61ace1455b8914462b3d6bb03b",
                "wType": "FlexContainer"
            }
        },
        "Label0c0024c57dfb34f": {
            "__events__": {},
            "__info__": {
                "kuid": "bc7e916ede13404cb6b0e079a7b266e5",
                "srcKUID": "hf6d5793c5024998bc6f943030f92452",
                "wType": "Label"
            }
        },
        "btnImage": {
            "__events__": {},
            "__info__": {
                "kuid": "ecabe560184347989fcc2f51b4f4e5b6",
                "srcKUID": "e3042b659f1b42e99d68d9928629a9d5",
                "wType": "Button"
            }
        },
        "flxError": {
            "__events__": {},
            "__info__": {
                "kuid": "e97f436c720f401bb2627ed5991227a2",
                "srcKUID": "a49166f2d3d14eeaa2feb76e306db101",
                "wType": "FlexContainer"
            }
        },
        "imgClose": {
            "__events__": {},
            "__info__": {
                "kuid": "c6a366cd12cf4f6a9532d1104a59404c",
                "srcKUID": "e1c097d66c3744f18bfb83c30858a314",
                "wType": "Button"
            }
        },
        "imgClose1": {
            "__events__": {},
            "__info__": {
                "kuid": "h74e7b246cbd471c8706bf336fa1e586",
                "srcKUID": "j9728085e75b4abe9a6359d26438efcc",
                "wType": "Label"
            }
        },
        "imgClose2": {
            "__events__": {},
            "__info__": {
                "kuid": "fa41b0c23b0844b68adbf8b671e21d67",
                "srcKUID": "g5b93ccb39f549ac821e8d44292eaffa",
                "wType": "Label"
            }
        },
        "imgCloseBackup": {
            "__events__": {},
            "__info__": {
                "kuid": "ed97d35839494e11b9977c456c17067f",
                "srcKUID": "c646f7e0831248d7bc0f7b6f88ab6c22",
                "wType": "Image"
            }
        },
        "lblError": {
            "__events__": {},
            "__info__": {
                "kuid": "e67597f53fc4462482e729dd7ba3c476",
                "srcKUID": "i5ab170e82924d7ea954d38f04fd3d44",
                "wType": "Label"
            }
        },
        "lblErrorNotification": {
            "__events__": {},
            "__info__": {
                "kuid": "d12281e2124945f18b228ce466f2713e",
                "srcKUID": "f918c824751a41c7a0afc1d2b466bfc7",
                "wType": "Label"
            }
        },
        "lblImag": {
            "__events__": {},
            "__info__": {
                "kuid": "d9a23fa7ca38488ab3839d1260a73d65",
                "srcKUID": "ddbbe97dbe67439ea4934db8746fa110",
                "wType": "Label"
            }
        },
        "lblMessage": {
            "__events__": {},
            "__info__": {
                "kuid": "cccad2c77ee54dfaaa6b417052d6d1d8",
                "srcKUID": "d530e1757beb4ff9b9c4b003d6a3e47a",
                "wType": "Label"
            }
        }
    },
    "enablescrolling": true,
    "id": "ErrorAllert",
    "info": null,
    "iscustomlayout": false,
    "isdatareferenced": false,
    "isvisible": false,
    "kuid": "gbdd2337b43141dd9c232d687df69fc4",
    "layouttype": 2,
    "masterType": 0,
    "name": "kony.ui.UserWidgetInstance",
    "parent": "frmBlockUnblockDeposits",
    "pf": "frmBlockUnblockDeposits",
    "retaincontentalignment": false,
    "retainflexpositionproperties": false,
    "retainflowhorizontalalignment": false,
    "snapgridsize": 10,
    "snaptogrid": true,
    "sourceUserWidget": "h8cb39ec838349b1afb7dc4d9766919c",
    "wType": "UserWidgetInstance",
    "zindex": 10
}