{
    "DNDConfig": null,
    "_bottom_": {
        "type": "string",
        "value": "20dp"
    },
    "_height_": {
        "type": "string",
        "value": "1dp"
    },
    "_left_": {
        "type": "string",
        "value": "2%"
    },
    "_margin_": [
        0,
        0,
        0,
        0
    ],
    "_orientation_": 6,
    "_padding_": [
        0,
        0,
        0,
        0
    ],
    "_percent_": true,
    "_skin_": "s119cad427604c038eb52f926ce461b0",
    "_width_": {
        "type": "string",
        "value": "59%"
    },
    "allboxes": [],
    "autogrowmode": 0,
    "canUpdateUI": true,
    "children": [],
    "clipbounds": true,
    "containerweight": 100,
    "enablescrolling": true,
    "id": "flxSaperator2",
    "info": null,
    "iscustomlayout": false,
    "isvisible": true,
    "kuid": "d585c85a341c478ea01c64cf7589bece",
    "layouttype": 2,
    "name": "kony.ui.FlexContainer",
    "parent": "flxBlockLabels",
    "pf": "frmBlockUnblockDeposits",
    "retaincontentalignment": false,
    "retainflexpositionproperties": false,
    "retainflowhorizontalalignment": false,
    "snapgridsize": 10,
    "snaptogrid": true,
    "wType": "FlexContainer",
    "widgetalignment": 1,
    "zindex": 1
}