{
    "DNDConfig": null,
    "_height_": {
        "type": "string",
        "value": "26dp"
    },
    "_left_": {
        "type": "string",
        "value": "22dp"
    },
    "_margin_": [
        0,
        0,
        0,
        0
    ],
    "_orientation_": 6,
    "_padding_": [
        0,
        0,
        0,
        0
    ],
    "_percent_": true,
    "_skin_": "s6e16453b6b54efea38c040fd89496f4",
    "_width_": {
        "type": "string",
        "value": "26dp"
    },
    "allboxes": [],
    "autogrowmode": 0,
    "canUpdateUI": true,
    "centery": {
        "type": "string",
        "value": "50%"
    },
    "children": [
        "lblTightIcon"
    ],
    "clipbounds": true,
    "containerweight": 100,
    "enablescrolling": true,
    "id": "flxTightIconWrapper",
    "info": null,
    "iscustomlayout": false,
    "isvisible": true,
    "kuid": "ff0787cb51444b4b8d580771d64be0dc",
    "layouttype": 2,
    "name": "kony.ui.FlexContainer",
    "parent": "flxMessageInfo",
    "pf": "frmBlockUnblockDeposits",
    "retaincontentalignment": false,
    "retainflexpositionproperties": false,
    "retainflowhorizontalalignment": false,
    "snapgridsize": 10,
    "snaptogrid": true,
    "wType": "FlexContainer",
    "widgetalignment": 1,
    "zindex": 1
}