{
    "DNDConfig": null,
    "_height_": {
        "type": "string",
        "value": "50dp"
    },
    "_left_": {
        "type": "string",
        "value": "0dp"
    },
    "_margin_": [
        0,
        0,
        0,
        0
    ],
    "_orientation_": 6,
    "_padding_": [
        0,
        0,
        0,
        0
    ],
    "_percent_": true,
    "_skin_": "se31956b9efb4cdeb803f81ffb1335e2",
    "_top_": {
        "type": "string",
        "value": "0dp"
    },
    "_width_": {
        "type": "string",
        "value": "100%"
    },
    "allboxes": [],
    "autogrowmode": 0,
    "canUpdateUI": true,
    "children": [
        "lblAccNo",
        "lblCurrency",
        "lblBalance",
        "lblLastActivityDate"
    ],
    "clipbounds": true,
    "containerId": true,
    "containerweight": 100,
    "controllerInfo": {
        "default": {
            "channel": "desktop",
            "name": "CopyflxLoan0icf6efa07da643Controller"
        }
    },
    "desktopweb": {
        "psp": {
            "hoverSkin": "sfd3cf3e2bf449a0869b2db922483d05"
        }
    },
    "disabledSkins": {},
    "enablescrolling": true,
    "id": "CopyflxLoan0icf6efa07da643",
    "info": null,
    "isTemplate": true,
    "iscustomlayout": false,
    "isvisible": true,
    "kuid": "ed3e011f3673432e8e2478ab24c66953",
    "layouttype": 3,
    "name": "kony.ui.FlexContainer",
    "parent": "segInoperativeAccPopup",
    "pf": "segInoperativeAccPopup",
    "retaincontentalignment": false,
    "retainflexpositionproperties": false,
    "retainflowhorizontalalignment": false,
    "snapgridsize": 10,
    "snaptogrid": true,
    "wType": "FlexContainer",
    "widgetalignment": 1
}