{
    "classname": "ContractRequestDescription",
    "definitions": {
        "apis": {
            "custom": [
                {
                    "group": "General",
                    "kuid": "j3a7ff0512e94e2c9c5acd3f01bd39ad",
                    "paramList": [],
                    "propertyKey": "collapseResponseContainer",
                    "pw": {
                        "displayName": "collapseResponseContainer",
                        "uiRepresentation": "Label-Label-Button-Button"
                    },
                    "srcWgtKUID": "b87605d0e4d040deab600bab2f12cf82",
                    "type": "event"
                },
                {
                    "group": "General",
                    "kuid": "bd5d16f7854e4f5ab64f1cd12ba26b1d",
                    "paramList": [],
                    "propertyKey": "expandREsponseContainer",
                    "pw": {
                        "displayName": "expandREsponseContainer",
                        "uiRepresentation": "Label-Label-Button-Button"
                    },
                    "srcWgtKUID": "b87605d0e4d040deab600bab2f12cf82",
                    "type": "event"
                },
                {
                    "group": "General",
                    "kuid": "e98ae58d81b445069b49f5a41c9b1c39",
                    "paramList": [
                        {
                            "name": "desc"
                        },
                        {
                            "name": "additionalNote"
                        },
                        {
                            "name": "contractType"
                        },
                        {
                            "name": "contractChannel"
                        },
                        {
                            "name": "contractDate"
                        },
                        {
                            "name": "status"
                        }
                    ],
                    "propertyKey": "populateDataToResponseContainer",
                    "pw": {
                        "displayName": "populateDataToResponseContainer",
                        "uiRepresentation": "Label-Label-Button-Button"
                    },
                    "srcWgtKUID": "b87605d0e4d040deab600bab2f12cf82",
                    "type": "event"
                },
                {
                    "group": "General",
                    "kuid": "e0d5d289775c4fa0b157cf5ce9fdce52",
                    "paramList": [],
                    "propertyKey": "getStatusSelectKey",
                    "pw": {
                        "displayName": "getStatusSelectKey",
                        "uiRepresentation": "Label-Label-Button-Button"
                    },
                    "srcWgtKUID": "b87605d0e4d040deab600bab2f12cf82",
                    "type": "event"
                },
                {
                    "group": "General",
                    "kuid": "c6f73e499d23404f85563ce405f9c63b",
                    "paramList": [
                        {
                            "name": "key"
                        }
                    ],
                    "propertyKey": "setStatusSelectedKey",
                    "pw": {
                        "displayName": "setStatusSelectedKey",
                        "uiRepresentation": "Label-Label-Button-Button"
                    },
                    "srcWgtKUID": "b87605d0e4d040deab600bab2f12cf82",
                    "type": "event"
                }
            ],
            "passthrough": []
        },
        "events": {
            "custom": [],
            "passthrough": [
                {
                    "access": "Enable",
                    "group": "General",
                    "kuid": "b31e92b6e15f43bbb32b39418dcb5718",
                    "originalPropertyKey": "onClick",
                    "propertyIndex": 1,
                    "propertyKey": "onClickSubmit",
                    "pw": {
                        "access": "readwrite",
                        "category": "action",
                        "displayName": "onClickSubmit",
                        "srcWidget": "btnSubmit",
                        "type": "action",
                        "uiRepresentation": "Label-Label-Button-Button",
                        "wType": "Button"
                    },
                    "srcWgtKUID": "j387c199c0314df8b0ddda33f5550ab0",
                    "translateAtInstance": false
                },
                {
                    "access": "Enable",
                    "group": "General",
                    "kuid": "ea07863e5d344fd094c0474a779717dc",
                    "originalPropertyKey": "onTouchEnd",
                    "propertyIndex": 2,
                    "propertyKey": "arrowOnTouchEnd",
                    "pw": {
                        "access": "readwrite",
                        "category": "action",
                        "displayName": "arrowOnTouchEnd",
                        "srcWidget": "lblArrow",
                        "type": "action",
                        "uiRepresentation": "Label-Label-Button-Button",
                        "wType": "Label"
                    },
                    "srcWgtKUID": "a96cdd41788846b1a7e7c17606b9af93",
                    "translateAtInstance": false
                }
            ]
        },
        "groups": {
            "apis": [
                "General"
            ],
            "events": [],
            "properties": [],
            "widgets": []
        },
        "properties": {
            "custom": [],
            "passthrough": [
                {
                    "access": "Enable",
                    "group": "General",
                    "kuid": "ie4ab3191f9b472190ab67d03a6c0a74",
                    "originalPropertyKey": "text",
                    "propertyIndex": 1,
                    "propertyKey": "arrowChangeText",
                    "pw": {
                        "access": "readwrite",
                        "category": "look",
                        "dependencyConditions": {},
                        "dependentKeysKUIDs": null,
                        "displayName": "arrowChangeText",
                        "isHiddenInTool": false,
                        "srcWidget": "lblArrow",
                        "type": "string",
                        "uiRepresentation": "Label-Textbox",
                        "wType": "Label"
                    },
                    "srcWgtKUID": "a96cdd41788846b1a7e7c17606b9af93"
                },
                {
                    "access": "Enable",
                    "group": "General",
                    "kuid": "bd20d5209bae40e98993fc325180bd33",
                    "originalPropertyKey": "text",
                    "propertyIndex": 4,
                    "propertyKey": "ContractTypeResponse",
                    "pw": {
                        "access": "readwrite",
                        "category": "look",
                        "dependencyConditions": {},
                        "dependentKeysKUIDs": null,
                        "displayName": "ContractTypeResponse",
                        "isHiddenInTool": false,
                        "srcWidget": "lblAppointmentResponse",
                        "type": "string",
                        "uiRepresentation": "Label-Textbox",
                        "wType": "Label"
                    },
                    "srcWgtKUID": "adb49bdee04e4ceda7fb35a3694ed3da"
                },
                {
                    "access": "Enable",
                    "group": "General",
                    "kuid": "g7b5b2074cbf4fe2995dd136fe854c82",
                    "originalPropertyKey": "text",
                    "propertyIndex": 5,
                    "propertyKey": "contractChannelResponse",
                    "pw": {
                        "access": "readwrite",
                        "category": "look",
                        "dependencyConditions": {},
                        "dependentKeysKUIDs": null,
                        "displayName": "contractChannelResponse",
                        "isHiddenInTool": false,
                        "srcWidget": "lblContractChannelResponse",
                        "type": "string",
                        "uiRepresentation": "Label-Textbox",
                        "wType": "Label"
                    },
                    "srcWgtKUID": "j168279ad25d4755b7124d0ce7c493bb"
                },
                {
                    "access": "Enable",
                    "group": "General",
                    "kuid": "abe23d835a694bffa070f214b6224b7c",
                    "originalPropertyKey": "text",
                    "propertyIndex": 6,
                    "propertyKey": "contractDateResponse",
                    "pw": {
                        "access": "readwrite",
                        "category": "look",
                        "dependencyConditions": {},
                        "dependentKeysKUIDs": null,
                        "displayName": "contractDateResponse",
                        "isHiddenInTool": false,
                        "srcWidget": "lblContractDateResponse",
                        "type": "string",
                        "uiRepresentation": "Label-Textbox",
                        "wType": "Label"
                    },
                    "srcWgtKUID": "f08c97163b974a1bb582df203af7fba3"
                },
                {
                    "access": "Enable",
                    "group": "General",
                    "kuid": "d78bb20c834741c69ce43d87812b3527",
                    "originalPropertyKey": "text",
                    "propertyIndex": 7,
                    "propertyKey": "descriptionText",
                    "pw": {
                        "access": "readwrite",
                        "category": "look",
                        "dependencyConditions": {},
                        "dependentKeysKUIDs": null,
                        "displayName": "descriptionText",
                        "isHiddenInTool": false,
                        "srcWidget": "cusTextAreaDescriptionResponse",
                        "type": "string",
                        "uiRepresentation": "Label-Textarea",
                        "wType": "TextArea"
                    },
                    "srcWgtKUID": "f19f46bf322a44db83c79884d1a7b33e"
                },
                {
                    "access": "Enable",
                    "group": "General",
                    "kuid": "aed67c7a2170409eb651527e91144fe7",
                    "originalPropertyKey": "text",
                    "propertyIndex": 8,
                    "propertyKey": "additionalNotesValue",
                    "pw": {
                        "access": "readwrite",
                        "category": "look",
                        "dependencyConditions": {},
                        "dependentKeysKUIDs": null,
                        "displayName": "additionalNotesValue",
                        "isHiddenInTool": false,
                        "srcWidget": "cusTextAreaAdditionalResponse",
                        "type": "string",
                        "uiRepresentation": "Label-Textarea",
                        "wType": "TextArea"
                    },
                    "srcWgtKUID": "e86902c3b22541c6810935c58555ab19"
                },
                {
                    "access": "Enable",
                    "group": "General",
                    "kuid": "ee0d636273244022ac4680466907f56e",
                    "originalPropertyKey": "text",
                    "propertyIndex": 9,
                    "propertyKey": "buttonText",
                    "pw": {
                        "access": "readwrite",
                        "category": "look",
                        "dependencyConditions": {},
                        "dependentKeysKUIDs": null,
                        "displayName": "buttonText",
                        "isHiddenInTool": false,
                        "srcWidget": "btnSubmit",
                        "type": "string",
                        "uiRepresentation": "Label-Textbox",
                        "wType": "Button"
                    },
                    "srcWgtKUID": "j387c199c0314df8b0ddda33f5550ab0"
                },
                {
                    "access": "Enable",
                    "group": "General",
                    "kuid": "befbfb127e064d0f9df133f239c7c688",
                    "originalPropertyKey": "masterData",
                    "propertyIndex": 12,
                    "propertyKey": "statusMasterData",
                    "pw": {
                        "access": "readwrite",
                        "category": "widget",
                        "companionKeys": [
                            {
                                "isVisible": false,
                                "key": "selectedKey1",
                                "originalKey": "selectedKey"
                            },
                            {
                                "isVisible": false,
                                "key": "selectedKeys",
                                "originalKey": "selectedKeys"
                            }
                        ],
                        "dependencyConditions": {},
                        "dependentKeysKUIDs": null,
                        "displayName": "statusMasterData",
                        "isHiddenInTool": false,
                        "srcWidget": "cusDropDownStatus",
                        "type": "data",
                        "uiConfig": {
                            "Button": {
                                "dataRetrieverId": "Masterdata-Groupwidget",
                                "dataUpdaterId": "Masterdata-Groupwidget",
                                "popupId": "Masterdata-Groupwidget",
                                "type": "GroupWidgetMasterDataBtn"
                            },
                            "Label": {}
                        },
                        "uiRepresentation": "Label-Button",
                        "wType": "ListBox"
                    },
                    "srcWgtKUID": "e9068513ab34422199df656127aedf31"
                },
                {
                    "access": "Enable",
                    "group": "General",
                    "kuid": "cdc7541fc6b54c70be3e07b4ecf243a0",
                    "originalPropertyKey": "selectedKey",
                    "propertyIndex": 12,
                    "propertyKey": "selectedKey1",
                    "pw": {
                        "access": "readwrite",
                        "isHiddenInTool": true,
                        "srcWidget": "cusDropDownStatus"
                    },
                    "srcWgtKUID": "e9068513ab34422199df656127aedf31"
                },
                {
                    "access": "Enable",
                    "group": "General",
                    "kuid": "gea75b74e8044eec93ad7706cc8f9341",
                    "originalPropertyKey": "selectedKeys",
                    "propertyIndex": 12,
                    "propertyKey": "selectedKeys",
                    "pw": {
                        "access": "readwrite",
                        "isHiddenInTool": true,
                        "srcWidget": "cusDropDownStatus"
                    },
                    "srcWgtKUID": "e9068513ab34422199df656127aedf31"
                },
                {
                    "access": "Enable",
                    "group": "General",
                    "kuid": "c4b180821b5c4a55900b4236edb7f51f",
                    "originalPropertyKey": "text",
                    "propertyIndex": 13,
                    "propertyKey": "descriptionHeaderResponse",
                    "pw": {
                        "access": "readwrite",
                        "category": "look",
                        "dependencyConditions": {},
                        "dependentKeysKUIDs": null,
                        "displayName": "descriptionHeaderResponse",
                        "isHiddenInTool": false,
                        "srcWidget": "lblDescriptionNotesHeaderResponse",
                        "type": "string",
                        "uiRepresentation": "Label-Textbox",
                        "wType": "Label"
                    },
                    "srcWgtKUID": "a9ee6509ba1f45bd9a7cdb4d00d562f8"
                }
            ]
        },
        "widgets": {
            "expose": [],
            "passthrough": []
        }
    },
    "namespace": "com.lending.contractRequestDescription",
    "version": "1.0.0"
}