{
    "@class": "com.kony.gen.viz.model.component.KVizCustom",
    "DNDConfig": null,
    "_height_": {
        "type": "string",
        "value": "56dp"
    },
    "_left_": {
        "type": "number",
        "value": "0"
    },
    "_margin_": [
        0,
        0,
        0,
        0
    ],
    "_padding_": [
        0,
        0,
        0,
        0
    ],
    "_width_": {
        "type": "string",
        "value": "265dp"
    },
    "android": {
        "render": false
    },
    "androidwearos": {
        "render": false
    },
    "canUpdateUI": true,
    "centery": {
        "type": "string",
        "value": "50%"
    },
    "clipbounds": false,
    "containerweight": 0,
    "customProperties": {
        "decimals": 2,
        "dense": true,
        "disabled": false,
        "endAligned": false,
        "labelDescription": "Current Commitment",
        "locale": "en-US",
        "placeholder": "",
        "prefix": "",
        "readonly": true,
        "suffix": "",
        "validateRequired": "",
        "value": ""
    },
    "cwEvents": [],
    "cwid": "cwc78708e3b36b4a869b0ef21472b48b16",
    "id": "amtCurrentCommitment1",
    "info": null,
    "ipad": {
        "render": false
    },
    "iphone": {
        "render": false
    },
    "iscustomlayout": false,
    "isvisible": true,
    "kiosk": {
        "render": false
    },
    "kuid": "gad6e40306e64483b8f84275916b6818",
    "name": "uuxAmountComponent-kony.ui",
    "nameSpaceIndex": 0,
    "parent": "flxIncreaseCommitmentFields",
    "pf": "frmCustomerLoanIncreaseAmt",
    "platformKey": "spa",
    "retaincontentalignment": false,
    "retainflexpositionproperties": false,
    "tabrcandroid": {
        "render": false
    },
    "wType": "TPW",
    "watchos": {
        "render": false
    },
    "widgetIndex": 1,
    "windows10": {
        "render": false
    },
    "windows8": {
        "render": false
    },
    "winphone10": {
        "render": false
    },
    "winphone8": {
        "render": false
    },
    "zindex": 1
}