{
    "@class": "com.kony.gen.viz.model.component.KVizUserWidget",
    "DNDConfig": null,
    "_children_": [],
    "_height_": {
        "type": "string",
        "value": "40dp"
    },
    "_left_": {
        "type": "string",
        "value": "0"
    },
    "_margin_": [
        0,
        0,
        0,
        0
    ],
    "_orientation_": 1,
    "_padding_": [
        0,
        0,
        0,
        0
    ],
    "_percent_": true,
    "_skin_": "s9fb436e50844ffabd8171f82a502113",
    "_width_": {
        "type": "string",
        "value": "265dp"
    },
    "areflexpropsreferenced": false,
    "autogrowmode": 0,
    "canUpdateUI": true,
    "centery": {
        "type": "string",
        "value": "40%"
    },
    "clipbounds": false,
    "containerweight": 0,
    "dataDiffs": {
        "floatReadOnlylText": {
            "__events__": {},
            "__info__": {
                "isRoot": true,
                "kuid": "e845166d0f7c4735a4bf520708c7d761",
                "srcKUID": "d8763494da67460cad3ea79386008f76",
                "wType": "FlexContainer"
            },
            "autogrowMode": {
                "Default": 0
            },
            "centerX": {
                "Default": {
                    "type": "string",
                    "value": ""
                }
            },
            "centerY": {
                "Default": {
                    "type": "string",
                    "value": "40%"
                }
            },
            "height": {
                "Default": {
                    "type": "string",
                    "value": "40dp"
                }
            },
            "isVisible": false,
            "left": {
                "Default": {
                    "type": "string",
                    "value": "0"
                }
            },
            "responsiveData": {},
            "top": {
                "Default": {
                    "type": "string",
                    "value": ""
                }
            },
            "width": {
                "Default": {
                    "type": "string",
                    "value": "265dp"
                }
            }
        },
        "flxBgColor": {
            "__events__": {},
            "__info__": {
                "kuid": "cfe0f28144a64d51863a0512b390729c",
                "srcKUID": "b1684b69c1484003a0f35665e72e8ff5",
                "wType": "FlexContainer"
            }
        },
        "flxBottomLine": {
            "__events__": {},
            "__info__": {
                "kuid": "a9effe46ce4a419ba216eabdf096a02d",
                "srcKUID": "a4c2dad9779144a1bf019bb2f1e96a39",
                "wType": "FlexContainer"
            }
        },
        "lblFloatLabel": {
            "__events__": {},
            "__info__": {
                "kuid": "c5d8ce69432942a5a69107752e9eb909",
                "srcKUID": "a392dd31c88748d190ca582c30a03421",
                "wType": "Label"
            },
            "responsiveData": {},
            "text": "Current Commitment"
        },
        "txtFloatText": {
            "__events__": {},
            "__info__": {
                "kuid": "a71fbd46eee3433da24c3f9dbf782867",
                "srcKUID": "ddee0fbfdb2f48b1a213b8d492db03d1",
                "wType": "TextField"
            },
            "left": {
                "Default": {
                    "type": "string",
                    "value": "0dp"
                }
            },
            "responsiveData": {},
            "text": "",
            "textInputMode": "A"
        }
    },
    "enablescrolling": true,
    "id": "amtCurrentCommitment2",
    "info": null,
    "iscustomlayout": false,
    "isdatareferenced": false,
    "issegmentchild": false,
    "isvisible": false,
    "kuid": "e845166d0f7c4735a4bf520708c7d761",
    "layouttype": 2,
    "masterType": 0,
    "name": "kony.ui.UserWidgetInstance",
    "parent": "flxIncreaseCommitmentFields",
    "pf": "frmCustomerLoanIncreaseAmt",
    "retaincontentalignment": false,
    "retainflexpositionproperties": false,
    "retainflowhorizontalalignment": false,
    "snapgridsize": 10,
    "snaptogrid": true,
    "sourceUserWidget": "d8763494da67460cad3ea79386008f76",
    "wType": "UserWidgetInstance",
    "zindex": 4
}