{
    "@class": "com.kony.gen.viz.model.component.KVizUserWidget",
    "DNDConfig": null,
    "_children_": [],
    "_height_": {
        "type": "string",
        "value": "40dp"
    },
    "_left_": {
        "type": "string",
        "value": "64dp"
    },
    "_margin_": [
        0,
        0,
        0,
        0
    ],
    "_orientation_": 1,
    "_padding_": [
        0,
        0,
        0,
        0
    ],
    "_percent_": true,
    "_skin_": "s9fb436e50844ffabd8171f82a502113",
    "_width_": {
        "type": "string",
        "value": "265dp"
    },
    "android": {},
    "androidwearos": {},
    "areflexpropsreferenced": false,
    "autogrowmode": 0,
    "canUpdateUI": true,
    "centery": {
        "type": "string",
        "value": "40%"
    },
    "clipbounds": false,
    "containerweight": 0,
    "dataDiffs": {
        "floatReadOnlylText": {
            "__events__": {},
            "__info__": {
                "isRoot": true,
                "kuid": "f5c3e8b135304e9b88d003f5336969d4",
                "srcKUID": "d8763494da67460cad3ea79386008f76",
                "wType": "FlexContainer"
            },
            "autogrowMode": {
                "Default": 0
            },
            "centerX": {
                "Default": {
                    "type": "string",
                    "value": ""
                }
            },
            "centerY": {
                "Default": {
                    "type": "string",
                    "value": "40%"
                }
            },
            "height": {
                "Default": {
                    "type": "string",
                    "value": "40dp"
                }
            },
            "isVisible": false,
            "left": {
                "Default": {
                    "type": "string",
                    "value": "64dp"
                }
            },
            "responsiveData": {},
            "top": {
                "Default": {
                    "type": "string",
                    "value": ""
                }
            },
            "width": {
                "Default": {
                    "type": "string",
                    "value": "265dp"
                }
            }
        },
        "flxBgColor": {
            "__events__": {},
            "__info__": {
                "kuid": "f58508a3921044cf9adfc0c618998d92",
                "srcKUID": "b1684b69c1484003a0f35665e72e8ff5",
                "wType": "FlexContainer"
            }
        },
        "flxBottomLine": {
            "__events__": {},
            "__info__": {
                "kuid": "id5fcda10da34f4ab2d830c7dfbb0c1b",
                "srcKUID": "a4c2dad9779144a1bf019bb2f1e96a39",
                "wType": "FlexContainer"
            }
        },
        "lblFloatLabel": {
            "__events__": {},
            "__info__": {
                "kuid": "b1637819aac94a54b7a5d902763fc36d",
                "srcKUID": "a392dd31c88748d190ca582c30a03421",
                "wType": "Label"
            },
            "responsiveData": {},
            "text": "Revised Commitment"
        },
        "txtFloatText": {
            "__events__": {},
            "__info__": {
                "kuid": "e88751767369457fb66cf03f8bc522b8",
                "srcKUID": "ddee0fbfdb2f48b1a213b8d492db03d1",
                "wType": "TextField"
            },
            "centerY": {
                "Default": {
                    "type": "string",
                    "value": "50.00%"
                }
            },
            "left": {
                "Default": {
                    "type": "string",
                    "value": "0dp"
                }
            },
            "responsiveData": {},
            "text": "",
            "textInputMode": "A",
            "top": {
                "Default": {
                    "type": "string",
                    "value": ""
                }
            }
        }
    },
    "desktopweb": {},
    "enablescrolling": true,
    "id": "amtRevisedommitment2",
    "info": null,
    "ipad": {},
    "iphone": {},
    "iscustomlayout": false,
    "isdatareferenced": false,
    "isvisible": false,
    "kiosk": {},
    "kuid": "f5c3e8b135304e9b88d003f5336969d4",
    "layouttype": 2,
    "masterType": 0,
    "name": "kony.ui.UserWidgetInstance",
    "parent": "flxIncreaseCommitmentFields",
    "pf": "frmCustomerLoanIncreaseAmt",
    "responsiveData": {},
    "retaincontentalignment": false,
    "retainflexpositionproperties": false,
    "retainflowhorizontalalignment": false,
    "snapgridsize": 10,
    "snaptogrid": true,
    "sourceUserWidget": "d8763494da67460cad3ea79386008f76",
    "spa": {},
    "spaan": {},
    "spaandroidtablet": {},
    "spabb": {},
    "spaip": {},
    "spaipad": {},
    "spamobile": {},
    "spatablet": {},
    "spawindowstablet": {},
    "spawinphone8": {},
    "tabrcandroid": {},
    "vizProps": {
        "hidewidgethierarchy": false
    },
    "wType": "UserWidgetInstance",
    "windows10": {},
    "windows8": {},
    "winphone10": {},
    "winphone8": {},
    "zindex": 4
}