{
    "@class": "com.kony.gen.viz.model.component.KVizCustom",
    "DNDConfig": null,
    "_height_": {
        "type": "string",
        "value": "60dp"
    },
    "_left_": {
        "type": "string",
        "value": "483dp"
    },
    "_margin_": [
        0,
        0,
        0,
        0
    ],
    "_padding_": [
        0,
        0,
        0,
        0
    ],
    "_right_": {
        "type": "string",
        "value": "528dp"
    },
    "_top_": {
        "type": "string",
        "value": "173dp"
    },
    "_width_": {
        "type": "string",
        "value": "265dp"
    },
    "android": {
        "render": false
    },
    "androidwearos": {
        "render": false
    },
    "canUpdateUI": true,
    "containerweight": 0,
    "customProperties": {
        "dense": false,
        "disabled": false,
        "disabledDates": "",
        "disabledDays": "",
        "displayFormat": "",
        "firstDayOfWeek": 0,
        "hideHeader": false,
        "iconButtonTrailingAriaLabel": "Open date calendar",
        "labelText": "Increase Effective Date",
        "max": "",
        "min": "1900-01-01",
        "showWeekNumber": false,
        "value": "",
        "valueChanged": "",
        "weekLabel": "Wk"
    },
    "cwEvents": [
        "valueChanged"
    ],
    "cwid": "cwfec5353029634671b5a44b7a745ad774",
    "id": "increaseEffectiveDate",
    "info": null,
    "ipad": {
        "render": false
    },
    "iphone": {
        "render": false
    },
    "iscustomlayout": false,
    "isvisible": false,
    "kiosk": {
        "render": false
    },
    "kuid": "ac760bcbc014459bbc4bbc6e3492db69",
    "name": "uuxDatePicker-kony.ui",
    "nameSpaceIndex": 0,
    "parent": "flxIncreaseCommitment",
    "pf": "frmCustomerLoanIncreaseAmt",
    "platformKey": "spa",
    "retaincontentalignment": false,
    "retainflexpositionproperties": false,
    "tabrcandroid": {
        "render": false
    },
    "wType": "TPW",
    "watchos": {
        "render": false
    },
    "widgetIndex": 5,
    "windows10": {
        "render": false
    },
    "windows8": {
        "render": false
    },
    "winphone10": {
        "render": false
    },
    "winphone8": {
        "render": false
    },
    "zindex": 1
}