{
    "@class": "com.kony.gen.viz.model.component.KVizUserWidget",
    "DNDConfig": null,
    "_children_": [],
    "_height_": {
        "type": "string",
        "value": "100%"
    },
    "_left_": {
        "type": "string",
        "value": "0dp"
    },
    "_margin_": [
        0,
        0,
        0,
        0
    ],
    "_orientation_": 1,
    "_padding_": [
        0,
        0,
        0,
        0
    ],
    "_percent_": true,
    "_skin_": "s3b5a2514ee64a47ace670af27181b09",
    "_top_": {
        "type": "string",
        "value": "0dp"
    },
    "_width_": {
        "type": "string",
        "value": "64dp"
    },
    "canUpdateUI": true,
    "containerweight": 0,
    "data": {
        "ide_onClickBtnExplorer": "AS_UWI_a17c69504bca401d94c89676af814122",
        "ide_onClickBtnHelp": "AS_UWI_d6ec65ff007a4b488f3d880d25fb1bc9",
        "skin1": "s2c0e0c2bc2e4ae2aa63fbfe2b7e1013",
        "skin2": "s85ee698a6db4f3eafe7b707a4aa7cb5"
    },
    "id": "uuxNavigationRail",
    "info": null,
    "iscustomlayout": false,
    "isvisible": true,
    "kuid": "hc86c9874456411faa299cf5c4dcd590",
    "masterType": 1,
    "name": "kony.ui.UserWidgetInstance",
    "parent": "frmCustomerLoanIncreaseAmt",
    "pf": "frmCustomerLoanIncreaseAmt",
    "retaincontentalignment": false,
    "retainflexpositionproperties": false,
    "retainflowhorizontalalignment": false,
    "sourceUserWidget": "b8e247740c794c7d840fd6c9028c42c1",
    "wType": "UserWidgetInstance"
}