{
    "@class": "com.kony.gen.viz.model.component.KVizUserWidget",
    "DNDConfig": null,
    "_children_": [],
    "_height_": {
        "type": "string",
        "value": "100%"
    },
    "_left_": {
        "type": "string",
        "value": "0dp"
    },
    "_margin_": [
        0,
        0,
        0,
        0
    ],
    "_orientation_": 1,
    "_padding_": [
        0,
        0,
        0,
        0
    ],
    "_percent_": true,
    "_skin_": "se31956b9efb4cdeb803f81ffb1335e2",
    "_top_": {
        "type": "string",
        "value": "0dp"
    },
    "_width_": {
        "type": "string",
        "value": "100%"
    },
    "canUpdateUI": true,
    "containerweight": 0,
    "data": {
        "canvasHeight": "50",
        "canvasWidth": "100"
    },
    "id": "fullGraph1",
    "info": null,
    "iscustomlayout": false,
    "isvisible": true,
    "kuid": "h9aeb7bf7db04271a4348d312bbd3d25",
    "masterType": 1,
    "name": "kony.ui.UserWidgetInstance",
    "parent": "fullGraphFlex",
    "pf": "loanNavigate",
    "retaincontentalignment": false,
    "retainflexpositionproperties": false,
    "retainflowhorizontalalignment": false,
    "sourceUserWidget": "j7c0acf137b8479ca74853dd93216c43",
    "wType": "UserWidgetInstance",
    "zindex": 1
}