{
    "@class": "com.kony.gen.viz.model.component.KVizUserWidget",
    "DNDConfig": null,
    "_children_": [],
    "_height_": {
        "type": "string",
        "value": "100%"
    },
    "_left_": {
        "type": "string",
        "value": "0dp"
    },
    "_margin_": [
        0,
        0,
        0,
        0
    ],
    "_orientation_": 1,
    "_padding_": [
        0,
        0,
        0,
        0
    ],
    "_percent_": true,
    "_skin_": "s4e043b98564449d8a4a73daad362f53",
    "_top_": {
        "type": "string",
        "value": "0dp"
    },
    "_width_": {
        "type": "string",
        "value": "100%"
    },
    "areflexpropsreferenced": false,
    "autogrowmode": 0,
    "canUpdateUI": true,
    "clipbounds": true,
    "containerweight": 0,
    "dataDiffs": {
        "CopyflxBck0c8bd2742893248": {
            "__events__": {},
            "__info__": {
                "kuid": "e0d2276547354fd4bf1046d781d5c15b",
                "srcKUID": "b16577411ad64ef0b69155d86f981147",
                "wType": "FlexContainer"
            }
        },
        "CopylblBack0j2de3a34459746": {
            "__events__": {},
            "__info__": {
                "kuid": "b0bdb56457fe4672a10d7e0b4a0d8e43",
                "srcKUID": "hf555ed03dd84c5c8b001d806fabf496",
                "wType": "Label"
            }
        },
        "CopylblBackArrow0a405d8ec3e4d46": {
            "__events__": {},
            "__info__": {
                "kuid": "bfb82eca40644e26b58154739d0fca16",
                "srcKUID": "c2729d6470df4bec9bb2f0566aaffa17",
                "wType": "Label"
            }
        },
        "FlexContainer0da2ffc32184b42": {
            "__events__": {},
            "__info__": {
                "kuid": "ac817941ad2c47abb5cfdaa2e0acb36d",
                "srcKUID": "h903dd1667de48baa27598a189677899",
                "wType": "FlexContainer"
            }
        },
        "FlexGroup0b337f90c7acb4e": {
            "__events__": {},
            "__info__": {
                "kuid": "ca211741a8b247cbb547c932c90ce44e",
                "srcKUID": "fce876425ac54b2789772f60a15ba407",
                "wType": "FlexContainer"
            }
        },
        "Label0e9ea2d0c21b54f": {
            "__events__": {},
            "__info__": {
                "kuid": "ia5f9b75c3a84cf9bcd43f7bc2c7cea9",
                "srcKUID": "i1d367cc36854ce6951d66f4288b5992",
                "wType": "Label"
            }
        },
        "PlayCircleDark": {
            "__events__": {},
            "__info__": {
                "kuid": "aa2ec9ace45d4707bc70670ecbe683c2",
                "srcKUID": "hbbef4873ddd4d2c845f4c02d70d9e63",
                "wType": "Label"
            }
        },
        "brw": {
            "__events__": {},
            "__info__": {
                "kuid": "ddd412f1f4c644178f722dc3f4ceef08",
                "srcKUID": "a71f40f28f42470baf7df31c0de8224f",
                "wType": "Browser"
            }
        },
        "btn1": {
            "__events__": {},
            "__info__": {
                "kuid": "e85e1e95b1a74f7688b2c23bbeddbc3a",
                "srcKUID": "gf03b7ec227d4252a8f10adb8fc5a29e",
                "wType": "Button"
            }
        },
        "btn2": {
            "__events__": {},
            "__info__": {
                "kuid": "e758f45e8ed446359d8fbcd1d4455c6e",
                "srcKUID": "b93e1896a97e46d994a5dd2137e47642",
                "wType": "Button"
            }
        },
        "btn3": {
            "__events__": {},
            "__info__": {
                "kuid": "d0fafe2e15b64098a17a8faea3f0cec8",
                "srcKUID": "g19387348c33490eb3a459606ac61572",
                "wType": "Button"
            }
        },
        "btn4": {
            "__events__": {},
            "__info__": {
                "kuid": "f2c8f61e89fa42e0a703f1abc95dfb12",
                "srcKUID": "j7114c0fedba464eba63b5f0df2121e9",
                "wType": "Button"
            }
        },
        "btn5": {
            "__events__": {},
            "__info__": {
                "kuid": "edf055b06bf14857a2c120cddca0d37e",
                "srcKUID": "c1b425151e7c4005be4f6b1b2e6665d1",
                "wType": "Button"
            }
        },
        "btn6": {
            "__events__": {},
            "__info__": {
                "kuid": "d22f62c082bc46658bfc67f0a6dbec77",
                "srcKUID": "f7160577513945aaaa8a7da41819af25",
                "wType": "Button"
            }
        },
        "btn7": {
            "__events__": {},
            "__info__": {
                "kuid": "a1fe325c264742afb9e523e40acc4493",
                "srcKUID": "bef38e3da76f493b994a1907df8a9d20",
                "wType": "Button"
            }
        },
        "btn8": {
            "__events__": {},
            "__info__": {
                "kuid": "fd2054a27e584e6c8c90552a3f1802d5",
                "srcKUID": "dc48bac4051f4069a07b2e9515777c97",
                "wType": "Button"
            }
        },
        "btnAccount": {
            "__events__": {},
            "__info__": {
                "kuid": "c824b8439e404d6098f5e2765c26b4dc",
                "srcKUID": "f9e7593e31214141aa727f3de5d9b8fd",
                "wType": "Button"
            }
        },
        "btnBackShowMore": {
            "__events__": {},
            "__info__": {
                "kuid": "f984531efb99422aaad9f8e4ca03c304",
                "srcKUID": "c7e165ebb99642dca78371e584d3cf69",
                "wType": "Button"
            }
        },
        "btnBckType": {
            "__events__": {},
            "__info__": {
                "kuid": "d41c05c6a999478bb6dc7cbc2073f336",
                "srcKUID": "fb7c1bdb2c1a4921a9eba28b2d339160",
                "wType": "Button"
            }
        },
        "btnClearTxt": {
            "__events__": {},
            "__info__": {
                "kuid": "d9ea0873772640188e3aabc74b36ae50",
                "srcKUID": "c305fdbd3745481b847747a394cb2091",
                "wType": "Button"
            }
        },
        "btnCloseHelp": {
            "__events__": {},
            "__info__": {
                "kuid": "j43ae8017c8e474a9f6a34d6c203f60f",
                "srcKUID": "i18a7a701189415c9f194aa7e4e8a7fe",
                "wType": "Button"
            }
        },
        "btnCloseVideo": {
            "__events__": {},
            "__info__": {
                "kuid": "j8cf012e6fd64874957fe895d1eae192",
                "srcKUID": "ccb1e540ebd942d29b2f8b3e8b63c15a",
                "wType": "Button"
            }
        },
        "btnDeposit": {
            "__events__": {},
            "__info__": {
                "kuid": "g01e0ec0109b49ddaa099b23d49bb9fb",
                "srcKUID": "b98862c630a14eed8baef0a86ec78c7d",
                "wType": "Button"
            }
        },
        "btnHomeHelp": {
            "__events__": {},
            "__info__": {
                "kuid": "da35f842408a4e3ea3c28553d370102d",
                "srcKUID": "i6791d96aab54846a3f762c9ddd25a10",
                "wType": "Button"
            }
        },
        "btnLoan": {
            "__events__": {},
            "__info__": {
                "kuid": "a3f895209c1c4a489a1767c708bd2e53",
                "srcKUID": "g96fe633ec7846a78b3e819e622b34d5",
                "wType": "Button"
            }
        },
        "btnMoreQues": {
            "__events__": {},
            "__info__": {
                "kuid": "d613171b15364401b80329da33df90c6",
                "srcKUID": "j24494575d2a4c2996b8a11c8e044fcf",
                "wType": "Button"
            }
        },
        "btnPlus1": {
            "__events__": {},
            "__info__": {
                "kuid": "b9d9180b5fe34f298329bb333f68c3f3",
                "srcKUID": "ade01b4e13f84d9ba2a388af7d79a8a3",
                "wType": "Button"
            }
        },
        "btnPlus2": {
            "__events__": {},
            "__info__": {
                "kuid": "de23a3d6890d4c35bf52e3d42cd11e51",
                "srcKUID": "ide2a591e4074e6eb1d5d4b18e9e904e",
                "wType": "Button"
            }
        },
        "btnPlus3": {
            "__events__": {},
            "__info__": {
                "kuid": "fb0ff6b7eaec4a36b08ac0b9b5fd08e2",
                "srcKUID": "ca1ecc271d9f4f2f991827d9705fc50f",
                "wType": "Button"
            }
        },
        "btnPlus4": {
            "__events__": {},
            "__info__": {
                "kuid": "i76764f6e1ae434cb260d898508790c0",
                "srcKUID": "ac1c6f2f035a442e9144c2d076cd2ba7",
                "wType": "Button"
            }
        },
        "btnShowMore": {
            "__events__": {},
            "__info__": {
                "kuid": "cb4b7bf568994c2e9469667922da4baf",
                "srcKUID": "f550a677a3764b5bb9f4f3a83930a9f6",
                "wType": "Button"
            }
        },
        "btnVideo": {
            "__events__": {},
            "__info__": {
                "kuid": "a6ba5347df5c443fa37fbe3c97aa9578",
                "srcKUID": "a5778429f0b1450da48aa6dd90e5f891",
                "wType": "Button"
            }
        },
        "clearSearch": {
            "__events__": {},
            "__info__": {
                "kuid": "ae13ae8c04664f00a4e5bbb2255a9835",
                "srcKUID": "d5b67cabc602484093e63b8bc30977f2",
                "wType": "Label"
            }
        },
        "clearTxtBxSearch": {
            "__events__": {},
            "__info__": {
                "kuid": "ec89b8ce714944c191d9381925fafc54",
                "srcKUID": "ec79be511d124c3393d9e3901c6628e8",
                "wType": "Label"
            }
        },
        "cusBackIcon": {
            "__events__": {},
            "__info__": {
                "kuid": "f2fe3484377849f29ef968776b0d7314",
                "srcKUID": "bcf684a9b65b471fa13be469d4cd008b",
                "wType": "Label"
            }
        },
        "flx1": {
            "__events__": {},
            "__info__": {
                "kuid": "a362b65d05084012a9ec7cf7d1fc3fa7",
                "srcKUID": "a0bfb497c3984392b4a69540803595ef",
                "wType": "FlexContainer"
            }
        },
        "flx2": {
            "__events__": {},
            "__info__": {
                "kuid": "fd87b0b7608446beb7889becb6e74d56",
                "srcKUID": "e1bc79ed2e17420c9329ab9862dda505",
                "wType": "FlexContainer"
            }
        },
        "flx3": {
            "__events__": {},
            "__info__": {
                "kuid": "d92895d1a1a54e7bb421530f6e20d5ba",
                "srcKUID": "e06f68df0dff47f5aea0915f446763ab",
                "wType": "FlexContainer"
            }
        },
        "flx4": {
            "__events__": {},
            "__info__": {
                "kuid": "je30e27b07a64ce4af0a908d43a319fc",
                "srcKUID": "i040b70fe33b4686b2adbe96ac59d4f3",
                "wType": "FlexContainer"
            }
        },
        "flx5": {
            "__events__": {},
            "__info__": {
                "kuid": "cad254bdd3e34da99ee277a681bb1ce6",
                "srcKUID": "ba4a2bd51d06431db01a951404c33781",
                "wType": "FlexContainer"
            }
        },
        "flx6": {
            "__events__": {},
            "__info__": {
                "kuid": "i37ac280cc5a47a79dac15b01d757696",
                "srcKUID": "b130bb72adea4f09875a6eda8c55be14",
                "wType": "FlexContainer"
            }
        },
        "flx7": {
            "__events__": {},
            "__info__": {
                "kuid": "hb949e52921e45f3892e89a13853418d",
                "srcKUID": "b11bad47fb294dc5840f249a1b5f1906",
                "wType": "FlexContainer"
            }
        },
        "flx8": {
            "__events__": {},
            "__info__": {
                "kuid": "da8e9d95b29445779bd36701ccf03a1f",
                "srcKUID": "bad38a5e97ce4193b687e896aa3944ac",
                "wType": "FlexContainer"
            }
        },
        "flxAccount": {
            "__events__": {},
            "__info__": {
                "kuid": "f5d5a36b3d8f4969b38fc7cae2e7bf2b",
                "srcKUID": "aaaec0ea0c204ddd861a3161b53b3d83",
                "wType": "FlexContainer"
            }
        },
        "flxAns1": {
            "__events__": {},
            "__info__": {
                "kuid": "ae29fe41a07541a182b6e85eec58cdfe",
                "srcKUID": "b7e31d8e21af4278a8e59adc5fc6acf1",
                "wType": "FlexContainer"
            }
        },
        "flxAns2": {
            "__events__": {},
            "__info__": {
                "kuid": "a837da868d024eac87c9d3c8aefb997f",
                "srcKUID": "b489098c53ee4c7e9249a8e348c5df26",
                "wType": "FlexContainer"
            }
        },
        "flxBack": {
            "__events__": {},
            "__info__": {
                "kuid": "c8d9d487c20d4ad9a878824d907bca12",
                "srcKUID": "g4cea0cac8c54dbd893d0896f90da17a",
                "wType": "FlexContainer"
            }
        },
        "flxBackAns": {
            "__events__": {},
            "__info__": {
                "kuid": "ad6657d1d284418ebd62ed9a1c9e2ce4",
                "srcKUID": "fcd55cc74304478284b321950493c37c",
                "wType": "FlexContainer"
            }
        },
        "flxBck": {
            "__events__": {},
            "__info__": {
                "kuid": "a2546eb3e92b4bc88c1a05ad20933538",
                "srcKUID": "be9f04b77e314f9db3721cd02d646046",
                "wType": "FlexContainer"
            }
        },
        "flxBckArrow": {
            "__events__": {},
            "__info__": {
                "kuid": "h68cc06d8a3a47baac7065d961e55d1f",
                "srcKUID": "cc449c9de12c4e569037a55673fa6b55",
                "wType": "FlexContainer"
            }
        },
        "flxBckType": {
            "__events__": {},
            "__info__": {
                "kuid": "f3f9ab633c724d6c8755eff4fb3c5661",
                "srcKUID": "c2ba4182760e4600a31e3670c358dc41",
                "wType": "FlexContainer"
            }
        },
        "flxBottom": {
            "__events__": {},
            "__info__": {
                "kuid": "c1290309e6394d8f8832a69df71d8c6a",
                "srcKUID": "i57540e2b2a142119b5bbd0e4ab73200",
                "wType": "FlexContainer"
            }
        },
        "flxBreadcrum": {
            "__events__": {},
            "__info__": {
                "kuid": "ab1e2b88895a49c386993301d7e8fb22",
                "srcKUID": "f9af58e989cb4baead77a0cdc5598ab9",
                "wType": "FlexContainer"
            }
        },
        "flxBrw": {
            "__events__": {},
            "__info__": {
                "kuid": "h390aef8728f4e4d876e9c83c5d5e3b3",
                "srcKUID": "e89130c9e32a430f9bcad3459116eb6e",
                "wType": "FlexContainer"
            }
        },
        "flxClose": {
            "__events__": {},
            "__info__": {
                "kuid": "ia0ba1f42d124d4d801b2e19a2853eb0",
                "srcKUID": "ca321916379940b3bfb45710c7e7a74e",
                "wType": "FlexContainer"
            }
        },
        "flxCloseHelp": {
            "__events__": {},
            "__info__": {
                "kuid": "j058e651dbd84bf59655b4b1b0e36d54",
                "srcKUID": "d9419379d1734dab907a6131c78a2721",
                "wType": "FlexContainer"
            }
        },
        "flxDeposits": {
            "__events__": {},
            "__info__": {
                "kuid": "gee5e9794ca443739ffdbc3d69f9b14e",
                "srcKUID": "f7025196d4514de3a9f3f09db659b9b4",
                "wType": "FlexContainer"
            }
        },
        "flxDesc": {
            "__events__": {},
            "__info__": {
                "kuid": "b592a1fc776a4cf5853c61724abd4b82",
                "srcKUID": "a71b80c6c201477a8d232adde99b07c8",
                "wType": "FlexScrollContainer"
            }
        },
        "flxDesc1": {
            "__events__": {},
            "__info__": {
                "kuid": "f83d55bedf6c49848614af9ee861ecac",
                "srcKUID": "de55147eb8284035b234ce7a36eab198",
                "wType": "FlexContainer"
            }
        },
        "flxDesc2": {
            "__events__": {},
            "__info__": {
                "kuid": "e1a6ffa8fafd4813baa37b10cc18531e",
                "srcKUID": "b364975898c448cdad3f93859c6ea65d",
                "wType": "FlexContainer"
            }
        },
        "flxDesc3": {
            "__events__": {},
            "__info__": {
                "kuid": "ad07812629974e91ad5bce3738498f4a",
                "srcKUID": "e15201dbff194e2e958f620777f04a42",
                "wType": "FlexContainer"
            }
        },
        "flxDescHeader2": {
            "__events__": {},
            "__info__": {
                "kuid": "i82d67d37e184357b6441e45d3f23d5c",
                "srcKUID": "cd19bc8590d843cba0480b9a9c56735a",
                "wType": "FlexContainer"
            }
        },
        "flxDescHeader3": {
            "__events__": {},
            "__info__": {
                "kuid": "c397ac9df639468e95de9127f506ac64",
                "srcKUID": "ef2fc08b77384c08a2ad866737bca11a",
                "wType": "FlexContainer"
            }
        },
        "flxDescType1": {
            "__events__": {},
            "__info__": {
                "kuid": "f8eeedfb2f18451a9e445ad4592e146a",
                "srcKUID": "c8dfd7163586439294bd41a9e2a5ff63",
                "wType": "FlexContainer"
            }
        },
        "flxDescType2": {
            "__events__": {},
            "__info__": {
                "kuid": "jb061fa4075345f99d003ff1d28eb135",
                "srcKUID": "f859acf1485c4197bbeb281e4482eb02",
                "wType": "FlexContainer"
            }
        },
        "flxDescType3": {
            "__events__": {},
            "__info__": {
                "kuid": "h1e2031ccf2c49cbae88e068bdd48bdc",
                "srcKUID": "ia544ffc23224366acf72e3716e439a6",
                "wType": "FlexContainer"
            }
        },
        "flxDescType4": {
            "__events__": {},
            "__info__": {
                "kuid": "i3e8c24de6e443c9ac723c3cfe4283ac",
                "srcKUID": "g6f6f861418f44e6adeac9a9c20e495a",
                "wType": "FlexContainer"
            }
        },
        "flxExpand1": {
            "__events__": {},
            "__info__": {
                "kuid": "id0af3f728b0479a90196b3acfed9336",
                "srcKUID": "b36ec4747b694ff7bf9d217313873c75",
                "wType": "FlexContainer"
            }
        },
        "flxExpand2": {
            "__events__": {},
            "__info__": {
                "kuid": "aaef378b4bba472e992f5ba2119b4a07",
                "srcKUID": "d72c68e704a346648b0dbb5f24bf9e0e",
                "wType": "FlexContainer"
            }
        },
        "flxExpand3": {
            "__events__": {},
            "__info__": {
                "kuid": "j5f2a2fafbe64e198424dc89baa30511",
                "srcKUID": "df42118b2dd743258295227000fab538",
                "wType": "FlexContainer"
            }
        },
        "flxExpand4": {
            "__events__": {},
            "__info__": {
                "kuid": "aecd67b055384a0dbf5a5aa2c189894d",
                "srcKUID": "d5f13bf2256b41d3ac9f8501a6499c8a",
                "wType": "FlexContainer"
            }
        },
        "flxFAQ": {
            "__events__": {},
            "__info__": {
                "kuid": "d530ce665dd94cefb1a6bfaf9db83e19",
                "srcKUID": "b8d09475252f43d0ae581e3ee22732f7",
                "wType": "FlexContainer"
            }
        },
        "flxHeader": {
            "__events__": {},
            "__info__": {
                "kuid": "f5eccb833f2543089ca11cfa6f5f127d",
                "srcKUID": "dda40f5444384e05bd31df5586e09659",
                "wType": "FlexContainer"
            }
        },
        "flxHelpGroup": {
            "__events__": {},
            "__info__": {
                "kuid": "c14890a42b1b48c69bf944fac63967be",
                "srcKUID": "b026eb2fdf514268b9c59bc70041b149",
                "wType": "FlexContainer"
            }
        },
        "flxHelpHome": {
            "__events__": {},
            "__info__": {
                "kuid": "be53f7ac442a40e788bf540b386fa5ec",
                "srcKUID": "f8894ced966e4176ac152c460a16d078",
                "wType": "FlexContainer"
            }
        },
        "flxLeft": {
            "__events__": {},
            "__info__": {
                "kuid": "cd0abf9d90754ac09c150ae407a45b97",
                "srcKUID": "aff2d17996804d8190a87030295eb836",
                "wType": "FlexContainer"
            }
        },
        "flxLoan": {
            "__events__": {},
            "__info__": {
                "kuid": "h2886c0f3ed1430fa71a356de618c4e6",
                "srcKUID": "ed2b8e77161e42749458f58139524002",
                "wType": "FlexContainer"
            }
        },
        "flxLoanHome": {
            "__events__": {},
            "__info__": {
                "kuid": "e871fac3700b4cf7a6ec84318f97956e",
                "srcKUID": "cf0de250c9fb4f91b573f7aee70ff57a",
                "wType": "FlexContainer"
            }
        },
        "flxMain": {
            "__events__": {},
            "__info__": {
                "kuid": "ddb6dbe3babd46cb8481bbf917cc2d13",
                "srcKUID": "edc31f77fb9b4fa2807e7246f98688f8",
                "wType": "FlexContainer"
            }
        },
        "flxOptions": {
            "__events__": {},
            "__info__": {
                "kuid": "ec50f3408d07439ebaba40c994d8d553",
                "srcKUID": "ba27426a42a7450daa9c1149b09ba883",
                "wType": "FlexContainer"
            }
        },
        "flxOptions2": {
            "__events__": {},
            "__info__": {
                "kuid": "ea339a6434aa43c59df6616a96574a8d",
                "srcKUID": "a6561fc38ef945c696d41c7e94237989",
                "wType": "FlexContainer"
            }
        },
        "flxPlayVideo": {
            "__events__": {},
            "__info__": {
                "kuid": "d013a3e125fa4b69af99b2e6b78c62fe",
                "srcKUID": "c8be0376565c46ddb12cfcecea789266",
                "wType": "FlexContainer"
            }
        },
        "flxQues": {
            "__events__": {},
            "__info__": {
                "kuid": "i972be3f4cbc452a97ac304ab640bb11",
                "srcKUID": "b3313ededb8641a8ba2ec9456aa5fce1",
                "wType": "FlexContainer"
            }
        },
        "flxQues1": {
            "__events__": {},
            "__info__": {
                "kuid": "i3abef7f89564a279a1524830ba5cd48",
                "srcKUID": "i16361d2a2c3482fbab82abf34e0105e",
                "wType": "FlexContainer"
            }
        },
        "flxQues2": {
            "__events__": {},
            "__info__": {
                "kuid": "ccaa6f89cb4e457a9a90acaaa49c4de7",
                "srcKUID": "h59f7992372c48fdb4a6e729be05343e",
                "wType": "FlexContainer"
            }
        },
        "flxRight": {
            "__events__": {},
            "__info__": {
                "kuid": "ffc8af64b8d1434094138e5f8133397b",
                "srcKUID": "b048fa0e16df45ed98495f445cdc77d9",
                "wType": "FlexContainer"
            }
        },
        "flxSearch": {
            "__events__": {},
            "__info__": {
                "kuid": "eaf51a4ab4704c978e840869e1818f8b",
                "srcKUID": "a4ad2b5851c140798c699f30d83e5922",
                "wType": "FlexContainer"
            }
        },
        "flxSearchResult": {
            "__events__": {},
            "__info__": {
                "kuid": "bed267be37cb406a9fd633a96b18ed5c",
                "srcKUID": "fd9bf5e18c5341229d01ca66f9080d78",
                "wType": "FlexContainer"
            }
        },
        "flxSeg": {
            "__events__": {},
            "__info__": {
                "kuid": "h90c9887827a40038e4c78e095c42e8f",
                "srcKUID": "i5df22fbbdc9499da4cea87aa52903e9",
                "wType": "FlexContainer"
            }
        },
        "flxSeparator": {
            "__events__": {},
            "__info__": {
                "kuid": "b339bd168ace49d4b850c04fc6a61638",
                "srcKUID": "a65262a100b3484a8c59afdf2937b887",
                "wType": "FlexContainer"
            }
        },
        "flxSeparator1": {
            "__events__": {},
            "__info__": {
                "kuid": "h55f35f7b655401eb7c142699dde4cab",
                "srcKUID": "d71721d3e671480b85ac0798048399bc",
                "wType": "FlexContainer"
            }
        },
        "flxSeparator2": {
            "__events__": {},
            "__info__": {
                "kuid": "b2736cbf50c440158e9af50d917e6cce",
                "srcKUID": "id6eb87e507c4475b63c7787625ce39b",
                "wType": "FlexContainer"
            }
        },
        "flxSeparator3": {
            "__events__": {},
            "__info__": {
                "kuid": "c7a555f2e5bf447c9e127b993ba3f465",
                "srcKUID": "f7f295b9a2e64e96aab50961fef790e5",
                "wType": "FlexContainer"
            }
        },
        "flxSeparator4": {
            "__events__": {},
            "__info__": {
                "kuid": "f0877babec3146afa622feec6ff806ea",
                "srcKUID": "d900e79d05234530868fce776015fbce",
                "wType": "FlexContainer"
            }
        },
        "flxSeparator5": {
            "__events__": {},
            "__info__": {
                "kuid": "jec1c1a912344f989c53495fbff5af07",
                "srcKUID": "ee45b60a6001476793b66433336a2889",
                "wType": "FlexContainer"
            }
        },
        "flxSeparator6": {
            "__events__": {},
            "__info__": {
                "kuid": "ff815dd531e24ddc843297017b17821d",
                "srcKUID": "gec0ca0f8f7e43ec9007fcf1207942fa",
                "wType": "FlexContainer"
            }
        },
        "flxSeparator7": {
            "__events__": {},
            "__info__": {
                "kuid": "i05dab96778e41f08e0867e70676cc99",
                "srcKUID": "b5346b7944524e6d8c3dac7c37c54269",
                "wType": "FlexContainer"
            }
        },
        "flxSeparator8": {
            "__events__": {},
            "__info__": {
                "kuid": "df4d6b16fbdf431ca9cce674507febfe",
                "srcKUID": "c8906c555203487fad3bb1dc986f3cd8",
                "wType": "FlexContainer"
            }
        },
        "flxSeparator9": {
            "__events__": {},
            "__info__": {
                "kuid": "gb238aff8a274565b88f53d2a120bbd4",
                "srcKUID": "b7f3ccf8eaeb46abb63a872ad1108e65",
                "wType": "FlexContainer"
            }
        },
        "flxServiceType": {
            "__events__": {},
            "__info__": {
                "kuid": "gee4240ffe724c5498d999631b54b746",
                "srcKUID": "b3b28e084d7b41b4b83322526324e6a8",
                "wType": "FlexContainer"
            }
        },
        "flxServices": {
            "__events__": {},
            "__info__": {
                "kuid": "aff95daab7a74a248bda3bc35e204ccd",
                "srcKUID": "c016e66338364214b74a7461d9848d2d",
                "wType": "FlexContainer"
            }
        },
        "flxThumbnail": {
            "__events__": {},
            "__info__": {
                "kuid": "ca3672bbafd444c7b9c829e412100d89",
                "srcKUID": "a3b1803b4d4d4e2785bdef5e6dd2f964",
                "wType": "FlexContainer"
            }
        },
        "flxTop": {
            "__events__": {},
            "__info__": {
                "kuid": "ec9bbae458454617a4ba1a1447776c31",
                "srcKUID": "ga3af34ef52f46e5a7a1605b0bf8e376",
                "wType": "FlexContainer"
            }
        },
        "flxTypes": {
            "__events__": {},
            "__info__": {
                "kuid": "b537f8492fd34142a4e022708fc2223b",
                "srcKUID": "f35a0eb455c141e1a4d6efc5d43897b0",
                "wType": "FlexContainer"
            }
        },
        "flxVideoHeader": {
            "__events__": {},
            "__info__": {
                "kuid": "a04656e52a9446428ea2ae6240785c7b",
                "srcKUID": "f217a1e1d1af4bd68f0db20b8ab36d62",
                "wType": "FlexContainer"
            }
        },
        "help": {
            "__events__": {},
            "__info__": {
                "isRoot": true,
                "kuid": "e5482604b8634ad996d9bf8296d234f0",
                "srcKUID": "i643b92ec19747a8a19d0206aa4e7dfd",
                "wType": "FlexContainer"
            },
            "isVisible": false,
            "responsiveData": {}
        },
        "imgClearSearch": {
            "__events__": {},
            "__info__": {
                "kuid": "a098b0377e2348f085bf64ff994cd053",
                "srcKUID": "f4a067ad50494fcf9f5dfc3be078ff02",
                "wType": "Image"
            }
        },
        "imgHelp": {
            "__events__": {},
            "__info__": {
                "kuid": "c63f1268eb6f4f808d11fee652ecbb47",
                "srcKUID": "i227efa189b94f3cba993d40a231401a",
                "wType": "Image"
            }
        },
        "lbl1": {
            "__events__": {},
            "__info__": {
                "kuid": "jc385fbd0a4841b0bd4bbcc49e318449",
                "srcKUID": "d3509ce36f9e4898bd95157609d83193",
                "wType": "Label"
            }
        },
        "lbl2": {
            "__events__": {},
            "__info__": {
                "kuid": "a70beebb877240c8ae7be935088fc7ef",
                "srcKUID": "g035c358ae3a40e2a7a0366a5666b095",
                "wType": "Label"
            }
        },
        "lbl3": {
            "__events__": {},
            "__info__": {
                "kuid": "bb8dc909b5ff4334a708d8c53faffeac",
                "srcKUID": "ee5313e1acb84d7c98e771e5199ebf16",
                "wType": "Label"
            }
        },
        "lbl4": {
            "__events__": {},
            "__info__": {
                "kuid": "ae81bcac98134942a5b30fe37073e165",
                "srcKUID": "i33f05e82aeb404bae061e09b9a4c032",
                "wType": "Label"
            }
        },
        "lbl5": {
            "__events__": {},
            "__info__": {
                "kuid": "cacc902605514542aa9282512a4ef9cc",
                "srcKUID": "i16ddf3e513248938ccabcb86227dff0",
                "wType": "Label"
            }
        },
        "lbl6": {
            "__events__": {},
            "__info__": {
                "kuid": "bbe2109420cf4f07a39ecd22ba26c690",
                "srcKUID": "c78cae81e7db4c2997465d9b2a316c3c",
                "wType": "Label"
            }
        },
        "lbl7": {
            "__events__": {},
            "__info__": {
                "kuid": "f0c08b443f2e4042a33ba72fb68b96ee",
                "srcKUID": "fdddfe4f6ae54acd9d2f24cef1480edd",
                "wType": "Label"
            }
        },
        "lblAccount": {
            "__events__": {},
            "__info__": {
                "kuid": "b76e4ac633104132b19f791249b78766",
                "srcKUID": "gcb11ef9112f4aaf83dedf081949f218",
                "wType": "Label"
            }
        },
        "lblBack": {
            "__events__": {},
            "__info__": {
                "kuid": "df1e6676513a489284e79c67294b9bd0",
                "srcKUID": "af42efb5c9734f35a86479e12082d7c9",
                "wType": "Label"
            }
        },
        "lblBackArrow": {
            "__events__": {},
            "__info__": {
                "kuid": "h03c63f689e94f55a069caa86d567758",
                "srcKUID": "i7e4d3fe76064489897ad754ba1436dc",
                "wType": "Label"
            }
        },
        "lblBreadBoardSplashValue": {
            "__events__": {},
            "__info__": {
                "kuid": "e627c7e706a940719844a71908e5d50f",
                "srcKUID": "d9392996140e41dc9047b3de22c0535e",
                "wType": "Label"
            }
        },
        "lblBreadBoardSplashValue1": {
            "__events__": {},
            "__info__": {
                "kuid": "b4cd1b7b07114a33ab6cbea6c2b5d60c",
                "srcKUID": "a8753db037664f35a09cb871bc0f296e",
                "wType": "Label"
            }
        },
        "lblCLose": {
            "__events__": {},
            "__info__": {
                "kuid": "f2c7ecd8f76f4ac48b23338a08530425",
                "srcKUID": "a014c0d9739f414d9f9f05c5a1a8bf69",
                "wType": "Label"
            }
        },
        "lblCloseVideo": {
            "__events__": {},
            "__info__": {
                "kuid": "c3b8d20c3b02445794316c4c100d1148",
                "srcKUID": "d43553c48af5450ba14840aad780e774",
                "wType": "Label"
            }
        },
        "lblDeposit": {
            "__events__": {},
            "__info__": {
                "kuid": "e9297cd538174adea639e443f6109849",
                "srcKUID": "c3b2ca8b86984ba58226493879af811f",
                "wType": "Label"
            }
        },
        "lblDesc1": {
            "__events__": {},
            "__info__": {
                "kuid": "ff11a4891a4d44ffb8228c80106b620c",
                "srcKUID": "eb41c26584474f49839c8cea12417259",
                "wType": "Label"
            }
        },
        "lblDescHeader2": {
            "__events__": {},
            "__info__": {
                "kuid": "h629ea80514248e79f3a8e845ec91256",
                "srcKUID": "b5baf206b8464b4fba2e02ec2ff69888",
                "wType": "Label"
            }
        },
        "lblDescHeader3": {
            "__events__": {},
            "__info__": {
                "kuid": "f4094ece929a4e5b845c19c187f9426f",
                "srcKUID": "e91aa104975a4dab9c88374817aadce4",
                "wType": "Label"
            }
        },
        "lblDescType1": {
            "__events__": {},
            "__info__": {
                "kuid": "fda66e22b5bb4a478723c3d9e7c22c85",
                "srcKUID": "g61a30d608d94984bff052fe7a75d5e2",
                "wType": "Label"
            }
        },
        "lblDescType2": {
            "__events__": {},
            "__info__": {
                "kuid": "h90da89a4b614f2b8e1acf9cdf311e5b",
                "srcKUID": "i06779772e5546f287996e47a1156cc7",
                "wType": "Label"
            }
        },
        "lblDescType3": {
            "__events__": {},
            "__info__": {
                "kuid": "d3a63018cb79486f98bef09faec5438e",
                "srcKUID": "j6f4c4f9894f44fe84c9162133f9e7eb",
                "wType": "Label"
            }
        },
        "lblDescType4": {
            "__events__": {},
            "__info__": {
                "kuid": "e455e7d6d5ae421bbf27fdef3db4da26",
                "srcKUID": "e8815ac2be7a4e23911c11e2cc745e50",
                "wType": "Label"
            }
        },
        "lblHelp": {
            "__events__": {},
            "__info__": {
                "kuid": "ea0be827c2cb45019035e8d96a6743ff",
                "srcKUID": "c60e7721576e4bce9af8c5a0bf066e28",
                "wType": "Label"
            }
        },
        "lblHelpBig": {
            "__events__": {},
            "__info__": {
                "kuid": "cb1a982c5f574af4a8185c1b796c9832",
                "srcKUID": "hb4e3cec82214761a188a1c8387481a9",
                "wType": "Label"
            }
        },
        "lblHi": {
            "__events__": {},
            "__info__": {
                "kuid": "c13de6cd26af493ca7123d838d5fbd2c",
                "srcKUID": "ba14537be17d47fcb5e47c0a0f94be78",
                "wType": "Label"
            }
        },
        "lblLoan": {
            "__events__": {},
            "__info__": {
                "kuid": "d088b7ab82664cd59772a1fe52f3882a",
                "srcKUID": "jb61888820914473bb0d8b812e54aa98",
                "wType": "Label"
            }
        },
        "lblLoanServices": {
            "__events__": {},
            "__info__": {
                "kuid": "eaab89c20bdb49cabe2dcf2ce3635032",
                "srcKUID": "ja7646bccdcc4a42bcfe7c658e46f3ad",
                "wType": "Button"
            }
        },
        "lblNoData": {
            "__events__": {},
            "__info__": {
                "kuid": "d58b14da2a3741dd88848561de79cf56",
                "srcKUID": "cd2176c2df61427cb905124d4c92fab2",
                "wType": "Label"
            }
        },
        "lblPath": {
            "__events__": {},
            "__info__": {
                "kuid": "cce6e8b314534e119d64064f05664312",
                "srcKUID": "a8dfafdc1a4d4acb961014a59df368c9",
                "wType": "Label"
            }
        },
        "lblQues1": {
            "__events__": {},
            "__info__": {
                "kuid": "gf9d51c4501b4624a4782de60e4c59cf",
                "srcKUID": "cb6f936cf02945fc9e4a428dcb292d88",
                "wType": "Label"
            }
        },
        "lblQues2": {
            "__events__": {},
            "__info__": {
                "kuid": "ed8f94db40f947009dafe6bd1d48791f",
                "srcKUID": "ia9ef851cabb492ba83249268b865363",
                "wType": "Label"
            }
        },
        "lblResult": {
            "__events__": {},
            "__info__": {
                "kuid": "e9a541189f3242e4a7b1f284fa5d8828",
                "srcKUID": "a2287e54ffac4f9ea760a2dfdb84b834",
                "wType": "Label"
            }
        },
        "lblSearchIcon": {
            "__events__": {},
            "__info__": {
                "kuid": "f8b50732966047eebc9e148e3f1e4e75",
                "srcKUID": "j9598771545e4a9e9b36f2743bc662af",
                "wType": "Label"
            }
        },
        "lblSlash": {
            "__events__": {},
            "__info__": {
                "kuid": "ddc1b804eace4b53814562c97905f8d6",
                "srcKUID": "cde106359f19405c818b784bdd9847fe",
                "wType": "Label"
            }
        },
        "lblType": {
            "__events__": {},
            "__info__": {
                "kuid": "i2d9bbef788c4dcd854238e2890f81c6",
                "srcKUID": "b2a41d31f8224e2ea24fe828c518f342",
                "wType": "Label"
            }
        },
        "lblVideoPath": {
            "__events__": {},
            "__info__": {
                "kuid": "g94287795e064edaac8e8a81b4de6a04",
                "srcKUID": "i4ecdcd46ac14fd0b3e3f014336565a8",
                "wType": "Label"
            }
        },
        "lstCategories": {
            "__events__": {},
            "__info__": {
                "kuid": "cf6a8066e4784bdd97b9e8220b04c0f1",
                "srcKUID": "fdb0776ac7e6402c987b030b0c2b699b",
                "wType": "ListBox"
            }
        },
        "plus1": {
            "__events__": {},
            "__info__": {
                "kuid": "e539c8dc01d546748b5e9ef79077f5f9",
                "srcKUID": "bbfd7a95280a4bde99a7434f3c488e53",
                "wType": "Label"
            }
        },
        "plus2": {
            "__events__": {},
            "__info__": {
                "kuid": "c96e77f1b3aa4851b899cd99d44ec303",
                "srcKUID": "a1d1685e5635469a8b07f4c0af156710",
                "wType": "Label"
            }
        },
        "plus3": {
            "__events__": {},
            "__info__": {
                "kuid": "d206920ee68e4ea99f1fba87fe5a987e",
                "srcKUID": "bf69cfac4b28433dab6f5a00758301cb",
                "wType": "Label"
            }
        },
        "plus4": {
            "__events__": {},
            "__info__": {
                "kuid": "fba05d107042485983a2d1e5825e3747",
                "srcKUID": "f08e0fbf4bc14c6cbb569f861ddcca36",
                "wType": "Label"
            }
        },
        "plus5": {
            "__events__": {},
            "__info__": {
                "kuid": "cfc2193b6a0d40c9bc9387fbc57bb22d",
                "srcKUID": "c635d227d8544e0c85417f75e148b139",
                "wType": "Label"
            }
        },
        "plus6": {
            "__events__": {},
            "__info__": {
                "kuid": "fccefdebd55d4c7bb8df8a470a3d543e",
                "srcKUID": "f54fb970b6774bd2a49e59c358732426",
                "wType": "Label"
            }
        },
        "rtx1": {
            "__events__": {},
            "__info__": {
                "kuid": "b2a92a9e85d44e828bed29a96dd1f667",
                "srcKUID": "d7748b2e7f544c169d7ab366bab4eefd",
                "wType": "RichText"
            }
        },
        "rtx2": {
            "__events__": {},
            "__info__": {
                "kuid": "ffa28dd1e2bc43b5bb372ceb433b5d97",
                "srcKUID": "a0af20ffdb8549c7bdcfe8b884cdc696",
                "wType": "RichText"
            }
        },
        "rtx3": {
            "__events__": {},
            "__info__": {
                "kuid": "fe312a067ab64ca6a4b4bf167c8754eb",
                "srcKUID": "f8414a33a79b4607bf06610c3b723de6",
                "wType": "RichText"
            }
        },
        "rtx4": {
            "__events__": {},
            "__info__": {
                "kuid": "acf3297b8ee84127b03d8a0705763c8c",
                "srcKUID": "debb7ffca0cf468b8692f8b44dbb7ebd",
                "wType": "RichText"
            }
        },
        "rtxAns1": {
            "__events__": {},
            "__info__": {
                "kuid": "jca6a31f69a44241a1a699f2c632b5a3",
                "srcKUID": "f675d12d064140628a8e1c834e7942af",
                "wType": "RichText"
            }
        },
        "rtxAns2": {
            "__events__": {},
            "__info__": {
                "kuid": "ed64bbb765ce48c393ac5a031cdb04ad",
                "srcKUID": "caaf177d270c4f4fb452ee87c1ae46df",
                "wType": "RichText"
            }
        },
        "rtxSelected": {
            "__events__": {},
            "__info__": {
                "kuid": "aa5e807caeff4ac2b283151d36312aea",
                "srcKUID": "e1aefa0a2ea74c4a830633e87c133eb3",
                "wType": "RichText"
            }
        },
        "rtxShow2": {
            "__events__": {},
            "__info__": {
                "kuid": "cad40635a13043caa28280c84f47a68f",
                "srcKUID": "b63bf04d14564b7f9fb88149b7fa0dae",
                "wType": "RichText"
            }
        },
        "rtxShow3": {
            "__events__": {},
            "__info__": {
                "kuid": "i3dcffeef51f41e39595c5bc2625a514",
                "srcKUID": "g1639a2b25b140199804ab85c752f967",
                "wType": "RichText"
            }
        },
        "rtxType": {
            "__events__": {},
            "__info__": {
                "kuid": "i909ff8468fd481e80583943f12bb9d2",
                "srcKUID": "be50cc1d0df54b4a989bdc8881351e07",
                "wType": "RichText"
            }
        },
        "seg1": {
            "__events__": {},
            "__info__": {
                "kuid": "ee91b4a2d02f440aa3bc0bf6a2b2f531",
                "srcKUID": "a5f67ffc497242809217564a4dfaff76",
                "wType": "Segment"
            }
        },
        "segQues": {
            "__events__": {},
            "__info__": {
                "kuid": "d4241cce8596446083fcabbeb3111db1",
                "srcKUID": "e043e3df04fb49c497ef0db96bed707d",
                "wType": "Segment"
            }
        },
        "segSearch": {
            "__events__": {},
            "__info__": {
                "kuid": "g311ff930d214164a5115821905f9f08",
                "srcKUID": "b3b9b207ea3043de85c736dde199c688",
                "wType": "FlexContainer"
            }
        },
        "segServiceTypes": {
            "__events__": {},
            "__info__": {
                "kuid": "d3c62a7237ed48b78007a3002c61687d",
                "srcKUID": "db3a15118c504dd7b720c7fb76a49c6f",
                "wType": "Segment"
            }
        },
        "txtPartialText": {
            "__events__": {},
            "__info__": {
                "kuid": "aaa0a7b566664b22b4046f486db5d20b",
                "srcKUID": "d409d95d749148e89bfc5b9f67de71a0",
                "wType": "TextField"
            }
        }
    },
    "enablescrolling": true,
    "id": "help",
    "info": null,
    "iscustomlayout": false,
    "isdatareferenced": false,
    "isvisible": false,
    "kuid": "e5482604b8634ad996d9bf8296d234f0",
    "layouttype": 2,
    "masterType": 0,
    "name": "kony.ui.UserWidgetInstance",
    "parent": "loanNavigate",
    "pf": "loanNavigate",
    "retaincontentalignment": false,
    "retainflexpositionproperties": false,
    "retainflowhorizontalalignment": false,
    "snapgridsize": 10,
    "snaptogrid": true,
    "sourceUserWidget": "i643b92ec19747a8a19d0206aa4e7dfd",
    "wType": "UserWidgetInstance",
    "zindex": 1
}