{
    "classname": "donutchartCopy1",
    "definitions": {
        "apis": {
            "custom": [
                {
                    "group": "General",
                    "kuid": "a9bbd7f2eaee432db6c863de515f5ceb",
                    "paramList": [
                        {
                            "name": "dataSet"
                        }
                    ],
                    "propertyKey": "createChart",
                    "pw": {
                        "displayName": "createChart",
                        "uiRepresentation": "Label-Label-Button-Button"
                    },
                    "srcWgtKUID": "u8a0f61313874c529c27f498e231d239",
                    "type": "event"
                }
            ],
            "passthrough": []
        },
        "events": {
            "custom": [],
            "passthrough": []
        },
        "groups": {
            "apis": [
                "General"
            ],
            "events": [],
            "properties": [
                "Title",
                "Legend"
            ],
            "widgets": []
        },
        "properties": {
            "custom": [
                {
                    "access": "Write",
                    "defaultValue": true,
                    "group": "Legend",
                    "kuid": "f9401e90b23d4b1bbe81359e3e939a81",
                    "originalPropertyKey": "enableLegend",
                    "propertyIndex": 1,
                    "propertyKey": "enableLegend",
                    "pw": {
                        "displayName": "Enable Legends",
                        "uiRepresentation": "Label-Radiobuttongroup"
                    },
                    "srcWgtKUID": "u8a0f61313874c529c27f498e231d239",
                    "type": "boolean",
                    "value": "true/false"
                },
                {
                    "access": "Write",
                    "defaultValue": "#ffffff",
                    "group": "General",
                    "kuid": "d4fdf5f9f33d404f9d43f50ca5d8fa92",
                    "originalPropertyKey": "bgColor",
                    "propertyIndex": 1,
                    "propertyKey": "bgColor",
                    "pw": {
                        "displayName": "Background Color",
                        "uiRepresentation": "Label-Textbox"
                    },
                    "srcWgtKUID": "u8a0f61313874c529c27f498e231d239",
                    "type": "string",
                    "value": ""
                },
                {
                    "access": "Write",
                    "defaultValue": {
                        "data": [
                            {
                                "colorCode": "#1B9ED9",
                                "label": "Data1",
                                "value": "40"
                            },
                            {
                                "colorCode": "#E8672B",
                                "label": "Data2",
                                "value": "20"
                            },
                            {
                                "colorCode": "#76C044",
                                "label": "Data3",
                                "value": "20"
                            },
                            {
                                "colorCode": "#FFC522",
                                "label": "Data4",
                                "value": "10"
                            },
                            {
                                "colorCode": "#97CDED",
                                "label": "Data5",
                                "value": "10"
                            }
                        ],
                        "schema": [
                            {
                                "columnHeaderTemplate": null,
                                "columnHeaderText": "Label",
                                "columnHeaderType": "text",
                                "columnID": "label",
                                "columnOnClick": null,
                                "columnText": "Not Defined",
                                "columnType": "text",
                                "kuid": "c8434b6cbed443e6a6167d99e8c3bdcb"
                            },
                            {
                                "columnHeaderTemplate": null,
                                "columnHeaderText": "Value",
                                "columnHeaderType": "text",
                                "columnID": "value",
                                "columnOnClick": null,
                                "columnText": "Not Defined",
                                "columnType": "text",
                                "kuid": "cddb65c1fe8c429bb5a4b5f93bd171ef"
                            },
                            {
                                "columnHeaderTemplate": null,
                                "columnHeaderText": "Color Code",
                                "columnHeaderType": "text",
                                "columnID": "colorCode",
                                "columnOnClick": null,
                                "columnText": "Not Defined",
                                "columnType": "text",
                                "kuid": "f722303b71a8439eae528d9af9856f30"
                            }
                        ]
                    },
                    "group": "General",
                    "kuid": "f33e1c2fa04f4add93d40036c0e0d0e7",
                    "originalPropertyKey": "chartData",
                    "propertyIndex": 1,
                    "propertyKey": "chartData",
                    "pw": {
                        "displayName": "Chart Data",
                        "uiRepresentation": "Label-DataGrid"
                    },
                    "srcWgtKUID": "u8a0f61313874c529c27f498e231d239",
                    "type": "data grid",
                    "value": 3
                },
                {
                    "access": "Write",
                    "defaultValue": "12",
                    "group": "Title",
                    "kuid": "d75de9d28e68485cb335fb5b57eddaf8",
                    "originalPropertyKey": "titleFontSize",
                    "propertyIndex": 1,
                    "propertyKey": "titleFontSize",
                    "pw": {
                        "displayName": "Title Font Size",
                        "uiRepresentation": "Label-Textbox"
                    },
                    "srcWgtKUID": "u8a0f61313874c529c27f498e231d239",
                    "type": "string",
                    "value": ""
                },
                {
                    "access": "Write",
                    "defaultValue": true,
                    "group": "General",
                    "kuid": "d0a3e845117446328970a19746050574",
                    "originalPropertyKey": "enableChartAnimation",
                    "propertyIndex": 1,
                    "propertyKey": "enableChartAnimation",
                    "pw": {
                        "displayName": "Enable Chart Animation",
                        "uiRepresentation": "Label-Radiobuttongroup"
                    },
                    "srcWgtKUID": "u8a0f61313874c529c27f498e231d239",
                    "type": "boolean",
                    "value": "true/false"
                },
                {
                    "access": "Write",
                    "defaultValue": "Donut Chart",
                    "group": "Title",
                    "kuid": "b0aa5776271f431abd58b4f7cc75751e",
                    "originalPropertyKey": "chartTitle",
                    "propertyIndex": 2,
                    "propertyKey": "chartTitle",
                    "pw": {
                        "displayName": "Chart Title",
                        "uiRepresentation": "Label-Textbox"
                    },
                    "srcWgtKUID": "u8a0f61313874c529c27f498e231d239",
                    "type": "string",
                    "value": ""
                },
                {
                    "access": "Write",
                    "defaultValue": "8",
                    "group": "Legend",
                    "kuid": "df91c246692e43b49d043df02dba2e3c",
                    "originalPropertyKey": "legendFontSize",
                    "propertyIndex": 2,
                    "propertyKey": "legendFontSize",
                    "pw": {
                        "displayName": "Legend Font Size",
                        "uiRepresentation": "Label-Textbox"
                    },
                    "srcWgtKUID": "u8a0f61313874c529c27f498e231d239",
                    "type": "string",
                    "value": ""
                },
                {
                    "access": "Write",
                    "defaultValue": true,
                    "group": "General",
                    "kuid": "ge074c265e7c4644bb393a651d4e47fd",
                    "originalPropertyKey": "enableStaticPreview",
                    "propertyIndex": 2,
                    "propertyKey": "enableStaticPreview",
                    "pw": {
                        "displayName": "Enable Static Preview",
                        "uiRepresentation": "Label-Radiobuttongroup"
                    },
                    "srcWgtKUID": "u8a0f61313874c529c27f498e231d239",
                    "type": "boolean",
                    "value": "true/false"
                },
                {
                    "access": "Write",
                    "defaultValue": "#000000",
                    "group": "Title",
                    "kuid": "hd858c82ae8e42e4b8b00a2827006090",
                    "originalPropertyKey": "titleFontColor",
                    "propertyIndex": 3,
                    "propertyKey": "titleFontColor",
                    "pw": {
                        "displayName": "Title Font Color",
                        "uiRepresentation": "Label-Textbox"
                    },
                    "srcWgtKUID": "u8a0f61313874c529c27f498e231d239",
                    "type": "string",
                    "value": ""
                },
                {
                    "access": "Write",
                    "defaultValue": "#000000",
                    "group": "Legend",
                    "kuid": "f5ef618de091495a8c7917d695428509",
                    "originalPropertyKey": "legendFontColor",
                    "propertyIndex": 3,
                    "propertyKey": "legendFontColor",
                    "pw": {
                        "displayName": "Legend Font Color",
                        "uiRepresentation": "Label-Textbox"
                    },
                    "srcWgtKUID": "u8a0f61313874c529c27f498e231d239",
                    "type": "string",
                    "value": ""
                }
            ],
            "passthrough": []
        },
        "widgets": {
            "expose": [],
            "passthrough": []
        }
    },
    "namespace": "com.konymp",
    "version": "1.0.0"
}