{
    "DNDConfig": null,
    "_height_": {
        "type": "string",
        "value": "64dp"
    },
    "_left_": {
        "type": "string",
        "value": "0dp"
    },
    "_margin_": [
        0,
        0,
        0,
        0
    ],
    "_orientation_": 6,
    "_padding_": [
        0,
        0,
        0,
        0
    ],
    "_percent_": true,
    "_skin_": "s5fad28035454f64b0d2792ab4a87fa9",
    "_top_": {
        "type": "string",
        "value": "0dp"
    },
    "_width_": {
        "type": "string",
        "value": "100%"
    },
    "allboxes": [],
    "autogrowmode": 0,
    "canUpdateUI": true,
    "children": [
        "lblAccountNumberInfo",
        "lblAccountTypeInfo",
        "lblCurrencyValueInfo",
        "lblAmountValueInfo",
        "lblStartDateInfo",
        "lblMaturityDateInfo",
        "lblAccountServiceInfo"
    ],
    "clipbounds": true,
    "containerweight": 100,
    "enablescrolling": true,
    "id": "flxFundDetailsHeader",
    "info": null,
    "iscustomlayout": false,
    "isvisible": true,
    "kuid": "bd378108163c4a92938da73e382fd1cc",
    "layouttype": 3,
    "name": "kony.ui.FlexContainer",
    "parent": "FundDetails",
    "pf": "userwidgetmodel",
    "retaincontentalignment": false,
    "retainflexpositionproperties": false,
    "retainflowhorizontalalignment": false,
    "snapgridsize": 10,
    "snaptogrid": true,
    "wType": "FlexContainer",
    "widgetalignment": 1,
    "zindex": 1
}