{
  "android": {
    "font_name": "default",
    "font_size": 33,
    "isForked": false
  },
  "androidwearos": {
    "font_name": "default",
    "font_size": 43,
    "isForked": false
  },
  "background_color": "fffaff00",
  "bg_type": "one",
  "border_color": "7070703f",
  "border_radius": 50,
  "border_style": "custom",
  "border_type": 0,
  "border_width": 1,
  "desktopweb": {
    "font_name": "SourceSansPro-SemiBold",
    "font_size": 75,
    "isForked": false
  },
  "fontSizeInPx": true,
  "font_color": "0000007f",
  "font_name": "iphoneSystem",
  "font_size": 75,
  "font_style": "normal",
  "font_weight": "normal",
  "ipad": {
    "font_name": "System",
    "font_size": 43,
    "isForked": false
  },
  "iphone": {
    "font_name": "System",
    "font_size": 30,
    "isForked": false
  },
  "isDefaultSkin": false,
  "kiosk": {
    "font_name": "SourceSansPro-Regular",
    "font_size": 75,
    "isForked": false
  },
  "kuid": "s38ffe26b5ac42ce8e96509c4a7269ba",
  "spaan": {
    "font_name": "Helvetica",
    "font_size": 80,
    "isForked": false
  },
  "spaandroidtablet": {
    "font_name": "Helvetica",
    "font_size": 67,
    "isForked": false
  },
  "spaip": {
    "font_name": "Helvetica",
    "font_size": 85,
    "isForked": false
  },
  "spaipad": {
    "font_name": "Helvetica",
    "font_size": 71,
    "isForked": false
  },
  "spawindowstablet": {
    "font_name": "Helvetica",
    "font_size": 71,
    "isForked": false
  },
  "spawinphone8": {
    "font_name": "Helvetica",
    "font_size": 100,
    "isForked": false
  },
  "tabrcandroid": {
    "font_name": "default",
    "font_size": 71,
    "isForked": false
  },
  "wType": "Button",
  "watchos": {
    "font_name": "System",
    "font_size": 43,
    "isForked": false
  },
  "windows8": {
    "font_name": "None",
    "font_size": 29,
    "isForked": false
  },
  "winphone8": {
    "font_name": "None",
    "font_size": 40,
    "isForked": false
  }
}