{
  "android": {
    "font_name": "default",
    "font_size": 39,
    "isForked": false
  },
  "androidwearos": {
    "font_name": "default",
    "font_size": 50,
    "isForked": false
  },
  "background_color": "ffffffff",
  "bg_type": "one",
  "border_color": "ffffffff",
  "border_style": "plain",
  "border_type": 0,
  "border_width": 0,
  "desktopweb": {
    "font_name": "Helvetica",
    "font_size": 88,
    "isForked": false
  },
  "fontSizeInPx": true,
  "font_color": "0075dbff",
  "font_name": "iphoneSystem",
  "font_size": 88,
  "font_style": "normal",
  "font_weight": "400",
  "ipad": {
    "font_name": "System",
    "font_size": 50,
    "isForked": false
  },
  "iphone": {
    "font_name": "System",
    "font_size": 48,
    "isForked": false
  },
  "isDefaultSkin": false,
  "kiosk": {
    "font_name": "None",
    "font_size": 88,
    "isForked": false
  },
  "kuid": "s1bebac6dd19417b9594bbd56046e876",
  "spaan": {
    "font_name": "Helvetica",
    "font_size": 93,
    "isForked": false
  },
  "spaandroidtablet": {
    "font_name": "Helvetica",
    "font_size": 78,
    "isForked": false
  },
  "spaip": {
    "font_name": "Helvetica",
    "font_size": 90,
    "isForked": false
  },
  "spaipad": {
    "font_name": "Helvetica",
    "font_size": 82,
    "isForked": false
  },
  "spawindowstablet": {
    "font_name": "Helvetica",
    "font_size": 82,
    "isForked": false
  },
  "spawinphone8": {
    "font_name": "Helvetica",
    "font_size": 117,
    "isForked": false
  },
  "tabrcandroid": {
    "font_name": "default",
    "font_size": 83,
    "isForked": false
  },
  "wType": "Button",
  "watchos": {
    "font_name": "System",
    "font_size": 50,
    "isForked": false
  },
  "windows8": {
    "font_name": "None",
    "font_size": 34,
    "isForked": false
  },
  "winphone8": {
    "font_name": "None",
    "font_size": 47,
    "isForked": false
  }
}