{
  "android": {
    "font_name": "default",
    "font_size": 125,
    "isForked": false
  },
  "androidwearos": {
    "font_name": "default",
    "font_size": 161,
    "isForked": false
  },
  "background_color": "00000000",
  "bg_type": "one",
  "border_color": "424242ff",
  "border_style": "plain",
  "border_type": 0,
  "border_width": 0,
  "desktopweb": {
    "font_name": "SourceSansPro-Regular",
    "font_size": 281,
    "isForked": false
  },
  "fontSizeInPx": true,
  "font_color": "63799bff",
  "font_name": "iphoneSystem",
  "font_size": 281,
  "font_style": "normal",
  "font_weight": "bold",
  "ipad": {
    "font_name": "System",
    "font_size": 161,
    "isForked": false
  },
  "iphone": {
    "font_name": "System",
    "font_size": 155,
    "isForked": false
  },
  "isDefaultSkin": false,
  "kiosk": {
    "font_name": "None",
    "font_size": 281,
    "isForked": false
  },
  "kuid": "s57f2d863e9d404d9a589d2ef331728f",
  "spaan": {
    "font_name": "Helvetica",
    "font_size": 300,
    "isForked": false
  },
  "spaandroidtablet": {
    "font_name": "Helvetica",
    "font_size": 250,
    "isForked": false
  },
  "spaip": {
    "font_name": "Helvetica",
    "font_size": 290,
    "isForked": false
  },
  "spaipad": {
    "font_name": "Helvetica",
    "font_size": 265,
    "isForked": false
  },
  "spawindowstablet": {
    "font_name": "Helvetica",
    "font_size": 265,
    "isForked": false
  },
  "spawinphone8": {
    "font_name": "Helvetica",
    "font_size": 375,
    "isForked": false
  },
  "tabrcandroid": {
    "font_name": "default",
    "font_size": 267,
    "isForked": false
  },
  "wType": "Label",
  "watchos": {
    "font_name": "System",
    "font_size": 161,
    "isForked": false
  },
  "windows8": {
    "font_name": "None",
    "font_size": 110,
    "isForked": false
  },
  "winphone8": {
    "font_name": "None",
    "font_size": 150,
    "isForked": false
  }
}