{
    "android": {
        "font_name": "default",
        "font_size": 42,
        "isForked": false
    },
    "androidwearos": {
        "font_name": "default",
        "font_size": 54,
        "isForked": false
    },
    "background_color": "00000000",
    "bg_type": "one",
    "border_color": "424242ff",
    "border_style": "plain",
    "border_type": 0,
    "border_width": 0,
    "desktopweb": {
        "font_name": "Helvetica",
        "font_size": 94,
        "isForked": false
    },
    "fontSizeInPx": true,
    "font_color": "000000ff",
    "font_name": "iphoneSystem",
    "font_size": 94,
    "font_style": "normal",
    "font_weight": "normal",
    "ipad": {
        "font_name": "System",
        "font_size": 54,
        "isForked": false
    },
    "iphone": {
        "font_name": "System",
        "font_size": 38,
        "isForked": false
    },
    "isDefaultSkin": false,
    "kiosk": {
        "font_name": "None",
        "font_size": 94,
        "isForked": false
    },
    "kuid": "sbb8be1a9f2c476e8e366b2cea503a74",
    "spaan": {
        "font_name": "Helvetica",
        "font_size": 100,
        "isForked": false
    },
    "spaandroidtablet": {
        "font_name": "Helvetica",
        "font_size": 83,
        "isForked": false
    },
    "spaip": {
        "font_name": "Helvetica",
        "font_size": 107,
        "isForked": false
    },
    "spaipad": {
        "font_name": "Helvetica",
        "font_size": 88,
        "isForked": false
    },
    "spawindowstablet": {
        "font_name": "Helvetica",
        "font_size": 88,
        "isForked": false
    },
    "spawinphone8": {
        "font_name": "Helvetica",
        "font_size": 125,
        "isForked": false
    },
    "tabrcandroid": {
        "font_name": "default",
        "font_size": 89,
        "isForked": false
    },
    "wType": "Label",
    "watchos": {
        "font_name": "System",
        "font_size": 54,
        "isForked": false
    },
    "windows8": {
        "font_name": "None",
        "font_size": 37,
        "isForked": false
    },
    "winphone8": {
        "font_name": "None",
        "font_size": 50,
        "isForked": false
    }
}