{
  "applicableblockedUIWidget": "FlexContainer",
  "background_color": "050505ff",
  "bg_type": "one",
  "isDefaultSkin": false,
  "kuid": "s97ae1ea3fbc413a901754b7fb05ce4b",
  "wType": "Blocked UI"
}