{
  "android": {
    "font_name": "default",
    "font_size": 33,
    "isForked": false
  },
  "androidwearos": {
    "font_name": "default",
    "font_size": 43,
    "isForked": false
  },
  "background_color": "4b88f100",
  "bg_type": "one",
  "border_color": "ffffffff",
  "border_style": "plain",
  "border_type": 0,
  "border_width": 0,
  "desktopweb": {
    "font_name": "FontAwesome",
    "font_size": 75,
    "isForked": false
  },
  "fontSizeInPx": true,
  "font_color": "63799bff",
  "font_name": "iphoneSystem",
  "font_size": 75,
  "font_style": "normal",
  "font_weight": "400",
  "ipad": {
    "font_name": "System",
    "font_size": 43,
    "isForked": false
  },
  "iphone": {
    "font_name": "System",
    "font_size": 41,
    "isForked": false
  },
  "isDefaultSkin": false,
  "kiosk": {
    "font_name": "None",
    "font_size": 75,
    "isForked": false
  },
  "kuid": "sa1a0078fe6d48c6be58ebae3e7a2b22",
  "spaan": {
    "font_name": "Helvetica",
    "font_size": 80,
    "isForked": false
  },
  "spaandroidtablet": {
    "font_name": "Helvetica",
    "font_size": 67,
    "isForked": false
  },
  "spaip": {
    "font_name": "Helvetica",
    "font_size": 77,
    "isForked": false
  },
  "spaipad": {
    "font_name": "Helvetica",
    "font_size": 71,
    "isForked": false
  },
  "spawindowstablet": {
    "font_name": "Helvetica",
    "font_size": 71,
    "isForked": false
  },
  "spawinphone8": {
    "font_name": "Helvetica",
    "font_size": 100,
    "isForked": false
  },
  "tabrcandroid": {
    "font_name": "default",
    "font_size": 71,
    "isForked": false
  },
  "wType": "Button",
  "watchos": {
    "font_name": "System",
    "font_size": 43,
    "isForked": false
  },
  "windows8": {
    "font_name": "None",
    "font_size": 29,
    "isForked": false
  },
  "winphone8": {
    "font_name": "None",
    "font_size": 40,
    "isForked": false
  }
}