{
  "android": {
    "font_name": "default",
    "font_size": 94,
    "isForked": false
  },
  "androidwearos": {
    "font_name": "default",
    "font_size": 121,
    "isForked": false
  },
  "background_color": "00000000",
  "bg_type": "one",
  "border_color": "424242ff",
  "border_style": "plain",
  "border_type": 0,
  "border_width": 0,
  "desktopweb": {
    "font_name": "SourceSansPro-Regular",
    "font_size": 213,
    "isForked": false
  },
  "fontSizeInPx": true,
  "font_color": "889df2ff",
  "font_name": "iphoneSystem",
  "font_size": 213,
  "font_style": "normal",
  "font_weight": "bold",
  "ipad": {
    "font_name": "System",
    "font_size": 121,
    "isForked": false
  },
  "iphone": {
    "font_name": "System",
    "font_size": 117,
    "isForked": false
  },
  "isDefaultSkin": false,
  "kiosk": {
    "font_name": "None",
    "font_size": 213,
    "isForked": false
  },
  "kuid": "s9fa7619037c48c294198ed377e80bd5",
  "spaan": {
    "font_name": "Helvetica",
    "font_size": 227,
    "isForked": false
  },
  "spaandroidtablet": {
    "font_name": "Helvetica",
    "font_size": 189,
    "isForked": false
  },
  "spaip": {
    "font_name": "Helvetica",
    "font_size": 219,
    "isForked": false
  },
  "spaipad": {
    "font_name": "Helvetica",
    "font_size": 200,
    "isForked": false
  },
  "spawindowstablet": {
    "font_name": "Helvetica",
    "font_size": 200,
    "isForked": false
  },
  "spawinphone8": {
    "font_name": "Helvetica",
    "font_size": 283,
    "isForked": false
  },
  "tabrcandroid": {
    "font_name": "default",
    "font_size": 201,
    "isForked": false
  },
  "wType": "Label",
  "watchos": {
    "font_name": "System",
    "font_size": 121,
    "isForked": false
  },
  "windows8": {
    "font_name": "None",
    "font_size": 83,
    "isForked": false
  },
  "winphone8": {
    "font_name": "None",
    "font_size": 113,
    "isForked": false
  }
}