{
  "android": {
    "font_name": "default",
    "font_size": 68,
    "isForked": false
  },
  "androidwearos": {
    "font_name": "default",
    "font_size": 68,
    "isForked": false
  },
  "background_color": "4d4d4d00",
  "bg_type": "one",
  "border_color": "424242ff",
  "border_style": "plain",
  "border_type": 0,
  "border_width": 0,
  "desktopweb": {
    "font_name": "Roboto-Regular",
    "font_size": 68,
    "isForked": false
  },
  "fontSizeInPx": false,
  "font_color": "757575ff",
  "font_name": "iphoneSystem",
  "font_size": 68,
  "font_style": "normal",
  "font_weight": "normal",
  "ipad": {
    "font_name": "System",
    "font_size": 68,
    "isForked": false
  },
  "iphone": {
    "font_name": "System",
    "font_size": 68,
    "isForked": false
  },
  "isDefaultSkin": false,
  "kiosk": {
    "font_name": "None",
    "font_size": 68,
    "isForked": false
  },
  "kuid": "sad72dc9ef374521bee01aa8af1f6ef8",
  "spaan": {
    "font_name": "Helvetica",
    "font_size": 68,
    "isForked": false
  },
  "spaandroidtablet": {
    "font_name": "Helvetica",
    "font_size": 68,
    "isForked": false
  },
  "spaip": {
    "font_name": "Helvetica",
    "font_size": 68,
    "isForked": false
  },
  "spaipad": {
    "font_name": "Helvetica",
    "font_size": 68,
    "isForked": false
  },
  "spawindowstablet": {
    "font_name": "Helvetica",
    "font_size": 68,
    "isForked": false
  },
  "spawinphone8": {
    "font_name": "Helvetica",
    "font_size": 68,
    "isForked": false
  },
  "tabrcandroid": {
    "font_name": "default",
    "font_size": 68,
    "isForked": false
  },
  "wType": "Label",
  "watchos": {
    "font_name": "System",
    "font_size": 68,
    "isForked": false
  },
  "windows8": {
    "font_name": "None",
    "font_size": 68,
    "isForked": false
  },
  "winphone8": {
    "font_name": "None",
    "font_size": 68,
    "isForked": false
  }
}