{
  "android": {
    "font_name": "default",
    "font_size": 42,
    "isForked": false
  },
  "androidwearos": {
    "font_name": "default",
    "font_size": 54,
    "isForked": false
  },
  "background_color": "fead5ccc",
  "bg_type": "one",
  "border_color": "42424200",
  "border_style": "rc",
  "border_type": 0,
  "border_width": 1,
  "desktopweb": {
    "font_name": "SourceSansPro-SemiBold",
    "font_size": 94,
    "isForked": false
  },
  "fontSizeInPx": true,
  "font_color": "333333ff",
  "font_name": "iphoneSystem",
  "font_size": 94,
  "font_style": "normal",
  "font_weight": "normal",
  "ipad": {
    "font_name": "System",
    "font_size": 54,
    "isForked": false
  },
  "iphone": {
    "font_name": "System",
    "font_size": 52,
    "isForked": false
  },
  "isDefaultSkin": false,
  "kiosk": {
    "font_name": "None",
    "font_size": 94,
    "isForked": false
  },
  "kuid": "s07f1a6fd7fc4bba8dff1511cf5e2eae",
  "spaan": {
    "font_name": "Helvetica",
    "font_size": 100,
    "isForked": false
  },
  "spaandroidtablet": {
    "font_name": "Helvetica",
    "font_size": 83,
    "isForked": false
  },
  "spaip": {
    "font_name": "Helvetica",
    "font_size": 97,
    "isForked": false
  },
  "spaipad": {
    "font_name": "Helvetica",
    "font_size": 88,
    "isForked": false
  },
  "spawindowstablet": {
    "font_name": "Helvetica",
    "font_size": 88,
    "isForked": false
  },
  "spawinphone8": {
    "font_name": "Helvetica",
    "font_size": 125,
    "isForked": false
  },
  "tabrcandroid": {
    "font_name": "default",
    "font_size": 89,
    "isForked": false
  },
  "wType": "Label",
  "watchos": {
    "font_name": "System",
    "font_size": 54,
    "isForked": false
  },
  "windows8": {
    "font_name": "None",
    "font_size": 37,
    "isForked": false
  },
  "winphone8": {
    "font_name": "None",
    "font_size": 50,
    "isForked": false
  }
}