{
    "@class": "com.kony.gen.viz.model.component.KVizUserWidget",
    "DNDConfig": null,
    "_children_": [],
    "_height_": {
        "type": "string",
        "value": "72dp"
    },
    "_left_": {
        "type": "string",
        "value": "6.50%"
    },
    "_margin_": [
        0,
        0,
        0,
        0
    ],
    "_orientation_": 1,
    "_padding_": [
        0,
        0,
        0,
        0
    ],
    "_percent_": true,
    "_skin_": "s67924bcdecb43b69aa7b14971e89709",
    "_top_": {
        "type": "string",
        "value": "0dp"
    },
    "_width_": {
        "type": "string",
        "value": "91%"
    },
    "areflexpropsreferenced": false,
    "autogrowmode": 0,
    "canUpdateUI": true,
    "clipbounds": true,
    "containerweight": 0,
    "dataDiffs": {
        "ErrorAllert": {
            "__events__": {},
            "__info__": {
                "isRoot": true,
                "kuid": "h9f4964f83174e4ca03c6dc8376e9dee",
                "srcKUID": "h8cb39ec838349b1afb7dc4d9766919c",
                "wType": "FlexContainer"
            },
            "isVisible": false,
            "left": {
                "Default": {
                    "type": "string",
                    "value": "6.50%"
                }
            },
            "responsiveData": {},
            "right": {
                "Default": {
                    "type": "string",
                    "value": ""
                }
            },
            "width": {
                "Default": {
                    "type": "string",
                    "value": "91%"
                }
            },
            "zIndex": {
                "Default": 10
            }
        },
        "FlexContainer0c96d2d6573ff47": {
            "__events__": {},
            "__info__": {
                "kuid": "e295f03fbd9f4e6d86242149b6b16364",
                "srcKUID": "ad572ec02bbc48ebbb4f1dc768804969",
                "wType": "FlexContainer"
            }
        },
        "FlexContainer0dbccc9f9939044": {
            "__events__": {},
            "__info__": {
                "kuid": "c14d538b8d424b6eaab849ec94e90dd8",
                "srcKUID": "f59a8a61ace1455b8914462b3d6bb03b",
                "wType": "FlexContainer"
            }
        },
        "Label0c0024c57dfb34f": {
            "__events__": {},
            "__info__": {
                "kuid": "gf3a06fafd904ed89be7d6fa2d705a3c",
                "srcKUID": "hf6d5793c5024998bc6f943030f92452",
                "wType": "Label"
            }
        },
        "btnImage": {
            "__events__": {},
            "__info__": {
                "kuid": "j1a395b1ca7e4977bd7900a628fb3780",
                "srcKUID": "e3042b659f1b42e99d68d9928629a9d5",
                "wType": "Button"
            }
        },
        "flxError": {
            "__events__": {},
            "__info__": {
                "kuid": "j246d4b0e9284e7d83899323af399b01",
                "srcKUID": "a49166f2d3d14eeaa2feb76e306db101",
                "wType": "FlexContainer"
            }
        },
        "imgClose": {
            "__events__": {},
            "__info__": {
                "kuid": "f71b93d65ebb4d6fa82bd7b76d6004bb",
                "srcKUID": "e1c097d66c3744f18bfb83c30858a314",
                "wType": "Button"
            }
        },
        "imgClose1": {
            "__events__": {},
            "__info__": {
                "kuid": "b25af190137e43c1b4848a5bd6c967f0",
                "srcKUID": "j9728085e75b4abe9a6359d26438efcc",
                "wType": "Label"
            }
        },
        "imgClose2": {
            "__events__": {},
            "__info__": {
                "kuid": "c7fac14e0ed545bfa5d6fc87d7ec8ff6",
                "srcKUID": "g5b93ccb39f549ac821e8d44292eaffa",
                "wType": "Label"
            }
        },
        "imgCloseBackup": {
            "__events__": {},
            "__info__": {
                "kuid": "ca30c42ed2864bb3b7f1b23e78c82a14",
                "srcKUID": "c646f7e0831248d7bc0f7b6f88ab6c22",
                "wType": "Image"
            }
        },
        "lblError": {
            "__events__": {},
            "__info__": {
                "kuid": "a0c4d8afa7454b1799dff53136c5f0ce",
                "srcKUID": "i5ab170e82924d7ea954d38f04fd3d44",
                "wType": "Label"
            }
        },
        "lblErrorNotification": {
            "__events__": {},
            "__info__": {
                "kuid": "i943f4db03b14310b7c8c9de64772d08",
                "srcKUID": "f918c824751a41c7a0afc1d2b466bfc7",
                "wType": "Label"
            }
        },
        "lblImag": {
            "__events__": {},
            "__info__": {
                "kuid": "i4fc1d7162504ed6b6ceb0e5645217e6",
                "srcKUID": "ddbbe97dbe67439ea4934db8746fa110",
                "wType": "Label"
            }
        },
        "lblMessage": {
            "__events__": {},
            "__info__": {
                "kuid": "d090b5e0f6ab4c64976941839a18a58c",
                "srcKUID": "d530e1757beb4ff9b9c4b003d6a3e47a",
                "wType": "Label"
            }
        }
    },
    "enablescrolling": true,
    "id": "ErrorAllert",
    "info": null,
    "iscustomlayout": false,
    "isdatareferenced": false,
    "isvisible": false,
    "kuid": "h9f4964f83174e4ca03c6dc8376e9dee",
    "layouttype": 2,
    "masterType": 0,
    "name": "kony.ui.UserWidgetInstance",
    "parent": "frmBlockUnblockAccounts",
    "pf": "frmBlockUnblockAccounts",
    "retaincontentalignment": false,
    "retainflexpositionproperties": false,
    "retainflowhorizontalalignment": false,
    "snapgridsize": 10,
    "snaptogrid": true,
    "sourceUserWidget": "h8cb39ec838349b1afb7dc4d9766919c",
    "wType": "UserWidgetInstance",
    "zindex": 10
}