{
    "DNDConfig": null,
    "_height_": {
        "type": "string",
        "value": "387dp"
    },
    "_left_": {
        "type": "string",
        "value": "1%"
    },
    "_margin_": [
        0,
        0,
        0,
        0
    ],
    "_orientation_": 6,
    "_padding_": [
        0,
        0,
        0,
        0
    ],
    "_percent_": true,
    "_skin_": "s44937ff81384afab1f02b980f3417e7",
    "_top_": {
        "type": "string",
        "value": "435dp"
    },
    "_width_": {
        "type": "string",
        "value": "99%"
    },
    "allboxes": [],
    "autogrowmode": 0,
    "canUpdateUI": true,
    "children": [
        "BlockUnblockLabels",
        "cusDateFromDate",
        "cusDatePickerEnd",
        "flxAmount",
        "flxReasonDropdown",
        "cusDropdownReasons",
        "lblErrorMessage",
        "flxSubmit"
    ],
    "clipbounds": false,
    "containerweight": 100,
    "desktopweb": {
        "zIndex": 1
    },
    "enablescrolling": true,
    "id": "flxBlockFundDetails",
    "info": null,
    "iscustomlayout": false,
    "isvisible": true,
    "kuid": "db707c0ee9f74fdebe8dd2c304948458",
    "layouttype": 2,
    "name": "kony.ui.FlexContainer",
    "parent": "flxBlockUnblockChange",
    "pf": "frmBlockUnblockAccounts",
    "retaincontentalignment": false,
    "retainflexpositionproperties": false,
    "retainflowhorizontalalignment": false,
    "snapgridsize": 10,
    "snaptogrid": true,
    "wType": "FlexContainer",
    "widgetalignment": 1,
    "zindex": 1
}