{
    "DNDConfig": null,
    "_height_": {
        "type": "string",
        "value": "49dp"
    },
    "_left_": {
        "type": "string",
        "value": "81.90%"
    },
    "_margin_": [
        0,
        0,
        0,
        0
    ],
    "_orientation_": 6,
    "_padding_": [
        0,
        0,
        0,
        0
    ],
    "_percent_": true,
    "_skin_": "se31956b9efb4cdeb803f81ffb1335e2",
    "_top_": {
        "type": "string",
        "value": "79dp"
    },
    "_width_": {
        "type": "string",
        "value": "204dp"
    },
    "allboxes": [],
    "autogrowmode": 0,
    "canUpdateUI": true,
    "children": [],
    "clipbounds": true,
    "containerweight": 100,
    "desktopweb": {
        "bottom": "",
        "centerX": "",
        "centerY": "",
        "maxHeight": "",
        "maxWidth": "",
        "minHeight": "",
        "minWidth": "",
        "right": "",
        "zIndex": "auto"
    },
    "enablescrolling": true,
    "id": "flxReasonDropdown",
    "info": null,
    "iscustomlayout": false,
    "isvisible": false,
    "kuid": "g6b04be4d9a843abaa4459ae507f5b76",
    "layouttype": 2,
    "name": "kony.ui.FlexContainer",
    "parent": "flxBlockFundDetails",
    "pf": "frmBlockUnblockAccounts",
    "retaincontentalignment": false,
    "retainflexpositionproperties": false,
    "retainflowhorizontalalignment": false,
    "snapgridsize": 10,
    "snaptogrid": true,
    "wType": "FlexContainer",
    "widgetalignment": 1,
    "zindex": 1
}