{
    "@class": "com.kony.gen.viz.model.component.KVizUserWidget",
    "DNDConfig": null,
    "_children_": [],
    "_height_": {
        "type": "string",
        "value": "968dp"
    },
    "_left_": {
        "type": "string",
        "value": "0dp"
    },
    "_margin_": [
        0,
        0,
        0,
        0
    ],
    "_orientation_": 1,
    "_padding_": [
        0,
        0,
        0,
        0
    ],
    "_percent_": true,
    "_skin_": "sf77f521dbc14d00b8925cd197f74352",
    "_top_": {
        "type": "string",
        "value": "0dp"
    },
    "_width_": {
        "type": "string",
        "value": "100%"
    },
    "areflexpropsreferenced": false,
    "autogrowmode": 0,
    "canUpdateUI": true,
    "clipbounds": true,
    "containerweight": 0,
    "dataDiffs": {
        "SegmentPopup": {
            "__events__": {},
            "__info__": {
                "isRoot": true,
                "kuid": "bb10a3fb61e84718bacdb6d338292979",
                "srcKUID": "eb5542d4860349a4b1b3eb34a2c29d69",
                "wType": "FlexContainer"
            },
            "isVisible": false,
            "responsiveData": {}
        },
        "btnCancel": {
            "__events__": {},
            "__info__": {
                "kuid": "e9b177359c7e49f2adbe40a660c73447",
                "srcKUID": "j3364e8b9ed747ab8d3d09eeb8cf42b2",
                "wType": "Button"
            }
        },
        "btnProceed": {
            "__events__": {},
            "__info__": {
                "kuid": "b6917daeba94468abb686555524e76f5",
                "srcKUID": "fa7ef604a33040d9ae2498b049d99e77",
                "wType": "Button"
            }
        },
        "flxFooter": {
            "__events__": {},
            "__info__": {
                "kuid": "a3381b627a214948a6ded60718d4e6d1",
                "srcKUID": "c96349bcaa6d4b85bb8a30f632cf5b05",
                "wType": "FlexContainer"
            }
        },
        "flxPopup": {
            "__events__": {},
            "__info__": {
                "kuid": "f242a940358143ec8377911a28d4bbf6",
                "srcKUID": "gf79454354cf45e5983f5c19be951e1e",
                "wType": "FlexContainer"
            },
            "centerX": {
                "Default": {
                    "type": "string",
                    "value": "50%"
                }
            },
            "centerY": {
                "Default": {
                    "type": "string",
                    "value": "50%"
                }
            },
            "left": {
                "Default": {
                    "type": "string",
                    "value": ""
                }
            },
            "responsiveData": {},
            "top": {
                "Default": {
                    "type": "string",
                    "value": ""
                }
            }
        },
        "flxPopupHeader": {
            "__events__": {},
            "__info__": {
                "kuid": "jc8ef03b5bb046fd8118c9faec8cbc8e",
                "srcKUID": "eb333858bf814117bf4b0bc634ca4ffb",
                "wType": "FlexContainer"
            }
        },
        "flxPopupMessage": {
            "__events__": {},
            "__info__": {
                "kuid": "c5b55a4b08ce42f8a10d742acf20a477",
                "srcKUID": "efc11098121046dabeceef21e8bf585d",
                "wType": "FlexContainer"
            }
        },
        "imgClose": {
            "__events__": {},
            "__info__": {
                "kuid": "ba80165ba2c0485ca6258c449466a697",
                "srcKUID": "e04f19662a874fabb18c3d7092f29cc4",
                "wType": "Image"
            },
            "src": "ico_close.png"
        },
        "lblPaymentInfo": {
            "__events__": {},
            "__info__": {
                "kuid": "ecc53671439f4572b000a2533c0e033f",
                "srcKUID": "jfe2e47f228e4984abf0cd755e907b08",
                "wType": "Label"
            }
        },
        "segOverride": {
            "__events__": {},
            "__info__": {
                "kuid": "i93d239e1d694d6a9cbd5d4c39d5283a",
                "srcKUID": "d9af6985e2124b3c922a644898d291a6",
                "wType": "Segment"
            }
        }
    },
    "enablescrolling": true,
    "id": "OverridePopup",
    "info": null,
    "iscustomlayout": false,
    "isdatareferenced": false,
    "isvisible": false,
    "kuid": "bb10a3fb61e84718bacdb6d338292979",
    "layouttype": 2,
    "masterType": 0,
    "name": "kony.ui.UserWidgetInstance",
    "parent": "frmBlockUnblockAccounts",
    "pf": "frmBlockUnblockAccounts",
    "retaincontentalignment": false,
    "retainflexpositionproperties": false,
    "retainflowhorizontalalignment": false,
    "snapgridsize": 10,
    "snaptogrid": true,
    "sourceUserWidget": "eb5542d4860349a4b1b3eb34a2c29d69",
    "wType": "UserWidgetInstance"
}