{
    "@class": "com.kony.gen.viz.model.component.KVizButton",
    "DNDConfig": null,
    "_height_": {
        "type": "string",
        "value": "35dp"
    },
    "_margin_": [
        6,
        6,
        6,
        6
    ],
    "_padding_": [
        7,
        0,
        7,
        0
    ],
    "_right_": {
        "type": "string",
        "value": "20dp"
    },
    "_skin_": "sab2d7f1f5b2454c80dcbbcfd162890a",
    "_text_": "UPLOAD",
    "_width_": {
        "type": "ref",
        "value": "preferred"
    },
    "canUpdateUI": true,
    "centery": {
        "type": "string",
        "value": "50%"
    },
    "containerweight": 100,
    "contentalignment": 6,
    "displaytext": true,
    "focusskin": "s0eb853b88404f3a8c10ba94ad93fdba",
    "id": "btnUpload",
    "info": null,
    "iscustomlayout": false,
    "isvisible": true,
    "kuid": "j5b8891b8b52471c9e3358f8593916f1",
    "name": "kony.ui.Button",
    "paddingLocked": false,
    "paddinginpixel": false,
    "parent": "flxUpload",
    "pf": "userwidgetmodel",
    "retaincontentalignment": false,
    "retainflexpositionproperties": false,
    "wType": "Button",
    "zindex": 1
}