{
    "@class": "com.kony.gen.viz.model.component.KVizUserWidget",
    "DNDConfig": null,
    "_children_": [],
    "_height_": {
        "type": "string",
        "value": "280dp"
    },
    "_left_": {
        "type": "string",
        "value": "0dp"
    },
    "_margin_": [
        0,
        0,
        0,
        0
    ],
    "_orientation_": 1,
    "_padding_": [
        0,
        0,
        0,
        0
    ],
    "_percent_": true,
    "_skin_": "se31956b9efb4cdeb803f81ffb1335e2",
    "_top_": {
        "type": "string",
        "value": "10dp"
    },
    "_width_": {
        "type": "string",
        "value": "100%"
    },
    "areflexpropsreferenced": false,
    "autogrowmode": 0,
    "canUpdateUI": true,
    "clipbounds": true,
    "containerweight": 0,
    "dataDiffs": {
        "doc": {
            "__events__": {},
            "__info__": {
                "isRoot": true,
                "kuid": "db5943984d904c8296274c862b907c53",
                "srcKUID": "jdc8c6c3463c454596c0aad5898d9344",
                "wType": "FlexContainer"
            },
            "autogrowMode": {
                "Default": 0
            },
            "bottom": {
                "Default": {
                    "type": "string",
                    "value": ""
                }
            },
            "height": {
                "Default": {
                    "type": "string",
                    "value": "280dp"
                }
            },
            "responsiveData": {},
            "top": {
                "Default": {
                    "type": "string",
                    "value": "10dp"
                }
            }
        },
        "segDoc": {
            "__events__": {
                "ide_onRowClick": "AS_Segment_hdbf87504a9f44d09e29c6d9df92f953"
            },
            "__info__": {
                "kuid": "bceefd442d5d45d4827864424e307684",
                "srcKUID": "da8de8609a4e4d518d6e14f4f8a31ae3",
                "wType": "Segment"
            },
            "autogrowMode": {
                "Default": 0
            },
            "bottom": {
                "Default": {
                    "type": "string",
                    "value": ""
                }
            },
            "data": {
                "desktop": [
                    {
                        "imgDownload": {
                            "@class": "com.viz.ide.model.segment.ImageSegmentData",
                            "src": "download_2.png"
                        },
                        "lblName": {
                            "@class": "com.viz.ide.model.segment.SimpleTextSegmentData",
                            "text": "Name"
                        },
                        "recievedDate": {
                            "@class": "com.viz.ide.model.segment.SimpleTextSegmentData",
                            "text": "Received"
                        },
                        "updatedDate": {
                            "@class": "com.viz.ide.model.segment.SimpleTextSegmentData",
                            "text": "Updated"
                        }
                    },
                    {
                        "imgDownload": {
                            "@class": "com.viz.ide.model.segment.ImageSegmentData",
                            "src": "download_2.png"
                        },
                        "lblName": {
                            "@class": "com.viz.ide.model.segment.SimpleTextSegmentData",
                            "text": "Name"
                        },
                        "recievedDate": {
                            "@class": "com.viz.ide.model.segment.SimpleTextSegmentData",
                            "text": "Received"
                        },
                        "updatedDate": {
                            "@class": "com.viz.ide.model.segment.SimpleTextSegmentData",
                            "text": "Updated"
                        }
                    },
                    {
                        "imgDownload": {
                            "@class": "com.viz.ide.model.segment.ImageSegmentData",
                            "src": "download_2.png"
                        },
                        "lblName": {
                            "@class": "com.viz.ide.model.segment.SimpleTextSegmentData",
                            "text": "Name"
                        },
                        "recievedDate": {
                            "@class": "com.viz.ide.model.segment.SimpleTextSegmentData",
                            "text": "Received"
                        },
                        "updatedDate": {
                            "@class": "com.viz.ide.model.segment.SimpleTextSegmentData",
                            "text": "Updated"
                        }
                    },
                    {
                        "imgDownload": {
                            "@class": "com.viz.ide.model.segment.ImageSegmentData",
                            "src": "download_2.png"
                        },
                        "lblName": {
                            "@class": "com.viz.ide.model.segment.SimpleTextSegmentData",
                            "text": "Name"
                        },
                        "recievedDate": {
                            "@class": "com.viz.ide.model.segment.SimpleTextSegmentData",
                            "text": "Received"
                        },
                        "updatedDate": {
                            "@class": "com.viz.ide.model.segment.SimpleTextSegmentData",
                            "text": "Updated"
                        }
                    },
                    {
                        "imgDownload": {
                            "@class": "com.viz.ide.model.segment.ImageSegmentData",
                            "src": "download_2.png"
                        },
                        "lblName": {
                            "@class": "com.viz.ide.model.segment.SimpleTextSegmentData",
                            "text": "Name"
                        },
                        "recievedDate": {
                            "@class": "com.viz.ide.model.segment.SimpleTextSegmentData",
                            "text": "Received"
                        },
                        "updatedDate": {
                            "@class": "com.viz.ide.model.segment.SimpleTextSegmentData",
                            "text": "Updated"
                        }
                    },
                    {
                        "imgDownload": {
                            "@class": "com.viz.ide.model.segment.ImageSegmentData",
                            "src": "download_2.png"
                        },
                        "lblName": {
                            "@class": "com.viz.ide.model.segment.SimpleTextSegmentData",
                            "text": "Name"
                        },
                        "recievedDate": {
                            "@class": "com.viz.ide.model.segment.SimpleTextSegmentData",
                            "text": "Received"
                        },
                        "updatedDate": {
                            "@class": "com.viz.ide.model.segment.SimpleTextSegmentData",
                            "text": "Updated"
                        }
                    },
                    {
                        "imgDownload": {
                            "@class": "com.viz.ide.model.segment.ImageSegmentData",
                            "src": "download_2.png"
                        },
                        "lblName": {
                            "@class": "com.viz.ide.model.segment.SimpleTextSegmentData",
                            "text": "Name"
                        },
                        "recievedDate": {
                            "@class": "com.viz.ide.model.segment.SimpleTextSegmentData",
                            "text": "Received"
                        },
                        "updatedDate": {
                            "@class": "com.viz.ide.model.segment.SimpleTextSegmentData",
                            "text": "Updated"
                        }
                    },
                    {
                        "imgDownload": {
                            "@class": "com.viz.ide.model.segment.ImageSegmentData",
                            "src": "download_2.png"
                        },
                        "lblName": {
                            "@class": "com.viz.ide.model.segment.SimpleTextSegmentData",
                            "text": "Name"
                        },
                        "recievedDate": {
                            "@class": "com.viz.ide.model.segment.SimpleTextSegmentData",
                            "text": "Received"
                        },
                        "updatedDate": {
                            "@class": "com.viz.ide.model.segment.SimpleTextSegmentData",
                            "text": "Updated"
                        }
                    },
                    {
                        "imgDownload": {
                            "@class": "com.viz.ide.model.segment.ImageSegmentData",
                            "src": "download_2.png"
                        },
                        "lblName": {
                            "@class": "com.viz.ide.model.segment.SimpleTextSegmentData",
                            "text": "Name"
                        },
                        "recievedDate": {
                            "@class": "com.viz.ide.model.segment.SimpleTextSegmentData",
                            "text": "Received"
                        },
                        "updatedDate": {
                            "@class": "com.viz.ide.model.segment.SimpleTextSegmentData",
                            "text": "Updated"
                        }
                    },
                    {
                        "imgDownload": {
                            "@class": "com.viz.ide.model.segment.ImageSegmentData",
                            "src": "download_2.png"
                        },
                        "lblName": {
                            "@class": "com.viz.ide.model.segment.SimpleTextSegmentData",
                            "text": "Name"
                        },
                        "recievedDate": {
                            "@class": "com.viz.ide.model.segment.SimpleTextSegmentData",
                            "text": "Received"
                        },
                        "updatedDate": {
                            "@class": "com.viz.ide.model.segment.SimpleTextSegmentData",
                            "text": "Updated"
                        }
                    },
                    {
                        "imgDownload": {
                            "@class": "com.viz.ide.model.segment.ImageSegmentData",
                            "src": "download_2.png"
                        },
                        "lblName": {
                            "@class": "com.viz.ide.model.segment.SimpleTextSegmentData",
                            "text": "Name"
                        },
                        "recievedDate": {
                            "@class": "com.viz.ide.model.segment.SimpleTextSegmentData",
                            "text": "Received"
                        },
                        "updatedDate": {
                            "@class": "com.viz.ide.model.segment.SimpleTextSegmentData",
                            "text": "Updated"
                        }
                    },
                    {
                        "imgDownload": {
                            "@class": "com.viz.ide.model.segment.ImageSegmentData",
                            "src": "download_2.png"
                        },
                        "lblName": {
                            "@class": "com.viz.ide.model.segment.SimpleTextSegmentData",
                            "text": "Name"
                        },
                        "recievedDate": {
                            "@class": "com.viz.ide.model.segment.SimpleTextSegmentData",
                            "text": "Received"
                        },
                        "updatedDate": {
                            "@class": "com.viz.ide.model.segment.SimpleTextSegmentData",
                            "text": "Updated"
                        }
                    },
                    {
                        "imgDownload": {
                            "@class": "com.viz.ide.model.segment.ImageSegmentData",
                            "src": "download_2.png"
                        },
                        "lblName": {
                            "@class": "com.viz.ide.model.segment.SimpleTextSegmentData",
                            "text": "Name"
                        },
                        "recievedDate": {
                            "@class": "com.viz.ide.model.segment.SimpleTextSegmentData",
                            "text": "Received"
                        },
                        "updatedDate": {
                            "@class": "com.viz.ide.model.segment.SimpleTextSegmentData",
                            "text": "Updated"
                        }
                    },
                    {
                        "imgDownload": {
                            "@class": "com.viz.ide.model.segment.ImageSegmentData",
                            "src": "download_2.png"
                        },
                        "lblName": {
                            "@class": "com.viz.ide.model.segment.SimpleTextSegmentData",
                            "text": "Name"
                        },
                        "recievedDate": {
                            "@class": "com.viz.ide.model.segment.SimpleTextSegmentData",
                            "text": "Received"
                        },
                        "updatedDate": {
                            "@class": "com.viz.ide.model.segment.SimpleTextSegmentData",
                            "text": "Updated"
                        }
                    },
                    {
                        "imgDownload": {
                            "@class": "com.viz.ide.model.segment.ImageSegmentData",
                            "src": "download_2.png"
                        },
                        "lblName": {
                            "@class": "com.viz.ide.model.segment.SimpleTextSegmentData",
                            "text": "Name"
                        },
                        "recievedDate": {
                            "@class": "com.viz.ide.model.segment.SimpleTextSegmentData",
                            "text": "Received"
                        },
                        "updatedDate": {
                            "@class": "com.viz.ide.model.segment.SimpleTextSegmentData",
                            "text": "Updated"
                        }
                    },
                    {
                        "imgDownload": {
                            "@class": "com.viz.ide.model.segment.ImageSegmentData",
                            "src": "download_2.png"
                        },
                        "lblName": {
                            "@class": "com.viz.ide.model.segment.SimpleTextSegmentData",
                            "text": "Name"
                        },
                        "recievedDate": {
                            "@class": "com.viz.ide.model.segment.SimpleTextSegmentData",
                            "text": "Received"
                        },
                        "updatedDate": {
                            "@class": "com.viz.ide.model.segment.SimpleTextSegmentData",
                            "text": "Updated"
                        }
                    },
                    {
                        "imgDownload": {
                            "@class": "com.viz.ide.model.segment.ImageSegmentData",
                            "src": "download_2.png"
                        },
                        "lblName": {
                            "@class": "com.viz.ide.model.segment.SimpleTextSegmentData",
                            "text": "Name"
                        },
                        "recievedDate": {
                            "@class": "com.viz.ide.model.segment.SimpleTextSegmentData",
                            "text": "Received"
                        },
                        "updatedDate": {
                            "@class": "com.viz.ide.model.segment.SimpleTextSegmentData",
                            "text": "Updated"
                        }
                    },
                    {
                        "imgDownload": {
                            "@class": "com.viz.ide.model.segment.ImageSegmentData",
                            "src": "download_2.png"
                        },
                        "lblName": {
                            "@class": "com.viz.ide.model.segment.SimpleTextSegmentData",
                            "text": "Name"
                        },
                        "recievedDate": {
                            "@class": "com.viz.ide.model.segment.SimpleTextSegmentData",
                            "text": "Received"
                        },
                        "updatedDate": {
                            "@class": "com.viz.ide.model.segment.SimpleTextSegmentData",
                            "text": "Updated"
                        }
                    },
                    {
                        "imgDownload": {
                            "@class": "com.viz.ide.model.segment.ImageSegmentData",
                            "src": "download_2.png"
                        },
                        "lblName": {
                            "@class": "com.viz.ide.model.segment.SimpleTextSegmentData",
                            "text": "Name"
                        },
                        "recievedDate": {
                            "@class": "com.viz.ide.model.segment.SimpleTextSegmentData",
                            "text": "Received"
                        },
                        "updatedDate": {
                            "@class": "com.viz.ide.model.segment.SimpleTextSegmentData",
                            "text": "Updated"
                        }
                    },
                    {
                        "imgDownload": {
                            "@class": "com.viz.ide.model.segment.ImageSegmentData",
                            "src": "download_2.png"
                        },
                        "lblName": {
                            "@class": "com.viz.ide.model.segment.SimpleTextSegmentData",
                            "text": "Name"
                        },
                        "recievedDate": {
                            "@class": "com.viz.ide.model.segment.SimpleTextSegmentData",
                            "text": "Received"
                        },
                        "updatedDate": {
                            "@class": "com.viz.ide.model.segment.SimpleTextSegmentData",
                            "text": "Updated"
                        }
                    },
                    {
                        "imgDownload": {
                            "@class": "com.viz.ide.model.segment.ImageSegmentData",
                            "src": "download_2.png"
                        },
                        "lblName": {
                            "@class": "com.viz.ide.model.segment.SimpleTextSegmentData",
                            "text": "Name"
                        },
                        "recievedDate": {
                            "@class": "com.viz.ide.model.segment.SimpleTextSegmentData",
                            "text": "Received"
                        },
                        "updatedDate": {
                            "@class": "com.viz.ide.model.segment.SimpleTextSegmentData",
                            "text": "Updated"
                        }
                    },
                    {
                        "imgDownload": {
                            "@class": "com.viz.ide.model.segment.ImageSegmentData",
                            "src": "download_2.png"
                        },
                        "lblName": {
                            "@class": "com.viz.ide.model.segment.SimpleTextSegmentData",
                            "text": "Name"
                        },
                        "recievedDate": {
                            "@class": "com.viz.ide.model.segment.SimpleTextSegmentData",
                            "text": "Received"
                        },
                        "updatedDate": {
                            "@class": "com.viz.ide.model.segment.SimpleTextSegmentData",
                            "text": "Updated"
                        }
                    },
                    {
                        "imgDownload": {
                            "@class": "com.viz.ide.model.segment.ImageSegmentData",
                            "src": "download_2.png"
                        },
                        "lblName": {
                            "@class": "com.viz.ide.model.segment.SimpleTextSegmentData",
                            "text": "Name"
                        },
                        "recievedDate": {
                            "@class": "com.viz.ide.model.segment.SimpleTextSegmentData",
                            "text": "Received"
                        },
                        "updatedDate": {
                            "@class": "com.viz.ide.model.segment.SimpleTextSegmentData",
                            "text": "Updated"
                        }
                    },
                    {
                        "imgDownload": {
                            "@class": "com.viz.ide.model.segment.ImageSegmentData",
                            "src": "download_2.png"
                        },
                        "lblName": {
                            "@class": "com.viz.ide.model.segment.SimpleTextSegmentData",
                            "text": "Name"
                        },
                        "recievedDate": {
                            "@class": "com.viz.ide.model.segment.SimpleTextSegmentData",
                            "text": "Received"
                        },
                        "updatedDate": {
                            "@class": "com.viz.ide.model.segment.SimpleTextSegmentData",
                            "text": "Updated"
                        }
                    },
                    {
                        "imgDownload": {
                            "@class": "com.viz.ide.model.segment.ImageSegmentData",
                            "src": "download_2.png"
                        },
                        "lblName": {
                            "@class": "com.viz.ide.model.segment.SimpleTextSegmentData",
                            "text": "Name"
                        },
                        "recievedDate": {
                            "@class": "com.viz.ide.model.segment.SimpleTextSegmentData",
                            "text": "Received"
                        },
                        "updatedDate": {
                            "@class": "com.viz.ide.model.segment.SimpleTextSegmentData",
                            "text": "Updated"
                        }
                    },
                    {
                        "imgDownload": {
                            "@class": "com.viz.ide.model.segment.ImageSegmentData",
                            "src": "download_2.png"
                        },
                        "lblName": {
                            "@class": "com.viz.ide.model.segment.SimpleTextSegmentData",
                            "text": "Name"
                        },
                        "recievedDate": {
                            "@class": "com.viz.ide.model.segment.SimpleTextSegmentData",
                            "text": "Received"
                        },
                        "updatedDate": {
                            "@class": "com.viz.ide.model.segment.SimpleTextSegmentData",
                            "text": "Updated"
                        }
                    },
                    {
                        "imgDownload": {
                            "@class": "com.viz.ide.model.segment.ImageSegmentData",
                            "src": "download_2.png"
                        },
                        "lblName": {
                            "@class": "com.viz.ide.model.segment.SimpleTextSegmentData",
                            "text": "Name"
                        },
                        "recievedDate": {
                            "@class": "com.viz.ide.model.segment.SimpleTextSegmentData",
                            "text": "Received"
                        },
                        "updatedDate": {
                            "@class": "com.viz.ide.model.segment.SimpleTextSegmentData",
                            "text": "Updated"
                        }
                    },
                    {
                        "imgDownload": {
                            "@class": "com.viz.ide.model.segment.ImageSegmentData",
                            "src": "download_2.png"
                        },
                        "lblName": {
                            "@class": "com.viz.ide.model.segment.SimpleTextSegmentData",
                            "text": "Name"
                        },
                        "recievedDate": {
                            "@class": "com.viz.ide.model.segment.SimpleTextSegmentData",
                            "text": "Received"
                        },
                        "updatedDate": {
                            "@class": "com.viz.ide.model.segment.SimpleTextSegmentData",
                            "text": "Updated"
                        }
                    },
                    {
                        "imgDownload": {
                            "@class": "com.viz.ide.model.segment.ImageSegmentData",
                            "src": "download_2.png"
                        },
                        "lblName": {
                            "@class": "com.viz.ide.model.segment.SimpleTextSegmentData",
                            "text": "Name"
                        },
                        "recievedDate": {
                            "@class": "com.viz.ide.model.segment.SimpleTextSegmentData",
                            "text": "Received"
                        },
                        "updatedDate": {
                            "@class": "com.viz.ide.model.segment.SimpleTextSegmentData",
                            "text": "Updated"
                        }
                    },
                    {
                        "imgDownload": {
                            "@class": "com.viz.ide.model.segment.ImageSegmentData",
                            "src": "download_2.png"
                        },
                        "lblName": {
                            "@class": "com.viz.ide.model.segment.SimpleTextSegmentData",
                            "text": "Name"
                        },
                        "recievedDate": {
                            "@class": "com.viz.ide.model.segment.SimpleTextSegmentData",
                            "text": "Received"
                        },
                        "updatedDate": {
                            "@class": "com.viz.ide.model.segment.SimpleTextSegmentData",
                            "text": "Updated"
                        }
                    },
                    {
                        "imgDownload": {
                            "@class": "com.viz.ide.model.segment.ImageSegmentData",
                            "src": "download_2.png"
                        },
                        "lblName": {
                            "@class": "com.viz.ide.model.segment.SimpleTextSegmentData",
                            "text": "Name"
                        },
                        "recievedDate": {
                            "@class": "com.viz.ide.model.segment.SimpleTextSegmentData",
                            "text": "Received"
                        },
                        "updatedDate": {
                            "@class": "com.viz.ide.model.segment.SimpleTextSegmentData",
                            "text": "Updated"
                        }
                    },
                    {
                        "imgDownload": {
                            "@class": "com.viz.ide.model.segment.ImageSegmentData",
                            "src": "download_2.png"
                        },
                        "lblName": {
                            "@class": "com.viz.ide.model.segment.SimpleTextSegmentData",
                            "text": "Name"
                        },
                        "recievedDate": {
                            "@class": "com.viz.ide.model.segment.SimpleTextSegmentData",
                            "text": "Received"
                        },
                        "updatedDate": {
                            "@class": "com.viz.ide.model.segment.SimpleTextSegmentData",
                            "text": "Updated"
                        }
                    },
                    {
                        "imgDownload": {
                            "@class": "com.viz.ide.model.segment.ImageSegmentData",
                            "src": "download_2.png"
                        },
                        "lblName": {
                            "@class": "com.viz.ide.model.segment.SimpleTextSegmentData",
                            "text": "Name"
                        },
                        "recievedDate": {
                            "@class": "com.viz.ide.model.segment.SimpleTextSegmentData",
                            "text": "Received"
                        },
                        "updatedDate": {
                            "@class": "com.viz.ide.model.segment.SimpleTextSegmentData",
                            "text": "Updated"
                        }
                    },
                    {
                        "imgDownload": {
                            "@class": "com.viz.ide.model.segment.ImageSegmentData",
                            "src": "download_2.png"
                        },
                        "lblName": {
                            "@class": "com.viz.ide.model.segment.SimpleTextSegmentData",
                            "text": "Name"
                        },
                        "recievedDate": {
                            "@class": "com.viz.ide.model.segment.SimpleTextSegmentData",
                            "text": "Received"
                        },
                        "updatedDate": {
                            "@class": "com.viz.ide.model.segment.SimpleTextSegmentData",
                            "text": "Updated"
                        }
                    },
                    {
                        "imgDownload": {
                            "@class": "com.viz.ide.model.segment.ImageSegmentData",
                            "src": "download_2.png"
                        },
                        "lblName": {
                            "@class": "com.viz.ide.model.segment.SimpleTextSegmentData",
                            "text": "Name"
                        },
                        "recievedDate": {
                            "@class": "com.viz.ide.model.segment.SimpleTextSegmentData",
                            "text": "Received"
                        },
                        "updatedDate": {
                            "@class": "com.viz.ide.model.segment.SimpleTextSegmentData",
                            "text": "Updated"
                        }
                    },
                    {
                        "imgDownload": {
                            "@class": "com.viz.ide.model.segment.ImageSegmentData",
                            "src": "download_2.png"
                        },
                        "lblName": {
                            "@class": "com.viz.ide.model.segment.SimpleTextSegmentData",
                            "text": "Name"
                        },
                        "recievedDate": {
                            "@class": "com.viz.ide.model.segment.SimpleTextSegmentData",
                            "text": "Received"
                        },
                        "updatedDate": {
                            "@class": "com.viz.ide.model.segment.SimpleTextSegmentData",
                            "text": "Updated"
                        }
                    },
                    {
                        "imgDownload": {
                            "@class": "com.viz.ide.model.segment.ImageSegmentData",
                            "src": "download_2.png"
                        },
                        "lblName": {
                            "@class": "com.viz.ide.model.segment.SimpleTextSegmentData",
                            "text": "Name"
                        },
                        "recievedDate": {
                            "@class": "com.viz.ide.model.segment.SimpleTextSegmentData",
                            "text": "Received"
                        },
                        "updatedDate": {
                            "@class": "com.viz.ide.model.segment.SimpleTextSegmentData",
                            "text": "Updated"
                        }
                    },
                    {
                        "imgDownload": {
                            "@class": "com.viz.ide.model.segment.ImageSegmentData",
                            "src": "download_2.png"
                        },
                        "lblName": {
                            "@class": "com.viz.ide.model.segment.SimpleTextSegmentData",
                            "text": "Name"
                        },
                        "recievedDate": {
                            "@class": "com.viz.ide.model.segment.SimpleTextSegmentData",
                            "text": "Received"
                        },
                        "updatedDate": {
                            "@class": "com.viz.ide.model.segment.SimpleTextSegmentData",
                            "text": "Updated"
                        }
                    },
                    {
                        "imgDownload": {
                            "@class": "com.viz.ide.model.segment.ImageSegmentData",
                            "src": "download_2.png"
                        },
                        "lblName": {
                            "@class": "com.viz.ide.model.segment.SimpleTextSegmentData",
                            "text": "Name"
                        },
                        "recievedDate": {
                            "@class": "com.viz.ide.model.segment.SimpleTextSegmentData",
                            "text": "Received"
                        },
                        "updatedDate": {
                            "@class": "com.viz.ide.model.segment.SimpleTextSegmentData",
                            "text": "Updated"
                        }
                    },
                    {
                        "imgDownload": {
                            "@class": "com.viz.ide.model.segment.ImageSegmentData",
                            "src": "download_2.png"
                        },
                        "lblName": {
                            "@class": "com.viz.ide.model.segment.SimpleTextSegmentData",
                            "text": "Name"
                        },
                        "recievedDate": {
                            "@class": "com.viz.ide.model.segment.SimpleTextSegmentData",
                            "text": "Received"
                        },
                        "updatedDate": {
                            "@class": "com.viz.ide.model.segment.SimpleTextSegmentData",
                            "text": "Updated"
                        }
                    }
                ]
            },
            "height": {
                "Default": {
                    "type": "string",
                    "value": "280dp"
                }
            },
            "responsiveData": {}
        }
    },
    "enablescrolling": true,
    "id": "documents",
    "info": null,
    "iscustomlayout": false,
    "isdatareferenced": false,
    "isvisible": true,
    "kuid": "db5943984d904c8296274c862b907c53",
    "layouttype": 2,
    "masterType": 0,
    "name": "kony.ui.UserWidgetInstance",
    "parent": "flxDocsDown",
    "pf": "userwidgetmodel",
    "responsiveData": {},
    "retaincontentalignment": false,
    "retainflexpositionproperties": false,
    "retainflowhorizontalalignment": false,
    "snapgridsize": 10,
    "snaptogrid": true,
    "sourceUserWidget": "jdc8c6c3463c454596c0aad5898d9344",
    "wType": "UserWidgetInstance"
}