{
    "DNDConfig": null,
    "_height_": {
        "type": "string",
        "value": "228dp"
    },
    "_left_": {
        "type": "string",
        "value": "2%"
    },
    "_margin_": [
        0,
        0,
        0,
        0
    ],
    "_orientation_": 6,
    "_padding_": [
        0,
        0,
        0,
        0
    ],
    "_percent_": true,
    "_skin_": "sed8aea5d9854b73a0b200d46ae7cde8",
    "_top_": {
        "type": "string",
        "value": "0dp"
    },
    "_width_": {
        "type": "string",
        "value": "49%"
    },
    "allboxes": [],
    "autogrowmode": 0,
    "canUpdateUI": true,
    "children": [
        "spinnerKYC",
        "flxComplianceColumn1",
        "flxComplianceColumn2",
        "flxComplianceColumn3"
    ],
    "clipbounds": true,
    "containerweight": 100,
    "enablescrolling": true,
    "id": "flxKYCCompliance",
    "info": null,
    "iscustomlayout": false,
    "isvisible": true,
    "kuid": "e9482e3226774fafbb407361a9a7a7db",
    "layouttype": 3,
    "name": "kony.ui.FlexContainer",
    "parent": "flxKYCInnerContent",
    "pf": "userwidgetmodel",
    "retaincontentalignment": false,
    "retainflexpositionproperties": false,
    "retainflowhorizontalalignment": false,
    "snapgridsize": 10,
    "snaptogrid": true,
    "wType": "FlexContainer",
    "widgetalignment": 1
}