{
    "DNDConfig": null,
    "_height_": {
        "type": "string",
        "value": "65dp"
    },
    "_left_": {
        "type": "string",
        "value": "0dp"
    },
    "_margin_": [
        0,
        0,
        0,
        0
    ],
    "_orientation_": 6,
    "_padding_": [
        0,
        0,
        0,
        0
    ],
    "_percent_": true,
    "_right_": {
        "type": "string",
        "value": "32dp"
    },
    "_skin_": "s3596a7d2e564651a722a032abe82789",
    "_top_": {
        "type": "string",
        "value": "65dp"
    },
    "_width_": {
        "type": "string",
        "value": "100%"
    },
    "allboxes": [],
    "autogrowmode": 0,
    "canUpdateUI": true,
    "children": [
        "lblAccountTypeResponse",
        "lblAccountNumberResponse",
        "lblCurrencyValueResponse",
        "lblAmountValueResponse",
        "lblFundHeldResponse",
        "lblAvailableLimitResponse",
        "flxListBoxSelectedValue"
    ],
    "clipbounds": true,
    "containerweight": 100,
    "enablescrolling": true,
    "id": "flxAccountBlockUnblockDetailsvalue",
    "info": null,
    "iscustomlayout": false,
    "isvisible": true,
    "kuid": "b0343343f36f4ed391f943efb9afdb47",
    "layouttype": 3,
    "name": "kony.ui.FlexContainer",
    "parent": "HeaderBlockUnlock",
    "pf": "userwidgetmodel",
    "retaincontentalignment": false,
    "retainflexpositionproperties": false,
    "retainflowhorizontalalignment": false,
    "snapgridsize": 10,
    "snaptogrid": true,
    "wType": "FlexContainer",
    "widgetalignment": 1,
    "zindex": 1
}