{
    "DNDConfig": null,
    "_bottom_": {
        "type": "string",
        "value": "15dp"
    },
    "_height_": {
        "type": "string",
        "value": "40dp"
    },
    "_left_": {
        "type": "string",
        "value": "0"
    },
    "_margin_": [
        0,
        0,
        0,
        0
    ],
    "_orientation_": 6,
    "_padding_": [
        0,
        0,
        0,
        0
    ],
    "_percent_": true,
    "_skin_": "s2955c90c0134227b9695bd5ceddbd29",
    "_top_": {
        "type": "string",
        "value": "20dp"
    },
    "_width_": {
        "type": "string",
        "value": "90%"
    },
    "allboxes": [],
    "autogrowmode": 0,
    "canUpdateUI": true,
    "centerx": {
        "type": "string",
        "value": "50%"
    },
    "children": [
        "txtSearchBox",
        "imgSrc1",
        "imgSrc"
    ],
    "clipbounds": true,
    "containerweight": 100,
    "disabledSkins": {},
    "enablescrolling": true,
    "focusskin": "s2955c90c0134227b9695bd5ceddbd29",
    "id": "FlexContainer0d49b88e8783340",
    "info": null,
    "iscustomlayout": false,
    "isvisible": true,
    "kuid": "c15f73fdd5f74a098e58eb16a6fb75b8",
    "layouttype": 2,
    "name": "kony.ui.FlexContainer",
    "parent": "flxInnerSearch",
    "pf": "userwidgetmodel",
    "retaincontentalignment": false,
    "retainflexpositionproperties": false,
    "retainflowhorizontalalignment": false,
    "snapgridsize": 10,
    "snaptogrid": true,
    "wType": "FlexContainer",
    "widgetalignment": 1
}