{
    "@class": "com.kony.gen.viz.model.component.KVizButton",
    "DNDConfig": null,
    "_height_": {
        "type": "string",
        "value": "40dp"
    },
    "_left_": {
        "type": "string",
        "value": "0dp"
    },
    "_margin_": [
        6,
        6,
        6,
        6
    ],
    "_padding_": [
        0,
        0,
        0,
        0
    ],
    "_skin_": "sb99cdb8cc164882b0f0178d1a5ba880",
    "_text_": "L",
    "_top_": {
        "type": "string",
        "value": "0dp"
    },
    "_width_": {
        "type": "string",
        "value": "40dp"
    },
    "canUpdateUI": true,
    "centery": {
        "type": "string",
        "value": "50%"
    },
    "containerweight": 100,
    "contentalignment": 5,
    "disabledSkins": {
        "focusSkin": "sb47e4be03c74bcc8599b34b76f24950"
    },
    "displaytext": true,
    "focusskin": null,
    "id": "imgClose",
    "info": null,
    "iscustomlayout": false,
    "isvisible": true,
    "kuid": "d150180124964aa685e3fe653fb1af87",
    "name": "kony.ui.Button",
    "parent": "flxPopUpClose",
    "pf": "userwidgetmodel",
    "retaincontentalignment": false,
    "retainflexpositionproperties": false,
    "wType": "Button",
    "zindex": 1
}