{
    "@class": "com.kony.gen.viz.model.container.KVizSegment2",
    "DNDConfig": null,
    "_bottom_": {
        "type": "number",
        "value": "20"
    },
    "_data_": [
        {},
        {},
        {},
        {},
        {},
        {},
        {},
        {},
        {},
        {}
    ],
    "_height_": {
        "type": "string",
        "value": "240dp"
    },
    "_indicator_": "none",
    "_left_": {
        "type": "string",
        "value": "0"
    },
    "_margin_": [
        0,
        0,
        0,
        0
    ],
    "_orientation_": 2,
    "_padding_": [
        0,
        0,
        0,
        0
    ],
    "_top_": {
        "type": "string",
        "value": "0"
    },
    "_width_": {
        "type": "string",
        "value": "100%"
    },
    "autogrowmode": 0,
    "canUpdateUI": true,
    "centerx": {
        "type": "string",
        "value": "50%"
    },
    "containerweight": 100,
    "counter": "019",
    "desktop": {
        "_data_": [
            {
                "lblAccountId": {
                    "@class": "com.viz.ide.model.segment.SimpleTextSegmentData",
                    "text": "Label"
                },
                "lblCurrency": {
                    "@class": "com.viz.ide.model.segment.SimpleTextSegmentData",
                    "text": "Label"
                },
                "lblCustomerId": {
                    "@class": "com.viz.ide.model.segment.SimpleTextSegmentData",
                    "text": "Label"
                },
                "lblProductId": {
                    "@class": "com.viz.ide.model.segment.SimpleTextSegmentData",
                    "text": "-"
                },
                "lblWorkingBal": {
                    "@class": "com.viz.ide.model.segment.SimpleTextSegmentData",
                    "text": "-"
                }
            },
            {
                "lblAccountId": {
                    "@class": "com.viz.ide.model.segment.SimpleTextSegmentData",
                    "text": "Label"
                },
                "lblCurrency": {
                    "@class": "com.viz.ide.model.segment.SimpleTextSegmentData",
                    "text": "Label"
                },
                "lblCustomerId": {
                    "@class": "com.viz.ide.model.segment.SimpleTextSegmentData",
                    "text": "Label"
                },
                "lblProductId": {
                    "@class": "com.viz.ide.model.segment.SimpleTextSegmentData",
                    "text": "-"
                },
                "lblWorkingBal": {
                    "@class": "com.viz.ide.model.segment.SimpleTextSegmentData",
                    "text": "-"
                }
            },
            {
                "lblAccountId": {
                    "@class": "com.viz.ide.model.segment.SimpleTextSegmentData",
                    "text": "Label"
                },
                "lblCurrency": {
                    "@class": "com.viz.ide.model.segment.SimpleTextSegmentData",
                    "text": "Label"
                },
                "lblCustomerId": {
                    "@class": "com.viz.ide.model.segment.SimpleTextSegmentData",
                    "text": "Label"
                },
                "lblProductId": {
                    "@class": "com.viz.ide.model.segment.SimpleTextSegmentData",
                    "text": "-"
                },
                "lblWorkingBal": {
                    "@class": "com.viz.ide.model.segment.SimpleTextSegmentData",
                    "text": "-"
                }
            },
            {
                "lblAccountId": {
                    "@class": "com.viz.ide.model.segment.SimpleTextSegmentData",
                    "text": "Label"
                },
                "lblCurrency": {
                    "@class": "com.viz.ide.model.segment.SimpleTextSegmentData",
                    "text": "Label"
                },
                "lblCustomerId": {
                    "@class": "com.viz.ide.model.segment.SimpleTextSegmentData",
                    "text": "Label"
                },
                "lblProductId": {
                    "@class": "com.viz.ide.model.segment.SimpleTextSegmentData",
                    "text": "-"
                },
                "lblWorkingBal": {
                    "@class": "com.viz.ide.model.segment.SimpleTextSegmentData",
                    "text": "-"
                }
            },
            {
                "lblAccountId": {
                    "@class": "com.viz.ide.model.segment.SimpleTextSegmentData",
                    "text": "Label"
                },
                "lblCurrency": {
                    "@class": "com.viz.ide.model.segment.SimpleTextSegmentData",
                    "text": "Label"
                },
                "lblCustomerId": {
                    "@class": "com.viz.ide.model.segment.SimpleTextSegmentData",
                    "text": "Label"
                },
                "lblProductId": {
                    "@class": "com.viz.ide.model.segment.SimpleTextSegmentData",
                    "text": "-"
                },
                "lblWorkingBal": {
                    "@class": "com.viz.ide.model.segment.SimpleTextSegmentData",
                    "text": "-"
                }
            },
            {
                "lblAccountId": {
                    "@class": "com.viz.ide.model.segment.SimpleTextSegmentData",
                    "text": "Label"
                },
                "lblCurrency": {
                    "@class": "com.viz.ide.model.segment.SimpleTextSegmentData",
                    "text": "Label"
                },
                "lblCustomerId": {
                    "@class": "com.viz.ide.model.segment.SimpleTextSegmentData",
                    "text": "Label"
                },
                "lblProductId": {
                    "@class": "com.viz.ide.model.segment.SimpleTextSegmentData",
                    "text": "-"
                },
                "lblWorkingBal": {
                    "@class": "com.viz.ide.model.segment.SimpleTextSegmentData",
                    "text": "-"
                }
            },
            {
                "lblAccountId": {
                    "@class": "com.viz.ide.model.segment.SimpleTextSegmentData",
                    "text": "Label"
                },
                "lblCurrency": {
                    "@class": "com.viz.ide.model.segment.SimpleTextSegmentData",
                    "text": "Label"
                },
                "lblCustomerId": {
                    "@class": "com.viz.ide.model.segment.SimpleTextSegmentData",
                    "text": "Label"
                },
                "lblProductId": {
                    "@class": "com.viz.ide.model.segment.SimpleTextSegmentData",
                    "text": "-"
                },
                "lblWorkingBal": {
                    "@class": "com.viz.ide.model.segment.SimpleTextSegmentData",
                    "text": "-"
                }
            },
            {
                "lblAccountId": {
                    "@class": "com.viz.ide.model.segment.SimpleTextSegmentData",
                    "text": "Label"
                },
                "lblCurrency": {
                    "@class": "com.viz.ide.model.segment.SimpleTextSegmentData",
                    "text": "Label"
                },
                "lblCustomerId": {
                    "@class": "com.viz.ide.model.segment.SimpleTextSegmentData",
                    "text": "Label"
                },
                "lblProductId": {
                    "@class": "com.viz.ide.model.segment.SimpleTextSegmentData",
                    "text": "-"
                },
                "lblWorkingBal": {
                    "@class": "com.viz.ide.model.segment.SimpleTextSegmentData",
                    "text": "-"
                }
            },
            {
                "lblAccountId": {
                    "@class": "com.viz.ide.model.segment.SimpleTextSegmentData",
                    "text": "Label"
                },
                "lblCurrency": {
                    "@class": "com.viz.ide.model.segment.SimpleTextSegmentData",
                    "text": "Label"
                },
                "lblCustomerId": {
                    "@class": "com.viz.ide.model.segment.SimpleTextSegmentData",
                    "text": "Label"
                },
                "lblProductId": {
                    "@class": "com.viz.ide.model.segment.SimpleTextSegmentData",
                    "text": "-"
                },
                "lblWorkingBal": {
                    "@class": "com.viz.ide.model.segment.SimpleTextSegmentData",
                    "text": "-"
                }
            },
            {
                "lblAccountId": {
                    "@class": "com.viz.ide.model.segment.SimpleTextSegmentData",
                    "text": "Label"
                },
                "lblCurrency": {
                    "@class": "com.viz.ide.model.segment.SimpleTextSegmentData",
                    "text": "Label"
                },
                "lblCustomerId": {
                    "@class": "com.viz.ide.model.segment.SimpleTextSegmentData",
                    "text": "Label"
                },
                "lblProductId": {
                    "@class": "com.viz.ide.model.segment.SimpleTextSegmentData",
                    "text": "-"
                },
                "lblWorkingBal": {
                    "@class": "com.viz.ide.model.segment.SimpleTextSegmentData",
                    "text": "-"
                }
            },
            {
                "lblAccountId": {
                    "@class": "com.viz.ide.model.segment.SimpleTextSegmentData",
                    "text": "Label"
                },
                "lblCurrency": {
                    "@class": "com.viz.ide.model.segment.SimpleTextSegmentData",
                    "text": "Label"
                },
                "lblCustomerId": {
                    "@class": "com.viz.ide.model.segment.SimpleTextSegmentData",
                    "text": "Label"
                },
                "lblProductId": {
                    "@class": "com.viz.ide.model.segment.SimpleTextSegmentData",
                    "text": "-"
                },
                "lblWorkingBal": {
                    "@class": "com.viz.ide.model.segment.SimpleTextSegmentData",
                    "text": "-"
                }
            },
            {
                "lblAccountId": {
                    "@class": "com.viz.ide.model.segment.SimpleTextSegmentData",
                    "text": "Label"
                },
                "lblCurrency": {
                    "@class": "com.viz.ide.model.segment.SimpleTextSegmentData",
                    "text": "Label"
                },
                "lblCustomerId": {
                    "@class": "com.viz.ide.model.segment.SimpleTextSegmentData",
                    "text": "Label"
                },
                "lblProductId": {
                    "@class": "com.viz.ide.model.segment.SimpleTextSegmentData",
                    "text": "-"
                },
                "lblWorkingBal": {
                    "@class": "com.viz.ide.model.segment.SimpleTextSegmentData",
                    "text": "-"
                }
            },
            {
                "lblAccountId": {
                    "@class": "com.viz.ide.model.segment.SimpleTextSegmentData",
                    "text": "Label"
                },
                "lblCurrency": {
                    "@class": "com.viz.ide.model.segment.SimpleTextSegmentData",
                    "text": "Label"
                },
                "lblCustomerId": {
                    "@class": "com.viz.ide.model.segment.SimpleTextSegmentData",
                    "text": "Label"
                },
                "lblProductId": {
                    "@class": "com.viz.ide.model.segment.SimpleTextSegmentData",
                    "text": "-"
                },
                "lblWorkingBal": {
                    "@class": "com.viz.ide.model.segment.SimpleTextSegmentData",
                    "text": "-"
                }
            },
            {
                "lblAccountId": {
                    "@class": "com.viz.ide.model.segment.SimpleTextSegmentData",
                    "text": "Label"
                },
                "lblCurrency": {
                    "@class": "com.viz.ide.model.segment.SimpleTextSegmentData",
                    "text": "Label"
                },
                "lblCustomerId": {
                    "@class": "com.viz.ide.model.segment.SimpleTextSegmentData",
                    "text": "Label"
                },
                "lblProductId": {
                    "@class": "com.viz.ide.model.segment.SimpleTextSegmentData",
                    "text": "-"
                },
                "lblWorkingBal": {
                    "@class": "com.viz.ide.model.segment.SimpleTextSegmentData",
                    "text": "-"
                }
            },
            {
                "lblAccountId": {
                    "@class": "com.viz.ide.model.segment.SimpleTextSegmentData",
                    "text": "Label"
                },
                "lblCurrency": {
                    "@class": "com.viz.ide.model.segment.SimpleTextSegmentData",
                    "text": "Label"
                },
                "lblCustomerId": {
                    "@class": "com.viz.ide.model.segment.SimpleTextSegmentData",
                    "text": "Label"
                },
                "lblProductId": {
                    "@class": "com.viz.ide.model.segment.SimpleTextSegmentData",
                    "text": "-"
                },
                "lblWorkingBal": {
                    "@class": "com.viz.ide.model.segment.SimpleTextSegmentData",
                    "text": "-"
                }
            },
            {
                "lblAccountId": {
                    "@class": "com.viz.ide.model.segment.SimpleTextSegmentData",
                    "text": "Label"
                },
                "lblCurrency": {
                    "@class": "com.viz.ide.model.segment.SimpleTextSegmentData",
                    "text": "Label"
                },
                "lblCustomerId": {
                    "@class": "com.viz.ide.model.segment.SimpleTextSegmentData",
                    "text": "Label"
                },
                "lblProductId": {
                    "@class": "com.viz.ide.model.segment.SimpleTextSegmentData",
                    "text": "-"
                },
                "lblWorkingBal": {
                    "@class": "com.viz.ide.model.segment.SimpleTextSegmentData",
                    "text": "-"
                }
            },
            {
                "lblAccountId": {
                    "@class": "com.viz.ide.model.segment.SimpleTextSegmentData",
                    "text": "Label"
                },
                "lblCurrency": {
                    "@class": "com.viz.ide.model.segment.SimpleTextSegmentData",
                    "text": "Label"
                },
                "lblCustomerId": {
                    "@class": "com.viz.ide.model.segment.SimpleTextSegmentData",
                    "text": "Label"
                },
                "lblProductId": {
                    "@class": "com.viz.ide.model.segment.SimpleTextSegmentData",
                    "text": "-"
                },
                "lblWorkingBal": {
                    "@class": "com.viz.ide.model.segment.SimpleTextSegmentData",
                    "text": "-"
                }
            },
            {
                "lblAccountId": {
                    "@class": "com.viz.ide.model.segment.SimpleTextSegmentData",
                    "text": "Label"
                },
                "lblCurrency": {
                    "@class": "com.viz.ide.model.segment.SimpleTextSegmentData",
                    "text": "Label"
                },
                "lblCustomerId": {
                    "@class": "com.viz.ide.model.segment.SimpleTextSegmentData",
                    "text": "Label"
                },
                "lblProductId": {
                    "@class": "com.viz.ide.model.segment.SimpleTextSegmentData",
                    "text": "-"
                },
                "lblWorkingBal": {
                    "@class": "com.viz.ide.model.segment.SimpleTextSegmentData",
                    "text": "-"
                }
            },
            {
                "lblAccountId": {
                    "@class": "com.viz.ide.model.segment.SimpleTextSegmentData",
                    "text": "Label"
                },
                "lblCurrency": {
                    "@class": "com.viz.ide.model.segment.SimpleTextSegmentData",
                    "text": "Label"
                },
                "lblCustomerId": {
                    "@class": "com.viz.ide.model.segment.SimpleTextSegmentData",
                    "text": "Label"
                },
                "lblProductId": {
                    "@class": "com.viz.ide.model.segment.SimpleTextSegmentData",
                    "text": "-"
                },
                "lblWorkingBal": {
                    "@class": "com.viz.ide.model.segment.SimpleTextSegmentData",
                    "text": "-"
                }
            },
            {
                "lblAccountId": {
                    "@class": "com.viz.ide.model.segment.SimpleTextSegmentData",
                    "text": "Label"
                },
                "lblCurrency": {
                    "@class": "com.viz.ide.model.segment.SimpleTextSegmentData",
                    "text": "Label"
                },
                "lblCustomerId": {
                    "@class": "com.viz.ide.model.segment.SimpleTextSegmentData",
                    "text": "Label"
                },
                "lblProductId": {
                    "@class": "com.viz.ide.model.segment.SimpleTextSegmentData",
                    "text": "-"
                },
                "lblWorkingBal": {
                    "@class": "com.viz.ide.model.segment.SimpleTextSegmentData",
                    "text": "-"
                }
            }
        ],
        "rowTemplateId": "c9c340c591674760bc6ddcd9872c0ed2",
        "rowtemplate": "flxRowPayinPayout",
        "sectionHeaderTemplateId": null,
        "widgetdatamap": {
            "flxRowPayinPayout": "flxRowPayinPayout",
            "lblAccountId": "lblAccountId",
            "lblCurrency": "lblCurrency",
            "lblCustomerId": "lblCustomerId",
            "lblProductId": "lblProductId",
            "lblWorkingBal": "lblWorkingBal"
        }
    },
    "disabledSkins": {},
    "focusedindex": null,
    "focuseditem": null,
    "groupcells": false,
    "hasSections": false,
    "id": "segPayinPayout",
    "info": null,
    "ipad": {
        "psp": {
            "indicator": "rowselect"
        }
    },
    "iphone": {
        "psp": {
            "indicator": "rowselect"
        }
    },
    "iscustomlayout": false,
    "isvisible": true,
    "kuid": "j4e6cf8c614c4b378a9f8a478c4d12a6",
    "masterdata": {},
    "name": "kony.ui.SegmentedUI2",
    "needpageindicator": true,
    "pageoffdotimage": "pageoffdot.png",
    "pageondotimage": "pageondot.png",
    "paginationconfig": {
        "position": "bottom"
    },
    "parent": "FlexContainer0e3c37c0e40204d",
    "pf": "userwidgetmodel",
    "retaincontentalignment": false,
    "retainflexpositionproperties": false,
    "retainselection": false,
    "rowcounter": 19,
    "rowfocusskin": "s3f353c057a14ca8a8d6fa6caf39f59a",
    "rowskin": "s1ff5892d9aa4739b7a70945ff0f5471",
    "rowtemplate": "flxRowPayinPayout",
    "screenlevelwidget": false,
    "seccounter": 0,
    "sectionheaderskin": "s67dfc97c181442ebeb45ecca8ba0dc8",
    "sectionheadertemplate": "flxRowPayinPayout",
    "selectedRows": null,
    "selectedState": false,
    "selectedindex": null,
    "selectedindices": null,
    "selecteditems": null,
    "selectedsectionindex": 0,
    "selectionbehavior": "default",
    "separatorcolor": "00509654",
    "separatorrequired": true,
    "separatorthickness": 1,
    "showscrollbars": false,
    "viewtype": "tableview",
    "vizProps": {},
    "wType": "Segment",
    "widgetalignment": 5,
    "widgetdatamap": {
        "flxRowPayinPayout": "flxRowPayinPayout",
        "lblAccountId": "lblAccountId",
        "lblCurrency": "lblCurrency",
        "lblCustomerId": "lblCustomerId",
        "lblProductId": "lblProductId",
        "lblWorkingBal": "lblWorkingBal"
    }
}