{
    "customComponent": {
        "i18nSupported": true,
        "id": "cwee18ba2083284041a6a035434bc250a4",
        "isOverride": false,
        "konyWrapperFiles": [
            "resources/thirdpartywidgets/widgetwrapper/tp-uuxChip-wrapper.js"
        ],
        "libraryFiles": [
            "resources/thirdpartywidgets/libtoimport/base.css",
            "resources/thirdpartywidgets/libtoimport/unified-ux-web.min.js"
        ],
        "libraryName": "libtoimport",
        "marginSupported": true,
        "name": "uuxChip",
        "paddingSupported": true,
        "platformID": "0",
        "property": [
            {
                "categoryType": "Custom",
                "defaultValue": "",
                "exclude": false,
                "name": "options",
                "propertySelection": false,
                "type": "List",
                "uniqueID": "cwphacbd70cfa91470b9ffbc7b40217b4d4",
                "value": ""
            },
            {
                "categoryType": "Custom",
                "defaultValue": "",
                "exclude": false,
                "name": "value",
                "propertySelection": false,
                "type": "String",
                "uniqueID": "cwpd3f2d0283e6146e78959e547e5650140",
                "value": ""
            },
            {
                "categoryType": "Custom",
                "defaultValue": false,
                "exclude": false,
                "name": "removable",
                "propertySelection": false,
                "type": "Boolean",
                "uniqueID": "cwpe84877decf524ac19f2a0d3fc6bd4a4c",
                "value": false
            },
            {
                "categoryType": "Custom",
                "defaultValue": false,
                "exclude": false,
                "name": "filter",
                "propertySelection": false,
                "type": "Boolean",
                "uniqueID": "cwpgf7bd2cb595f4fee89981726ed6cc89e",
                "value": false
            },
            {
                "categoryType": "Custom",
                "defaultValue": false,
                "exclude": false,
                "name": "compact",
                "propertySelection": false,
                "type": "Boolean",
                "uniqueID": "cwpb870e01ec5b1419bae7f9165b1a857de",
                "value": false
            },
            {
                "categoryType": "Custom",
                "defaultValue": false,
                "exclude": false,
                "name": "choice",
                "propertySelection": false,
                "type": "Boolean",
                "uniqueID": "cwpa056b286318e45dea470884cc13b57c7",
                "value": false
            },
            {
                "categoryType": "Event",
                "defaultValue": "",
                "exclude": false,
                "name": "removeChip",
                "propertySelection": false,
                "type": "Event",
                "uniqueID": "cwpi3971f51b2c742c7ae1136716f62254e",
                "value": ""
            }
        ]
    }
}