{
    "classname": "donutchart",
    "definitions": {
        "apis": {
            "custom": [
                {
                    "group": "General",
                    "kuid": "bb66bb5cd1514014af68358383a8d92d",
                    "paramList": [
                        {
                            "name": "dataSet"
                        }
                    ],
                    "propertyKey": "createChart",
                    "pw": {
                        "displayName": "createChart",
                        "uiRepresentation": "Label-Label-Button-Button"
                    },
                    "srcWgtKUID": "25d7f63a9f9d460fa5e15e40f1df62b3",
                    "type": "event"
                }
            ],
            "passthrough": []
        },
        "events": {
            "custom": [],
            "passthrough": []
        },
        "groups": {
            "apis": [
                "General"
            ],
            "events": [],
            "properties": [
                "Title",
                "Legend"
            ],
            "widgets": []
        },
        "properties": {
            "custom": [
                {
                    "access": "Write",
                    "defaultValue": true,
                    "group": "Legend",
                    "kuid": "ddf8034f807a4ff58bf7d273a9b932ab",
                    "originalPropertyKey": "enableLegend",
                    "propertyIndex": 1,
                    "propertyKey": "enableLegend",
                    "pw": {
                        "displayName": "Enable Legends",
                        "uiRepresentation": "Label-Radiobuttongroup"
                    },
                    "srcWgtKUID": "25d7f63a9f9d460fa5e15e40f1df62b3",
                    "type": "boolean",
                    "value": "true/false"
                },
                {
                    "access": "Write",
                    "defaultValue": "#ffffff",
                    "group": "General",
                    "kuid": "e0dc6b80e90d49e9b7c1575e9dc36b5a",
                    "originalPropertyKey": "bgColor",
                    "propertyIndex": 1,
                    "propertyKey": "bgColor",
                    "pw": {
                        "displayName": "Background Color",
                        "uiRepresentation": "Label-Textbox"
                    },
                    "srcWgtKUID": "25d7f63a9f9d460fa5e15e40f1df62b3",
                    "type": "string",
                    "value": ""
                },
                {
                    "access": "Write",
                    "defaultValue": {
                        "data": [
                            {
                                "colorCode": "#1B9ED9",
                                "label": "Data1",
                                "value": "40"
                            },
                            {
                                "colorCode": "#E8672B",
                                "label": "Data2",
                                "value": "20"
                            },
                            {
                                "colorCode": "#76C044",
                                "label": "Data3",
                                "value": "20"
                            },
                            {
                                "colorCode": "#FFC522",
                                "label": "Data4",
                                "value": "10"
                            },
                            {
                                "colorCode": "#97CDED",
                                "label": "Data5",
                                "value": "10"
                            }
                        ],
                        "schema": [
                            {
                                "columnHeaderTemplate": null,
                                "columnHeaderText": "Label",
                                "columnHeaderType": "text",
                                "columnID": "label",
                                "columnOnClick": null,
                                "columnText": "Not Defined",
                                "columnType": "text",
                                "kuid": "c8434b6cbed443e6a6167d99e8c3bdcb"
                            },
                            {
                                "columnHeaderTemplate": null,
                                "columnHeaderText": "Value",
                                "columnHeaderType": "text",
                                "columnID": "value",
                                "columnOnClick": null,
                                "columnText": "Not Defined",
                                "columnType": "text",
                                "kuid": "cddb65c1fe8c429bb5a4b5f93bd171ef"
                            },
                            {
                                "columnHeaderTemplate": null,
                                "columnHeaderText": "Color Code",
                                "columnHeaderType": "text",
                                "columnID": "colorCode",
                                "columnOnClick": null,
                                "columnText": "Not Defined",
                                "columnType": "text",
                                "kuid": "f722303b71a8439eae528d9af9856f30"
                            }
                        ]
                    },
                    "group": "General",
                    "kuid": "b7355280574342e0a765a43dbabe073d",
                    "originalPropertyKey": "chartData",
                    "propertyIndex": 1,
                    "propertyKey": "chartData",
                    "pw": {
                        "displayName": "Chart Data",
                        "uiRepresentation": "Label-DataGrid"
                    },
                    "srcWgtKUID": "25d7f63a9f9d460fa5e15e40f1df62b3",
                    "type": "data grid",
                    "value": 3
                },
                {
                    "access": "Write",
                    "defaultValue": "12",
                    "group": "Title",
                    "kuid": "j7a1565ac27040aeb38fb45b7823173d",
                    "originalPropertyKey": "titleFontSize",
                    "propertyIndex": 1,
                    "propertyKey": "titleFontSize",
                    "pw": {
                        "displayName": "Title Font Size",
                        "uiRepresentation": "Label-Textbox"
                    },
                    "srcWgtKUID": "25d7f63a9f9d460fa5e15e40f1df62b3",
                    "type": "string",
                    "value": ""
                },
                {
                    "access": "Write",
                    "defaultValue": true,
                    "group": "General",
                    "kuid": "c31da3fe8a054e9680a89494ffd58db9",
                    "originalPropertyKey": "enableChartAnimation",
                    "propertyIndex": 1,
                    "propertyKey": "enableChartAnimation",
                    "pw": {
                        "displayName": "Enable Chart Animation",
                        "uiRepresentation": "Label-Radiobuttongroup"
                    },
                    "srcWgtKUID": "25d7f63a9f9d460fa5e15e40f1df62b3",
                    "type": "boolean",
                    "value": "true/false"
                },
                {
                    "access": "Write",
                    "defaultValue": "Donut Chart",
                    "group": "Title",
                    "kuid": "f1b8ba5850024506a8fa0339e06edf1e",
                    "originalPropertyKey": "chartTitle",
                    "propertyIndex": 2,
                    "propertyKey": "chartTitle",
                    "pw": {
                        "displayName": "Chart Title",
                        "uiRepresentation": "Label-Textbox"
                    },
                    "srcWgtKUID": "25d7f63a9f9d460fa5e15e40f1df62b3",
                    "type": "string",
                    "value": ""
                },
                {
                    "access": "Write",
                    "defaultValue": "8",
                    "group": "Legend",
                    "kuid": "ab9a96504bca4fc7903328d7305f1966",
                    "originalPropertyKey": "legendFontSize",
                    "propertyIndex": 2,
                    "propertyKey": "legendFontSize",
                    "pw": {
                        "displayName": "Legend Font Size",
                        "uiRepresentation": "Label-Textbox"
                    },
                    "srcWgtKUID": "25d7f63a9f9d460fa5e15e40f1df62b3",
                    "type": "string",
                    "value": ""
                },
                {
                    "access": "Write",
                    "defaultValue": true,
                    "group": "General",
                    "kuid": "c33099f8589e4cec84e9e1739d62d567",
                    "originalPropertyKey": "enableStaticPreview",
                    "propertyIndex": 2,
                    "propertyKey": "enableStaticPreview",
                    "pw": {
                        "displayName": "Enable Static Preview",
                        "uiRepresentation": "Label-Radiobuttongroup"
                    },
                    "srcWgtKUID": "25d7f63a9f9d460fa5e15e40f1df62b3",
                    "type": "boolean",
                    "value": "true/false"
                },
                {
                    "access": "Write",
                    "defaultValue": "#000000",
                    "group": "Title",
                    "kuid": "he32e8085ddd49018f6f27a902f44fec",
                    "originalPropertyKey": "titleFontColor",
                    "propertyIndex": 3,
                    "propertyKey": "titleFontColor",
                    "pw": {
                        "displayName": "Title Font Color",
                        "uiRepresentation": "Label-Textbox"
                    },
                    "srcWgtKUID": "25d7f63a9f9d460fa5e15e40f1df62b3",
                    "type": "string",
                    "value": ""
                },
                {
                    "access": "Write",
                    "defaultValue": "#000000",
                    "group": "Legend",
                    "kuid": "c2dae6d721ba42d190a03a71239fba60",
                    "originalPropertyKey": "legendFontColor",
                    "propertyIndex": 3,
                    "propertyKey": "legendFontColor",
                    "pw": {
                        "displayName": "Legend Font Color",
                        "uiRepresentation": "Label-Textbox"
                    },
                    "srcWgtKUID": "25d7f63a9f9d460fa5e15e40f1df62b3",
                    "type": "string",
                    "value": ""
                }
            ],
            "passthrough": []
        },
        "widgets": {
            "expose": [],
            "passthrough": []
        }
    },
    "namespace": "com.konymp",
    "version": "1.0.0"
}