{
    "classname": "uuxButton",
    "definitions": {
        "apis": {
            "custom": [],
            "passthrough": []
        },
        "events": {
            "custom": [],
            "passthrough": [
                {
                    "access": "Enable",
                    "group": "General",
                    "kuid": "e8e422bd977545bab3f72db8ecec692c",
                    "originalPropertyKey": "onclickEvent",
                    "propertyIndex": 0,
                    "propertyKey": "onclickEvent",
                    "pw": {
                        "access": "readwrite",
                        "category": "action",
                        "displayName": "onclickEvent",
                        "supportedPlatforms": {
                            "desktop": [
                                "desktopweb"
                            ],
                            "mobile": [
                                "spa"
                            ],
                            "tablet": [
                                "spa"
                            ]
                        },
                        "type": "action",
                        "uiRepresentation": "Label-Label-Button-Button",
                        "wType": "TPW"
                    },
                    "srcWgtKUID": "f6604aa7c2c84700b78149c7a41a54d5"
                }
            ]
        },
        "groups": {
            "apis": [],
            "events": [],
            "properties": [],
            "widgets": []
        },
        "properties": {
            "custom": [],
            "passthrough": [
                {
                    "access": "Enable",
                    "group": "General",
                    "kuid": "a7eda9dea4ad4c88b6807656edcf2e7b",
                    "originalPropertyKey": "cta",
                    "propertyIndex": 1,
                    "propertyKey": "cta",
                    "pw": {
                        "access": "readwrite",
                        "category": "widget",
                        "dependencyConditions": {},
                        "dependentKeysKUIDs": null,
                        "displayName": "cta",
                        "isHiddenInTool": false,
                        "srcWidget": "UUXButtonWrapper",
                        "supportedPlatforms": {
                            "desktop": [
                                "desktopweb"
                            ],
                            "mobile": [
                                "spa"
                            ],
                            "tablet": [
                                "spa"
                            ]
                        },
                        "type": "boolean",
                        "uiRepresentation": "Label-Radiobuttongroup",
                        "wType": "TPW"
                    },
                    "srcWgtKUID": "f6604aa7c2c84700b78149c7a41a54d5"
                },
                {
                    "access": "Enable",
                    "group": "General",
                    "kuid": "edf4debb96df4eb68de40ecc2f0c054b",
                    "originalPropertyKey": "labelText",
                    "propertyIndex": 1,
                    "propertyKey": "labelText",
                    "pw": {
                        "access": "readwrite",
                        "category": "widget",
                        "dependencyConditions": {},
                        "dependentKeysKUIDs": null,
                        "displayName": "labelText",
                        "isHiddenInTool": false,
                        "srcWidget": "UUXButtonWrapper",
                        "supportedPlatforms": {
                            "desktop": [
                                "desktopweb"
                            ],
                            "mobile": [
                                "spa"
                            ],
                            "tablet": [
                                "spa"
                            ]
                        },
                        "type": "string",
                        "uiRepresentation": "Label-Textbox",
                        "wType": "TPW"
                    },
                    "srcWgtKUID": "f6604aa7c2c84700b78149c7a41a54d5"
                },
                {
                    "access": "Enable",
                    "group": "General",
                    "kuid": "c6d79b9a8b2b44f4b3f3e9a229c5e57a",
                    "originalPropertyKey": "icon",
                    "propertyIndex": 2,
                    "propertyKey": "icon",
                    "pw": {
                        "access": "readwrite",
                        "category": "widget",
                        "dependencyConditions": {},
                        "dependentKeysKUIDs": null,
                        "displayName": "icon",
                        "isHiddenInTool": false,
                        "srcWidget": "UUXButtonWrapper",
                        "supportedPlatforms": {
                            "desktop": [
                                "desktopweb"
                            ],
                            "mobile": [
                                "spa"
                            ],
                            "tablet": [
                                "spa"
                            ]
                        },
                        "type": "string",
                        "uiRepresentation": "Label-Textbox",
                        "wType": "TPW"
                    },
                    "srcWgtKUID": "f6604aa7c2c84700b78149c7a41a54d5"
                },
                {
                    "access": "Enable",
                    "group": "General",
                    "kuid": "a3fd7ffb1eb24675b058103684fcfab3",
                    "originalPropertyKey": "typeButton",
                    "propertyIndex": 3,
                    "propertyKey": "typeButton",
                    "pw": {
                        "access": "readwrite",
                        "category": "widget",
                        "dependencyConditions": {},
                        "dependentKeysKUIDs": null,
                        "displayName": "typeButton",
                        "isHiddenInTool": false,
                        "srcWidget": "UUXButtonWrapper",
                        "supportedPlatforms": {
                            "desktop": [
                                "desktopweb"
                            ],
                            "mobile": [
                                "spa"
                            ],
                            "tablet": [
                                "spa"
                            ]
                        },
                        "type": "enum",
                        "uiRepresentation": "Label-Combobox",
                        "wType": "TPW"
                    },
                    "srcWgtKUID": "f6604aa7c2c84700b78149c7a41a54d5"
                },
                {
                    "access": "Enable",
                    "group": "General",
                    "kuid": "f0faf14febd84b1c902281dd17034385",
                    "originalPropertyKey": "size",
                    "propertyIndex": 4,
                    "propertyKey": "size",
                    "pw": {
                        "access": "readwrite",
                        "category": "widget",
                        "dependencyConditions": {},
                        "dependentKeysKUIDs": null,
                        "displayName": "size",
                        "isHiddenInTool": false,
                        "srcWidget": "UUXButtonWrapper",
                        "supportedPlatforms": {
                            "desktop": [
                                "desktopweb"
                            ],
                            "mobile": [
                                "spa"
                            ],
                            "tablet": [
                                "spa"
                            ]
                        },
                        "type": "enum",
                        "uiRepresentation": "Label-Combobox",
                        "wType": "TPW"
                    },
                    "srcWgtKUID": "f6604aa7c2c84700b78149c7a41a54d5"
                },
                {
                    "access": "Enable",
                    "group": "General",
                    "kuid": "b465e02d58a44d90836341975387cb3d",
                    "originalPropertyKey": "outlined",
                    "propertyIndex": 5,
                    "propertyKey": "outlined",
                    "pw": {
                        "access": "readwrite",
                        "category": "widget",
                        "dependencyConditions": {},
                        "dependentKeysKUIDs": null,
                        "displayName": "outlined",
                        "isHiddenInTool": false,
                        "srcWidget": "UUXButtonWrapper",
                        "supportedPlatforms": {
                            "desktop": [
                                "desktopweb"
                            ],
                            "mobile": [
                                "spa"
                            ],
                            "tablet": [
                                "spa"
                            ]
                        },
                        "type": "boolean",
                        "uiRepresentation": "Label-Radiobuttongroup",
                        "wType": "TPW"
                    },
                    "srcWgtKUID": "f6604aa7c2c84700b78149c7a41a54d5"
                },
                {
                    "access": "Enable",
                    "group": "General",
                    "kuid": "c97e042831b94238bf8449fb4bb9dd92",
                    "originalPropertyKey": "disabled",
                    "propertyIndex": 6,
                    "propertyKey": "disabled",
                    "pw": {
                        "access": "readwrite",
                        "category": "widget",
                        "dependencyConditions": {},
                        "dependentKeysKUIDs": null,
                        "displayName": "disabled",
                        "isHiddenInTool": false,
                        "srcWidget": "UUXButtonWrapper",
                        "supportedPlatforms": {
                            "desktop": [
                                "desktopweb"
                            ],
                            "mobile": [
                                "spa"
                            ],
                            "tablet": [
                                "spa"
                            ]
                        },
                        "type": "boolean",
                        "uiRepresentation": "Label-Radiobuttongroup",
                        "wType": "TPW"
                    },
                    "srcWgtKUID": "f6604aa7c2c84700b78149c7a41a54d5"
                },
                {
                    "access": "Enable",
                    "group": "General",
                    "kuid": "acdda4c06a91400186fe289727940800",
                    "originalPropertyKey": "trailingIcon",
                    "propertyIndex": 7,
                    "propertyKey": "trailingIcon",
                    "pw": {
                        "access": "readwrite",
                        "category": "widget",
                        "dependencyConditions": {},
                        "dependentKeysKUIDs": null,
                        "displayName": "trailingIcon",
                        "isHiddenInTool": false,
                        "srcWidget": "UUXButtonWrapper",
                        "supportedPlatforms": {
                            "desktop": [
                                "desktopweb"
                            ],
                            "mobile": [
                                "spa"
                            ],
                            "tablet": [
                                "spa"
                            ]
                        },
                        "type": "boolean",
                        "uiRepresentation": "Label-Radiobuttongroup",
                        "wType": "TPW"
                    },
                    "srcWgtKUID": "f6604aa7c2c84700b78149c7a41a54d5"
                },
                {
                    "access": "Enable",
                    "group": "General",
                    "kuid": "g813c1300d03450aa9bdd97c935d592e",
                    "originalPropertyKey": "compact",
                    "propertyIndex": 8,
                    "propertyKey": "compact",
                    "pw": {
                        "access": "readwrite",
                        "category": "widget",
                        "dependencyConditions": {},
                        "dependentKeysKUIDs": null,
                        "displayName": "compact",
                        "isHiddenInTool": false,
                        "srcWidget": "UUXButtonWrapper",
                        "supportedPlatforms": {
                            "desktop": [
                                "desktopweb"
                            ],
                            "mobile": [
                                "spa"
                            ],
                            "tablet": [
                                "spa"
                            ]
                        },
                        "type": "boolean",
                        "uiRepresentation": "Label-Radiobuttongroup",
                        "wType": "TPW"
                    },
                    "srcWgtKUID": "f6604aa7c2c84700b78149c7a41a54d5"
                },
                {
                    "access": "Enable",
                    "group": "General",
                    "kuid": "e607888a935b4364900a960e20464736",
                    "originalPropertyKey": "contained",
                    "propertyIndex": 9,
                    "propertyKey": "contained",
                    "pw": {
                        "access": "readwrite",
                        "category": "widget",
                        "dependencyConditions": {},
                        "dependentKeysKUIDs": null,
                        "displayName": "contained",
                        "isHiddenInTool": false,
                        "srcWidget": "UUXButtonWrapper",
                        "supportedPlatforms": {
                            "desktop": [
                                "desktopweb"
                            ],
                            "mobile": [
                                "spa"
                            ],
                            "tablet": [
                                "spa"
                            ]
                        },
                        "type": "boolean",
                        "uiRepresentation": "Label-Radiobuttongroup",
                        "wType": "TPW"
                    },
                    "srcWgtKUID": "f6604aa7c2c84700b78149c7a41a54d5"
                }
            ]
        },
        "widgets": {
            "expose": [],
            "passthrough": []
        }
    },
    "namespace": "com.temenos",
    "version": "1.0.0"
}